2.346358121395971885e+00 -2.410430097541025773e+01
2.522981144220730165e+00 -2.418816366508815463e+01
7.104984315525954663e+00 -2.280758707186533840e+01
7.889236149169717827e+00 -2.234120692779228889e+01
8.449172604209030268e+00 -2.193206557376548815e+01
9.017242020421676330e+00 -2.159526409076234188e+01
9.546183131120557164e+00 -2.119929053075201608e+01
1.005823612818632640e+01 -2.074957397051363728e+01
1.038631306962897760e+01 -2.007036840034545477e+01
1.045992123368057669e+01 -1.913751840306697360e+01
1.003675963751405398e+01 -1.860426888508357379e+01
9.768787079278665075e+00 -1.808860153559553297e+01
2.872506492682796786e+00 -2.423499316417007776e+01
9.269858396042984339e+00 -1.771285704838294350e+01
8.666577049827852264e+00 -1.768380614240526327e+01
7.872182071917222856e+00 -1.743274825637310599e+01
6.709684306031467926e+00 -1.779747104587255890e+01
6.122942684155345816e+00 -1.713675203628448074e+01
5.185624763702318951e+00 -1.776001669732515964e+01
4.170696548715869589e+00 -1.812135827338576277e+01
3.384205606369790953e+00 -1.802993279109710301e+01
2.698981521114368842e+00 -1.864739444418396275e+01
1.902456548751035870e+00 -1.840601463070541399e+01
3.190607469913822047e+00 -2.426867605766316416e+01
1.526534454223642312e+00 -1.916703951822197283e+01
6.598166470365205427e-01 -1.854084478547729020e+01
2.609076553840368740e-01 -1.922826923084364736e+01
-3.068771102584583188e-01 -1.865716942508162290e+01
-8.776514962046795265e-01 -1.867789288547607995e+01
-8.600005556053763600e-01 -1.932864699688113319e+01
-1.435438799964009249e+00 -1.902271482866733265e+01
-1.540786633691152874e+00 -1.937772899660398451e+01
-1.764110517505199871e+00 -1.972148907922118966e+01
-1.166464832009580954e+00 -2.008791870092690601e+01
3.750033950190744036e+00 -2.417357553411900284e+01
-1.315076707728249250e+00 -2.069807121681511930e+01
-5.751911235440716474e-01 -2.071617288404759094e+01
-1.989507400043707408e-01 -2.122428696586382557e+01
7.308110068193230946e-01 -2.096485975225928655e+01
5.095297367639646247e+00 -2.152900779177877055e+01
6.040351653360041873e+00 -2.154950349276046140e+01
6.606206777730204038e+00 -2.103661625141784697e+01
7.359471641923196472e+00 -2.120212980218155607e+01
7.738047668978395244e+00 -2.061515472032022700e+01
8.534623765382811200e+00 -2.077308552645402884e+01
4.151123232541531038e+00 -2.408255203402790201e+01
8.733470111128310620e+00 -2.025521714862502876e+01
9.419438307884037798e+00 -2.031982059149147091e+01
9.480127784507125455e+00 -1.978567234665803554e+01
9.930772205491765092e+00 -1.951307135754792199e+01
9.423139920936897340e+00 -1.887113607373397173e+01
8.935210207898530044e+00 -1.905811697911384428e+01
8.553620584821413075e+00 -1.891875166258376595e+01
8.000977647897144607e+00 -1.851475716078755696e+01
7.284141155670001311e+00 -1.833261912567860463e+01
6.340781215737004928e+00 -1.878844651244287434e+01
4.661133852317896675e+00 -2.391493130942318857e+01
5.726597356572324493e+00 -1.906717843852927174e+01
4.799967138857897275e+00 -1.912259307647868667e+01
4.238150197709572353e+00 -1.973874081604127184e+01
3.505858295003148939e+00 -2.008717946429533185e+01
3.108910425620835305e+00 -2.084162871723656707e+01
2.748638113138397898e+00 -2.146620909592594728e+01
2.551036391371533263e+00 -2.214374492100967728e+01
2.284192507981094078e+00 -2.283915315968265602e+01
2.122318050046869242e+00 -2.327148896559859281e+01
2.144931373271182107e+00 -2.361394417832332238e+01
5.126400856681270213e+00 -2.373467036378252004e+01
2.172753555625521305e+00 -2.388488602188113319e+01
2.244002593609622398e+00 -2.401633040122986884e+01
5.796410937964300736e+00 -2.347117934609445911e+01
6.354796985476959037e+00 -2.318087000129304798e+01
1.473787064486923981e+00 -3.473784439982232186e+01
6.424710262408850348e-01 -3.518988539026268825e+01
3.706305787084529069e+00 -3.774629539161112035e+01
4.350981850763481873e+00 -3.784559102673256348e+01
5.091867763286108683e+00 -3.780581361538941820e+01
6.017096226970600981e+00 -3.770260285798966748e+01
6.931452807596977905e+00 -3.742630861631779737e+01
1.735318480245519268e+01 -2.529089569750957978e+01
1.678030828596737933e+01 -2.437130245863579603e+01
1.635085099363035610e+01 -2.395114769594398751e+01
1.596583440888064231e+01 -2.378680590506419534e+01
1.491374962643094726e+01 -2.388596658931590255e+01
8.705083592250322244e-01 -3.569385817786748305e+01
1.397248984997083987e+01 -2.430439030940413758e+01
1.278287567435889827e+01 -2.474497898211110680e+01
1.155960537359100826e+01 -2.600789300273124738e+01
7.388163508634386645e+00 -2.945692267015134291e+01
6.648919871521919767e+00 -3.014951394758020342e+01
6.130250989360733982e+00 -3.048831461710690860e+01
5.547621421991403068e+00 -3.094548886890784800e+01
4.983336017961116582e+00 -3.128634396028316189e+01
4.299880303328742492e+00 -3.176971757267718743e+01
3.779544494227266238e+00 -3.210091442989295274e+01
8.671554895840068999e-01 -3.609682573060771205e+01
3.222298757425513305e+00 -3.254588246478325431e+01
2.798928714541865759e+00 -3.288422162388712167e+01
2.426910714981966866e+00 -3.310775014084088497e+01
2.059417395989324273e+00 -3.333827768333301833e+01
1.761511202624045591e+00 -3.357706516841679445e+01
1.384870920526946270e+00 -3.384543860412545513e+01
9.810627666233563415e-01 -3.415387554304184192e+01
7.387156201071145567e-01 -3.458466512434562645e+01
1.175915011178181091e+00 -3.510634179935597388e+01
1.590014574503244349e+00 -3.545103686845754964e+01
1.219947362535480639e+00 -3.642197150059110555e+01
1.892523319922547520e+00 -3.566950138720255836e+01
2.026640916552253202e+00 -3.603087971311954618e+01
2.526759070072871260e+00 -3.592759633245935902e+01
2.638235346849015173e+00 -3.630841702610472055e+01
3.171548475477406814e+00 -3.639595298191525785e+01
3.682040284805507380e+00 -3.663820738834310475e+01
4.430334685515601834e+00 -3.677282552930430626e+01
5.244757338141841529e+00 -3.682011132562994504e+01
6.138440524907285756e+00 -3.666440427920825584e+01
7.011650562275479004e+00 -3.630935249016146571e+01
1.348201494304419601e+00 -3.680290590111781768e+01
1.627348483866327911e+01 -2.588393400741279748e+01
1.631304129628365374e+01 -2.479071058372006320e+01
1.607563153277352797e+01 -2.438082007613605739e+01
1.578741766954683712e+01 -2.418602230167349276e+01
1.523078134780548076e+01 -2.416705922606211487e+01
1.454359034536660289e+01 -2.434642684489075393e+01
1.361548964453108646e+01 -2.502556477024254278e+01
1.252584785868544870e+01 -2.597389356045086117e+01
8.313418458968266478e+00 -2.962737840266521516e+01
7.436933160292444889e+00 -3.041803943280863365e+01
1.761742431295773459e+00 -3.707486555175083964e+01
6.605809118492050658e+00 -3.105671106519657698e+01
6.098678379285806805e+00 -3.136627985126275675e+01
5.358775028233277560e+00 -3.185465657438178511e+01
4.864450698818309604e+00 -3.221383717293602444e+01
4.349733330931371711e+00 -3.264209572271091986e+01
3.904866975052483369e+00 -3.301997081942388235e+01
3.599736513230796131e+00 -3.331765688591144681e+01
3.329065172801214612e+00 -3.364327692061797137e+01
2.955162449955348158e+00 -3.383843961434360637e+01
2.733051356513322538e+00 -3.420134684590508556e+01
2.201367565320852204e+00 -3.708569674019128115e+01
2.294840471722444875e+00 -3.429533394626649567e+01
1.924858486716701789e+00 -3.445428288951816853e+01
2.625420867095320521e+00 -3.738174044354773429e+01
3.076780243075563082e+00 -3.754988567394327248e+01
1.861364959094730054e+01 -3.975231133180174226e+01
1.842330719750076184e+01 -3.946061272088478233e+01
1.683067321718517206e+01 -3.850305715141554685e+01
1.641533801535623738e+01 -3.876516960226908992e+01
1.603558664331485062e+01 -3.833647601215852063e+01
1.554406052545387951e+01 -3.816283132957313740e+01
1.546146742376929240e+01 -3.862801698325590394e+01
1.512883664150752239e+01 -3.863029990329369667e+01
1.546948193062859822e+01 -3.928019220993404303e+01
1.538879832441285167e+01 -3.957696403837353216e+01
1.478805325830610684e+01 -4.004515346858482161e+01
1.472459476526791278e+01 -3.908710903274445769e+01
1.820577188575161642e+01 -3.935986665808283647e+01
1.500603213508965794e+01 -3.962190795030991808e+01
1.412010035558263965e+01 -3.871410274246384375e+01
1.465485895936008198e+01 -3.943510485951438937e+01
1.434481744401661985e+01 -3.847986650219722549e+01
1.413298204768566890e+01 -3.964145468154984542e+01
1.412105322104621763e+01 -3.832505434476350104e+01
1.390107892181500127e+01 -3.926987298801454784e+01
1.356731199900336371e+01 -3.882884830040832469e+01
1.321721812587532874e+01 -3.935400544644897991e+01
1.335179799631588970e+01 -3.894089156239854077e+01
1.783086676304395013e+01 -3.988160693412194036e+01
1.333498741717453306e+01 -3.969908913287823538e+01
1.274089110262979041e+01 -3.913454403004585203e+01
1.257598628507087923e+01 -3.983411015478416317e+01
1.227844332715888775e+01 -3.943783880795416508e+01
1.194306384270020338e+01 -3.979088287053608752e+01
1.201693162338145449e+01 -3.952720852579729183e+01
1.230043767503625496e+01 -4.014458268361051552e+01
1.154107870717376905e+01 -3.967928291903878346e+01
1.186566642304392438e+01 -4.042035722983848700e+01
1.124674833510599292e+01 -3.986125495238092498e+01
1.754727648010989682e+01 -4.013510419937293960e+01
1.131851289382623271e+01 -4.026772005672280841e+01
1.196801840801018635e+01 -4.080913247778990183e+01
1.066819639608989334e+01 -4.025177168117831172e+01
1.086283914025243114e+01 -4.059043622295375542e+01
1.139846258393545142e+01 -4.096677693272331311e+01
1.080532405167976684e+01 -4.099963080045380082e+01
1.119917390228198784e+01 -4.112357075036129572e+01
1.031273771330361022e+01 -4.086687382315857775e+01
1.046323518360614457e+01 -4.133858358261685595e+01
1.076535974833427112e+01 -4.167001701346934794e+01
1.740021267199976052e+01 -4.028583929908825212e+01
1.103060144273864474e+01 -4.177122052591002443e+01
1.146523530219198328e+01 -4.179653755736239162e+01
1.183901247449700023e+01 -4.182971378179565392e+01
1.132039801829387038e+01 -4.223100742121277307e+01
1.198035017257171830e+01 -4.230646913530740250e+01
1.252554499951685685e+01 -4.208604520762266077e+01
1.288565981389974446e+01 -4.260091714862605983e+01
1.306908463523524766e+01 -4.250375804986865091e+01
1.364252143691770947e+01 -4.262368886703077209e+01
1.395438019576751287e+01 -4.251917100006247097e+01
1.719577513689610981e+01 -4.006835269240015407e+01
1.429773415515060186e+01 -4.255711163622152071e+01
1.470062264685457976e+01 -4.240959993292124608e+01
1.513862942957565494e+01 -4.234986271836874749e+01
1.567492412440127936e+01 -4.213980396909939685e+01
1.626818789381188068e+01 -4.196456605938438855e+01
1.709923276111283386e+01 -4.151424190266712344e+01
1.737626611242234276e+01 -4.139581214475428794e+01
1.762138794654803320e+01 -4.114820922334864406e+01
1.812010785544496372e+01 -4.108992204350605704e+01
1.841223023285363070e+01 -4.064191834583393614e+01
1.728058847447250557e+01 -3.954679324082231062e+01
1.859139425442763738e+01 -4.043698831306355856e+01
1.863814069789237848e+01 -4.000797048939382705e+01
1.724230927063119623e+01 -3.914630230658762144e+01
1.717426622476779841e+01 -3.872854851487627315e+01
-6.525814394699352761e+00 -2.768659383438612309e+01
-6.131485888328844780e+00 -2.790260479306513020e+01
-4.805872848307854994e+00 -3.275671151437444450e+01
-5.170986658908040212e+00 -3.306719482736975380e+01
-5.659239628131816247e+00 -3.346950149658575668e+01
-6.101595870761861384e+00 -3.303551976430497916e+01
-6.481571591975354707e+00 -3.356186010169191292e+01
-6.866802695015773672e+00 -3.312351860731539688e+01
-7.312883284682904161e+00 -3.335132122302974267e+01
-7.665843354982888158e+00 -3.313972952064606403e+01
-8.077371355262716435e+00 -3.313398764754756343e+01
-8.307619066135517372e+00 -3.345615978443188965e+01
-5.811635837406402771e+00 -2.812159192682122466e+01
-8.611894437872365415e+00 -3.335668924948937075e+01
-8.874542529825038883e+00 -3.372756881501324244e+01
-9.172492165970737688e+00 -3.337518847938194000e+01
-9.423796942718313474e+00 -3.347807721310408624e+01
-9.565211538178649775e+00 -3.301437132319291834e+01
-1.024466915659468214e+01 -3.287453179491571831e+01
-1.096287541969388712e+01 -3.284224298241255013e+01
-1.145122479084019140e+01 -3.313064274295399514e+01
-1.179916176086037716e+01 -3.341357503567301990e+01
-1.214810370998747047e+01 -3.374506646979164515e+01
-5.427145252136573284e+00 -2.845979744152213087e+01
-1.251665264245165332e+01 -3.415563224978253487e+01
-1.281635186837968909e+01 -3.456881664908006258e+01
-1.298813755683836391e+01 -3.492577792840977935e+01
-1.304275954725031461e+01 -3.518675690692630553e+01
-1.303728917093423156e+01 -3.544661931229435936e+01
-1.296652896446418168e+01 -3.568424273823958259e+01
-1.282949146111431560e+01 -3.593287096866486507e+01
-1.261440809433879195e+01 -3.615693638234488816e+01
-1.228814964723702019e+01 -3.638957996977853071e+01
-1.191868446308590102e+01 -3.655841383744515838e+01
-5.089310465352479440e+00 -2.884691808715149008e+01
-1.153925298440843328e+01 -3.664981389649776133e+01
-1.113928304851903661e+01 -3.667698604344681002e+01
-1.069118459327669868e+01 -3.663906459290623019e+01
-1.022382805865544064e+01 -3.652148474449035831e+01
-9.698260054179071332e+00 -3.631729340107392545e+01
-1.271523396097312286e+01 -3.218961192968798457e+01
-8.646625945749381259e+00 -3.582240043914545424e+01
-8.115342936861656753e+00 -3.553474478609426512e+01
-7.702220580907606973e+00 -3.507196244236665450e+01
-7.528017407669033823e+00 -3.450284556344944065e+01
-4.815628094194067010e+00 -2.926951560439311706e+01
-7.359581917803124540e+00 -3.214621449871930281e+01
-7.760648625636202169e+00 -3.201957440106126995e+01
-8.188684277051120119e+00 -3.177129864640949464e+01
-8.488808416000479085e+00 -3.217656167007805834e+01
-8.823459582016910829e+00 -3.157888840669226127e+01
-9.065881712146993010e+00 -3.206354667472430009e+01
-9.441072570841697598e+00 -3.176204233195359450e+01
-9.901807728856146795e+00 -3.192081564547463657e+01
-1.034340060982221843e+01 -3.173037532202829780e+01
-1.084168509880153941e+01 -3.150121152817473558e+01
-4.530643329926553164e+00 -2.986116190652796831e+01
-1.045752187969859293e+01 -3.100574016490759277e+01
-1.029946367457014489e+01 -3.052169525914441195e+01
-9.766987734528173704e+00 -3.013517249568681322e+01
-9.369509425745619069e+00 -2.953038854752321285e+01
-9.070923088989346184e+00 -2.900721260389648037e+01
-8.746267087442957333e+00 -2.856260490898461057e+01
-8.457362186809502802e+00 -2.824972770793430854e+01
-8.148498316671529906e+00 -2.801196732281297841e+01
-7.826727670416437910e+00 -2.782868513090181395e+01
-7.485017033383366325e+00 -2.772227661068162163e+01
-4.320069867696740396e+00 -3.044645102446895990e+01
-7.195906233104891747e+00 -2.764387818107673311e+01
-6.847597036986919683e+00 -2.761593768754183031e+01
-4.310525766455902463e+00 -3.110262485731725235e+01
-4.495209426953450382e+00 -3.201472588671531128e+01
-1.506131108810702379e+01 -6.454648313382879365e+00
-1.547457099619779797e+01 -5.589227549900190439e+00
-2.324573617001423997e+01 -7.678164992856753024e+00
-2.271932907434685589e+01 -8.400248881301230597e+00
-2.161386775654450076e+01 -9.037126567622919993e+00
-2.017731757282354366e+01 -9.225005906896905472e+00
-1.841360525994635466e+01 -8.861951087889186951e+00
-1.718894283547327362e+01 -7.994336981091625383e+00
-1.664616924291176048e+01 -7.678158544856753309e+00
-1.642174421889227887e+01 -7.123844623033861900e+00
-1.668484795813721533e+01 -6.475873065497801839e+00
-1.710551191126221582e+01 -5.870959911722172464e+00
-1.675896879242622717e+01 -4.548831234444880245e+00
-1.782177381920659087e+01 -5.335285393965317091e+00
-1.941208418482479203e+01 -4.582466711831469475e+00
-2.057664502715192612e+01 -4.764683901311623337e+00
-2.129976597186841047e+01 -5.246576329586614129e+00
-2.168622991231642061e+01 -5.676291847181814454e+00
-2.193564035943096613e+01 -6.087954182405535875e+00
-2.210443266539930462e+01 -6.354267539678302157e+00
-2.192252119071599381e+01 -6.644833426695091028e+00
-2.199194325553391494e+01 -7.039776447251335334e+00
-2.163594241082320124e+01 -7.406297709917953220e+00
-1.882115110732186736e+01 -4.077165316329048217e+00
-2.125558467034301557e+01 -7.954498252847947093e+00
-2.043167348572817232e+01 -8.266165575261112508e+00
-1.875267140458341686e+01 -8.088983128686029644e+00
-1.705237445571833632e+01 -8.820501588054028730e+00
-1.600890198656171037e+01 -8.210565145380989804e+00
-1.548028110755603848e+01 -7.220566403932084931e+00
-1.545849881042183682e+01 -6.426607690786712901e+00
-1.602242812525873816e+01 -5.482073226031325852e+00
-1.730363912195330300e+01 -4.757686895482521550e+00
-1.833286232020169848e+01 -4.300308413476600755e+00
-2.104209292055837466e+01 -4.041795075885261213e+00
-2.043639113250500472e+01 -3.875888015694191946e+00
-2.194152486336945529e+01 -4.224290432781574900e+00
-2.257544317793068700e+01 -4.616601270432304283e+00
-2.303975012976898284e+01 -5.097910862090728301e+00
-2.342163814119164300e+01 -5.845085595494272646e+00
-2.350165168881164135e+01 -6.432391671982338188e+00
-2.337438725702680031e+01 -7.145653848683628517e+00
-2.303714527725410122e+01 -7.814404684723169403e+00
-2.212233627309264961e+01 -8.584597803187572040e+00
-2.073349838512507759e+01 -9.142706035814136101e+00
-2.190925269687277321e+01 -4.397721229610590754e+00
-1.883840491604882672e+01 -9.162305407697857618e+00
-1.765767818750294538e+01 -8.344517841965226168e+00
-1.711176290189932203e+01 -7.609102634899073792e+00
-1.613495135820920368e+01 -7.327851139837484595e+00
-1.603467414788481094e+01 -6.667120272950421089e+00
-1.590363208706536113e+01 -6.141124836878210758e+00
-1.675043502088573177e+01 -5.380604611832612072e+00
-1.863157968742941151e+01 -5.023016535317175624e+00
-2.056492498456339746e+01 -4.446179342003195423e+00
-2.128935514849606037e+01 -4.722694514002657939e+00
-2.268939498795899112e+01 -4.889872941045177335e+00
-2.201930158549616579e+01 -5.063616918817180235e+00
-2.244807664137704606e+01 -5.644614850171004505e+00
-2.262569434315060946e+01 -6.035400328151888871e+00
-2.271827774361514329e+01 -6.415474315287252871e+00
-2.267359717929277707e+01 -6.902219440825103192e+00
-2.239583282229403949e+01 -7.404876140055113076e+00
-2.169838655934043103e+01 -8.004884357594361788e+00
-2.078076097507421949e+01 -8.367453237487421092e+00
-1.930345381324989518e+01 -8.497148985851541880e+00
-1.655630175394595227e+01 -8.706155224905248957e+00
-2.320469292158484720e+01 -5.680500513811646002e+00
-1.545020411188123788e+01 -7.982688186306877931e+00
-1.512543951749574056e+01 -7.441230297874731114e+00
-2.344318803333040080e+01 -6.405181241151493232e+00
-2.346475263712276771e+01 -7.018858026008358841e+00
-7.227810211436601406e+00 -1.227866398658060909e+01
-6.937007487627895763e+00 -1.148608984588883963e+01
-6.214089086096769243e+00 -1.334686708190166549e+01
-6.930281399179897051e+00 -1.362709658299523774e+01
-6.660484852921600307e+00 -1.374894019731626926e+01
-6.927836066641216206e+00 -1.402229814189191970e+01
-6.285998103695026984e+00 -1.446874125639565456e+01
-5.941850491097613762e+00 -1.454449615550960395e+01
-5.951684232090874715e+00 -1.465024994374415002e+01
-5.889613783554176862e+00 -1.505251161442417462e+01
-5.805225539084660547e+00 -1.524019001188452194e+01
-5.622606630681114659e+00 -1.542362109333238784e+01
-6.984735228936504114e+00 -1.214291301968330927e+01
-6.465391943008016007e+00 -1.550287653893795081e+01
-6.574650965369968070e+00 -1.565221204524472398e+01
-6.249674787206175530e+00 -1.610453514945830022e+01
-6.935365073264743607e+00 -1.604482433997078417e+01
-6.736425120683200873e+00 -1.648543072750674909e+01
-7.261655588682883078e+00 -1.659977397871413984e+01
-6.978939975699775644e+00 -1.703050149069613894e+01
-7.240242080510272515e+00 -1.715369091384460276e+01
-7.634315578335513663e+00 -1.698973752061900910e+01
-7.554241998695643723e+00 -1.764789211985554829e+01
-6.909758238812684361e+00 -1.245188827717960400e+01
-7.685434954503923777e+00 -1.736804300986391780e+01
-7.844119292936336585e+00 -1.786461176143256679e+01
-8.186966366263225936e+00 -1.748036446019871804e+01
-8.272786748641118848e+00 -1.786365416855755228e+01
-8.501099037473597519e+00 -1.805002324467301733e+01
-8.722105839655794668e+00 -1.794066535495581505e+01
-8.932383025628706008e+00 -1.780200109978448708e+01
-8.960181955378347496e+00 -1.818953881533014183e+01
-9.294830108740249841e+00 -1.802098127886859658e+01
-9.500138341652561991e+00 -1.793684382132918387e+01
-6.479065635151235014e+00 -1.226751556682540745e+01
-9.370439090314285124e+00 -1.719943769478587114e+01
-9.991788551692561526e+00 -1.771925055669677107e+01
-9.739111827992633863e+00 -1.697089064894361599e+01
-1.033343058830302930e+01 -1.733743314717317219e+01
-1.068722852512242305e+01 -1.721860390974090649e+01
-1.007778536981498085e+01 -1.649310527759358536e+01
-1.048424053467365091e+01 -1.658319388947118256e+01
-1.105271377497037477e+01 -1.669753675838530427e+01
-1.116885410379554067e+01 -1.641102290062768176e+01
-1.076827059576088530e+01 -1.605953349047837975e+01
-6.261179137815082285e+00 -1.249328145744439489e+01
-1.124470424481842201e+01 -1.587885865429210597e+01
-1.046193332750263671e+01 -1.558999713272747911e+01
-1.090134172443868543e+01 -1.527632350985494547e+01
-1.035793831284485300e+01 -1.504447281969237160e+01
-1.126135759094092847e+01 -1.478047886211365380e+01
-1.069010551692041311e+01 -1.442745142270236691e+01
-1.014471545144520803e+01 -1.411280171943569606e+01
-9.441675199051886125e+00 -1.327178995435106756e+01
-9.470271858200019821e+00 -1.278520145131298236e+01
-9.064940257306938420e+00 -1.308107169991944119e+01
-6.155514948139823694e+00 -1.255470213216981534e+01
-8.901645884084224747e+00 -1.229198193455602706e+01
-8.617841024956563345e+00 -1.314098602015070050e+01
-8.680631796569626246e+00 -1.145687440892287867e+01
-8.219816687434578384e+00 -1.282598591985260583e+01
-8.280031090359639023e+00 -1.209886824448095943e+01
-7.946333990411105219e+00 -1.290606128649317341e+01
-8.055246326518206601e+00 -1.182754695850784366e+01
-7.826085856977723409e+00 -1.289312882882514266e+01
-7.841527583371618704e+00 -1.178437156673274444e+01
-7.756451444245746174e+00 -1.154310237498966885e+01
-6.405148670901446906e+00 -1.172371081545916560e+01
-7.525977172191211650e+00 -1.169365640751380653e+01
-7.205211846973980094e+00 -1.124606863802486068e+01
-6.519308461012726319e+00 -1.288187146010691819e+01
-6.747817832401548088e+00 -1.300996232164749955e+01
3.149016020275491812e+01 -3.378151192303906036e+00
3.095844902490955519e+01 -3.514415171462567766e+00
3.082417275770731280e+01 -6.629085054475293504e+00
3.116508814553301931e+01 -6.686912212044494375e+00
3.141073129970946098e+01 -6.456067533335522413e+00
3.210978875291507961e+01 -6.102224296657628777e+00
3.229946489233754647e+01 -5.911104488978763172e+00
3.243472904913274135e+01 -5.337843673153785495e+00
3.182179462081608179e+01 -5.636187265644656996e+00
3.167533701112886746e+01 -5.584849501236162084e+00
3.338053402750291099e+01 -5.570199280892643046e+00
3.278599737429794914e+01 -5.888287812815259592e+00
3.066503350748831025e+01 -3.836393806316622079e+00
3.333441218184628241e+01 -5.891113478092231404e+00
3.269069920304152532e+01 -6.050761370359183822e+00
3.270836376580319893e+01 -6.382466167396120049e+00
3.305693755518529997e+01 -6.342556829727598711e+00
3.278670823217462527e+01 -6.679189244891199806e+00
3.240501064207288096e+01 -6.901073220658791030e+00
3.334466694885799143e+01 -6.877931013170521801e+00
3.261237119123127570e+01 -7.201925734246798605e+00
3.325102782620731290e+01 -7.219385266396065148e+00
3.307126506863262705e+01 -7.490797402553896589e+00
3.032693048765088051e+01 -4.095536557713329806e+00
3.345587721512866608e+01 -7.699103897286774689e+00
3.325543174850980677e+01 -7.910892657342856182e+00
3.282202352483306385e+01 -8.049322466918159336e+00
3.428845178846835751e+01 -9.290308780173795355e+00
3.383019385342920060e+01 -8.480144645729881248e+00
3.388867065271907109e+01 -8.734969922043203994e+00
3.454614478094786989e+01 -1.006546312616935346e+01
3.423437359052130802e+01 -8.892268543179412177e+00
3.486463898354771374e+01 -9.806235049043145580e+00
3.537130047713394987e+01 -1.067294012431945482e+01
3.007711991045118438e+01 -4.463666502967130079e+00
3.504505689530535761e+01 -1.017294750470861153e+01
3.582155990516353938e+01 -1.058212197883938011e+01
3.532057991797398699e+01 -9.828415554971916990e+00
3.556851176808324766e+01 -1.030004773280459496e+01
3.613913109514773225e+01 -1.039852114959825435e+01
3.542106341811230408e+01 -9.286764053982961897e+00
3.559692869645971314e+01 -9.479645117631605444e+00
3.584915973847171955e+01 -9.530259184229960212e+00
3.613427968915381427e+01 -9.786983357851754661e+00
3.637420379702340512e+01 -9.713622338022688041e+00
2.987194618323344741e+01 -4.816243279666298172e+00
3.647897142222093692e+01 -9.876333500108676944e+00
3.606253888014992981e+01 -8.887988594617350913e+00
3.641969628266032544e+01 -8.961664219399327891e+00
3.583466077221920187e+01 -8.399971914530311778e+00
3.556591586234778646e+01 -8.571282373398048549e+00
3.603603965410959376e+01 -7.952153703796065010e+00
3.593597596332609356e+01 -8.003853823034550174e+00
3.564753134634825926e+01 -7.674416743613211800e+00
3.566447246882887612e+01 -7.223769281218689997e+00
3.547333123917410802e+01 -6.968482846977694933e+00
3.000576471775278975e+01 -5.229768053949248596e+00
3.533806696190399776e+01 -6.599070394036665732e+00
3.522917391403723286e+01 -6.285418141914877133e+00
3.459942476177157999e+01 -5.957299509015437700e+00
3.489973222872480108e+01 -5.564863245276065129e+00
3.437653370990621227e+01 -4.950676630297711434e+00
3.418024792484268204e+01 -4.549929857257669852e+00
3.391918246538326542e+01 -4.101006776760350192e+00
3.365074556580305654e+01 -3.713539076210170986e+00
3.325273812295034048e+01 -3.476368903804068822e+00
3.297326583718938764e+01 -3.265539142462206890e+00
2.987420716831748990e+01 -5.655616757111379123e+00
3.249742585778594872e+01 -3.332140073510441169e+00
3.197386173112757746e+01 -3.337665023445378853e+00
3.025186312867088390e+01 -6.090902618991112405e+00
3.050923945319405561e+01 -6.383298283757167901e+00
-3.491523881048725997e+01 4.405757065371150816e+01
-3.427106393498213066e+01 4.379211165908417058e+01
-3.357896510487823605e+01 4.175559878283096538e+01
-3.338463908444025208e+01 4.114122964613426348e+01
-3.355160139680602782e+01 4.074919113866817355e+01
-3.312947571768571464e+01 4.038605537067484619e+01
-3.307953231325334542e+01 4.116029901186904993e+01
-3.299980287687052538e+01 4.051945604518167698e+01
-3.270279142596753985e+01 4.137341953482897594e+01
-3.208623408961471313e+01 3.967191111757859545e+01
-3.222601762090577182e+01 4.108346233422823701e+01
-3.209099149379529337e+01 4.057909189948584583e+01
-3.420729151231078902e+01 4.411024410253930483e+01
-3.206646505180036399e+01 4.073984241087787694e+01
-3.166696884058667649e+01 4.051895643514325229e+01
-3.099345532908027678e+01 3.996256385630788799e+01
-3.070034614266407758e+01 3.956375750532831859e+01
-3.064634832608699000e+01 4.008403845375035957e+01
-3.040388649228832207e+01 3.940511378677148002e+01
-3.021900120064917417e+01 3.950365988276758600e+01
-2.992025225598726834e+01 3.946159162920467622e+01
-2.986158975317997388e+01 3.978747970487847141e+01
-2.978595040818177964e+01 4.063070364257298905e+01
-3.444463420489633876e+01 4.368485004208474010e+01
-2.970641588366126840e+01 4.026238941394656479e+01
-2.963132577596828909e+01 4.086441058882110866e+01
-2.948674383312389935e+01 4.108217434291866965e+01
-2.893014284677148851e+01 4.149153573762113467e+01
-2.817000383178400469e+01 4.207507504797357711e+01
-2.757049532676741421e+01 4.249531399596557435e+01
-2.775448765729694145e+01 4.305156225434782868e+01
-2.908819934315392430e+01 4.290586422971290403e+01
-2.811947760823293763e+01 4.336458941699158487e+01
-2.797431296688207425e+01 4.262806051885290515e+01
-3.473717703943963642e+01 4.258153323673591473e+01
-2.929273591259198994e+01 4.366066739246213046e+01
-2.840899624857245342e+01 4.395991143706071114e+01
-2.849919124211061217e+01 4.398031749698471060e+01
-2.873033436049843203e+01 4.459884251623036988e+01
-2.939414312673380891e+01 4.424756640139035824e+01
-2.946432791765282744e+01 4.214337525142406804e+01
-2.862272918759580875e+01 4.320469416463350143e+01
-2.948624876620479185e+01 4.241450845078397691e+01
-2.960951383797965519e+01 4.298474065656581189e+01
-2.962632587521407146e+01 4.337508379132093239e+01
-3.462076803362742794e+01 4.327783166905374657e+01
-2.987890731845890002e+01 4.270970315654940919e+01
-3.000810252178870385e+01 4.383438314413298542e+01
-3.009439388757380485e+01 4.446041565830569908e+01
-3.034655407265866245e+01 4.424014252980462913e+01
-3.053878383447915468e+01 4.449751151067291488e+01
-3.076710016897097688e+01 4.506105331439061956e+01
-3.055025240419678312e+01 4.331844449157969024e+01
-3.135800262258474191e+01 4.484393330310841463e+01
-3.231585074842398342e+01 4.460481594887858847e+01
-3.156534089950675792e+01 4.472493281619132688e+01
-3.417869397506130724e+01 4.279146363769682182e+01
-3.119685959368268868e+01 4.388769689144884723e+01
-3.123336841951177689e+01 4.322568864427925917e+01
-3.153347330661087611e+01 4.374260878248790618e+01
-3.150088019593005484e+01 4.347420368783929945e+01
-3.177980618434032678e+01 4.336123720954997651e+01
-3.176526650334241353e+01 4.292102616008212124e+01
-3.282329931094655251e+01 4.407558744793232108e+01
-3.331092729887935633e+01 4.398828871202225343e+01
-3.290429693934749622e+01 4.423361420821512269e+01
-3.332635186200041488e+01 4.416115415347339734e+01
-3.383995462906768381e+01 4.262380038912449010e+01
-3.365088687435908810e+01 4.349204002697803872e+01
-3.481939261271863728e+01 4.418215336840275143e+01
-3.397078227725517507e+01 4.216815914937983223e+01
-3.409717226344715613e+01 4.188584762733189848e+01
1.672617133784074728e+00 2.872113669820611648e+01
1.252048194626468991e+00 2.874969396529167653e+01
-1.085948664264611008e+00 2.540177892516248193e+01
-7.864226437831589589e-02 2.144748820015333735e+01
-5.364552372173517769e-01 2.113091969351836852e+01
-1.130150511335950902e+00 2.116300997687133290e+01
-1.417608994279203838e+00 2.155345155251112743e+01
-1.767284225534203612e+00 2.170918893305582387e+01
-1.952971758220776177e+00 2.204154448233833463e+01
-2.260722841033599106e+00 2.233148877662002008e+01
-2.194288785686355325e+00 2.275135522940248833e+01
-2.218904171687121618e+00 2.307889291278171484e+01
1.009039313916541003e+00 2.852020922324409469e+01
-2.358445897267330338e+00 2.365709281978392298e+01
-2.815932800634245670e+00 2.337010109176378947e+01
-3.065004766533176550e+00 2.324636358777024370e+01
8.481182355905594328e-01 2.215782448567444973e+01
1.254444862554779494e+00 2.256471900373140116e+01
2.021462579732931975e+00 2.315515270296995709e+01
2.683411862418945137e+00 2.366394411892726524e+01
3.300499691523017365e+00 2.420578456360624742e+01
3.708905565019267048e+00 2.465348879909614865e+01
4.018772879831767675e+00 2.498141287063202043e+01
7.413035911862804195e-01 2.831619435154635411e+01
4.314115824247641839e+00 2.538301025064557592e+01
4.568980941229384918e+00 2.568942627163544401e+01
4.781362708810745765e+00 2.600863638853977022e+01
4.873632979154006506e+00 2.639755736918458595e+01
4.793128551171736085e+00 2.676324733014433832e+01
4.631049818982014621e+00 2.701275528996438879e+01
4.345599391978390180e+00 2.713391145309772412e+01
4.122287345312369844e+00 2.713374132192797106e+01
3.687839103801889618e+00 2.673191435248457282e+01
3.556517314501356886e+00 2.654807201540617712e+01
5.557725783885330006e-01 2.799852139249927419e+01
3.217013502255090085e+00 2.605038088951079800e+01
2.634859212855479527e+00 2.539050077914792425e+01
2.328618078224795163e+00 2.515624112030879189e+01
1.901157451724261316e+00 2.495029342501742775e+01
1.101901891948630086e+00 2.448681706310684802e+01
1.124067361472518845e-01 2.365325801934448791e+01
-1.226623427818239076e+00 2.266548368593197438e+01
-1.039582593703700875e+00 2.264872673319131735e+01
-5.952035366427492757e-01 2.280853372953793468e+01
-1.277533106121326645e+00 2.284623918540231813e+01
3.982885225518291161e-01 2.763289525650490219e+01
-7.501912699176616073e-01 2.282583676624790670e+01
-1.471654627480040833e+00 2.316445005719492656e+01
-1.385359067002097433e+00 2.324226121660812083e+01
-1.022638592733807306e+00 2.332535804870994411e+01
-6.859219368260944805e-01 2.319870132899001192e+01
-6.411616170734328879e-01 2.320977298123472465e+01
-8.745020441231051711e-01 2.356852062024785255e+01
-1.413110362213138238e+00 2.369752117635578870e+01
-1.487388205510917993e+00 2.370091911896880887e+01
-1.413839133901584555e+00 2.390474494835743968e+01
3.304588665289102944e-02 2.730154312831433927e+01
-9.455137511184534826e-01 2.383444794378459974e+01
-6.654146962522258235e-01 2.401927172777744346e+01
8.574565811043323438e-02 2.469806089857616271e+01
8.060701326533494804e-01 2.573476784848621790e+01
1.031229296692823594e+00 2.638412696577943350e+01
1.111403740508540405e+00 2.673459907780963007e+01
1.310358216722908198e+00 2.688776832362193403e+01
1.483198409283455366e+00 2.726338271213272435e+01
1.731010120905175365e+00 2.758738699797122962e+01
1.927088190453817518e+00 2.792675882690137712e+01
-1.274336257300770492e-01 2.687749411945624090e+01
1.984902804588254188e+00 2.820176089908668970e+01
1.707209204870487662e+00 2.833457212108694279e+01
-5.457634925822404393e-01 2.640100372394854134e+01
-8.795857730286141818e-01 2.593220959150509231e+01
1.111908361946156631e+01 3.675984874515255285e+01
1.045133651645886275e+01 3.721252238330545481e+01
1.551392217371866389e+00 3.744310787499383508e+01
6.885858829026246797e-01 3.725491475534204255e+01
-1.802289426598558883e-02 3.704744948833449314e+01
-5.117305646060347213e-01 1.515221929237165988e+01
-1.192872241045545012e+00 1.347625914397542957e+01
-1.436480858786947978e+00 1.184242545096724974e+01
-9.872847334841601707e+00 -8.278494351080508906e+00
-1.003274043105986024e+01 -7.713522746925888462e+00
-9.906497635113051814e+00 -6.930047735194436953e+00
-9.505579417138442011e+00 -5.959885519044198610e+00
9.436489675381547926e+00 3.770618747935422732e+01
1.458020496305442393e+01 1.236647593286568281e+01
1.639136780492065171e+01 2.116997114377477729e+01
1.687602211002207753e+01 2.312180888953020030e+01
1.701199595282817967e+01 2.426434759317835343e+01
1.692027187922098008e+01 2.578764226180205910e+01
1.671691427425458798e+01 2.699533610517185878e+01
1.645902758155115464e+01 2.805590855591685795e+01
1.620085831755558203e+01 2.906043844602123727e+01
1.599511663577212239e+01 3.019639594369660429e+01
1.551163099251271049e+01 3.105480565412858596e+01
8.760886165954884675e+00 3.798394421446850089e+01
1.513190521723192639e+01 3.197219119801728837e+01
1.448983302317652822e+01 3.307841867586388673e+01
1.402101457467404444e+01 3.396631035344979921e+01
1.357692611962600182e+01 3.456479977287465744e+01
1.308561795769666958e+01 3.515746556126811129e+01
1.235660619071780708e+01 3.591816623411059339e+01
1.151093807296308746e+01 3.652946692504259119e+01
1.075702745236927882e+01 3.714503422230245633e+01
1.009675403891925605e+01 3.752598596848285695e+01
8.987237883106391934e+00 3.786265111305890940e+01
8.088925056153632553e+00 3.814333226575119795e+01
8.001998972488260975e+00 3.787183836913873591e+01
6.951463855418377413e+00 3.796614967411345987e+01
5.557937099300421124e+00 3.825219167626367778e+01
4.446764063954972812e+00 3.828016171882764951e+01
3.358590344568506580e+00 3.800775053036591800e+01
2.133680260937845130e+00 3.765940494977080277e+01
1.216428833790803798e+00 3.735886073648043748e+01
3.450875224881940206e-01 3.720814420973316317e+01
-5.974628011201832400e-01 3.678043645369292847e+01
-9.721351342508650628e-01 1.440006282285709105e+01
6.765498596905740847e+00 3.813251505996846902e+01
-1.383460446841526803e+00 1.292782061753371359e+01
-2.063979493565376355e+00 1.095223882662148362e+01
-1.042653719053123496e+01 -8.170850740781107291e+00
-1.129670218439356510e+01 -7.266154751801996881e+00
-1.134588466774687454e+01 -7.066136126865113276e+00
-1.015472122430105095e+01 -6.154126089584036841e+00
-9.086305688962374560e+00 -5.366892471696049327e+00
1.670410252282178831e+01 2.034619445838422891e+01
1.682304941446503932e+01 2.235144579006635723e+01
1.703542989478674485e+01 2.379361174688323288e+01
5.701163344800833421e+00 3.817318320916067620e+01
1.704481354284153838e+01 2.534555825110000171e+01
1.677812511307687515e+01 2.679828536492140856e+01
1.656064630632013035e+01 2.785518226614337678e+01
1.632221777560114617e+01 2.901214381406521525e+01
1.603643065275902302e+01 3.021221067358616708e+01
1.567421586045686333e+01 3.129949594226335208e+01
1.504122399735006788e+01 3.234695982759689770e+01
1.447529651595059086e+01 3.335496149690141721e+01
1.381693738554003126e+01 3.414871772016571327e+01
1.338037915094894892e+01 3.473683912421930131e+01
4.610986763598328153e+00 3.822163214601381043e+01
1.263190758105761446e+01 3.556801410505428862e+01
1.195197922407466962e+01 3.618432814829597532e+01
3.592463603466245825e+00 3.803450517206439940e+01
2.569854577602216139e+00 3.770649385430181866e+01
-1.094487853192369364e+01 5.942300591943964427e+00
-1.148916106755623012e+01 5.959407915011824208e+00
-1.363151206390347703e+01 2.890161257701890918e+00
-1.402104822334166379e+01 2.656478509673649846e+00
-1.437268983274850598e+01 2.440088038503620993e+00
-1.494459358822717299e+01 2.080169369989696815e+00
-1.538873944697395757e+01 1.816791227095619465e+00
-1.593808783058656253e+01 1.561445056697358780e+00
-1.661378224377861201e+01 1.307591422709803108e+00
-1.738457821856304975e+01 1.123984978862194728e+00
-1.813032052046425591e+01 1.000840845854451988e+00
-1.875259076056760321e+01 9.677913813211515004e-01
-1.156642880954956532e+01 5.639821463380542355e+00
-1.950037267169577149e+01 9.571704973354422386e-01
-2.031178248378806117e+01 9.966650393018523513e-01
-2.087482044551672189e+01 1.047881792462586503e+00
-2.159161158050149609e+01 1.139232611514138016e+00
-2.214434219999309050e+01 1.231415751667927383e+00
-2.258730170676640014e+01 1.308895381562169780e+00
-2.294011397071454184e+01 1.373992024344231178e+00
-2.312080504205147946e+01 1.400254008371988990e+00
-2.329026110065763078e+01 1.458391891027128295e+00
-2.374641544858040376e+01 1.665265695263705048e+00
-1.164577432733511309e+01 5.415297618132038693e+00
-2.421903453111312032e+01 1.880861312453709910e+00
-2.471762594325761597e+01 2.112823058010403710e+00
-2.506436844861809377e+01 2.284346165920774219e+00
-2.526331317392059006e+01 2.441869291942725617e+00
-2.549477639559508546e+01 2.624950170900607560e+00
-2.584360916326369306e+01 2.129256282181840376e+00
-2.628667051005119148e+01 2.619717619582993429e+00
-2.582210023080132544e+01 3.020751030048932417e+00
-2.624483361800671588e+01 3.473390235062198350e+00
-2.572624660481059777e+01 3.345883258415564665e+00
-1.179389227498070269e+01 5.121131137127100885e+00
-2.566655295986064544e+01 4.033595820131566256e+00
-2.527956792389781882e+01 3.772176190251650407e+00
-2.499958964584114440e+01 3.944957774256242722e+00
-2.459924039449936117e+01 4.132632995398467735e+00
-2.403229606525021111e+01 4.379071537172442241e+00
-2.341505250268293636e+01 4.571635504847122888e+00
-2.292104012284282177e+01 4.662293718029872025e+00
-2.233362383812845664e+01 4.716775239970775857e+00
-2.172450993006437514e+01 4.754507681666268581e+00
-2.119036000988036861e+01 4.770090986742524741e+00
-1.207785761276029568e+01 4.687383621748841378e+00
-2.059578212259659935e+01 4.795393985998467556e+00
-1.998447886330887258e+01 4.836322755268481544e+00
-1.939259630510776944e+01 4.898023462334373690e+00
-1.886925730872631490e+01 5.016604907056397167e+00
-1.843663170005925167e+01 5.122717293249177573e+00
-1.773665795086395036e+01 5.323396156343734198e+00
-1.728456925961259572e+01 5.459273883005779204e+00
-1.692958757606391629e+01 5.592249010148035104e+00
-1.639072589559336990e+01 5.770186579681385375e+00
-1.603666833320684759e+01 5.890079474366982204e+00
-1.242979056360337609e+01 4.195755888614482565e+00
-1.571325045531138542e+01 5.996147177228485781e+00
-1.543628701255599189e+01 6.081480030333568543e+00
-1.492985413226333158e+01 6.223079428307988437e+00
-1.382346369765268790e+01 6.552860117114382099e+00
-1.315489458494579011e+01 6.743528620219366942e+00
-1.266513116668486916e+01 6.865319939925800696e+00
-1.233823505719026237e+01 6.921052252751602296e+00
-1.207783750948311585e+01 6.910502835359405793e+00
-1.190584579527384790e+01 6.874288456318728535e+00
-1.172849581150806308e+01 6.773657032606199557e+00
-1.296580095077931105e+01 3.508374107703740474e+00
-1.132926227039605926e+01 7.181430771828332560e+00
-1.099382065791515295e+01 6.564595760635774546e+00
-1.289340395263100270e+01 2.818798098799506047e+00
-1.344973434728139949e+01 3.142322945018094060e+00
-5.482910251618369557e+01 2.444587535610327578e+01
-5.513478240876936098e+01 2.463860451963967790e+01
-5.751588353070881965e+01 2.382899376656707346e+01
-5.744653146954092193e+01 2.410158834694430396e+01
-5.743590164074235815e+01 2.422698429231638073e+01
-5.797002997259926360e+01 2.412230594424569574e+01
-5.848349464589816904e+01 2.407869919516362600e+01
-5.872802147131774575e+01 2.415508223615620409e+01
-5.869895249673876236e+01 2.419352630831435746e+01
-5.941457487262066195e+01 2.423423665687352724e+01
-5.960464666401177425e+01 2.428683589727880943e+01
-5.984953880951837846e+01 2.437222927655949789e+01
-5.529622076240593032e+01 2.460126299162782360e+01
-5.978278971386193064e+01 2.481660368718913645e+01
-6.037740737035620953e+01 2.450763756216357692e+01
-6.051253120155367071e+01 2.467928329090034723e+01
-5.997498146238785210e+01 2.538208079839950315e+01
-6.049829404263231680e+01 2.543862698607754425e+01
-6.104058364470107989e+01 2.515936348547015911e+01
-6.047790106924862386e+01 2.579899484464876025e+01
-6.112974564148576917e+01 2.552805072974439327e+01
-6.135598620422959470e+01 2.593799833771272390e+01
-6.097670930375204534e+01 2.621732610702877508e+01
-5.556144849555013820e+01 2.410994128307896034e+01
-6.125213293812198145e+01 2.650944941960409906e+01
-6.125828757916818290e+01 2.671701098975995237e+01
-6.094235343089370360e+01 2.700326117957105510e+01
-6.040178245616696273e+01 2.678513027963049353e+01
-6.014489510891283430e+01 2.688426410319669202e+01
-6.066156281933242411e+01 2.733010456214820749e+01
-6.026451988668335957e+01 2.768085909639630060e+01
-5.995436514935730088e+01 2.784102633119820780e+01
-5.961998226723696348e+01 2.792295742748519771e+01
-5.960707389304560877e+01 2.722512556074106982e+01
-5.579869226719220165e+01 2.411124045884081468e+01
-5.927285135512664738e+01 2.814973377430236923e+01
-5.905084410266923101e+01 2.720494967681802478e+01
-5.893876577555483465e+01 2.717299183337618729e+01
-5.885240566556593933e+01 2.778939492502180286e+01
-5.842679100066003883e+01 2.795117058345562100e+01
-5.821150817883866324e+01 2.785365604633178194e+01
-5.819963771056675483e+01 2.778939291866656092e+01
-5.772523303067693234e+01 2.773036062081557773e+01
-5.752540824795377006e+01 2.764140522573207548e+01
-5.756698834957389010e+01 2.754226893024531364e+01
-5.604240764938374753e+01 2.408083233677689350e+01
-5.705375098483256835e+01 2.737619477829983694e+01
-5.660134618840356779e+01 2.728578913509894122e+01
-5.638786142076496333e+01 2.717932588948208661e+01
-5.613564673176882991e+01 2.706562243740323126e+01
-5.621442433750554102e+01 2.678427326615997117e+01
-5.581637577769320302e+01 2.656425503320228643e+01
-5.542012639004621377e+01 2.666420508333166239e+01
-5.545325628689835895e+01 2.640360921863198129e+01
-5.514523247867980160e+01 2.626670564215843129e+01
-5.480559441195154591e+01 2.631074519968010250e+01
-5.656898586699502118e+01 2.393455419016546415e+01
-5.467275089453396220e+01 2.637454368286164552e+01
-5.444128654076328644e+01 2.629185061651588029e+01
-5.422876623714267907e+01 2.583138871293734340e+01
-5.383619218047041244e+01 2.587251465168158759e+01
-5.350153494580865754e+01 2.562409421939699072e+01
-5.354860765111975240e+01 2.520791524338143574e+01
-5.359060519160108527e+01 2.490552255886838751e+01
-5.419782095258630505e+01 2.487345714203146940e+01
-5.389089987672047499e+01 2.438586441811170857e+01
-5.400652509743316898e+01 2.404721282079514211e+01
-5.676229180834236843e+01 2.390562079806208473e+01
-5.461243814778379857e+01 2.373837682707443975e+01
-5.454323308672419302e+01 2.405947686652327278e+01
-5.700205127350617573e+01 2.387515721647059408e+01
-5.725742804895326543e+01 2.382830432400155374e+01
-3.665003660120779827e+00 5.646430675673530963e+00
-3.737494760903461444e+00 5.613161354471442266e+00
-4.974032747857237702e+00 1.779164526885641973e+00
-4.717798415423494873e+00 1.305062485235110703e+00
-4.572215427862843740e+00 9.701841717887479399e-01
-4.346614317582886855e+00 6.122946392660549852e-01
-4.025053962347697301e+00 1.875854864285888546e-01
1.579311056208007358e+01 -1.813237667232855443e+01
1.666130441894802772e+01 -1.823928597474829516e+01
1.725021717732877846e+01 -1.785093251062514952e+01
1.745562157110330403e+01 -1.719180538073302245e+01
1.759427083413462967e+01 -1.615291156185463706e+01
-3.727475277383555330e+00 5.432842547308172065e+00
2.437630857058050893e+01 -6.391362955940731005e+00
2.418654545229631481e+01 -6.237709514876148553e+00
-1.739410402087785812e+01 -1.875891205333573808e+01
-1.760623593324326919e+01 -1.864370679415127441e+01
-1.777044739602499135e+01 -1.844998421808870148e+01
-1.869172118291366402e+01 -1.820516772717263976e+01
-1.955884731680220412e+01 -1.774530735719122276e+01
-2.032627292134206698e+01 -1.810224853328615069e+01
-2.103421231498970201e+01 -1.761063331537035737e+01
-2.166140644277563254e+01 -1.826293833218291596e+01
-4.051813795957803777e+00 5.209779721167364208e+00
-2.273574472827979065e+01 -1.805150840367955922e+01
-2.330642893127551574e+01 -1.887449867327083552e+01
-2.414449560905959657e+01 -1.825492575155395514e+01
-2.432024937425971700e+01 -1.893192734007292444e+01
-2.446773036965446124e+01 -1.898337847925231614e+01
-2.463702989729828730e+01 -1.903284303470715955e+01
-2.480925617367567781e+01 -1.904371239842409480e+01
-2.490383007506271795e+01 -1.911461064682497124e+01
-2.492777726079735245e+01 -1.932709825662034575e+01
-2.496818830282272828e+01 -1.944401557249891255e+01
-4.263181099606772939e+00 4.958219855906810913e+00
-2.497000443869402986e+01 -1.971422168974867617e+01
-2.503065856608813888e+01 -2.021576824177055798e+01
-2.508191612382121960e+01 -2.055985761960330294e+01
-2.516643210936150510e+01 -2.115721112347915778e+01
-2.521687833073154650e+01 -2.159384830564624735e+01
-2.524503705423505195e+01 -2.209220723612072135e+01
-2.525723168914226591e+01 -2.251880619515197068e+01
-2.525094915521428973e+01 -2.274909921326893070e+01
-2.522097490566098799e+01 -2.305098937965749784e+01
1.581599918055904297e+01 -3.059219030514035609e+01
-4.584017189249071755e+00 4.495862910986843985e+00
1.624497278061481609e+01 -3.021077759932272144e+01
1.712126862455199472e+01 -2.931764878148949549e+01
2.523341322632861505e+01 -2.393831585864182188e+01
2.552695102887908618e+01 -2.390848817168481233e+01
2.571705433405690044e+01 -2.392855061625468238e+01
2.683634844706410050e+01 -2.418901058415881167e+01
2.723578833329722215e+01 -2.436457837939745730e+01
1.220866964671001531e+00 1.782513133257133342e+00
6.396571883447911278e-01 2.470962531855145361e+00
3.736934613232795743e-01 2.816049454679088626e+00
-4.784441195441100803e+00 4.136227590987342495e+00
1.484707637055492080e-01 3.067279712871754160e+00
-1.907933342260567933e-01 3.471395864341457305e+00
-5.969992111593359629e-01 3.933518540471062863e+00
-9.185441596142568388e-01 4.280955619611373386e+00
-1.216090320881792586e+00 4.580415302432317759e+00
-1.489914580052749571e+00 4.814823628128700683e+00
-1.761390032305447439e+00 5.145940854195182546e+00
-2.126324978997219617e+00 5.411936109149848129e+00
-2.612402655807951835e+00 5.508593497574455711e+00
-2.816847841739326785e+00 5.589859078102342949e+00
-5.003184618662669614e+00 3.681510844001762095e+00
-3.182157600439457390e+00 5.849178200507657799e+00
-3.433533849233395330e+00 5.832530339090845395e+00
-5.077867680365430125e+00 3.434334933788292687e+00
-5.221694993181801081e+00 2.822733271705895053e+00
1.121968863444830689e+01 3.561423156448240945e+01
1.019816547459139500e+01 3.616095215682980779e+01
2.403874888769993223e+00 3.912132972725829916e+01
1.659239226491221242e+00 3.901325087033985994e+01
1.093221921174969857e+00 3.892008854680032215e+01
5.554432937419002680e-01 3.894209980019195427e+01
-1.340807444649663172e+00 1.673245013598393882e+01
-2.073847898867900774e+00 1.587140897432293762e+01
-4.116863265241732073e+00 -3.089194657685475409e+00
-3.649090047584699015e+00 -2.989030806389922468e+00
-3.438757492495895463e+00 -2.910579408036130467e+00
-2.693363705348896797e+00 -2.077878328308273570e+00
9.671470949367504844e+00 3.655493458796846085e+01
1.930526991369240974e+01 2.400183565026527788e+01
1.890364145221334269e+01 2.487064582040003913e+01
1.841646386045469796e+01 2.665018444290129196e+01
1.832224994019136233e+01 2.759037239604442249e+01
1.819276821320507409e+01 2.823916105664154585e+01
1.802950930608539792e+01 2.883281622957352042e+01
1.767023307819506428e+01 2.977997633092633123e+01
1.702041523644921739e+01 3.209473272416194334e+01
1.672149298276174889e+01 3.264108481273193263e+01
1.643905939482939615e+01 3.316455165412182993e+01
9.298175947877959757e+00 3.682518929585365441e+01
1.596406042635905287e+01 3.378736908087174129e+01
1.475992993124958552e+01 3.530915845350008908e+01
1.407887434742731969e+01 3.610822172466062341e+01
1.364012884928851044e+01 3.643916512102552474e+01
1.305071562262657103e+01 3.688681021257804815e+01
1.239035635195172169e+01 3.735546511888288279e+01
1.181852118895746528e+01 3.787568124322481822e+01
1.107988561887393786e+01 3.834886887720833926e+01
1.019921498809391025e+01 3.870881044767622114e+01
9.360861571650859858e+00 3.902580110215495068e+01
8.632229143687366602e+00 3.711370940537668872e+01
6.295556911936592392e+00 3.555797443580886608e+01
5.611599598811104705e+00 3.560119203356973827e+01
4.983430309017818693e+00 3.556770427278274127e+01
4.284078803393424728e+00 3.529204843141232573e+01
3.589378977702774698e+00 3.508657303102268799e+01
2.997385420243236620e+00 3.501212311410133537e+01
2.257616423063916411e+00 3.470159584095127059e+01
1.267767056853805530e+00 3.437501038113857277e+01
4.395907413800491659e-01 3.362202475960474146e+01
-3.646055738073467611e-01 3.285890739203074418e+01
7.631206278555876743e+00 3.891175992517537452e+01
-2.718350219115928113e+00 1.312884141161012330e+01
-3.135428372686590581e+00 1.202482141783682401e+01
-5.509946274532155464e+00 -5.107149630359662851e+00
-5.808211120996054078e+00 -5.149549749913536090e+00
-6.539262300590567456e+00 -4.973492938606381308e+00
-6.866068517792453640e+00 -4.786410770385216118e+00
1.951120035480829173e+01 1.965870791687989794e+01
1.894841680474953094e+01 2.101832755820331400e+01
1.602813048561259279e+01 2.416574222267367489e+01
1.604895577835682019e+01 2.494132398185718813e+01
7.015345101190011867e+00 3.918491720879283235e+01
1.599830325091672734e+01 2.585609619245488133e+01
1.588634725805597547e+01 2.672775895639109578e+01
1.572172389531876036e+01 2.766115659657263492e+01
1.542847261789021296e+01 2.884661676628324045e+01
1.517523885772112635e+01 2.977778076190248413e+01
1.478323878693157489e+01 3.077632212624590125e+01
1.432371338074042200e+01 3.176908781018190453e+01
1.378113317580900521e+01 3.266684883463692302e+01
1.321826229727646407e+01 3.337086709040389820e+01
1.250624241123849778e+01 3.428164993191776944e+01
6.310863871501940281e+00 3.928065695561367932e+01
1.207457024415500335e+01 3.487564853175603474e+01
1.174747961930757789e+01 3.528920631277980391e+01
5.332916609423173249e+00 3.933401968707175200e+01
3.718145885418330021e+00 3.927608413403618925e+01
1.800667197101388339e+01 -9.875916350410278710e+00
1.798260322035259406e+01 -1.020578091765414541e+01
2.182852420922443315e+01 -1.476921922701499668e+01
2.266250874971088436e+01 -1.453576242783933914e+01
2.306624076901854181e+01 -1.516628926301949853e+01
2.368040913153679128e+01 -1.477531625804562587e+01
2.398631945933441756e+01 -1.542517136955343027e+01
2.461648116291760147e+01 -1.519336314959692480e+01
2.491371648482225254e+01 -1.580478305553476481e+01
2.543512348999048100e+01 -1.559725517899135561e+01
2.592578450838615822e+01 -1.577111596368369462e+01
2.600593660127325535e+01 -1.644261071351110104e+01
1.808004327654350973e+01 -1.079561383202370095e+01
2.664704041108872801e+01 -1.619055105581389853e+01
2.679995337790489884e+01 -1.687404070998241679e+01
2.737072608112659822e+01 -1.673743307776059197e+01
2.749231342293089142e+01 -1.735914150207939244e+01
2.807571556508428401e+01 -1.763646930649864686e+01
2.840290874175416391e+01 -1.801974241143223665e+01
2.891309160463722705e+01 -1.823659380761408499e+01
2.923875138440669375e+01 -1.795991534679579260e+01
2.971727410951685044e+01 -1.806815419608614803e+01
2.995723717853012147e+01 -1.786914573570271259e+01
1.831193269849961425e+01 -1.142779745512757117e+01
3.029752502310896745e+01 -1.782364506285622596e+01
3.033966476408038915e+01 -1.741769830511267259e+01
3.078434913464159806e+01 -1.739463070197556860e+01
3.079539405904860061e+01 -1.720390894289424821e+01
3.104317000158431483e+01 -1.696069084891727030e+01
3.098222756377028730e+01 -1.678924016511903261e+01
3.097227702149108808e+01 -1.652014897714142450e+01
3.068028127815954065e+01 -1.635839237778541033e+01
3.026932742832595835e+01 -1.626163671315846670e+01
3.038907637708360809e+01 -1.586475454850087807e+01
1.861825275627677456e+01 -1.199180968979321982e+01
2.984323902561515851e+01 -1.581119728629832011e+01
2.963948734386944750e+01 -1.530144188168149988e+01
2.905208919082529917e+01 -1.500077590014166340e+01
2.844360479879170001e+01 -1.426175017581296345e+01
2.780744698119218938e+01 -1.331296315064327196e+01
2.721258753082685544e+01 -1.288793032280898920e+01
2.715756018953461393e+01 -1.209787714344802367e+01
2.649875572954801939e+01 -1.197861139211951276e+01
2.659141123922340810e+01 -1.132624722459250144e+01
2.596964797941729586e+01 -1.133636699267283809e+01
1.900779146206798487e+01 -1.250030859745497125e+01
2.599918741100934128e+01 -1.078336179232285197e+01
2.543835883096334527e+01 -1.101716517605816215e+01
2.543284073614874075e+01 -1.038063105693305133e+01
2.487729964338487321e+01 -1.071001257536034501e+01
2.490953348554124247e+01 -1.012812603593932792e+01
2.458237288798987308e+01 -1.008811226789952720e+01
2.413273170325938466e+01 -1.033553434963510043e+01
2.402101968869225246e+01 -9.779441270859884128e+00
2.357112898657391042e+01 -1.015899859429369201e+01
2.321398301554355115e+01 -9.759248827157236406e+00
1.957448315405836325e+01 -1.303641985297967132e+01
2.231227703465849643e+01 -9.522383595105567977e+00
2.168430058713726893e+01 -9.258682162866469056e+00
2.119573095063694268e+01 -9.076002454640926587e+00
2.057564544560296582e+01 -8.875598874040571573e+00
2.000892274287034311e+01 -8.741983793446026496e+00
1.961787539448891948e+01 -8.720972949388521300e+00
1.931373078833142998e+01 -8.763142061566981056e+00
1.897565617336830357e+01 -8.859808002660855664e+00
1.865301611138617233e+01 -9.016612108234790313e+00
1.842538724353711288e+01 -9.193165453673090681e+00
2.015777839262085536e+01 -1.343060785411144842e+01
1.824854862674364853e+01 -9.392114581959747355e+00
1.810401207962140901e+01 -9.617373711915201184e+00
2.065322038142816652e+01 -1.400600436844298891e+01
2.139132023824244300e+01 -1.406857992840786054e+01
7.845696361947060105e+00 1.856561830990104767e+01
7.214476193014617067e+00 1.878739040626456713e+01
2.441746079218968024e+00 1.591776688027543685e+01
1.578398497979187409e+00 1.473829810872176083e+01
9.149836001436377764e-01 1.339950036695545421e+01
3.512893386405411267e-01 1.194956633938628521e+01
-1.017133668989553819e-01 9.941361995874560264e+00
1.417004485094060240e-01 -3.155868721677323574e+00
4.791942548084973108e-01 -3.614390137091043176e+00
1.046450267269441792e+00 -5.001689133624509509e+00
9.526424829365478519e-01 -5.263771582410187833e+00
-1.601574509158270487e+00 -6.602626912135069581e+00
6.655796796975446128e+00 1.865401614329547897e+01
1.564521709662568405e+01 1.135120470401266957e+01
1.583973606526977562e+01 1.230679855314905069e+01
1.595163878553158732e+01 1.848364172046700205e+01
1.498280804629079377e+01 2.013121102382273264e+01
1.415824862851110133e+01 2.065691160424666251e+01
1.348825137350056380e+01 2.096100553559732660e+01
1.271582848287465239e+01 2.122575788679422715e+01
1.192762638375503847e+01 2.140822609057509851e+01
1.124848566228474134e+01 2.146554516209137375e+01
1.051550440490931138e+01 2.145683999534689335e+01
6.172258141580553747e+00 1.869387134084261604e+01
9.943956954657735992e+00 2.136536333821873868e+01
9.512552997623869189e+00 2.124206618426088866e+01
9.089031854374482577e+00 2.108335138369732675e+01
8.508970234595203408e+00 2.087271609962493102e+01
8.081160007250659305e+00 2.069185162251511301e+01
7.784892956691113142e+00 2.056445657010858596e+01
7.497677470187692705e+00 2.043421360678849652e+01
7.018457943861577064e+00 2.026663356123155424e+01
6.443137412332045955e+00 2.008282756925393286e+01
5.943194049438197624e+00 1.990610926440384887e+01
5.922471221189906210e+00 1.866389214759140813e+01
5.601420346101862791e+00 1.977937401357016611e+01
5.231783267367016599e+00 1.961609520159365516e+01
4.814384825987128025e+00 1.934790148288260170e+01
4.302955265746046365e+00 1.891237983237342135e+01
3.814580512820918923e+00 1.847194590673938919e+01
3.325370177332557020e+00 1.801229186547924144e+01
2.426062112146872618e+00 1.719277299873337483e+01
1.357770475752952732e+00 1.569891342025689696e+01
6.751558785943818641e-01 1.409115220485331399e+01
1.686179908741967104e-01 1.274881119424849096e+01
5.623428317693356604e+00 1.850262497202142953e+01
-5.268898405817185049e-01 1.095985135882711070e+01
-1.037998104290298818e+00 -4.246364990865227007e+00
-6.103341889343936177e-01 -4.805361333241930488e+00
-1.171906654169717343e-01 -5.749923940963252100e+00
-9.931004356193427751e-02 -5.942229704685068725e+00
-3.093837361690507937e+00 -7.043675686524401236e+00
1.676025996685517327e+01 1.109350424077911690e+01
1.583539332336471439e+01 1.346595591692941341e+01
1.505838474488152734e+01 1.904991231645132288e+01
1.426001126760776749e+01 1.990088025161970720e+01
5.139197790440830360e+00 1.813000275437008568e+01
1.370868776203895756e+01 2.026905969155831855e+01
1.306132018393308059e+01 2.050657218524158765e+01
1.235810445720072615e+01 2.061133938239344587e+01
1.172763568123131073e+01 2.058379411576081708e+01
1.118177305222828366e+01 2.047804671765743478e+01
1.072377679773102876e+01 2.034437013958789464e+01
1.035931970279739822e+01 2.020871558785063726e+01
1.001548310228630356e+01 2.001307434487137726e+01
9.592611589235442437e+00 1.965581463462836354e+01
9.042932999569407215e+00 1.954755901154594611e+01
4.595522606576601277e+00 1.774493944296406767e+01
8.690914465508557285e+00 1.897439113188493565e+01
8.138891251799837079e+00 1.902078162783309878e+01
4.000855637571111068e+00 1.736534583513788732e+01
3.347981963196237754e+00 1.683183573557482049e+01
1.037118817868794274e+01 3.517214984500398600e+01
9.206553500833294379e+00 3.577093980526706218e+01
2.067190259512481809e+00 3.658541380923010422e+01
1.184723104389964421e+00 3.609871980558260418e+01
4.398304218527043230e-01 3.536396820059461277e+01
-6.141096802904956187e-01 3.438154060087190800e+01
-3.792553058334726668e+00 1.460814334202621190e+01
-4.439721071664014751e+00 1.338193892267914009e+01
-5.087658567925934960e+00 1.243416168558427515e+01
-9.737179356769908978e+00 -2.483368163837946785e+00
-9.677821752566789115e+00 -2.982109234489943805e+00
-8.183545282243413155e+00 -2.598550415078683784e+00
8.493846921178070275e+00 3.626305102135091118e+01
1.833060793017733303e+01 1.992949728674652476e+01
1.770036077018018617e+01 2.103886214322529824e+01
1.561077528202271836e+01 2.273438421043080027e+01
1.448742683982946389e+01 2.479837576639268448e+01
1.458443734019013682e+01 2.597611209874559179e+01
1.448963593450370091e+01 2.669488122291331322e+01
1.429535409933485113e+01 2.767038050472549315e+01
1.407331523844064591e+01 2.856756861571674477e+01
1.380977710768471134e+01 2.944095798814845466e+01
1.356863925931448023e+01 3.011109762599895134e+01
7.870074294102228585e+00 3.673135668051249070e+01
1.323970624596715240e+01 3.080168312683478860e+01
1.285684959389580762e+01 3.143159408468535077e+01
1.244546535680759014e+01 3.198693719019365034e+01
1.188131008483285100e+01 3.253597826705257035e+01
1.132874164113466620e+01 3.317929364493095079e+01
1.075419552787614741e+01 3.373295399279990647e+01
1.017827609017568591e+01 3.426652235347301456e+01
9.598497968109894529e+00 3.479609249339898014e+01
8.857970307298742796e+00 3.514395396825595697e+01
8.078209672068274116e+00 3.564872898400281542e+01
7.223787333674539290e+00 3.705303714782770186e+01
7.343184902178406581e+00 3.608763881508892979e+01
6.612453280709146952e+00 3.648534043579415709e+01
5.740216265165298815e+00 3.671565029456587581e+01
4.798782567290387213e+00 3.679130807145403992e+01
3.812147978113181512e+00 3.674532160606599263e+01
2.759142877164518115e+00 3.650224236655720489e+01
1.832664287485290089e+00 3.620914385663336788e+01
1.007177495080990637e+00 3.588135073603804415e+01
-2.871079748271412324e-01 3.529467980676304251e+01
-1.359788112727218889e+00 3.438603060520088661e+01
6.473752652349197945e+00 3.725612207028891731e+01
-3.525179433846236776e+00 1.382739090785163683e+01
-4.009189947855844594e+00 1.273100039246044446e+01
-4.742854909884330894e+00 1.135618799827576630e+01
-1.141279506338542404e+01 -2.492953325650255625e+00
-1.147994586513177673e+01 -3.312724278315581916e+00
-8.258865088774259178e+00 -3.440720468497853624e+00
1.840972927693454153e+01 1.906427807346843295e+01
1.773060066750139896e+01 2.001307243225141619e+01
1.519754060154878417e+01 2.335606725736054656e+01
1.511659079155587371e+01 2.428821568523648722e+01
5.677607024162572458e+00 3.733753265172602198e+01
1.503396202579279617e+01 2.546558799800633111e+01
1.494763952677542562e+01 2.666891998275529119e+01
1.482157817887641649e+01 2.754706206530372370e+01
1.464900860426078921e+01 2.842401957011415803e+01
1.441043732430254565e+01 2.941335558494133195e+01
1.416834281802284146e+01 3.037644404417796551e+01
1.381796386144713473e+01 3.128730725585199934e+01
1.339595864774943657e+01 3.210201713473081497e+01
1.281496463623506088e+01 3.286017074912586367e+01
1.218587879343423097e+01 3.360490315933383698e+01
4.792266043890827554e+00 3.729277410971987194e+01
1.138593431135650924e+01 3.429946988354184612e+01
1.087894726605599161e+01 3.470045392446437660e+01
4.045673545353617229e+00 3.720675656232363337e+01
3.072177246448423382e+00 3.695200780256519835e+01
4.731060340203575798e+00 -5.489207150629233922e+00
5.620002804461072365e+00 -5.673161351973821098e+00
1.089216735211760323e+01 -8.798096391540550343e+00
1.039800882261133097e+01 -9.159934642083790379e+00
1.024638899098068201e+01 -9.644855048877541748e+00
9.750773568467948849e+00 -9.899212749006444767e+00
9.277899596423669237e+00 -1.034360210906398514e+01
8.639775490960005300e+00 -1.059745921053099060e+01
8.132056844398054096e+00 -1.094773267762399094e+01
7.684592248787657454e+00 -1.075020344883456680e+01
7.171049287831285923e+00 -1.120124154205268319e+01
6.775014789208529287e+00 -1.126345950228295756e+01
6.677138370869876383e+00 -5.700674141940454298e+00
6.406959941945189918e+00 -1.145041252544588595e+01
6.011028462050147958e+00 -1.156192715040152308e+01
5.711671579397036069e+00 -1.198520366701000839e+01
5.190996031879714145e+00 -1.183858742826729049e+01
5.064517881406653821e+00 -1.254982973971080717e+01
4.613238557271198026e+00 -1.208930113286147368e+01
4.323376949197465180e+00 -1.262506892094924460e+01
3.882566309615343769e+00 -1.229020182855867027e+01
3.538705564874901288e+00 -1.180996299372617209e+01
4.121406432865076575e+00 -1.141975701655401210e+01
1.075356644343659340e+01 -5.180190002956638118e+00
3.651274014318389938e+00 -1.087649589255903315e+01
4.367993034738897329e+00 -1.068059530451686534e+01
4.921439862902333040e+00 -1.020914789213733798e+01
4.272764308841485281e+00 -9.534851997071596585e+00
5.337274664311176586e+00 -9.351399261887538117e+00
4.877036050838436054e+00 -8.807348125306569742e+00
4.763909359749736616e+00 -8.245244734621255844e+00
5.496243196113064222e+00 -8.338105489638465428e+00
6.272410082569896517e+00 -8.445153015916295303e+00
6.703766190273125147e+00 -8.160205340806193419e+00
1.118434742381115932e+01 -5.899184900213658267e+00
7.153083007359278156e+00 -7.896017727066241498e+00
7.851115795771855588e+00 -7.741114938029001635e+00
8.400991787957011070e+00 -7.216708141648418007e+00
8.977233793920674998e+00 -6.804966663659076431e+00
9.035220329439663800e+00 -6.008142706357814333e+00
9.222940663170598796e+00 -5.287648240557316193e+00
8.714999884613254366e+00 -4.774164372460582229e+00
8.639263131469554935e+00 -4.045336437144359643e+00
7.773255172873652974e+00 -4.073894362899393329e+00
7.283288834907335918e+00 -3.406903305042091379e+00
1.072406679917417271e+01 -6.471795108858894530e+00
6.520493001311498560e+00 -3.595547435889759225e+00
5.931904702497370785e+00 -3.331144422538715677e+00
5.658844427833957802e+00 -3.063038790038723480e+00
5.082339121068430110e+00 -3.491749847630793546e+00
4.778647873425403425e+00 -4.043097946880787497e+00
4.169594779691978559e+00 -3.804174003243876889e+00
3.996931340107511055e+00 -3.422549691938842731e+00
4.273935668281557909e+00 -2.916909837553017582e+00
4.010020851884086746e+00 -2.610426808474423765e+00
4.380957129982234299e+00 -2.095110159049534460e+00
1.122519032913221260e+01 -7.008150698791941302e+00
4.168649945140455948e+00 -1.703941886105135639e+00
3.772166088331804890e+00 -1.409285754565968940e+00
3.475429797768588625e+00 -1.771235946422464735e+00
3.081151915036723921e+00 -1.523343622246897011e+00
2.757159152266059010e+00 -1.862768078560073537e+00
3.020484888224238329e+00 -2.335954291725300891e+00
2.592030236018230571e+00 -2.552357645228804373e+00
2.778015070888382620e+00 -3.000593863977257580e+00
2.856543120618251663e+00 -3.548458518303031717e+00
3.000025269429275721e+00 -4.162112566260946167e+00
1.064484415512879956e+01 -7.456423243284446833e+00
3.462551685721722006e+00 -4.660832663572577417e+00
4.030664047678469863e+00 -5.114662181695016407e+00
1.115796926870531180e+01 -7.913002670073314704e+00
1.066818662202480006e+01 -8.273432100494698460e+00
2.485396769452996324e+01 -2.152589844431192390e+01
2.507990552139617080e+01 -2.114840196204566070e+01
2.158818724382823717e+01 -2.076726558197958994e+01
2.087440733283867900e+01 -2.070835742268577206e+01
2.008797840765699760e+01 -2.040326156115962419e+01
1.940432256051585114e+01 -1.996094968951556581e+01
1.898462668471751869e+01 -1.962965238856605765e+01
1.865170504608454038e+01 -1.922735885033194947e+01
1.838966937987567007e+01 -1.869554950872614185e+01
1.851488089770433731e+01 -1.807603128600042552e+01
1.845892132173522882e+01 -1.787751096720436550e+01
1.927211000328592760e+01 -1.763526883230643350e+01
2.531622372329366755e+01 -2.073412395427900279e+01
1.990180334039260401e+01 -1.753155402885317571e+01
2.066979696059221538e+01 -1.756356791757145430e+01
2.123404003850283317e+01 -1.765686215062772746e+01
2.186506366914791499e+01 -1.783665892539691811e+01
2.230662501341517157e+01 -1.800268437912548691e+01
2.279329350880647098e+01 -1.810088180522778600e+01
2.294239182455462256e+01 -1.832448029614061369e+01
2.324692217714197895e+01 -1.844584665434431514e+01
2.337976886921083874e+01 -1.867013146984317373e+01
2.348766461363664604e+01 -1.898781246876714945e+01
2.536386612195243373e+01 -2.021422046897961877e+01
2.247115530578705034e+01 -2.196664261847831057e+01
2.271596493480781120e+01 -2.234514336547123037e+01
2.293721337924633374e+01 -2.270380597920271271e+01
2.313646431975858775e+01 -2.310755091405151518e+01
2.315238515643283890e+01 -2.340963082293035313e+01
2.305726854335295428e+01 -2.368633734912478417e+01
2.293662880517612379e+01 -2.383554708944265244e+01
2.265419137195766552e+01 -2.398521411558345662e+01
2.222644279474097928e+01 -2.402538876719234295e+01
2.166121942939676259e+01 -2.393692173544981472e+01
2.506371366685837998e+01 -1.994643259828460202e+01
2.114036089828340437e+01 -2.372614706971576837e+01
2.092812963212738708e+01 -2.347999984710545363e+01
2.070076437863757235e+01 -2.315789724056176269e+01
2.046453836559895478e+01 -2.281933793151667444e+01
2.030027708092578820e+01 -2.251647181894535166e+01
2.003094726734897435e+01 -2.222857443676629785e+01
1.968643461296073127e+01 -2.197477607626667151e+01
1.928727422681712511e+01 -2.161237462654345265e+01
1.887199688002463560e+01 -2.120475662800923544e+01
1.853099477558850694e+01 -2.090471192776352893e+01
2.464362303359350648e+01 -1.977968535291803320e+01
1.823027352630189313e+01 -2.040554585109139296e+01
1.801754754380177204e+01 -1.999547781591939000e+01
1.789009720256507308e+01 -1.951496268455704453e+01
1.783775296639331742e+01 -1.900556139670298705e+01
1.801105830084131654e+01 -1.857271285602097421e+01
1.858263403820900095e+01 -1.835031149118062643e+01
1.907458977317264370e+01 -1.830251593694644541e+01
1.990347896110739256e+01 -1.826028751476885859e+01
2.072799788449406222e+01 -1.847382471209361654e+01
2.138472948599477519e+01 -1.864788483681323683e+01
2.415534399287193779e+01 -1.971705099851485699e+01
2.189835489012650882e+01 -1.899810959174656233e+01
2.241622268766592896e+01 -1.932124623072658665e+01
2.268661815284930938e+01 -1.947714441247365258e+01
2.274304289480666696e+01 -1.979639896634517271e+01
2.277658494052628768e+01 -2.005917333904944400e+01
2.277076675634868508e+01 -2.038963205507349485e+01
2.279818976396140329e+01 -2.057639842638789318e+01
2.293139100680306441e+01 -2.089492522543333664e+01
2.310525964121206854e+01 -2.122922969769064139e+01
2.361241519419966650e+01 -2.141117627325787609e+01
2.358683237110167852e+01 -2.006156514266337254e+01
2.419492905766064439e+01 -2.151053617825106556e+01
2.461266608805267708e+01 -2.152564116208423073e+01
2.209907379005825945e+01 -2.039164978200155431e+01
2.213209900138449981e+01 -2.052207507479831605e+01
8.974519163351375894e+00 1.314612210096003864e+01
8.129015823147202724e+00 1.317963949396100531e+01
2.649175634832201531e+00 1.236685778181239925e+01
2.237867505576883520e+00 1.137932078087261445e+01
1.977724604128527908e+00 1.026420260647656946e+01
1.873912705831086711e+00 8.903009640425493032e+00
2.066294912159404529e+00 7.659177020317947004e+00
2.864286195207736085e+00 5.649399809547827722e+00
1.215948816525780574e+00 -7.519622544465854652e+00
7.249784262471484775e-01 -8.166220747196259566e+00
-1.118518578172708611e-01 -8.518789343323572183e+00
-1.829625208733568043e+00 -9.008137384491186950e+00
7.327919444658711257e+00 1.332661615753626450e+01
-2.331588244208072425e+00 -8.918257157053460560e+00
1.775981958389705184e+01 1.302320186756921849e+01
1.734866971504120414e+01 1.383793836939435984e+01
1.678651138945057397e+01 1.459091227092470788e+01
1.582747756622373814e+01 1.539730973542842030e+01
1.490131175908235583e+01 1.582243060674071700e+01
1.402926462113503447e+01 1.607035901038742409e+01
1.322934437710168787e+01 1.608976452072966623e+01
1.253272769337754333e+01 1.606183542612908255e+01
1.156249544776166616e+01 1.641407883493423014e+01
6.792875804598144995e+00 1.346600022166531829e+01
1.096456711151136787e+01 1.623425524988089208e+01
1.042083569181831315e+01 1.604292203150857787e+01
9.977805361841928899e+00 1.563020087773183953e+01
9.663729513437861129e+00 1.502792263139698647e+01
9.339372591672644219e+00 1.451887284783801668e+01
9.264103968610887918e+00 1.406905913928605933e+01
8.969658428079206658e+00 1.398635630374548811e+01
8.333153687273664900e+00 1.405448152211118718e+01
7.660559893916974339e+00 1.424276836622040499e+01
7.164217546465615705e+00 1.441185999617852431e+01
6.316256699515061968e+00 1.350765960169622559e+01
6.638069466209138625e+00 1.454397520250731013e+01
6.003137244327411359e+00 1.460450145532470145e+01
5.325494490496432753e+00 1.454276364987384085e+01
4.629219043696568114e+00 1.433990854115849700e+01
4.353205489187844890e+00 1.308372142559868223e+01
3.709903379379875688e+00 1.259261141521260896e+01
3.193714894506316515e+00 1.201233945786757040e+01
2.657653338485304495e+00 1.120805459012206207e+01
2.256471368545358125e+00 1.015308245262229292e+01
2.083539803895834819e+00 9.340871413962355874e+00
5.822703519400003636e+00 1.382450973606619726e+01
2.228384208240631548e+00 8.070798225371095924e+00
2.650837017448989474e+00 6.430842844397074209e+00
1.937316775758064713e+00 -7.290462992488690119e+00
9.640806771198213720e-01 -8.614967677243873467e+00
3.117369714169286876e-01 -8.983826514920879802e+00
-1.560559552740880429e+00 -9.522378780893443917e+00
1.847650237945622820e+01 1.199210122831689951e+01
1.808724766506936987e+01 1.273207705881399932e+01
1.753988117944550496e+01 1.361146687381474507e+01
1.673029297206339194e+01 1.468107744446233021e+01
5.393037500767840164e+00 1.349493338895650218e+01
1.580192131957259605e+01 1.571598194820738037e+01
1.500914338965969641e+01 1.635750566963708152e+01
1.406314584522937672e+01 1.681903536863721271e+01
1.313617075414118851e+01 1.701947831298240033e+01
1.229647365664576064e+01 1.688356906987887740e+01
1.194312213849988602e+01 1.571586016976215205e+01
1.163258711930715350e+01 1.520148605963166233e+01
1.103452585225449667e+01 1.523796618553481430e+01
1.093431162191419759e+01 1.462781378739108895e+01
1.049665331038781702e+01 1.417940896359879943e+01
4.698108007975558387e+00 1.378030495891522378e+01
9.894035660079484984e+00 1.357769115525121784e+01
9.387292396395427119e+00 1.324223845942714917e+01
3.851581535464077444e+00 1.386408956476578425e+01
3.224731393410126934e+00 1.323431078831038299e+01
