-1.945830074337472837e+01 8.519970393709863643e+00
-1.958382267753756523e+01 8.624139437825473209e+00
-2.061956746265908791e+01 1.357261261308048894e+01
-2.059796312325274670e+01 1.455171347104033508e+01
-2.050889971519525545e+01 1.526952506587796066e+01
-2.043082114435704710e+01 1.594357565695529999e+01
-2.026304821130749545e+01 1.657411044982455195e+01
-1.999818920203284378e+01 1.717483370237183848e+01
-1.949379755084678933e+01 1.769231274477811411e+01
-1.874726958910153840e+01 1.803140052814886829e+01
-1.808576848344385013e+01 1.790796859263060625e+01
-1.753489452553997907e+01 1.777333831462444280e+01
-1.978517728676164467e+01 8.904746723006278231e+00
-1.711488492825153429e+01 1.734352120011629594e+01
-1.676168678906438458e+01 1.684918037865123353e+01
-1.636256343904006272e+01 1.622245131468190493e+01
-1.596346631743830713e+01 1.533231788534075690e+01
-1.568978583784510938e+01 1.444109894701201036e+01
-1.545086260755788210e+01 1.358208167055759041e+01
-1.541102802436566499e+01 1.268032026649046884e+01
-1.531303040812594318e+01 1.194704133443675964e+01
-1.521797748959320629e+01 1.118476064697015815e+01
-1.519185749830244525e+01 1.028464881454519109e+01
-1.992980203567014286e+01 9.155462310207227006e+00
-1.501593136832322983e+01 9.647272569163993339e+00
-1.495191014568852061e+01 8.729215906492889587e+00
-1.429488168117851288e+01 8.628277174905377933e+00
-1.437601379460477524e+01 7.980962416190172881e+00
-1.417293233971969535e+01 7.524979831011231468e+00
-1.365542534635196681e+01 7.660794384065483520e+00
-1.363685317431546018e+01 7.225065318635894407e+00
-1.330082161195419665e+01 7.175924966656348936e+00
-1.296510006768441237e+01 7.314230584154504555e+00
-1.290397542729213676e+01 7.869989639225497768e+00
-2.014617174412468259e+01 9.668929668039465852e+00
-1.244210896253122201e+01 8.124828436307389268e+00
-1.271639992012937093e+01 8.701501852185547392e+00
-1.245712075490072479e+01 9.205250283224986063e+00
-1.278981170185659977e+01 9.875541898251453787e+00
-1.295580063316870501e+01 1.068749693117231203e+01
-1.917952019483177040e+01 1.332048205374493044e+01
-1.909382031639123767e+01 1.405664455620672904e+01
-1.951610214982502711e+01 1.464684679255445232e+01
-1.918140082214437214e+01 1.521500475248651263e+01
-1.954690064944028194e+01 1.581451436753783391e+01
-2.027485762400072744e+01 1.002226792012112178e+01
-1.918128876878048317e+01 1.620738852011633568e+01
-1.942463641214404291e+01 1.677130919933346220e+01
-1.893131499863370237e+01 1.694715814435196322e+01
-1.881448401986157037e+01 1.738832813047744352e+01
-1.819331900923609524e+01 1.713454776179845140e+01
-1.807828427746105504e+01 1.672133673352657723e+01
-1.762041015138835576e+01 1.642805930907541523e+01
-1.739108776029159387e+01 1.591852059530532770e+01
-1.705576713230989228e+01 1.525966251532131324e+01
-1.685543601933940749e+01 1.452060630486839088e+01
-2.040493638484409544e+01 1.056921476996136633e+01
-1.677442700655419827e+01 1.371323532630331954e+01
-1.669491531103219017e+01 1.283002609673583194e+01
-1.679410845643814554e+01 1.196460738970931459e+01
-1.697861011035817569e+01 1.121612995095197896e+01
-1.723735109471769889e+01 1.037988670010454051e+01
-1.753466252305733519e+01 9.816138634938729624e+00
-1.789403174259017248e+01 9.311486055374054160e+00
-1.839110417618300986e+01 8.887944991614075363e+00
-1.870309312293037962e+01 8.654288122729129284e+00
-1.900092793033597616e+01 8.521241116313582609e+00
-2.049094825688419164e+01 1.112102675641776806e+01
-1.922376389350705495e+01 8.473510406310158061e+00
-1.935450879089347964e+01 8.499926655002873588e+00
-2.055874913367936685e+01 1.191788687388133994e+01
-2.058854257947566779e+01 1.263782762683090510e+01
-2.639834901525407673e+01 -2.281981843802052268e+00
-2.617170481969574780e+01 -3.138117266123934712e+00
-2.975653667768961341e+01 -3.338895273068947400e+00
-3.028594981784952722e+01 -3.218746789055094926e+00
-3.082364204049810397e+01 -3.009511279200048239e+00
-3.154623585349669312e+01 -2.837006946781827743e+00
-2.698671412658893942e+01 2.400815728539157945e+01
-2.645361531534710053e+01 2.517755482060152161e+01
-2.570754490300537753e+01 2.603591421172104603e+01
-2.529429465137569721e+01 2.631520176039597558e+01
-2.497425353332069164e+01 2.636297149695749908e+01
-2.410836619517316848e+01 2.617503111773959645e+01
-2.662314615952960395e+01 -3.295067091998132636e+00
-2.342499166303360170e+01 2.581271900202284542e+01
-2.278644237424939334e+01 2.503666054494583904e+01
-2.551076553845047101e+01 5.571477744437854263e+00
-2.560469760605860046e+01 4.643375854900670063e+00
-2.569659461108505738e+01 3.827536964292221899e+00
-2.569889080670722237e+01 3.299895702543344189e+00
-2.576507952562433346e+01 2.645635406040606874e+00
-2.576828956082875877e+01 2.065646769337952549e+00
-2.582317430377149137e+01 1.317287497496125948e+00
-2.583365338760571817e+01 7.848463309403451715e-01
-2.688085109167408859e+01 -3.544102280258806470e+00
-2.590026093566076426e+01 1.591662426081479065e-01
-2.594838360271690192e+01 -3.172397872546155462e-01
-2.588261494895326464e+01 -6.925678676227292607e-01
-2.587977647580216711e+01 -1.073851742947315779e+00
-2.581526526521875198e+01 -1.403219568889009672e+00
-2.578376323427096040e+01 -1.807956215899825692e+00
-2.569602828304872943e+01 -2.274724009962712401e+00
-2.585028968537910998e+01 -2.679739161222209010e+00
-2.649602038167837392e+01 -2.675203912161332909e+00
-2.696768639825358349e+01 -2.629648635322195727e+00
-2.729761939446575880e+01 -3.534634871413178114e+00
-2.731210997157769427e+01 -2.582975324443226750e+00
-2.761853521969387870e+01 -2.707921843368889636e+00
-2.792662063369740011e+01 -2.437867519046779119e+00
-2.823241487486162171e+01 -2.555410711015336123e+00
-2.868960478365378464e+01 -2.446897090792017782e+00
-2.920962672531982562e+01 -2.409088694204284842e+00
-2.986602526420976389e+01 -2.247190498812885462e+00
-3.055841980144299086e+01 -2.059535305058123544e+00
-3.135719402394727240e+01 -1.832975560054076247e+00
-2.613372433010796314e+01 2.330892175112312614e+01
-2.761023509488569516e+01 -3.696679638575459226e+00
-2.573275851079350218e+01 2.419497025969958415e+01
-5.912796205361446233e+00 3.233176764764277067e+01
-2.502676739055175759e+01 2.666710553627138580e+01
-2.476108345682964895e+01 2.670025968704901587e+01
-2.423660607016731916e+01 2.659942480901295880e+01
-2.365483399049617930e+01 2.636539737191166921e+01
-2.271798072614764052e+01 2.605362710601162490e+01
-2.639467360863046252e+01 5.880542063504456962e+00
-2.640074369441280666e+01 4.956841315577849016e+00
-2.635420747528412022e+01 4.196650478637440784e+00
-2.801352483038780861e+01 -3.701926651696011650e+00
-2.636652417505423784e+01 3.345625922452644563e+00
-2.634913420503538006e+01 2.857511410361798898e+00
-2.637172472383599597e+01 2.065236294826100494e+00
-2.642831585821283014e+01 1.531493577692687458e+00
-2.653502074953568268e+01 9.325894189373286070e-01
-2.662516149267076671e+01 4.024768030290358789e-01
-2.670831516613240808e+01 2.085275825453310888e-02
-2.679319850142033843e+01 -3.612769615529702327e-01
-2.676727352201323029e+01 -7.513450678249474768e-01
-2.679065182548881197e+01 -1.126664887750122190e+00
-2.832858679102608690e+01 -3.447797588275090419e+00
-3.701599580249308019e+01 5.920409489248929447e+01
-2.656490649709795804e+01 -1.764276494269839235e+00
-2.878172530536566853e+01 -3.482357711627332986e+00
-2.919111191777717806e+01 -3.426402774337331092e+00
-3.980774724883752214e+01 4.342765789042980273e+00
-3.966195213639861095e+01 4.174193540410052528e+00
-3.798407344147852172e+01 3.905225581231129617e+00
-3.771048427770656275e+01 4.261246331833320689e+00
-3.722754959308361578e+01 4.056799840241240851e+00
-3.676830082400404365e+01 4.061950186425500320e+00
-3.683928954767367259e+01 4.515987367466668623e+00
-3.654618319108095648e+01 4.590712742680952196e+00
3.903129808532821698e+01 3.529635145722602374e+01
-3.702139175500743562e+01 5.218860215884145504e+00
-3.668781252194403208e+01 5.849489528481162104e+00
-3.633361855067154522e+01 5.119837035942067516e+00
4.050236502831199914e+01 3.839551705183571073e+01
-3.673889399956213708e+01 5.379138684585617725e+00
-3.566096753675410724e+01 4.953209666370595343e+00
-3.637238252571992803e+01 5.396337800325558653e+00
-3.579835360080615203e+01 4.741770954378590197e+00
-3.597155552995287309e+01 5.746835242690970347e+00
-3.555805180429261725e+01 4.681279971958892894e+00
-3.565588066947695012e+01 5.506398751011717607e+00
-3.527131190031835928e+01 5.302087878794678133e+00
-3.509745489272022922e+01 5.824956491521249724e+00
-3.511971090975015386e+01 5.451923313376688007e+00
-3.899150360239166702e+01 5.363160199272480000e+00
-3.529377176288890894e+01 6.075569953055462769e+00
-3.466030463496234404e+01 5.848928414746911386e+00
3.792695715095388209e+01 3.259818529263894504e+01
-3.435900000455141878e+01 6.293179241156047432e+00
-3.400751011338649477e+01 6.573237804248479144e+00
3.816562699139649339e+01 3.200464663360817497e+01
-3.447320384271338867e+01 6.791493549311618416e+00
3.785599778917659819e+01 3.169244690420884325e+01
-3.417932834442564882e+01 7.198890982755209222e+00
-3.357022219610047387e+01 6.927876389514629807e+00
-3.897822903558834895e+01 5.328211234842082256e+00
-3.366728325975925884e+01 7.283165345954999204e+00
-3.433684561437523541e+01 7.536641489606854094e+00
-3.312995443981765220e+01 7.549104155227628787e+00
-3.356146927884077513e+01 7.779721280151413509e+00
3.672677515574812901e+01 3.177224472788327958e+01
-3.358564254556956996e+01 8.048437444897912130e+00
3.698382839048084492e+01 3.096391595756128012e+01
-3.303300363449304911e+01 8.174158659709810593e+00
-3.332247936234359287e+01 8.467894918621837519e+00
-3.366263189107780818e+01 8.664739125426082822e+00
3.954221434644769317e+01 3.783572437257817000e+01
-3.393098349997718088e+01 8.595272707046540006e+00
-3.427237767356103859e+01 8.499823920373181352e+00
-3.458772862807762039e+01 8.472664960461486316e+00
-3.431301370859580402e+01 8.957219988465588756e+00
-3.490392391098001212e+01 8.833402655149440008e+00
-3.529198332903047941e+01 8.502807417895395403e+00
-3.578751020514452108e+01 8.737993499779141970e+00
-3.590556895838333418e+01 8.653272078799117750e+00
-3.646770700375110863e+01 8.533005129901482633e+00
3.600048228275746709e+01 3.448914438820592210e+01
-3.887150379320640070e+01 4.900060264424614509e+00
-3.706948842795714683e+01 8.269235306852198875e+00
-3.740958709706275442e+01 8.012233638646495848e+00
-3.777717840430928931e+01 7.820816920744256606e+00
-3.818197126535743990e+01 7.473385413764500385e+00
-3.865961420467969134e+01 7.126572361038371994e+00
-3.931292488148223896e+01 6.434077773313642723e+00
-3.953009575715834245e+01 6.224545784069963617e+00
-3.966680941110674752e+01 5.893141605930658500e+00
-3.998894849590348599e+01 5.501057848217165258e+00
-3.997271503415886684e+01 4.999207137837242243e+00
-3.883105575052502445e+01 4.433996821595851401e+00
-3.996518763023423304e+01 4.773426732188688071e+00
-3.983337580550014678e+01 4.476445117375666527e+00
-3.863758127182891400e+01 4.184870909069386968e+00
-3.838407403276709573e+01 3.943816272462160377e+00
-1.173270807805373117e+01 -1.132447734543494278e+01
-1.162419923075435513e+01 -1.168760628570689164e+01
-1.952447208113147070e+01 -4.709976200885434672e+00
-1.907832205397194159e+01 -4.707175254200107517e+00
-1.857468025211455398e+01 -4.860036275754898938e+00
-1.818762972087288787e+01 -5.005210634079322318e+00
-1.780539262947953105e+01 -5.179571645704448279e+00
-1.740336955199630609e+01 -5.311380859926836173e+00
-1.719071697842924351e+01 -5.711985954391860076e+00
-1.677976415349655070e+01 -5.705555443745301325e+00
-1.661797711354445539e+01 -6.108414119740577242e+00
-1.616320754278500971e+01 -5.871995072056602538e+00
-1.154110132981855408e+01 -1.200162171091428576e+01
-1.601699103236637001e+01 -6.175264081746091982e+00
-1.561460980975494373e+01 -6.178891374722074836e+00
-1.576975576349509112e+01 -6.655920376638585267e+00
-1.548451544623967457e+01 -6.792203157482934017e+00
-1.563701016888934170e+01 -7.179856800469752720e+00
-1.594964887348494287e+01 -7.752433618369336976e+00
-1.721087879279355803e+01 -9.325838747668553808e+00
-1.714660794317109804e+01 -9.857265834844399777e+00
-1.722010195635216334e+01 -1.022734479390507190e+01
-1.737672538531488087e+01 -1.062469410261371827e+01
-1.145468328645412726e+01 -1.239692238652769873e+01
-1.761723064455471643e+01 -1.108466972893025293e+01
-1.789399585799684544e+01 -1.148793579308735069e+01
-1.815254114551967390e+01 -1.175619941451780015e+01
-1.835528527451351266e+01 -1.188971229590285716e+01
-1.857582476191625886e+01 -1.197115483522807189e+01
-1.879150669498097415e+01 -1.199718779852171302e+01
-1.903262308473936315e+01 -1.197448184157599194e+01
-1.927065542079346727e+01 -1.188986043658126590e+01
-1.954897147121346990e+01 -1.171891586355441639e+01
-1.980364548140908099e+01 -1.143403353536089817e+01
-1.139285068223187025e+01 -1.273586392733642469e+01
3.769026756372583264e+01 4.891984172012945109e+00
-2.037837404534842634e+01 -9.753683877166485772e+00
-2.046364530620786937e+01 -9.260836978058769375e+00
-2.047207694728107441e+01 -8.804328866897460415e+00
-2.041898928351189468e+01 -8.318547775519565590e+00
-2.033854215013655065e+01 -7.876386998557868502e+00
-2.005001863592527300e+01 -7.534356423863919794e+00
-1.974304735082240470e+01 -7.175893667815302912e+00
-1.927161683346111332e+01 -6.918591043384689776e+00
-1.876582810666001677e+01 -6.747323655842018653e+00
-1.135504977022573669e+01 -1.300808121611182244e+01
-1.828189162970745585e+01 -6.722712298587559587e+00
-1.787703544582828386e+01 -6.774875398407236737e+00
-1.761942542794831112e+01 -7.146747631951645197e+00
-1.720617695697723093e+01 -7.004505779401504206e+00
-1.756443107705430506e+01 -7.807196667386818056e+00
-1.693285001097187248e+01 -7.436765285756878008e+00
-1.688633611109771593e+01 -7.861754374682450752e+00
-1.693194801889973888e+01 -8.274275227125647447e+00
-1.662321322776280752e+01 -8.540515627425135037e+00
-1.634900840768542807e+01 -8.942538603974220734e+00
-2.176044652520346645e+01 -5.157931627688303600e+00
-1.589653232296842233e+01 -8.801448348261891041e+00
-1.541849063060131186e+01 -8.756618111970482232e+00
-1.484287367873722197e+01 -8.640413150087757899e+00
-1.420028660628711137e+01 -8.898468146527719114e+00
-1.368913918244590100e+01 -9.234163324232589787e+00
-1.324376242922946645e+01 -9.570195432126654467e+00
-1.292234474080501627e+01 -9.838185032961131782e+00
-1.265233125886867249e+01 -1.009790545210472779e+01
-1.241090618719835881e+01 -1.035227781860321272e+01
-1.220234214307003917e+01 -1.060869095376403237e+01
-8.359401003632076055e+00 6.910607985434020861e+01
-1.203170526809293328e+01 -1.081645885063032075e+01
-1.185593084163820343e+01 -1.106807996403287753e+01
-2.089019442400296356e+01 -4.911764625987943056e+00
-2.020354863217314190e+01 -4.801877030200848218e+00
8.856599392919898506e+00 1.501969878522704072e+01
8.725160202368950735e+00 1.587458274788697921e+01
1.612401402710260712e+01 1.856394948605889894e+01
1.609213526936106220e+01 1.772770511330913479e+01
1.551920499652491259e+01 1.656159534290733504e+01
1.440246194517230549e+01 1.569586281097430991e+01
1.251059594112847861e+01 1.532912629091925005e+01
1.122648230826140647e+01 1.483136121672304952e+01
1.066953014284116819e+01 1.483029593336191887e+01
1.019081357815434430e+01 1.509994505934478859e+01
1.007923387824425454e+01 1.578637474208310110e+01
1.011423811651390103e+01 1.649644485054411902e+01
9.208609172479343741e+00 1.736831291804787369e+01
1.042704077144040475e+01 1.732209793434458334e+01
1.139672585689153372e+01 1.894501024194710936e+01
1.256300101502378119e+01 1.949781899927041806e+01
1.338489086563155794e+01 1.946559426561892892e+01
1.391872212510106444e+01 1.931127675734696325e+01
1.433400271218729394e+01 1.911105047926997358e+01
1.459733751143823000e+01 1.898614802820882019e+01
1.462625259305717229e+01 1.866593380201792840e+01
1.487284795248107194e+01 1.838528962463878358e+01
1.482346823416275861e+01 1.789599095409181473e+01
1.073492785933808769e+01 1.888240545135085213e+01
1.485577275993434121e+01 1.724381223112065342e+01
1.453116866402835150e+01 1.652343099008400173e+01
1.286927246543679360e+01 1.467037192687488556e+01
1.171283244296128956e+01 1.414587659549640186e+01
1.049596337798515400e+01 1.404485752242649887e+01
9.571853603439961944e+00 1.454611952204478875e+01
9.139848996623983979e+00 1.513918726700884321e+01
9.095472358179748085e+00 1.623483110064213619e+01
9.766357728154449802e+00 1.752515940498225788e+01
1.037202539392760592e+01 1.845240966710319341e+01
1.251811812410385372e+01 2.026838854333619366e+01
1.195148884269139877e+01 2.000049109886065324e+01
1.331241499076463697e+01 2.055457213613986411e+01
1.400241282962309519e+01 2.056360101265320495e+01
1.459688573360399388e+01 2.042739842305328679e+01
1.529699324124451998e+01 2.004084524506381371e+01
1.566336942685309452e+01 1.964161482994992980e+01
1.594842040332742705e+01 1.904536467834111590e+01
1.605769426094516561e+01 1.837421475592877584e+01
1.574945326070553442e+01 1.724890736794981549e+01
1.402838697372883203e+01 1.626331215084361048e+01
1.338727953236753976e+01 2.041534976124270884e+01
1.293063660960020655e+01 1.558004280334207081e+01
1.176317275114856997e+01 1.497661329290615662e+01
1.100483435960715006e+01 1.506575095186344626e+01
1.012322023532403570e+01 1.488208259198725258e+01
9.685226638687673528e+00 1.533542411086370194e+01
9.300466918754734635e+00 1.563934745632975698e+01
9.623003208893029736e+00 1.670216154921794427e+01
1.099693816186381667e+01 1.803892890817676076e+01
1.238214689444935246e+01 1.973401643244261194e+01
1.308549567359717791e+01 1.985295887726247699e+01
1.424015563195777290e+01 2.042381781429752508e+01
1.382925235584988677e+01 1.995712774444889348e+01
1.446964835277762518e+01 1.970643375614413273e+01
1.480458585244435277e+01 1.949500043547092432e+01
1.507362290411003158e+01 1.925115026940090246e+01
1.530436948628041094e+01 1.884825479770882950e+01
1.536341252441556193e+01 1.831126088951310749e+01
1.516715652997269181e+01 1.745574222455677926e+01
1.479497163687893568e+01 1.660356147582412945e+01
1.335139379659247894e+01 1.517005075950658721e+01
1.118875019371836110e+01 1.395039652924865692e+01
1.505342848517106980e+01 2.006902280156939966e+01
9.925778233075414292e+00 1.397690423497643053e+01
9.411407186431944183e+00 1.422652785760863381e+01
1.561011267040004391e+01 1.963743602993107373e+01
1.593917968214582004e+01 1.917876485245089313e+01
-2.489403707779796804e+00 6.567477279840668203e+00
-2.148490489418553473e+00 7.199706769150854058e+00
-1.833023658877010131e+00 5.382271081352201669e+00
-2.453679797133835105e+00 5.254730439809410569e+00
-2.326025717682436600e+00 5.091811616571579435e+00
-2.507290046244305071e+00 4.891226579485040915e+00
-1.964295624283181496e+00 4.350960377120878242e+00
-1.823471774505209364e+00 4.196070953020579530e+00
-1.899338165638532638e+00 4.103391120040782880e+00
-1.825261415787552188e+00 3.741800259814939356e+00
-1.791152825777149626e+00 3.565122908272030156e+00
-1.652420611460371891e+00 3.369641347400379683e+00
-2.283902383062275110e+00 6.601118798366067963e+00
-2.387686592662124685e+00 3.380915696973600948e+00
-2.520774367279490225e+00 3.266716478703259430e+00
-2.333613332916101957e+00 2.842583112254001954e+00
-2.886018045954229283e+00 2.929055297862253049e+00
-2.837424430651052543e+00 2.537628854961047953e+00
-3.286636825641906956e+00 2.449349647842177014e+00
-3.209258522437279826e+00 2.134514332631743727e+00
-3.432814103554660878e+00 2.013535002558467735e+00
-3.705135191305569009e+00 2.133577390282824116e+00
-3.818874675947939057e+00 1.642795299305714218e+00
-2.222871072957518734e+00 6.349368182482292511e+00
-3.844900060254779373e+00 1.826836280961123382e+00
-4.104710917061448860e+00 1.480576620427880963e+00
-4.326079247984727871e+00 1.753356215152927389e+00
-4.493623740750548379e+00 1.519038049025412951e+00
-4.734492003395514459e+00 1.431687076477032416e+00
-4.912863927199676795e+00 1.475546945232886431e+00
-5.093852503180348101e+00 1.593263146071152603e+00
-5.154055089938005096e+00 1.427121580028480663e+00
-5.433752927093974172e+00 1.539582738436808373e+00
-5.609315403744882467e+00 1.648409518806098317e+00
-1.864068716423541661e+00 6.392037535375065360e+00
-5.405390003037614299e+00 2.273706196760606701e+00
-5.997180218973649168e+00 1.960459324050516372e+00
-5.696108910391751934e+00 2.574107639480572640e+00
-6.276675655321830583e+00 2.354610621389900516e+00
-6.558140561141873270e+00 2.538996286682607018e+00
-5.968956289400454196e+00 3.061119256587928383e+00
-6.296464010571911629e+00 3.082565701751688536e+00
-6.803906397544245088e+00 3.077082351499571544e+00
-6.872505018975157753e+00 3.334154060568441658e+00
-6.522790568767091735e+00 3.598585156902331939e+00
-1.711032900434493298e+00 6.171231430061223655e+00
-6.844730337318254421e+00 3.828085500433333621e+00
-6.213759221830159163e+00 4.002702548054339005e+00
-6.457746050051089703e+00 4.350554777864147127e+00
-5.980797952414793173e+00 4.486157392497394980e+00
-6.637062106738927270e+00 4.869966113883011261e+00
-6.081990993735439943e+00 5.084648057778830221e+00
-5.597386974508030022e+00 5.350943098287237021e+00
-4.741748643746696246e+00 6.068648184389409117e+00
-4.674731114222363537e+00 6.490817392393980256e+00
-4.357046203463379896e+00 6.169108711078094665e+00
-1.638821213069186822e+00 6.100622630937111879e+00
-4.059191687984086805e+00 6.843104247956061315e+00
-3.957862603793190104e+00 6.060409353126169130e+00
-3.721061447855311677e+00 7.562324787852842789e+00
-3.522270161559535318e+00 6.224679478289815826e+00
-3.446691703010821950e+00 6.907678832167019500e+00
-3.293880798030586643e+00 6.123066924414586332e+00
-3.191843900319732974e+00 7.114609572042641439e+00
-3.190223078954474545e+00 6.107042423270858222e+00
-2.996117197934476728e+00 7.104603912998830317e+00
-2.890906320771263527e+00 7.257916674700799931e+00
-1.691864671443664925e+00 6.902947629726369883e+00
-2.711053891959575246e+00 7.120879748798641273e+00
-2.348599702460501426e+00 7.458667410606354409e+00
-1.994178897982245902e+00 5.867791891483326694e+00
-2.163564172552562503e+00 5.787323547679873670e+00
-9.598894200761758810e+00 5.076259607671097740e+01
-9.173249422233041628e+00 5.102004076826960244e+01
-7.711020656692011421e+00 4.871972382166026705e+01
-7.456761669268694881e+00 4.821579085645199569e+01
-7.809529523998007150e+00 4.815061265030324478e+01
-8.390540376063693628e+00 4.735254578426383887e+01
-8.351283822567189929e+00 4.744155503199189639e+01
-8.149212202430048180e+00 4.747447723041524625e+01
-8.274040770028310732e+00 4.809612480077397834e+01
-8.657407204159966341e+00 4.857745785019689322e+01
-8.731846522120779497e+00 4.666787885518640167e+01
-8.938566478801371673e+00 4.733628393266915424e+01
-8.836098194442053355e+00 5.098465371715104766e+01
-9.049649053969529788e+00 4.684852044720810937e+01
-8.996515087233740715e+00 4.760856666757318578e+01
-9.150885434352169057e+00 4.756029237817561039e+01
-9.337297018707497287e+00 4.730001974354500049e+01
-8.732012023059741779e+00 4.783859217140711451e+01
-9.281929890850472376e+00 4.800956476470534540e+01
-9.909030895975279307e+00 4.756617124288617759e+01
-9.655347737129863717e+00 4.793186475183156148e+01
-1.002609927841322524e+01 4.778350274975937140e+01
-1.015423874393968262e+01 4.784757661697848619e+01
-8.545798918371779962e+00 5.069935728374161243e+01
-1.043166381269684528e+01 4.788835331338689372e+01
-1.059062106893194866e+01 4.805365940271125424e+01
-1.041661239096308833e+01 4.842944852187719107e+01
-1.315115720579171388e+01 4.592672328305457796e+01
-1.247886004475857824e+01 4.587263876127409645e+01
7.053237409097783939e+01 4.637805052586408294e+01
-1.386489493534830864e+01 4.593989572695790002e+01
-1.294255548903882591e+01 4.609140171790594565e+01
-1.384290297448177931e+01 4.626459132490180792e+01
-1.466054559631166931e+01 4.660765170433312221e+01
-8.191256200926634534e+00 5.057171561792962677e+01
-1.417973362537689752e+01 4.635875081290003408e+01
-1.465527751168659343e+01 4.694185274313451828e+01
-1.392994824838777035e+01 4.666556706586597159e+01
-1.437552615191452610e+01 4.675160876179896974e+01
-1.454952685274313851e+01 4.722205211934517877e+01
-1.345560527230477277e+01 4.693788075289796780e+01
-1.366679127962783902e+01 4.701019048042319071e+01
-1.373523123546604907e+01 4.716684229299482212e+01
-1.396680839733230073e+01 4.741092708036813974e+01
-1.405150193078412535e+01 4.759923971351318528e+01
-7.865095657482718217e+00 5.039794582145351853e+01
-1.417125928992142825e+01 4.761514004089274721e+01
-1.314508005085518150e+01 4.754602572360230539e+01
-1.331627352406977849e+01 4.771289607225986629e+01
-1.264626807691831090e+01 4.749112861998228396e+01
-1.280402911106893704e+01 4.715120672921425182e+01
-1.229299006503985936e+01 4.742033818660022604e+01
-1.233848868037789970e+01 4.710039446254706519e+01
-1.197499888003794055e+01 4.700755546352626624e+01
-1.154412271978148574e+01 4.675326296540605142e+01
-1.131049457389306134e+01 4.658829144133871836e+01
-7.766718416345315568e+00 5.002146343508992032e+01
-1.093498789577097874e+01 4.625180598197395199e+01
-1.065567817517439941e+01 4.610356490355422920e+01
-1.006010830748445350e+01 4.623201209367644537e+01
-1.000153867066107516e+01 4.573614143555346345e+01
-9.271470542764568279e+00 4.557934938069841024e+01
-8.895651061588957020e+00 4.546255470678497090e+01
-8.367609772233187471e+00 4.531668802045707878e+01
-8.063275723165601150e+00 4.511479446486850264e+01
-7.729623528649382180e+00 4.517383985472077512e+01
-7.525674968267731302e+00 4.514139220388747020e+01
-7.557716648236163515e+00 4.978425841463665336e+01
-1.000285291805029253e+01 5.018126682535488214e+01
-9.821632107423326374e+00 5.053359328287728403e+01
-7.674941710699596520e+00 4.931304330082651433e+01
-7.594670557751352469e+00 4.902872617253169807e+01
-3.045044068263682036e+01 -7.429446880496698213e+01
-3.054289960580091545e+01 -7.497990190082937545e+01
2.829272723648519872e+01 7.371414288756926680e+01
2.774328458166028355e+01 7.340790055004109149e+01
-3.280808540567701215e+01 -7.754349171190912671e+01
2.713514142065202961e+01 7.326042970580864733e+01
-3.209162291276236800e+01 -7.721836382041220759e+01
-3.238842661146510693e+01 -7.747751566697328940e+01
-3.186564538929043167e+01 -7.763167813955288921e+01
2.609084576398434407e+01 7.354146521774080725e+01
2.723515544047696579e+01 7.423495617548080361e+01
-3.233394835097024611e+01 -7.859916745970409124e+01
-3.020750879646060127e+01 -7.491059177709210815e+01
-3.228819166201599700e+01 -7.857446299160936576e+01
-3.225642298996935153e+01 -7.895369180732764391e+01
-3.232102744468996036e+01 -7.975917755843080670e+01
2.498075331462296944e+01 7.388183963403301391e+01
-3.205969662995007496e+01 -7.995895409791604891e+01
-3.242436047236103747e+01 -8.044160703436675419e+01
-3.232580280820695862e+01 -8.055529559714648258e+01
2.435027467205665630e+01 7.407181439646760168e+01
-3.193217583232766543e+01 -8.070264346838723668e+01
2.455252376272487069e+01 7.495979442040967911e+01
-3.061685777566845701e+01 -7.484177744079192962e+01
2.454045103045992349e+01 7.473439280825049025e+01
-3.089601983643564154e+01 -8.038732025715376039e+01
-3.069829028572666019e+01 -8.042144682956447355e+01
-3.018981151417294839e+01 -8.055657889084481837e+01
-2.954778327307917607e+01 -8.083613283773685509e+01
-2.915891903033107369e+01 -8.132207071766926276e+01
-2.829148825008711654e+01 -9.778306621874493487e+01
-2.914033624095795716e+01 -7.975814127616217775e+01
-2.859961389995896752e+01 -8.065313642410396255e+01
-2.890815224777692194e+01 -8.104098351841044234e+01
-3.162836831111693670e+01 -7.515091287311513213e+01
-2.822029809211754880e+01 -7.938646379982341728e+01
-2.806229198680160053e+01 -8.024458157869680974e+01
2.543405024100729506e+01 7.850552112674533589e+01
4.133086262721403159e+01 -1.052669833633471654e+02
-2.790921455534956053e+01 -7.916227157201237219e+01
2.467809399792572123e+01 7.667954689724318484e+01
-2.867058158984659144e+01 -8.015854546076791109e+01
2.524735232933589657e+01 7.655668332782219920e+01
-2.899511644079829864e+01 -7.934475649762431715e+01
-2.871669567066611606e+01 -7.921836872568241006e+01
2.981137816964379894e+01 7.397266077736446732e+01
2.542541242629480536e+01 7.679211278112411776e+01
-2.847691463737577067e+01 -7.865591591492241719e+01
2.664192980762973662e+01 7.773385612848815640e+01
-2.807882214063953441e+01 -7.821131796652508683e+01
-2.829127954222490970e+01 -7.788616500458826408e+01
3.195754474172506576e+00 -1.052942113837192437e+02
-2.913251917332289409e+01 -7.842172886449785096e+01
-2.851672421038409411e+01 -7.704706629626180359e+01
-2.905120165457675796e+01 -7.608384858658749295e+01
-2.870218743865907385e+01 -7.682332123812223301e+01
2.924216901898672916e+01 7.431431480827279756e+01
2.756422731725836783e+01 7.701033290014710531e+01
3.786877718469416720e+01 -1.752419707168365619e+02
2.779173631545117473e+01 7.681124961054078426e+01
-2.948651240994008660e+01 -7.758210461592057072e+01
-2.976840764009035212e+01 -7.735112232778820385e+01
-3.015130708266634940e+01 -7.759969112715469919e+01
-2.962554385919858291e+01 -7.608254484632867332e+01
-2.970847268231530691e+01 -7.569596999582256558e+01
2.899664969298117967e+01 7.614182255690354850e+01
-3.016047643673731571e+01 -7.580527567805761180e+01
2.886798508156347154e+01 7.424599683318217558e+01
2.938312676050316696e+01 7.514694825401126366e+01
-3.036207202775090863e+01 -7.433919743833955351e+01
-3.165351588466295141e+01 -7.605685060553938115e+01
2.878462848402208607e+01 7.355133620316647125e+01
1.879522595995076983e+01 -2.923601645944999916e+01
1.874987831564843077e+01 -2.889045345039199830e+01
1.500597660470152661e+01 -2.695594370926834316e+01
1.430107765310772727e+01 -2.631473725269083630e+01
1.357083187213333630e+01 -2.598316523873901573e+01
1.290334235852879630e+01 -2.602944348559334387e+01
1.252201446720677502e+01 -2.636455870737094997e+01
1.218646248109641128e+01 -2.657861062906713556e+01
1.200646787964242712e+01 -2.693231932336436429e+01
1.178101453094769724e+01 -2.725553858585481493e+01
1.186702715131685970e+01 -2.763623525490431021e+01
1.190565008048543127e+01 -2.793891783428587061e+01
1.849978846671264421e+01 -2.874182587302207637e+01
1.187115447780699462e+01 -2.829910417269599421e+01
1.143797858784809840e+01 -2.834179126031702722e+01
1.144575780137274634e+01 -2.882633951917531689e+01
1.170736252828789681e+01 -2.965787633459566308e+01
1.231130297291858433e+01 -3.000576814069151510e+01
1.315815727180872940e+01 -3.060427917446782331e+01
1.381285331161845242e+01 -3.111691711670371063e+01
1.437293562576982531e+01 -3.157945198416352639e+01
1.480133959674297550e+01 -3.190544203271693036e+01
1.511124670904627898e+01 -3.215189024467737511e+01
1.823935964895214923e+01 -2.856331321249274779e+01
1.549132705126164034e+01 -3.239349538192275446e+01
1.578202785065088065e+01 -3.259969696188061761e+01
1.608266217834809808e+01 -3.276090819225774453e+01
1.644352141846707127e+01 -3.280471960750022475e+01
1.675960997850789269e+01 -3.269996425151321517e+01
1.696272234860099815e+01 -3.253881877740595030e+01
1.706703540477360193e+01 -3.229886913952088889e+01
1.707569354952718044e+01 -3.210369796573551326e+01
1.676099331591056441e+01 -3.168808706773882378e+01
1.660427069427127122e+01 -3.157487706995295440e+01
1.792465604732250029e+01 -2.843387663559851219e+01
1.614884226535676248e+01 -3.129973407162613697e+01
1.551655997951158916e+01 -3.082837455885521294e+01
1.532119285721464230e+01 -3.060992441365421968e+01
1.509719075530358978e+01 -3.021501388391992649e+01
1.455720238176011705e+01 -2.950423113486611726e+01
1.369275468279650276e+01 -2.878039883583723224e+01
1.262560089931982965e+01 -2.828214833173666420e+01
1.269176864078717060e+01 -2.831463576211228883e+01
1.294175276728149626e+01 -2.844372797469333847e+01
1.265858744227516119e+01 -2.793361546758370650e+01
1.755555061881005940e+01 -2.833311664930125318e+01
1.296779847497211158e+01 -2.827197711870278596e+01
1.270932401194444061e+01 -2.767093891286151930e+01
1.281284456789238568e+01 -2.769675486399664521e+01
1.318746894837725492e+01 -2.799937280923965233e+01
1.320164148508552238e+01 -2.798474222507087461e+01
1.293021469487467101e+01 -2.750103057926619954e+01
1.336691672826881749e+01 -2.776118310308863002e+01
1.314360987273192727e+01 -2.737054835666403463e+01
1.309609404041250968e+01 -2.728977857946997787e+01
1.341126690027476442e+01 -2.739776558340090773e+01
1.715588260146698829e+01 -2.808318992229543198e+01
1.354639623217316036e+01 -2.760028390199455472e+01
1.379169288236788482e+01 -2.797174701065259939e+01
1.459897511574059159e+01 -2.850666510575213408e+01
1.585135829782317707e+01 -2.906151220787898026e+01
1.655038495559661627e+01 -2.916971514638603580e+01
1.691048015892772938e+01 -2.919161408390875678e+01
1.706198331026806159e+01 -2.931841013085490744e+01
1.746160810106464822e+01 -2.942381392194701917e+01
1.781643600761100998e+01 -2.960415477052563560e+01
1.817872169408581584e+01 -2.967037801032858368e+01
1.673230880175101376e+01 -2.796765763236206936e+01
1.837711293952937197e+01 -2.964167846571345422e+01
1.853118652238898179e+01 -2.941827318886897658e+01
1.619822351532845417e+01 -2.759248702911416018e+01
1.566008153981997708e+01 -2.722624913338951913e+01
2.482548637762185351e+01 -3.964526370732797034e+01
2.437189868244328039e+01 -4.014197331475082819e+01
2.005368955493665695e+01 -4.704660042106201701e+01
1.956052523567146650e+01 -4.767286831637606070e+01
1.909415628066596682e+01 -4.816837001919179784e+01
1.158270069723796603e+01 -1.621143554210805604e+01
1.137618354337687521e+01 -1.450986832062379506e+01
1.029433821890994594e+01 -1.316573292956785757e+01
9.014508997802492374e+00 -1.048795298536357734e+01
1.915270586542961562e+00 7.370851265375748973e+00
2.148550144329693712e+00 8.105341654922831651e+00
3.027685105399487764e+00 9.601745533852541925e+00
2.368970637454210149e+01 -4.090365501184295027e+01
3.064374434163297778e+01 -2.101878805207601886e+01
2.904652236300489676e+01 -2.294049743584700707e+01
2.847203165315360707e+01 -2.457925256338987552e+01
2.823332527541083437e+01 -2.514115281634819610e+01
2.859586105221906038e+01 -2.834303588297959919e+01
2.860553040697035954e+01 -2.919842675680671462e+01
2.854158323470479530e+01 -3.013110177049348337e+01
2.838809249831443537e+01 -3.107878217384187991e+01
2.874669626114719279e+01 -3.314410909954060003e+01
2.821701218105600617e+01 -3.387467216437946149e+01
2.325652328898279464e+01 -4.154150523159070474e+01
2.782835118551516373e+01 -3.466122594288508907e+01
2.725813697834628258e+01 -3.566136233993129423e+01
2.682454577486442204e+01 -3.653420142429094852e+01
2.642526184266477784e+01 -3.710314974424358070e+01
2.598644367948119438e+01 -3.768848522099374065e+01
2.543845434074612299e+01 -3.845980853107300135e+01
2.487915722679467834e+01 -3.918274223785046217e+01
2.443102330957266588e+01 -3.982171945441396588e+01
2.405125407600947085e+01 -4.029627003318783096e+01
-2.913259040537804978e+01 9.259945999516386905e+01
2.297330463751267970e+01 -4.221067716611197085e+01
2.268596283473343789e+01 -4.199528851059405810e+01
2.212098150787971562e+01 -4.280122279084705639e+01
2.169057136272511244e+01 -4.369807799557583650e+01
2.133991861074314755e+01 -4.463998585776759853e+01
2.096567299240628657e+01 -4.554853616393938154e+01
2.038144050204692803e+01 -4.660439593556802862e+01
1.991291912745357351e+01 -4.731392385788181087e+01
1.937803698728884783e+01 -4.789683514196831737e+01
1.171925139657631654e+01 -1.715142996054576585e+01
1.135985155025857729e+01 -1.555566579211912170e+01
2.240613946730071149e+01 -4.296443374921324221e+01
1.104196604612966581e+01 -1.414049828096821670e+01
9.900822323477363796e+00 -1.181779658074822237e+01
2.384054551554539714e+00 6.610934998476985847e+00
2.775117047400212478e+00 7.398814989277870069e+00
2.903089481350146439e+00 7.675238705484431989e+00
2.955861797503275490e+00 9.044661573180372116e+00
3.445128496641846727e+00 1.019618803012589758e+01
3.001216036868287773e+01 -2.213863590909324586e+01
2.889517179404228031e+01 -2.412995200260569817e+01
2.834417540058150564e+01 -2.518926984807906777e+01
2.191356362173656436e+01 -4.375884273429386440e+01
2.856777771319444881e+01 -2.812070800485504307e+01
2.855945993212028711e+01 -2.904656954223313292e+01
2.852332688014474016e+01 -2.995311722545668687e+01
2.837013104733124536e+01 -3.098270567960405231e+01
2.874542702961930729e+01 -3.318228158342966339e+01
2.832460715827773967e+01 -3.409735682486809338e+01
2.775306547338032459e+01 -3.500588443999971844e+01
2.724781994964101628e+01 -3.597250428386631427e+01
2.665599039107492274e+01 -3.673563348401167161e+01
2.627670870360449484e+01 -3.730323138671181482e+01
2.152469942573405959e+01 -4.457984354744112920e+01
2.571120595792012864e+01 -3.818950706904136894e+01
2.521703331639445622e+01 -3.882274880902000547e+01
2.111110649480254153e+01 -4.536429237397820202e+01
2.059193229083448173e+01 -4.621043507159848218e+01
2.307305451981329369e+01 6.978788215068598255e+00
2.339953827994990121e+01 7.281955215548440385e+00
2.153747541057752812e+01 1.029768691726205176e+01
2.127557515046527215e+01 1.055130958196049029e+01
2.104522915953457485e+01 1.076686240436942299e+01
2.068558663405839937e+01 1.106463079899939217e+01
2.038704238732026752e+01 1.126282664143281664e+01
9.825673940982420973e+00 2.587486707007610320e+01
1.011610684398351623e+01 2.614783328870128543e+01
1.049749637733672003e+01 2.641775757366767152e+01
1.090185786285420377e+01 2.670048229792492833e+01
1.127298420149571179e+01 2.691497963166016305e+01
2.324511516167964587e+01 7.530872084289454094e+00
1.175732951470667764e+01 2.719346338029397003e+01
1.232092723946344215e+01 2.752641187700015735e+01
1.272558461021917964e+01 2.777320592736082716e+01
1.327065432297510839e+01 2.812640682009317317e+01
1.368893903087254138e+01 2.840934310992555822e+01
1.401539955010363947e+01 2.863705682743174918e+01
1.426285894600067472e+01 2.881934948746878078e+01
1.438796280323857957e+01 2.891348793886248103e+01
1.451798049871221075e+01 2.900095423625587188e+01
1.485654969019894089e+01 2.920837036807076004e+01
2.313735734953308310e+01 7.714684801260124125e+00
1.521132313117172075e+01 2.943043104891149042e+01
1.559209855591797655e+01 2.968578249418994019e+01
1.586368375589160706e+01 2.987862249364701839e+01
1.605647646003871643e+01 3.000232293139848494e+01
-1.784563010403361361e+01 -9.051484031417571430e+01
7.093993849542820307e+00 -8.116879955084481679e-01
7.938563108234353294e+00 -1.647975217840368822e+00
1.680338024949722353e+01 3.042836978901118528e+01
7.402081594572496037e+00 -2.710927301350816165e+00
-1.824471979394648358e+01 -9.009702832529619343e+01
2.298673048348428694e+01 7.975149095317365600e+00
6.336082135063415777e+00 -2.053138970505382854e+00
1.748043647215045127e+01 2.987969422176835010e+01
1.756695204941077648e+01 2.969440093713758699e+01
-1.917775083401075165e+01 -8.916066377239332041e+01
1.778909860503281948e+01 2.899869751447242550e+01
-1.969271695935758260e+01 -8.863484628849408864e+01
1.408109130571086531e+01 9.993307622436999438e+00
1.752351837177244676e+01 2.613653764636173094e+01
1.752558089196899260e+01 2.592756211503760611e+01
1.753217305564707829e+01 2.575986279373178434e+01
2.274072968045370402e+01 8.394067402343180717e+00
-2.203430894173327559e+01 -2.818558240340074050e+01
-2.203394895588363056e+01 -2.818590724948674264e+01
2.083040889041950194e+01 1.626915035884570671e+01
2.102505015811944844e+01 1.598467674494250090e+01
2.119423797586597047e+01 1.572163652739668649e+01
2.150475052072046367e+01 1.524186509759761066e+01
2.172037892527044178e+01 1.489683414812690643e+01
2.191689739326724151e+01 1.461376736328478643e+01
2.219497327867323477e+01 1.419298584581145839e+01
2.237542974233656778e+01 1.392276048876160388e+01
2.242648410418964033e+01 8.908759799415792102e+00
2.252586102314466743e+01 1.370162449653116710e+01
2.263453979464723176e+01 1.352910172030298597e+01
2.277310689579904945e+01 1.328790172723829244e+01
4.141582595435383318e+00 -6.087841336153995364e+00
2.485439157391090603e+01 7.511973988741008412e+00
2.465445520365577181e+01 7.240448378063574886e+00
4.868360200623748746e+00 -6.554187347189403212e+00
2.430404734554462820e+01 6.921640625199800390e+00
2.417618322020722488e+01 6.856286727191903019e+00
2.401693332782323154e+01 6.829115687734493179e+00
2.195522177119386953e+01 9.664003000376681030e+00
2.409032348351118458e+01 6.348557809702335852e+00
2.341154610127929203e+01 6.532914029877738393e+00
2.151993775676793064e+01 9.740316240417055127e+00
2.199033472410438250e+01 1.034574539039849306e+01
1.302661999529399139e+01 -7.455702387417402122e+01
1.312999475799912474e+01 -7.510519257192291320e+01
1.542644628848368527e+01 -7.442222715206480643e+01
1.538283419121436424e+01 -7.455587426533162443e+01
1.537163723379743807e+01 -7.466571178111736629e+01
1.583480956961217778e+01 -7.466143320678074247e+01
1.627705948540491931e+01 -7.466380040280724018e+01
1.647257143694256598e+01 -7.472582351725591820e+01
1.645747116696584200e+01 -7.474467006437438954e+01
1.706004010746529076e+01 -7.482322990563807252e+01
1.722118054949858035e+01 -7.487893764710976541e+01
1.741481331896835627e+01 -7.496451024990211920e+01
1.333330377016021195e+01 -7.500380723571183239e+01
1.735330257360983452e+01 -7.531772060812323843e+01
1.787264417439787678e+01 -7.504641824719837473e+01
1.800468186250743585e+01 -7.519826505438747688e+01
1.752294737833467764e+01 -7.587621626884622117e+01
1.791497921878474386e+01 -7.595666590564209741e+01
1.843529939628005820e+01 -7.560268936840462572e+01
1.804151564258889451e+01 -7.622880512904147565e+01
1.855762408922668882e+01 -7.594019432684579840e+01
1.873326452980564483e+01 -7.628372518220517406e+01
1.873023823855479364e+01 -7.654451316600471955e+01
1.910798859803396033e+00 1.018576421872951272e+02
-2.473759055866986412e+00 1.075751820494042761e+02
1.880231391766787041e+01 -7.688127511469878073e+01
1.862615866785528596e+01 -7.719335240234585171e+01
1.816651151390628272e+01 -7.717440652423091763e+01
1.786913801494343090e+01 -7.726010569784435233e+01
1.836917921398195830e+01 -7.756108787408922467e+01
1.811204240690975453e+01 -7.794614841008109352e+01
1.783789463260065489e+01 -7.815003642237897452e+01
1.756463392816477054e+01 -7.827278880425478746e+01
1.737232267919496209e+01 -7.760424532336114112e+01
1.925660574327850094e+00 1.020182999577753264e+02
-1.538820147362558011e+00 1.057450310757074874e+02
1.712366271962051556e+01 -7.831892386234062542e+01
1.690416190205807823e+01 -7.785588511035535930e+01
1.660028270336323430e+01 -7.772550012760380866e+01
1.647358755105496542e+01 -7.840085984717083534e+01
-1.460267692366097769e+00 1.047715910259773864e+02
1.624604956715781512e+01 -7.836411776482297853e+01
-1.108492646379409807e+00 1.045153319545171087e+02
1.561649889853331707e+01 -7.822570741300857833e+01
1.566102308256849085e+01 -7.821496188307216357e+01
1.992774092318568835e+00 1.021827593422401463e+02
-7.865861711880095530e-01 1.040149787131076238e+02
-6.361063975128158354e-01 1.037192787917606722e+02
8.488864152712373823e+01 -1.295011239420012217e+01
1.370968292516200293e+01 -7.731290630721352386e+01
-2.865873221344388266e-01 1.033233506291908839e+02
-8.377968502509161586e-02 1.030071340280852041e+02
1.301465348244505549e+01 -7.691995794503577599e+01
1.306172543297978095e+01 -7.683095595585713511e+01
1.282278127063596962e+01 -7.671146096124755331e+01
1.247768712767297394e+01 -7.675233588457460598e+01
1.460489799325483062e+01 -7.439876790725008959e+01
-1.544193253373122021e-01 1.019849193564666194e+02
6.419019510535638062e+01 -5.411802418939146975e+01
1.207654147677328993e+01 -7.618208003573954556e+01
1.212183540580459074e+01 -7.558181706130653765e+01
1.186066803508006018e+01 -7.554877159437771184e+01
1.146630530819817118e+01 -7.537592529131690355e+01
6.238701632862755364e-01 1.005461298085144932e+02
7.244345730998903443e-01 1.011129589631751742e+02
1.208021865152210772e+01 -7.467277129619459686e+01
1.228955473497432394e+01 -7.434328449726504573e+01
1.478980191339367245e+01 -7.436503873501744977e+01
1.260592048706218371e+01 -7.442451769338070733e+01
1.858853214473537019e+00 1.008161926529976711e+02
1.500618232628689519e+01 -7.438652014677488467e+01
2.458243523348329518e+00 1.030985165725692809e+02
2.259485932962878962e+01 -2.451661709014951285e+00
2.260487339340336987e+01 -2.384204202368845671e+00
-9.336100207161401876e-02 2.767031793923815286e+01
-4.040731057528469394e-01 2.810534104084546314e+01
-6.158241519964159361e-01 2.828596860682407765e+01
-8.784937591614161434e-01 2.849653178100117756e+01
-1.332692745599108441e+00 2.888027993075161248e+01
-3.035182638338791961e+01 3.274376801986210950e+01
-2.957951851676377331e+01 3.311124308785333170e+01
-2.909947423912160858e+01 3.338132857508847451e+01
8.407330945856135429e+01 2.406738314047383653e+01
-2.884960087125067574e+01 3.660523440094141989e+01
2.262565167511975162e+01 -2.326511897099502679e+00
-2.930285743209872251e+01 3.714648589196961836e+01
-4.433901057959036329e+00 3.770978717990114859e+01
-4.311737495621184912e+00 3.765270998212501752e+01
-4.232081140604382341e+00 3.762154510060893386e+01
9.030720200082928528e+00 3.153191408230173298e+00
9.967111904002235789e+00 2.929211438013173296e+00
9.792322221736810661e+00 2.097706239262175920e+00
1.053090033919474244e+01 1.938848360754967137e+00
1.036741946112825730e+01 1.202797489473402148e+00
1.118129915058512580e+01 1.077937608469947905e+00
2.271556894884921007e+01 -1.983939692639847374e+00
1.098165120612328671e+01 1.043375117079774761e-01
1.198732714311089786e+01 -2.233781197724117318e-01
1.152775523701172844e+01 -1.185288545682293693e+00
7.249121984395501705e+00 6.948870932182451554e+01
-9.422769367956756320e-03 -2.117942823284436216e+01
1.235340498470610981e+01 -1.490128406586040510e+00
2.024663838207108879e-01 -2.122963539615873785e+01
1.255592001583256057e+01 -1.624896881193177656e+00
3.075123712073559723e-01 -2.125317988899802657e+01
3.552775904628823200e-01 -2.126397867326042501e+01
2.278930461385986916e+01 -1.693878619467237945e+00
1.251493430372632254e+01 -2.227199862198182778e+00
1.251113842607128923e+01 -2.496967368439598545e+00
1.251887707119082371e+01 -2.612715194837198496e+00
5.349291326914099187e+01 -3.477814568192643918e+01
5.359797777060686030e+01 -3.471212995431567805e+01
5.372877760155900262e+01 -3.462670035320381601e+01
4.225155715027546677e+01 -4.562488354511955890e+00
5.425158715660417386e+01 -3.426977169726355754e+01
-1.222386209007637348e+01 2.320711335500984518e+00
-1.226552175868159722e+01 2.333837998027121774e+00
2.291373472185961546e+01 -1.199469803804899204e+00
-1.868814954939970363e+01 2.355628027703357930e+01
-1.902861833907022771e+01 2.426694899777895742e+01
-1.987648398205984890e+01 2.950252010513271372e+01
-1.971430298192845498e+01 2.948944711847172329e+01
-1.959054923126837977e+01 2.944713685364265032e+01
-1.817524371816667994e+01 2.840362530034483513e+01
-1.774153807038464947e+01 2.784781235118204279e+01
-1.723495420855205396e+01 2.702808960121484105e+01
2.579109618531616910e+00 2.290996693397034889e+01
1.700267474551546698e+01 3.088112285388911804e+00
2.299807044318471227e+01 -8.581191910570136194e-01
3.128497890961286831e+00 2.318228732898453259e+01
3.253375498521232867e+00 2.324639679555134109e+01
7.817146946477851466e-02 -9.232741251912468528e+00
2.206867604803419880e+01 -4.785509548202895758e+00
2.212264807159147040e+01 -4.576148326873854089e+00
2.217222979898615876e+01 -4.365728570112061391e+00
2.223022828181656152e+01 -4.108885224560291149e+00
2.230888851010899998e+01 -3.763663962829691290e+00
2.239320122176343375e+01 -3.356483077050803843e+00
2.243301358765103615e+01 -3.162196316472178470e+00
2.309787441266739094e+01 -4.645978014400802270e-01
2.249064649536570926e+01 -2.851662756382941311e+00
2.251772402934153305e+01 -2.653688285486081266e+00
2.314174492888352219e+01 -3.011185042387007904e-01
-7.986154910320785838e+00 1.119286623344479636e+01
2.591728871542299473e+01 -3.953652711394856567e+01
2.499243034768932148e+01 -4.073701574044165596e+01
5.960877355531070521e+01 2.630416303279355716e+01
2.038276710359225419e+01 -4.854339819644985710e+01
2.022883915857850212e+01 -4.881526812677847715e+01
2.006841270435503688e+01 -4.921959735243331124e+01
1.092013813642222608e+01 -1.844736518439862039e+01
9.967392151599895556e+00 -1.830536283953457399e+01
2.900048042644619350e+00 2.507537498059455583e-01
3.174359667231462012e+00 6.057518052791568408e-01
3.233904147812367569e+00 6.882991473863603327e-01
3.221640973713564904e+01 -1.951264532834045795e+01
2.464836974222729538e+01 -4.124155856448800250e+01
3.010752087773305163e+01 -2.317189086569751666e+01
2.705995082560591314e+01 -2.652953987048295303e+01
2.705456915677709873e+01 -2.727755690127075283e+01
2.698215085643676403e+01 -2.775769006905722591e+01
3.096171924411915910e+01 -3.246331924810102976e+01
2.628482403725343275e+01 -3.008289827279472206e+01
2.990279080169834103e+01 -3.427284315727108321e+01
2.958646755209757728e+01 -3.518755894320722177e+01
2.935241620111283112e+01 -3.554359773400442180e+01
2.913250568405820573e+01 -3.595647146868859068e+01
2.442132786649224840e+01 -4.159751996179235789e+01
2.877456342434583547e+01 -3.645903208154013697e+01
2.811855755114494926e+01 -3.760030626454655334e+01
2.781685076879533014e+01 -3.856070501681957552e+01
2.749222649402583940e+01 -3.905884904775746236e+01
2.704557938176570886e+01 -3.968836616665583961e+01
2.656535408469695270e+01 -4.026001801922490131e+01
2.627939457649584654e+01 -4.077684825406639391e+01
2.597710541303740328e+01 -4.144227719483946260e+01
2.551026071797376815e+01 -4.224752458715305892e+01
2.505715879902400900e+01 -4.305099950114559704e+01
2.408911680494157181e+01 -4.206448180926177116e+01
2.449764192552698461e+01 -4.389953759980942749e+01
2.393225990554346083e+01 -4.468192810654682035e+01
2.337029471063384278e+01 -4.538818268309945836e+01
2.289839789252335578e+01 -4.610282716566449324e+01
2.251542138486574629e+01 -4.674771143910867011e+01
2.217127516271729348e+01 -4.722404227762063300e+01
2.193195724067064845e+01 -4.777588169746697844e+01
2.177756781556242771e+01 -4.858915402168847919e+01
2.184442140185613113e+01 -4.951334814636754800e+01
1.017467446468407211e+01 -1.670854947389166156e+01
2.375083907967568209e+01 -4.271673490812264617e+01
1.160637094306779638e+01 -1.289796833113882712e+01
1.101661685026927628e+01 -1.205635268532402904e+01
5.780614164332005700e+00 5.603266223869217910e+00
5.743144624791375108e+00 5.907165671996664535e+00
5.739478720166628634e+00 6.667852218642482676e+00
5.757427493927331774e+00 7.031180066107586946e+00
3.217129916885840402e+01 -2.168737097355203503e+01
3.151406726916821910e+01 -2.246482178266853325e+01
2.919809576658053274e+01 -2.612665999076115142e+01
2.900945641527484398e+01 -2.666283128392166546e+01
2.351822546962138460e+01 -4.319614853621667550e+01
2.883153276997138903e+01 -2.728531382508462499e+01
2.749215562972335647e+01 -2.950183336934584588e+01
2.739008536713004105e+01 -3.025103964530183021e+01
2.710815731332314371e+01 -3.130688485180605696e+01
2.691789749401260678e+01 -3.206285269053127962e+01
2.659736721794030245e+01 -3.288807483315424918e+01
2.638693779607758572e+01 -3.364308036648116484e+01
2.602581180750888024e+01 -3.413023391586067845e+01
2.626801156757210975e+01 -3.571787461388862539e+01
2.686598481818077389e+01 -3.816770081161628525e+01
2.323063538578417209e+01 -4.367342875798522073e+01
2.650193459502282778e+01 -3.873159260283129868e+01
2.624394477688958105e+01 -3.913054969161173346e+01
2.287528606500949024e+01 -4.422413602922163989e+01
2.244928710199368993e+01 -4.487612738071350549e+01
-1.175621807265384078e+01 3.006444607028708305e+01
-1.205388322482823327e+01 2.997449727910095518e+01
-1.733991297911091323e+01 3.132509591102435920e+01
-1.694412320124014215e+01 3.201318702428388718e+01
-1.763644663046060401e+01 3.229680556122371371e+01
-1.705968449359106032e+01 3.278067394393030298e+01
-1.763426056172167478e+01 3.310239698631193050e+01
-1.714707255234823791e+01 3.358322715750902887e+01
-1.763089479922791014e+01 3.393210475521746616e+01
-1.725909086315303398e+01 3.435527597507984154e+01
-1.770551806625481817e+01 3.468541277999726447e+01
-1.725362839167989293e+01 3.514493563697776324e+01
-1.262309507433580791e+01 2.990421592764413106e+01
-1.783019732260114409e+01 3.540451846669629532e+01
-1.757537946332178436e+01 3.593613429835200179e+01
-1.813806991037391114e+01 3.612180756379670044e+01
-1.800742725623866036e+01 3.660220121668825044e+01
-1.852405266803810235e+01 3.700689770335440443e+01
-1.871498524971685740e+01 3.737135003160505420e+01
-1.888162795064760857e+01 3.781632578190418315e+01
-1.876491294138960342e+01 3.814158269492268261e+01
-1.878839837168883165e+01 3.854356237284410014e+01
-1.873478072668313033e+01 3.881495705283860786e+01
-1.328431041030129300e+01 2.990396636477430548e+01
-1.860770923781252861e+01 3.904317816257431417e+01
-1.845497891549223368e+01 3.928841924567201715e+01
-1.836053482203231368e+01 3.958258534001489437e+01
-1.824740436174818115e+01 3.967287444388120576e+01
-1.805329808550010640e+01 3.988978922925733883e+01
-1.791881518900538950e+01 3.988324440116367242e+01
-1.769554123796605083e+01 3.989440668695910830e+01
-1.749973355938864117e+01 3.970122925476284337e+01
-1.729911624694320693e+01 3.942240360406655242e+01
-1.704223600203241773e+01 3.944294916244469817e+01
-1.389390268477150947e+01 2.996122467826077340e+01
-1.685526692748815591e+01 3.906796514049979407e+01
-1.643754765329118683e+01 3.889803924983130656e+01
-1.615880721147177468e+01 3.842598898914327066e+01
-1.547622575841383608e+01 3.816004311021677609e+01
-1.472081382441416508e+01 3.765823679538988955e+01
-1.418298811313419350e+01 3.797325676678023143e+01
-1.354612561470107579e+01 3.790311432775007461e+01
-1.328413981064154470e+01 3.739435786576467535e+01
-1.275856876101949666e+01 3.772568725479065677e+01
-1.247703008284431014e+01 3.738625003274398750e+01
-1.446407574109377769e+01 3.006791278056002170e+01
-1.231310938033393576e+01 3.716274135120384159e+01
-1.184374347394081894e+01 3.724947546607905480e+01
-1.192999241805668120e+01 3.669354477091660982e+01
-1.141504402243394090e+01 3.682275075628839289e+01
-1.155672278780450313e+01 3.638857857230564719e+01
-1.114789986919626052e+01 3.638578957821059845e+01
-1.101579348600588659e+01 3.607554693027495318e+01
-1.121821498362641734e+01 3.570493943530898662e+01
-1.081603527255135866e+01 3.555744112596007511e+01
-1.101866391107861709e+01 3.507990054399806468e+01
-1.510228206388459427e+01 3.027848899354384926e+01
-1.083414359979584418e+01 3.425582447204934056e+01
-1.072452117473106270e+01 3.362929912596602122e+01
-1.067490456126356513e+01 3.314031829154981068e+01
-1.061380618550618848e+01 3.251941803858883162e+01
-1.059563805026317418e+01 3.196398208466106894e+01
-1.063848679135265840e+01 3.160843720643204691e+01
-1.071319191748150601e+01 3.133433930450656746e+01
-1.083383070532026338e+01 3.102879178875847899e+01
-1.099624360253283939e+01 3.073388513902905572e+01
-1.115925234226690499e+01 3.051992779816769286e+01
-1.568113477028553326e+01 3.041924877365882196e+01
-1.133471383086899387e+01 3.034696179180986420e+01
-1.153047524541246993e+01 3.019192117181161095e+01
-1.613437758046081782e+01 3.088488381556246054e+01
-1.678466895858180052e+01 3.083218507760321003e+01
1.905870326314237673e+01 -2.315608573349430799e+01
1.847236766154669496e+01 -2.286358107519870586e+01
1.443953527310377005e+01 -1.768158445555814140e+01
1.366637745516945301e+01 -1.675137357615442824e+01
1.320432525581522221e+01 -1.612300899476321092e+01
9.738314734669101469e+00 -1.429820915715410123e+01
8.852894143389772097e+00 -1.358352634415385296e+01
-3.907480648235679865e+00 1.602453224181135738e+01
-3.787259558247560776e+00 1.621251119803842045e+01
-1.653821562104517362e+00 1.681444036621872229e+01
-1.274085844907517640e+00 1.670025200573367385e+01
-1.782601689897863606e-01 1.623915939143432041e+01
1.788769823838591932e+01 -2.257945710412970541e+01
3.202695943760354602e+00 1.140523594381690664e+01
2.979543451149188371e+01 -2.013459156265295391e+01
2.872583934046753740e+01 -2.138081076409712367e+01
2.762090541088070950e+01 -2.257759190074272837e+01
2.679988326487040950e+01 -2.298297105193842782e+01
2.610900707465744119e+01 -2.321337892815392578e+01
2.529003555166642059e+01 -2.333080901370705718e+01
2.457706020914057632e+01 -2.330321788928790738e+01
2.409157229013286283e+01 -2.323338415972281723e+01
2.363703339355110700e+01 -2.312582369129657422e+01
1.762234218505927785e+01 -2.214415904309954186e+01
-2.601995347572868056e+01 7.855126171438193694e+01
2.139192359345017280e+01 -2.219145062587533701e+01
2.106547458060168410e+01 -2.209940478097564664e+01
2.063542940143323179e+01 -2.191279488226660632e+01
2.031391629492328477e+01 -2.175903395449044098e+01
2.009186446787403213e+01 -2.163172391273159434e+01
1.984078757702466334e+01 -2.158567778954600058e+01
1.943993060695696684e+01 -2.151494433383147609e+01
1.891495397696665393e+01 -2.138204571092328266e+01
-2.103568345097162506e+01 8.064522954920529685e+01
1.745454655009299927e+01 -2.197695884384543064e+01
1.809561651022471551e+01 -2.105920114743614491e+01
1.781525915339021537e+01 -2.087786818258148003e+01
1.755410804852187212e+01 -2.064903148457895554e+01
1.723722860971552961e+01 -2.037709971097832096e+01
1.695403462244573589e+01 -2.009408560525243814e+01
1.748288707621728832e+01 -1.377111264966518789e+01
1.419901961321690997e+01 -1.842028104218875839e+01
1.341362687387575647e+01 -1.747465688194050415e+01
1.294652783277891395e+01 -1.555095969160080749e+01
1.255554944478317658e+01 -1.483198809120349715e+01
1.704510201328519514e+01 -2.184376279968182999e+01
9.036695694965425574e+00 -1.266500117480862464e+01
8.794141281236019125e+00 -1.181431411869353809e+01
-6.105561389814576856e+00 1.577108349564984557e+01
-6.574841159104821919e+00 1.601827197237199840e+01
-6.746645373856103411e+00 1.607335578117169916e+01
2.108888535177151358e+00 1.096191542589836487e+01
4.055974793913460275e+00 1.170817645388223838e+01
2.897970634123262101e+01 -2.043815265361492095e+01
2.785880887163710540e+01 -2.153230180634821522e+01
2.695833030412310549e+01 -2.237881398883228456e+01
-2.018105591809439403e+01 8.239562256138783880e+01
2.640652018667228162e+01 -2.270552896858954028e+01
2.585269082805649177e+01 -2.289085501257874711e+01
2.527125467202534281e+01 -2.297273919717384771e+01
3.321613144934220685e+01 -2.706254707114552005e+01
2.282003958133692834e+01 -2.332007863664581748e+01
2.243309750459349061e+01 -2.331043467171182826e+01
2.210464753005102523e+01 -2.332026991340133293e+01
2.177130505894857748e+01 -2.344910022891826529e+01
2.118951778194246316e+01 -2.365847085986936094e+01
2.056037308070357383e+01 -2.350320268327602236e+01
1.612980860085000145e+01 -2.070954288408986343e+01
-2.382780032773031564e+01 8.045726454754644408e+01
1.954087130284807472e+01 -2.332246794509148202e+01
1.587489408255041923e+01 -1.983798097606391053e+01
1.539545713202494781e+01 -1.903687630988117618e+01
2.398356354787929590e+01 -3.870847471393035022e+01
2.304378937392391791e+01 -3.998799187161036883e+01
1.944025797660390964e+01 -4.618363252720821777e+01
1.893088646064649083e+01 -4.677350292777276763e+01
-1.958784338446002238e+01 8.869939979784020068e+01
1.685623449064831547e+01 -4.871563007494611952e+01
1.311226928569407946e+01 -1.210643708870326485e+01
1.249855734235519655e+01 -1.126454287298970236e+01
1.205574799873933500e+01 -1.030708136339892533e+01
9.218237430715399583e+00 8.102120628107959632e+00
2.564462594076382018e+01 2.112694222390032905e+01
3.424481022187899981e+01 -2.200671160892023792e+01
2.262713142986541115e+01 -4.063572397328754704e+01
3.310859708916377997e+01 -2.281521134147989116e+01
3.157463622903137690e+01 -2.426000227006771226e+01
3.088798184664249646e+01 -2.510134310066013441e+01
3.039875663450449039e+01 -2.734516353773482322e+01
3.008424230689047363e+01 -2.869727001313691517e+01
2.994486124679275463e+01 -2.939758638581086814e+01
2.963157958511962420e+01 -3.061973873121075229e+01
2.912809262496302409e+01 -3.164947607126594420e+01
2.825585594598403816e+01 -3.235097318898254315e+01
2.779965591128325997e+01 -3.283279294206619170e+01
2.212989725523634377e+01 -4.122234627923182870e+01
-6.906505814672001975e+01 -4.071193204130877064e+01
2.573806858654891982e+01 -3.482634220381357437e+01
2.535779041029102743e+01 -3.526124075109310496e+01
2.490467856296043081e+01 -3.587193589432768448e+01
2.447905717888254884e+01 -3.660125335780525546e+01
2.403191506131939548e+01 -3.731001979598273266e+01
2.357738748205673573e+01 -3.803215144000313330e+01
2.319897534308900688e+01 -3.879553568529242824e+01
2.269842847574942368e+01 -3.937524960953839326e+01
2.212141480027669971e+01 -4.009456224798584145e+01
2.156809062253671527e+01 -4.181668372058310013e+01
2.153898313079536919e+01 -4.074716608467712575e+01
-2.644714799167890362e+01 9.279253807462166037e+01
-2.611030073013840891e+01 9.275675287049016049e+01
1.986673158244195392e+01 -4.398231925655710484e+01
1.967902890337835942e+01 -4.459614360896033958e+01
1.942249868292373804e+01 -4.516174321460530905e+01
-1.985488265668376329e+01 8.996677753958928747e+01
-1.974755273494042029e+01 8.984076642943942659e+01
1.738901836869008122e+01 -4.762764350668557967e+01
-1.812391486828536102e+01 8.937262087578378100e+01
2.116785749360307634e+01 -4.242180013785039705e+01
1.240012937909088642e+01 -1.220820825770215379e+01
1.179056250375280435e+01 -1.136360518482148763e+01
1.101894156662458357e+01 -1.008619242023832641e+01
7.861675803651497318e+00 9.012877355835316351e+00
7.462314940937909036e+00 9.403150423253071821e+00
3.461961917206073025e+01 -2.133241061050585685e+01
3.341571255189707301e+01 -2.205505560582403390e+01
3.219214502086713736e+01 -2.344942698509481360e+01
3.062071789584658887e+01 -2.569391432669679176e+01
3.040624741519104290e+01 -2.638499093745702595e+01
2.081524575078141481e+01 -4.310213963322075159e+01
2.996588306105099520e+01 -2.814517632404060521e+01
2.969490914014815175e+01 -2.945357212888641740e+01
2.952104383706491220e+01 -3.027760107431934244e+01
2.922721286326920875e+01 -3.127093098205285671e+01
2.861990747107648758e+01 -3.218282196305427334e+01
2.757481245680459025e+01 -3.338603047627153586e+01
2.709117077892241454e+01 -3.427322781598878265e+01
2.662060910238107070e+01 -3.499947755115945114e+01
2.581216479646004913e+01 -3.603941168491999747e+01
2.534569519843950758e+01 -3.681365222502223844e+01
2.053224916270713507e+01 -4.386362124917504701e+01
2.479828644510823921e+01 -3.758129187045880570e+01
2.439356435507541576e+01 -3.808012465540265623e+01
2.030594398180032201e+01 -4.460609054447801469e+01
1.990934127722150393e+01 -4.546948543933235243e+01
-2.550366815164212042e+00 2.239614076641236196e+01
-2.769887908576382785e+00 2.303579473996565241e+01
-1.021901976153292857e+01 2.336433354782865024e+01
-1.043055121167596511e+01 2.291863452594336792e+01
-1.050368327451669259e+01 2.249269447585021098e+01
-1.075895519409507273e+01 2.211008747197060487e+01
-1.080219355441915852e+01 2.152135358749286809e+01
-1.086758063313579115e+01 2.091350061737223953e+01
-1.090197143272021663e+01 2.037651767364566524e+01
-1.077235537956453015e+01 2.005746328026892655e+01
-1.083288942218852746e+01 1.944742135754302836e+01
-1.079941532085558187e+01 1.908750146650590196e+01
-3.224357811682437625e+00 2.358628304285734956e+01
-1.078883834698608801e+01 1.870574739779807416e+01
-1.079145594803041774e+01 1.832604675136806804e+01
-1.087108407309524871e+01 1.790480433632379942e+01
-1.074105197630630215e+01 1.749047697429160309e+01
-1.120235845488069515e+01 1.711813091219467253e+01
-1.068676841703046065e+01 1.690140865801311421e+01
-1.100678835895945795e+01 1.646253063562688368e+01
-1.055880988804043241e+01 1.624205951764161071e+01
-1.004113943049158308e+01 1.614203403352201249e+01
-9.884084646669780483e+00 1.674991992759695236e+01
-8.325339150240340658e+00 2.596626703981212358e+01
-9.287544356522323241e+00 1.662872287466222332e+01
-9.404004029747536464e+00 1.739690526272492477e+01
-8.632898197386779771e+00 1.742616523763790681e+01
-8.716016908633296367e+00 1.819629574930283056e+01
-8.058470857557331612e+00 1.842670322102414815e+01
-8.605919057673649064e+00 1.916310327808147207e+01
-8.113676066908295681e+00 1.940873920800055075e+01
-4.726258768684647116e+00 2.448409760188657813e+01
-5.276399464100646419e+00 2.508468493090344609e+01
-5.791324564915691475e+00 2.496809697753997526e+01
-8.859596928147636774e+00 2.542896786826992894e+01
-6.106222918375495468e+00 2.484132042852960964e+01
-6.649993427110660882e+00 2.517837185400767197e+01
-7.021020278361670641e+00 2.451199540093922025e+01
-7.292368320418251670e+00 2.395784116450645129e+01
-7.637279858075465278e+00 2.335390245270156839e+01
-7.604726926591200531e+00 2.273071876869358832e+01
-6.932731252287328338e+00 2.252050125589163088e+01
-6.687330110236304748e+00 2.200506480626432904e+01
-5.941796910855893010e+00 2.204173207717741789e+01
-5.770746172142141361e+00 2.131388222355122863e+01
-8.799860750301808920e+00 2.479468879482879373e+01
-5.037933238052680451e+00 2.144733698313507730e+01
-4.667543908167793631e+00 2.097720529164874392e+01
-4.663127057931136576e+00 2.056822210005299212e+01
-4.019358909931585622e+00 2.071390610681959998e+01
-3.546392340839374047e+00 2.107180997274109657e+01
-3.239447809068403572e+00 2.056940087950457396e+01
-3.286516096932449837e+00 2.019209839940275586e+01
-3.566405135920911906e+00 1.984269828584757533e+01
-3.584957805376044693e+00 1.952034781287720477e+01
-3.953446665168778296e+00 1.917100144099509507e+01
-9.243877332254642809e+00 2.448377467228345949e+01
-3.767643385873519435e+00 1.879474600838314302e+01
-3.437353880997197297e+00 1.866189970077832783e+01
-3.155128117700706891e+00 1.858026411444724246e+01
-2.823251810766837622e+00 1.862944492115239470e+01
-2.576437550903516005e+00 1.877472705045271795e+01
-2.550858938543056453e+00 1.914691256009275122e+01
-2.127233048918161895e+00 1.920160274958550772e+01
-2.173641711272710442e+00 1.960379316526195481e+01
-2.139863243421274319e+00 2.008282619341235176e+01
-2.064584608954358913e+00 2.061508487013116664e+01
-9.157371197815271202e+00 2.386052540571995451e+01
-2.299766180411320526e+00 2.115277702867485488e+01
-2.457648090893238546e+00 2.174611676489481482e+01
-9.718216927732541421e+00 2.390393688884611834e+01
-9.706742863084528494e+00 2.339503898838734486e+01
-2.096573607983828680e+01 3.340338568557106669e+01
-2.096794047547112783e+01 3.380815406167146620e+01
-2.384830211151565038e+01 3.282544775623832578e+01
-2.454955349581687329e+01 3.254536601666036688e+01
-2.554021829826571732e+01 3.247895331231772076e+01
-2.646944613911705346e+01 3.264625034995317776e+01
-2.698142334042155710e+01 3.275738848550592053e+01
-2.741859588808829074e+01 3.290959078022573436e+01
-2.809089120550077112e+01 3.239428982433359749e+01
-2.784778222355651067e+01 3.356514044257181695e+01
-2.795244885578278371e+01 3.386971124766048291e+01
-2.737364598401387994e+01 3.458387570579225212e+01
-2.096871618240042778e+01 3.425154764324059187e+01
-1.065441493663085204e+01 4.148496340901008494e+01
-2.593834941183150278e+01 3.531526149094323586e+01
-2.536078267984122547e+01 3.549459901187550770e+01
-2.476807372415323272e+01 3.559338874649760953e+01
-2.433462148220979060e+01 3.563907239364153412e+01
-2.391732909608127144e+01 3.578951090483096209e+01
-2.369266636976162488e+01 3.562315222665386472e+01
-2.343915788698962643e+01 3.569016380924776399e+01
-2.325480260821077749e+01 3.572319242810949902e+01
-2.277934762451770823e+01 3.192124704901596033e+01
-2.111648247201951278e+01 3.472236688354912815e+01
-2.245049166569186028e+01 3.172567126834722373e+01
-2.213732144146175429e+01 3.158365303692531256e+01
-2.184199443099986482e+01 3.136943237058502731e+01
-2.168247711074039685e+01 3.104328409793408738e+01
-2.165376692526785263e+01 3.078837194853849724e+01
-2.172225140291143219e+01 3.055344954490928444e+01
-2.180994560395625470e+01 3.040021291676901782e+01
-2.202816208106633411e+01 3.018001487143354211e+01
-2.232395239304524992e+01 2.995657049611946832e+01
-2.284759267454122167e+01 2.978553311691417349e+01
-2.139826962262422327e+01 3.487005668588086849e+01
-2.338530064460021052e+01 2.978402794432707879e+01
-2.365122453158727467e+01 2.991872820306289071e+01
-2.395883163121279580e+01 3.011888672895937447e+01
-2.427931268550884880e+01 3.030667107844695707e+01
-2.451584500935127409e+01 3.052570877016031048e+01
-2.483775427649855061e+01 3.073216642399723497e+01
-2.517179327498698882e+01 3.092373309614874799e+01
-2.562534431421887504e+01 3.117859014364053394e+01
-2.619352200183359258e+01 3.138818348951282644e+01
-2.666760333703253139e+01 3.147549629226647738e+01
-2.175800823744248191e+01 3.493507021901071141e+01
-2.718764945636744557e+01 3.181588223102023605e+01
-2.747325920413069866e+01 3.196337316385884364e+01
-2.773810894534056359e+01 3.250653721040350064e+01
-2.810960084972639095e+01 3.289825782774325802e+01
-2.812172345317265609e+01 3.340660673402620517e+01
-2.788604507954250522e+01 3.378111852331498000e+01
-2.742324429656313356e+01 3.405194618478808621e+01
-2.665219472181777505e+01 3.443884708879794943e+01
-2.557497413736722081e+01 3.452428355984148567e+01
-2.482524949557427263e+01 3.463999744742188369e+01
-2.224438927456097304e+01 3.488896955230508468e+01
-2.419295487921971244e+01 3.453680841750973940e+01
-2.361176266407744606e+01 3.446499310526695581e+01
-2.336023388857798011e+01 3.442932881051951455e+01
-2.322533484053959185e+01 3.410926380509294376e+01
-2.310889005998612333e+01 3.386712168553749791e+01
-2.299426128956047677e+01 3.357638054462823618e+01
-2.290196758594156634e+01 3.342112536830002512e+01
-2.267795236606964693e+01 3.320649428174648676e+01
-2.242831897239789640e+01 3.296058627293403731e+01
-2.190996077805642273e+01 3.297141608010705482e+01
-2.250239252770414211e+01 3.433693563084741385e+01
-2.141634578620452345e+01 3.312529765732242026e+01
-2.109780558488767355e+01 3.329577903348973678e+01
-2.357858748302372831e+01 3.334706851754297929e+01
-2.348633164629828585e+01 3.328172017868124044e+01
2.320475797003819896e+00 7.988170125422028889e+01
2.042106295791920800e+01 -1.697654256847508947e+01
1.515287780876734125e+01 -1.553102128307373420e+01
1.468527534067263041e+01 -1.486927137797852261e+01
7.190625513187985263e+00 -1.374496439687176341e+01
6.636773738530338029e+00 -1.296389110400083489e+01
6.336401237062318614e+00 -1.224177665285976957e+01
-4.708055002330042704e+00 1.252518144237637543e+01
-3.613173636013415013e+00 1.355144424560777061e+01
-2.555516528391334141e+00 1.387700918970101682e+01
-1.627689128178747335e+00 1.396279269049094474e+01
8.508985531703725513e-01 1.330592020765783978e+01
1.971175276045002533e+01 -1.713079546677293408e+01
1.864814169900228080e+00 1.313920512418306252e+01
3.033518642757526251e+00 1.335075208681588244e+01
2.896851688483861764e+01 -1.774864576600156241e+01
2.848452858796328968e+01 -1.804293955462283705e+01
2.763798483234134551e+01 -1.836832278424190079e+01
2.682151521811461592e+01 -1.854421939854722723e+01
2.602781997514577128e+01 -1.865724390146531064e+01
2.528886747870423690e+01 -1.861477975370440419e+01
2.468999644339343646e+01 -1.836437142481059581e+01
2.411147389796849438e+01 -1.822903908664462591e+01
1.919797522527466782e+01 -1.724379930356199253e+01
2.367020664551984765e+01 -1.797225585143941373e+01
2.328347468535037024e+01 -1.774042239154076839e+01
2.308819497925094311e+01 -1.723656062727855343e+01
2.265427432295518173e+01 -1.674575917035971173e+01
2.213586318783690743e+01 -1.633336556330983669e+01
2.183296128141578052e+01 -1.609673115350552308e+01
2.148053257206565547e+01 -1.609329338572121770e+01
2.075628221595317413e+01 -1.614222477954304580e+01
2.000719251888545358e+01 -1.623269640259874791e+01
1.950266088794023034e+01 -1.633532090527036118e+01
1.870853148479051242e+01 -1.729996878784048775e+01
1.900182102325465294e+01 -1.642015805621934987e+01
1.843538593896467859e+01 -1.643942489525796447e+01
1.790057910878794800e+01 -1.629659038032131235e+01
1.737051981364706776e+01 -1.610020417631181999e+01
1.678254832802864627e+01 -1.591099047925846044e+01
1.612304484696594287e+01 -1.554067333509622095e+01
1.557174707977240757e+01 -1.515483134812870958e+01
1.500822134272852715e+01 -1.466290781517398933e+01
6.968792632183232527e+00 -1.375248702229337461e+01
6.882805223627609159e+00 -1.319561748036199411e+01
1.816978961724876740e+01 -1.732942966677514818e+01
6.773874903992121332e+00 -1.236163123563310862e+01
-5.306471166776082882e+00 1.291022223898246857e+01
-4.449753213662344997e+00 1.369487643871768157e+01
-2.509781355936192782e+00 1.351437239411178481e+01
-1.897602260333976609e+00 1.340961785093865721e+01
4.147038462378357382e-01 1.310737277498724040e+01
2.311037844136548891e+00 1.333486360905490109e+01
3.066691049254183010e+00 1.352171578876617630e+01
3.432188614994453602e+00 1.355455153890103404e+01
2.840319492899961773e+01 -1.819932045682936916e+01
1.766832874184780167e+01 -1.716871953908759352e+01
2.762570799437840918e+01 -1.870369310441499167e+01
2.687369334574459145e+01 -1.908264880663721641e+01
2.602328301761784601e+01 -1.940048182165842405e+01
2.517095886859480558e+01 -1.951587703551480502e+01
2.440859814969658004e+01 -1.939502127554127142e+01
2.376529833128111946e+01 -1.908123230748203980e+01
2.316416438374160336e+01 -1.899153370059114820e+01
2.272434640146819973e+01 -1.868395739792884314e+01
2.225295527690575170e+01 -1.840726598558043037e+01
2.203923745935862755e+01 -1.779829718953520867e+01
1.705613509609595724e+01 -1.694946615964074965e+01
2.167190816789141294e+01 -1.719975580505438018e+01
2.140219929703767932e+01 -1.684991953836643219e+01
1.642495434796248333e+01 -1.665532343317708808e+01
1.576691816998728513e+01 -1.615881196416903620e+01
