-6.612985668297584052e-01 2.132470032655563230e+00
-5.131733819750026182e-01 2.001286615109910905e+00
3.805723512868746106e+00 2.288985485993163760e+00
4.552638563537893646e+00 2.476247750654130719e+00
5.172757007574142918e+00 2.666171832603557945e+00
5.781254504146971840e+00 2.868571756386698368e+00
6.349908038061201410e+00 3.181291530334165341e+00
6.847302988374275756e+00 3.541859836752304869e+00
7.323801237404707010e+00 4.090022882418312022e+00
7.643866162322732194e+00 4.912019464804494362e+00
7.468258539458783929e+00 5.557704933248022172e+00
7.266165145906786194e+00 6.083906916403776677e+00
-1.775142633724751673e-01 1.871744004423961272e+00
6.765949810663759223e+00 6.410950532406301861e+00
6.212424775821412837e+00 6.643215880500503268e+00
5.573181400397126950e+00 6.838610960791728033e+00
4.722447321016811195e+00 7.042519562765445329e+00
3.912103508809541719e+00 7.096467213128724971e+00
3.151369604899358023e+00 7.181120796511772042e+00
2.426278177839706451e+00 6.929765138603618091e+00
1.816575695097298881e+00 7.150479636276954487e+00
1.260071738405442066e+00 6.655361417965546700e+00
5.581279950006737822e-01 7.171516090407516586e+00
1.526562249494873291e-01 1.809331610700346760e+00
2.004121137461020996e-01 6.501092132660228451e+00
-5.546739729895322490e-01 7.107229062447037116e+00
-8.757814277764592870e-01 6.397184046450275829e+00
-1.393735853864822349e+00 6.981891388910119289e+00
-1.818981742643988042e+00 6.870577702554828470e+00
-1.840525347333778816e+00 6.208195689656279548e+00
-2.278454138535560336e+00 6.465415400145787750e+00
-2.475658756753658540e+00 6.141951047701843969e+00
-2.579716915171318625e+00 5.815351574498383691e+00
-2.169781105654805309e+00 5.459608573384608476e+00
6.730727833964892382e-01 1.822351621526816512e+00
-2.258707854576346818e+00 4.910137597616813565e+00
-1.604688639787634319e+00 4.788501518912823052e+00
-9.560128686009741195e-01 4.852642873274120916e+00
-8.459196465461045478e-02 4.848819227444675306e+00
1.875876556270101858e+00 3.809708325068347445e+00
2.824987618379397603e+00 3.682253546119733212e+00
3.556139565398586555e+00 3.725284792556769808e+00
4.257343662649885729e+00 3.535725606668208787e+00
4.805965777927887927e+00 3.907123759046298161e+00
5.470784186684843675e+00 3.693066883843377113e+00
1.048400483047504883e+00 1.841609270888224126e+00
5.776145130721807242e+00 4.186688343820825331e+00
6.369785764102612546e+00 4.049072893902883052e+00
6.538492881949015789e+00 4.549701728274595958e+00
7.137872717201058315e+00 4.651407273677806486e+00
6.862121623175814200e+00 5.306861770464618822e+00
6.389223521541905093e+00 5.349383308953714611e+00
6.056312725613401504e+00 5.765744261715635588e+00
5.509133954600408778e+00 5.786058857474755790e+00
4.886660063637438434e+00 5.985438321970755204e+00
4.247093888505864001e+00 6.061184152248283219e+00
1.537768262373031769e+00 1.918999971757182399e+00
3.624811568485162727e+00 5.912666771408611410e+00
2.949321913366297565e+00 5.915218011078642313e+00
2.363327010870352130e+00 5.655064747771416656e+00
1.837577097798173353e+00 5.361201336054620903e+00
1.191232587858598535e+00 4.919993894169675919e+00
8.160566786533089978e-01 4.367737709705359350e+00
3.639210346237237714e-01 3.781028099026432443e+00
-1.178563459023881099e-01 3.256677288724542763e+00
-4.482392815154246923e-01 2.935862570442163477e+00
-6.588204821457207538e-01 2.644536900074666796e+00
2.003893454582972744e+00 1.978102046452360652e+00
-7.080438943497393556e-01 2.368681200781481255e+00
-6.781035042669676383e-01 2.228795315429930035e+00
2.633632923114672675e+00 2.060725629953553018e+00
3.112081877380868278e+00 2.176995304256414521e+00
1.195278536154751547e+00 1.682188437841665873e+01
1.056757945799027043e+00 1.643343747040988134e+01
2.603041046909196243e+00 1.309394599660635450e+01
3.036394406134931057e+00 1.251390721046449706e+01
3.726507071689529660e+00 1.196145956612243744e+01
4.783950558603440761e+00 1.119429843761086474e+01
6.059134215094121423e+00 1.040887811619842651e+01
8.584132489675855737e+00 9.020545430137135057e+00
9.887086629236794266e+00 8.890925754907877732e+00
1.045099904956292214e+01 9.071389196077397798e+00
1.068670804897105420e+01 9.272953781812063312e+00
1.058478797038093688e+01 1.028816651250218150e+01
1.414079319922203704e+00 1.610449491258767551e+01
1.011563684993287815e+01 1.101500005616201250e+01
9.252712821075805394e+00 1.168369014685212903e+01
8.348665939333326236e+00 1.258672337540222763e+01
7.548332800141745125e+00 1.377566622682572728e+01
7.162176538240483836e+00 1.497670019402786146e+01
6.873572993491554151e+00 1.559358589251029770e+01
6.339166602548173657e+00 1.618997220047970131e+01
5.889988538131652795e+00 1.669332936128446221e+01
5.189362440226732431e+00 1.723878104580235870e+01
4.587555441793176314e+00 1.756515889370048811e+01
1.103583975093674008e+00 1.576286128578832901e+01
3.877924030619481766e+00 1.788379190624577220e+01
3.282241116325189445e+00 1.804320816379891923e+01
2.776599514266911317e+00 1.807634651066140563e+01
2.259975597890111931e+00 1.800165088546449255e+01
1.813395488522495214e+00 1.798018009250011673e+01
1.342183899888885756e+00 1.768495876274815259e+01
8.624587326536237164e-01 1.745153142830652726e+01
4.634035780179435182e-01 1.703701501790916240e+01
3.749955814180039315e-01 1.652116995734403915e+01
3.367713486925167921e-01 1.604103538219377256e+01
1.562803558837917217e+00 1.550862999074635518e+01
5.122643319879279789e-01 1.561141176912583362e+01
7.832083763756321204e-01 1.517398844133466085e+01
9.451134287289655322e-01 1.486277839712501248e+01
1.138816431409304997e+00 1.450489746918830392e+01
1.508569259645555549e+00 1.404127462229101120e+01
1.971156901932962446e+00 1.346182090918531316e+01
3.449215189240264934e+00 1.320370944495764398e+01
4.303313495882794548e+00 1.238866376173001527e+01
5.466862587644260252e+00 1.149552625243480719e+01
6.754505864404130477e+00 1.065008787288209113e+01
1.926234543885313011e+00 1.533346743793918776e+01
8.210090498310611551e+00 9.807251165096442236e+00
9.616337603171849935e+00 9.376866390917379945e+00
1.022603145084906018e+01 9.377320267586991775e+00
1.059159971449332360e+01 9.518387895976271551e+00
1.076255436435505430e+01 1.005077811818631162e+01
1.057499189494746616e+01 1.070588739522611732e+01
1.007399140722436748e+01 1.164740084852085822e+01
9.084084402657088830e+00 1.268640777030837619e+01
8.205518178623798065e+00 1.367788362034297123e+01
7.349531592146983705e+00 1.442604762724620215e+01
2.258396662419474232e+00 1.509048412005216910e+01
6.492072449355205777e+00 1.516739731207437636e+01
6.118626752400799340e+00 1.562083330572736806e+01
5.509331367399804336e+00 1.624036542350719614e+01
5.049595283421410841e+00 1.660347900651063213e+01
4.458944886727199020e+00 1.690320631880787516e+01
3.972055603426791759e+00 1.716221170801620133e+01
3.595756258259829252e+00 1.731669721402246154e+01
3.232868026729915467e+00 1.712079125969225046e+01
2.804605155618979939e+00 1.732191191622772308e+01
2.481896611317674139e+00 1.701926012575539460e+01
2.001803460866687701e+00 1.463272964803392284e+01
2.025816076007788347e+00 1.716311896652729985e+01
1.633914719539752092e+00 1.709027294242777373e+01
2.498901557971738185e+00 1.435067649053827843e+01
2.472318257666561880e+00 1.383379772915457018e+01
2.243179896144963692e+01 -1.341388100402799388e+01
2.222717387015315182e+01 -1.369202244074988073e+01
2.215083714199845133e+01 -1.138320294558527834e+01
2.167534201660632931e+01 -1.125038555029556342e+01
2.171880397313512745e+01 -1.068888931542819698e+01
2.151723633165950034e+01 -1.022463013077903327e+01
2.113631604677214781e+01 -1.043237419170201719e+01
2.091746226969573641e+01 -1.019148329958047761e+01
2.066649496004168185e+01 -1.087028407730094592e+01
2.040619830854236838e+01 -1.097441541949392274e+01
1.967222579198207200e+01 -1.085742857908972425e+01
2.033782208673772729e+01 -1.017809850393147109e+01
2.187691507954719938e+01 -1.391792939078715285e+01
2.011573353312291346e+01 -1.073580255798301231e+01
2.022572621677002758e+01 -9.464052518994142460e+00
2.002124712895777492e+01 -1.036073670646016254e+01
2.050718430442005058e+01 -9.515729399103264541e+00
1.953851023044408208e+01 -1.010557019184561334e+01
2.046004566390999102e+01 -9.300145023491696250e+00
1.964781607148820086e+01 -9.694343865236621838e+00
1.973554114760226597e+01 -9.166171963024263292e+00
1.914234581166745741e+01 -9.247438886117572920e+00
1.952571920295198282e+01 -9.074991326526989255e+00
2.145361011130966133e+01 -1.382442401199993220e+01
1.894655577003499047e+01 -9.552224065436737632e+00
1.897997911693330764e+01 -8.741751439569311444e+00
1.833946423716798080e+01 -9.068352022808969792e+00
1.842928684558993169e+01 -8.596602275095714063e+00
1.796405608301038725e+01 -8.520123856099717230e+00
1.819191211194288726e+01 -8.455494954218876202e+00
1.791371344128986820e+01 -9.064058022257436065e+00
1.776662496988132389e+01 -8.178776469231221924e+00
1.742925557333088804e+01 -8.937572320182594510e+00
1.742482615034891680e+01 -8.140630933845265815e+00
2.129726775888786960e+01 -1.359045449927075389e+01
1.718355974346482284e+01 -8.386766763593604068e+00
1.721126801599169909e+01 -9.239258929938481302e+00
1.675460370842039382e+01 -7.926653752494588367e+00
1.663761878409302497e+01 -8.270997338316313119e+00
1.673257790702126968e+01 -8.941284539263090636e+00
1.630459448187638216e+01 -8.497421327736065066e+00
1.647725428850267804e+01 -8.887321347223005930e+00
1.606437063361706308e+01 -8.099472904992987665e+00
1.584312403406231162e+01 -8.516557808179362254e+00
1.580590922668918807e+01 -8.937493632401524835e+00
2.122641751038757718e+01 -1.304729179462514566e+01
1.590334117118902846e+01 -9.203596441531008310e+00
1.616812359032158497e+01 -9.538545813822288721e+00
1.638386692232106512e+01 -9.824906291111425105e+00
1.575535884448460955e+01 -9.709727510388646010e+00
1.613331313085688379e+01 -1.024867047518950969e+01
1.664685554409658863e+01 -1.051417428368434415e+01
1.654859394451100485e+01 -1.112772711278449833e+01
1.675009292608707057e+01 -1.119883994530131055e+01
1.703903004303992574e+01 -1.170203213106408846e+01
1.731628258883315397e+01 -1.186659557342391125e+01
2.130037270168769581e+01 -1.264062016350603024e+01
1.753405198284410815e+01 -1.215617404667010426e+01
1.790248932958480665e+01 -1.236906771487267420e+01
1.821437039076023368e+01 -1.265024578298215374e+01
1.871208128333902110e+01 -1.292534712085081061e+01
1.918982464648081177e+01 -1.323408609364666866e+01
2.002497889982629431e+01 -1.356606398140641012e+01
2.026574764115920857e+01 -1.360692215763561919e+01
2.061304397930416243e+01 -1.350569740593855528e+01
2.090381464537271583e+01 -1.307060899894401018e+01
2.185315393205577550e+01 -1.305908659933209037e+01
2.171862076043962730e+01 -1.238165836343343251e+01
2.222832315804368619e+01 -1.303505978268034404e+01
2.243862210806284097e+01 -1.312029612271478385e+01
2.199677747266966676e+01 -1.211294975717228972e+01
2.222831049037406714e+01 -1.179343250167490176e+01
-1.775594788941605273e+01 7.429893322619815166e+00
-1.815053564761367966e+01 7.628760316305215561e+00
-1.287174444893399006e+01 1.231398149924994456e+01
-1.262989585623208022e+01 1.289627101758422256e+01
-1.267839025533338315e+01 1.351597519794902702e+01
-1.286245307754031586e+01 1.397231328040188458e+01
-1.314512156290832756e+01 1.438156861794744934e+01
-1.357551500398729161e+01 1.459234893321976934e+01
-1.401514882930953299e+01 1.442255561913562900e+01
-1.419185186775503382e+01 1.407020238456242822e+01
-1.451881923494402926e+01 1.383501091762591528e+01
-1.441000976101492803e+01 1.335657943462931208e+01
-1.836583673773658631e+01 7.892028173351523179e+00
-1.465681530700202195e+01 1.313815162950579385e+01
-1.459933728923318164e+01 1.264108264120028480e+01
-1.512299455542312820e+01 1.275756333606854831e+01
-1.514514803794395092e+01 1.239111902296366274e+01
-1.560066540785816613e+01 1.255086452989166546e+01
-1.638870340818736082e+01 1.290084536606192067e+01
-1.770684807972228825e+01 1.378053619194519364e+01
-1.830237103730410197e+01 1.377230617903942012e+01
-1.870713975967316856e+01 1.387551251319811385e+01
-1.910505567319833986e+01 1.415440490454904143e+01
-1.862473847105177072e+01 8.236616969430860635e+00
-1.950803136115336045e+01 1.443584826905241592e+01
-1.980825523965924262e+01 1.475504078808833341e+01
-2.004166217866919908e+01 1.512827248595570850e+01
-2.013081062693970225e+01 1.537991652129535147e+01
-2.014134410705591449e+01 1.562915543753987002e+01
-2.009954419377299217e+01 1.580116924451231419e+01
-1.995348907091563717e+01 1.615177603152752184e+01
-1.978400680300263659e+01 1.632976209275819812e+01
-1.949323368836539316e+01 1.660383370200285924e+01
-1.914572691614830902e+01 1.680862880798616388e+01
-1.868845532940006393e+01 8.774899901023529125e+00
-1.879869978702705069e+01 1.699464046543689477e+01
-1.839261987966051493e+01 1.711596485565064185e+01
-1.791632115031758943e+01 1.715842074839934384e+01
-1.740741251245271570e+01 1.718340162270481031e+01
-1.684429377989504317e+01 1.716443467166467940e+01
-1.630694112327773837e+01 1.714710167459741541e+01
-1.592390410027431535e+01 1.687566932986858603e+01
-1.546700888161812948e+01 1.659437817150996253e+01
-1.511963777909030071e+01 1.613594014077597905e+01
-1.479583466096311817e+01 1.561400732397428115e+01
-1.861122666604732245e+01 9.129473009401387174e+00
-1.500556035753953132e+01 1.509197109288830241e+01
-1.522553284703220200e+01 1.475235588103756612e+01
-1.562872245070877320e+01 1.457267322387197872e+01
-1.550150314868098356e+01 1.413063420746186694e+01
-1.631731915353442730e+01 1.445185714593560000e+01
-1.593684409336000840e+01 1.379482457038626464e+01
-1.639074783798973556e+01 1.376006578766191879e+01
-1.676245219982592971e+01 1.363425867275900671e+01
-1.706125934347015516e+01 1.315908827355065469e+01
-1.745995070579063579e+01 1.278869945592819235e+01
-1.834299626352473922e+01 9.777002736048022058e+00
-1.708357343862292765e+01 1.236025037362157164e+01
-1.670716973853433629e+01 1.190194603128101747e+01
-1.617046306431004865e+01 1.125566982665924165e+01
-1.588172064168150399e+01 1.033403781243881880e+01
-1.589720856631369195e+01 9.596903864033990317e+00
-1.600428621583920474e+01 8.999408464304034183e+00
-1.612801054110357057e+01 8.567380769204394397e+00
-1.632583403353828899e+01 8.161488696081555361e+00
-1.660673600871152189e+01 7.883584679586991939e+00
-1.687841984210018609e+01 7.684241355189680434e+00
-1.792045721091702859e+01 1.018980881051859022e+01
-1.712162733980841622e+01 7.452240553381233923e+00
-1.746443426897952733e+01 7.359086594890097643e+00
-1.722250794939947127e+01 1.054400927117782061e+01
-1.372551256583371426e+01 1.150580546719026032e+01
-2.389782365631349048e+00 -1.772609685308133365e+01
-3.040456503849378045e+00 -1.856455649007278197e+01
1.911371861232309843e+00 -2.466268381959815059e+01
2.416459701959266404e+00 -2.391971707345993181e+01
2.587238580574438007e+00 -2.270654329337795119e+01
2.205581169504592598e+00 -2.139158975402882135e+01
1.076596405406296642e+00 -2.001260306704037717e+01
-3.670774989530190546e-01 -1.944460977882518904e+01
-8.320612568215700611e-01 -1.901353807050146116e+01
-1.350345595255024733e+00 -1.878323864414665678e+01
-1.833968667857764911e+00 -1.916530155078375230e+01
-2.089832285428073977e+00 -1.982086529246348761e+01
-3.320195009289732546e+00 -2.014363328220282767e+01
-2.165881000784007693e+00 -2.068053794175071403e+01
-2.200705702927635343e+00 -2.228150669311512289e+01
-1.673413167059632389e+00 -2.318722174002841285e+01
-9.861006720433260764e-01 -2.367190258108108125e+01
-4.599059523526441429e-01 -2.387289356168284726e+01
-2.785483841793827409e-06 -2.396240376725342358e+01
3.047357847481436122e-01 -2.403924474419768131e+01
5.008825036704123157e-01 -2.376029871763961410e+01
9.038363484475978593e-01 -2.369833847085347145e+01
1.113158979592355324e+00 -2.323920034897248499e+01
-2.944131859633097648e+00 -2.190468115857223808e+01
1.461206861799056123e+00 -2.270678010509204015e+01
1.403225568405111368e+00 -2.189016659054802005e+01
6.417841610653476359e-01 -2.047451990582241876e+01
4.474402936073663128e-01 -1.878850953054907436e+01
-4.122703270105578244e-01 -1.809663630002739509e+01
-1.468983672044142264e+00 -1.789646621133195836e+01
-2.227230279676405189e+00 -1.817410345106693015e+01
-2.807898021721741966e+00 -1.905415714360072599e+01
-2.878010445333928580e+00 -2.043095775776363965e+01
-2.787766251195776146e+00 -2.157880195179915361e+01
-2.176114177797999982e+00 -2.386925836788336142e+01
-2.537375518747607916e+00 -2.347792774016789608e+01
-1.718637366995364291e+00 -2.464465277140843469e+01
-1.139593437366273054e+00 -2.509622733739637468e+01
-5.427893892895836458e-01 -2.534564687510797754e+01
2.595325891258997708e-01 -2.544370269121723283e+01
8.283891883959358937e-01 -2.531583757959344894e+01
1.457120912489150211e+00 -2.495409905406939544e+01
1.968713192959220759e+00 -2.440767651437075614e+01
2.346829014304383954e+00 -2.332160784930072595e+01
2.339569609143717255e+00 -2.185934686058668674e+01
-1.574253392951527442e+00 -2.456250789188710115e+01
1.549772642284646729e+00 -2.018315458690427988e+01
2.628470649066304010e-01 -1.952337319523196513e+01
-4.786722754189330908e-01 -1.898980820121058599e+01
-1.219595890156847329e+00 -1.841517132572541371e+01
-1.933699276704176739e+00 -1.849232947433451812e+01
-2.590058317927696585e+00 -1.842430455918317378e+01
-2.717668052518656729e+00 -1.969043424433627720e+01
-2.060541256906830654e+00 -2.143456205089333011e+01
-1.952247524656801403e+00 -2.329205862656385051e+01
-1.452370442675285256e+00 -2.386367526137875927e+01
-8.591992456599157890e-01 -2.508653318752874029e+01
-9.006268560010156632e-01 -2.439381527529737781e+01
-2.243837283018902395e-01 -2.459312613453521834e+01
2.055188448504825516e-01 -2.462173589120327932e+01
5.893051432550574509e-01 -2.458311208819523941e+01
1.019045407492408462e+00 -2.437072484618906287e+01
1.382764169155687117e+00 -2.393675430001591664e+01
1.669841660048038801e+00 -2.308635335735583993e+01
1.641517782340122356e+00 -2.213259060281324153e+01
1.169418044418890190e+00 -2.084651492152729091e+01
2.643684829973072525e-01 -1.864795183936581680e+01
4.612086326914122125e-02 -2.527974060913990684e+01
-8.468865679687106462e-01 -1.763917913471844656e+01
-1.508079796222678848e+00 -1.747363380746355688e+01
7.823719504759127918e-01 -2.526645839267278504e+01
1.375573666810174789e+00 -2.509039488111876892e+01
-7.722280129074216681e+00 5.292904339066609509e+00
-7.832184281946654281e+00 4.497292773429790280e+00
-6.335320239286877708e+00 5.925231470943957746e+00
-6.788659121882482772e+00 6.401637484223172692e+00
-6.591819709855977649e+00 6.431045165716499312e+00
-6.755864943569960701e+00 6.736714971637691285e+00
-6.141891357120062622e+00 7.174383820208524831e+00
-5.911747644816913727e+00 6.956684004023822254e+00
-5.680045725486535524e+00 7.112977112107976119e+00
-5.514782883662261881e+00 7.219742411108435398e+00
-5.368305389329875332e+00 7.307983319040176617e+00
-5.097496622908263220e+00 7.525355214139137772e+00
-7.578920605986467329e+00 5.051224409946697413e+00
-5.747049080255576037e+00 7.996445330920395556e+00
-5.665959069303109885e+00 8.333098374514603890e+00
-5.109817367086641582e+00 8.371052656530025615e+00
-5.625045113198767766e+00 8.799272430595255656e+00
-5.169759389847746078e+00 8.915303572159468004e+00
-5.460734724635734949e+00 9.367274956701466593e+00
-5.017361671879422502e+00 9.576898777568157328e+00
-5.014011509293429647e+00 9.774743788324633087e+00
-5.461134146078955531e+00 9.919983909129157951e+00
-4.966084081465398370e+00 1.025286484545364551e+01
-7.336565987266658873e+00 5.333355917679598157e+00
-5.207406552616634876e+00 1.013653753796459966e+01
-5.079354224942934870e+00 1.072107826043187018e+01
-5.421713457616148979e+00 1.073652448681093752e+01
-5.369086989769558116e+00 1.096862653146992450e+01
-5.505400988985291733e+00 1.129901467789489367e+01
-5.702444198323813218e+00 1.132913016002158457e+01
-5.994612363233656538e+00 1.129769284022178688e+01
-5.786396203719778697e+00 1.158683654506827132e+01
-6.146792612090385965e+00 1.159858412191284494e+01
-6.359588457034591968e+00 1.169409174662522055e+01
-7.070584002378175192e+00 4.942772798434900139e+00
-6.637414683509605950e+00 1.102956627864832306e+01
-6.924636817822801937e+00 1.163806656443386522e+01
-7.175906503422047500e+00 1.155173226329749525e+01
-7.219081890144174452e+00 1.097106221275860705e+01
-7.730733115801617039e+00 1.158256105053129126e+01
-7.580790877486907497e+00 1.067593878589770817e+01
-7.919509791339597982e+00 1.097702716872184325e+01
-8.326820025856550345e+00 1.124034242540433226e+01
-8.525938067906615458e+00 1.099990182625676738e+01
-8.353519259255632434e+00 1.052437770915340920e+01
-6.798085761803207561e+00 5.083181365344840330e+00
-8.838116915153960917e+00 1.056642317837888889e+01
-8.327812019535077326e+00 1.002458251098957831e+01
-8.848759999618444283e+00 9.936537553967378145e+00
-8.532066687896877610e+00 9.523727174382207394e+00
-9.389364823144395800e+00 9.695186637629042536e+00
-9.150361481818386267e+00 9.071941121964233190e+00
-8.966135824783682651e+00 8.520218903477818628e+00
-8.977086561388912145e+00 7.437092838212425505e+00
-9.230695622951357038e+00 6.930540175358031796e+00
-8.773712900062864861e+00 6.951969058814090552e+00
-6.684126699520568593e+00 5.090994338009174669e+00
-9.104216304278093475e+00 6.260825889022139101e+00
-8.427910586093270595e+00 6.736820887086169662e+00
-9.346559455103214731e+00 5.331998364184743266e+00
-8.323544890588026490e+00 6.304143491605200822e+00
-8.715714951422816270e+00 5.727589283133231568e+00
-8.041584201501015272e+00 6.209802803038152241e+00
-8.605488141291557369e+00 5.340498673547767083e+00
-7.923510978764649160e+00 6.160140765235945004e+00
-8.508305361934535682e+00 5.203768720326239716e+00
-8.500007879829098556e+00 4.998062571493001371e+00
-7.256929331401137162e+00 4.515158696464657950e+00
-8.276958618143529733e+00 4.991177797473373978e+00
-8.178177557977463152e+00 4.411880855790996314e+00
-6.781381564183750932e+00 5.469021966675779112e+00
-6.935205037441168230e+00 5.667941480664413945e+00
3.075780693684558642e+01 -2.678282972788693872e+00
3.120047931477780878e+01 -2.977245948934119202e+00
3.353295749704157203e+01 -9.424688118775954582e-01
3.329775887785721977e+01 -7.114774427291982173e-01
3.294917865932392687e+01 -7.122656660521329286e-01
3.214159722138802522e+01 -4.344131279519717892e-01
3.190413272354295060e+01 -3.960929429733093809e-01
3.148258618601655101e+01 -6.575079479784787795e-01
3.212989497945375916e+01 -9.137376750290009397e-01
3.220491929582696145e+01 -1.056600258057990072e+00
3.105459538598428537e+01 2.703706641252927034e-01
3.166015313329153713e+01 -8.924753464066641565e-03
3.164838855156505204e+01 -2.983444341229391839e+00
3.132872536337825764e+01 4.177068453323922181e-01
3.188038605254797275e+01 1.263836909556179632e-02
3.211632493371169517e+01 2.127187059521184198e-01
3.185861382064718583e+01 4.732970459693747189e-01
3.230200437524455026e+01 4.594953999102719400e-01
3.268517352546315635e+01 3.029673914604806839e-01
3.210019312765926003e+01 1.030873207646363809e+00
3.279948154095277602e+01 6.452652742107369832e-01
3.244233631013513985e+01 1.129546078664676489e+00
3.271100755438254737e+01 1.197606341216136849e+00
3.205535539964631653e+01 -3.014830819402906315e+00
3.269344734828371202e+01 1.594011520601530618e+00
3.298631890795362409e+01 1.551191906346176319e+00
3.334500907507591450e+01 1.314307780721126973e+00
3.334760495597771524e+01 3.180080118971684744e+00
3.307770989563690023e+01 2.351758944775817373e+00
3.324219657585229015e+01 2.535162334179407395e+00
3.386058743995923948e+01 3.867435621102369936e+00
3.318198687892692789e+01 2.918213942922908366e+00
3.348810347030566703e+01 3.939670658988137397e+00
3.385961370441462748e+01 4.856535972197014495e+00
3.249398835962428933e+01 -2.970847273647536646e+00
3.366491322855201673e+01 4.309376708289923918e+00
3.353409258595200271e+01 5.150170841992906645e+00
3.324042463610471998e+01 4.323390760506972796e+00
3.345682453175185600e+01 4.819234190320640820e+00
3.318333749150733070e+01 5.295354327383837933e+00
3.275198959510341723e+01 4.088342393396462882e+00
3.279047519352540263e+01 4.325589876131299860e+00
3.268130988402376857e+01 4.551638838882338334e+00
3.267267086297295720e+01 4.950275029189119103e+00
3.253919412686325785e+01 5.069651271386344860e+00
3.287610181239426765e+01 -2.847724984096819068e+00
3.256092754414417101e+01 5.234940368866001670e+00
3.203322005284569229e+01 4.360946447809554982e+00
3.190576603256478805e+01 4.649167257571164669e+00
3.181660613073520238e+01 3.823790446418874556e+00
3.207512320858273824e+01 3.771168213369070710e+00
3.133326243212317053e+01 3.720187365133692747e+00
3.142459878961678044e+01 3.710881504862008740e+00
3.134810774633903563e+01 3.272750884021484730e+00
3.098728709827389238e+01 2.989970877911463543e+00
3.090223639304273107e+01 2.688740398383821617e+00
3.311129073400500289e+01 -2.493809401567030015e+00
3.070982423320707611e+01 2.355085572394786109e+00
3.052702088731852470e+01 2.082692176341550017e+00
3.064242262777046477e+01 1.385211355509265774e+00
3.016288344968178237e+01 1.350349884271656586e+00
3.001025305193457271e+01 5.349547911506334907e-01
2.987291670611817551e+01 1.065233096897546250e-01
2.971831903662886987e+01 -3.986313027158749356e-01
2.961148602039287780e+01 -8.569542708037617418e-01
2.969090081108854662e+01 -1.302130980817214789e+00
2.973395968806081768e+01 -1.654780327403335471e+00
3.349952481219459344e+01 -2.291144435303030580e+00
3.006787683157625324e+01 -1.972740131116652140e+00
3.041136405781820784e+01 -2.350821182747809601e+00
3.352036378523821014e+01 -1.737669317746522335e+00
3.359330328874241900e+01 -1.338933122935299647e+00
-1.677346501961301328e+01 3.392585133322995006e+01
-1.611206965177784056e+01 3.387226768685795975e+01
-1.491797661629146710e+01 3.211197083809333463e+01
-1.457736072277498174e+01 3.157193638325813367e+01
-1.461256323977549698e+01 3.115808659216007115e+01
-1.412258539454279571e+01 3.092322882983071963e+01
-1.433238689312632985e+01 3.164870462781416904e+01
-1.404849556442613867e+01 3.109002604353106847e+01
-1.401432919288806822e+01 3.196998005104881813e+01
-1.295851903392417803e+01 3.060108842216411418e+01
-1.349958391836289273e+01 3.188682883312770855e+01
-1.321646925612497725e+01 3.144320750000123965e+01
-1.613584786740852905e+01 3.419453917098515205e+01
-1.323983341720249207e+01 3.160535382485084810e+01
-1.280260833632900486e+01 3.151231453513927505e+01
-1.202445913591270710e+01 3.113757770233868527e+01
-1.162952961157717624e+01 3.085210571691795067e+01
-1.172101666328538094e+01 3.135801561642544044e+01
-1.129421268697899805e+01 3.078865612481681779e+01
-1.113974296941557185e+01 3.092703961180894012e+01
-1.085121573830675423e+01 3.097588221097643668e+01
-1.088491769845494872e+01 3.131623570810923951e+01
-1.108702311518587535e+01 3.212435614874032552e+01
-1.621892608825044135e+01 3.373468344551159959e+01
-1.087505852152477104e+01 3.187346518374095794e+01
-1.102116678864392973e+01 3.239801370679394665e+01
-1.097306329352248433e+01 3.263935109519700006e+01
-1.059721203155742231e+01 3.319608734975696507e+01
-1.016947920527363358e+01 3.396460042359891673e+01
-9.813576834104742019e+00 3.450309676397100134e+01
-1.012982119860282992e+01 3.499640218896523436e+01
-1.116200721998474599e+01 3.441589499420605591e+01
-1.055378541422751937e+01 3.520475841791708405e+01
-1.011447759680830316e+01 3.459218132292066628e+01
-1.618609279158453873e+01 3.262810528186421521e+01
-1.156640678078549378e+01 3.509284918569075984e+01
-1.090093941277970302e+01 3.571157824837780481e+01
-1.104580570526638894e+01 3.568004607195376110e+01
-1.139272118968530023e+01 3.622738918761393023e+01
-1.183447151715097512e+01 3.566908070762759309e+01
-1.130731768073943755e+01 3.361598472406275562e+01
-1.090529709696605742e+01 3.492340107485600953e+01
-1.140340996510571792e+01 3.388507423844688304e+01
-1.168689073862527295e+01 3.438909357033598724e+01
-1.181120483146287903e+01 3.476357897509680583e+01
-1.625253697615568527e+01 3.328188048176399860e+01
-1.184903959200116574e+01 3.403391409905246690e+01
-1.228012887405066778e+01 3.511924322786541097e+01
-1.252727944930155601e+01 3.568546060751080518e+01
-1.271337972467183874e+01 3.542964305103610911e+01
-1.295924811226726980e+01 3.562482083009899725e+01
-1.331081881796410116e+01 3.609568696945716937e+01
-1.263104088871918051e+01 3.446909879222467055e+01
-1.378677021336504005e+01 3.571855432075100367e+01
-1.421866503599324716e+01 3.492324311580603791e+01
-1.396803109661650311e+01 3.555075983515493476e+01
-1.569843977478129027e+01 3.297111900352312830e+01
-1.335974142138123355e+01 3.480712568646404748e+01
-1.320285782423073506e+01 3.413819181999325991e+01
-1.361075940245812710e+01 3.456261142388843410e+01
-1.353578635450380396e+01 3.430740019858748724e+01
-1.373640050499967558e+01 3.411102266867001021e+01
-1.359546125855727539e+01 3.368393948266873394e+01
-1.488946722502504194e+01 3.461355849582512434e+01
-1.523487487739626012e+01 3.432560975655960078e+01
-1.503006259978915438e+01 3.481508644628848970e+01
-1.538722942182553588e+01 3.455475030244959100e+01
-1.535809249344144334e+01 3.289190428414013923e+01
-1.541710633882803982e+01 3.377835610643009545e+01
-1.672182152949863010e+01 3.407441071039087888e+01
-1.544488190656985793e+01 3.238060095406349603e+01
-1.540551629486420104e+01 3.213334297189146582e+01
-1.849419555351038369e+01 -2.128231355575718453e+01
-1.832844513431914635e+01 -2.089949633941026619e+01
-1.427351309046245120e+01 -1.975242726718415653e+01
-1.340947210671678747e+01 -1.936695512782242901e+01
-1.256881712548069885e+01 -1.926765333660401680e+01
-1.189343123090432108e+01 -1.951243532340851772e+01
-1.162803976105421455e+01 -1.998975004296452695e+01
-1.135450857958039173e+01 -2.031254243350108268e+01
-1.130276340702656768e+01 -2.073394867365832894e+01
-1.113924283288646322e+01 -2.113559416905058086e+01
-1.133234976980090991e+01 -2.149419357897948757e+01
-1.144007103029544758e+01 -2.177211501414322825e+01
-1.801630760458333214e+01 -2.080108008353445470e+01
-1.156213021536633612e+01 -2.217102168099591708e+01
-1.123691902936057296e+01 -2.242098939194720941e+01
-1.150992358877138955e+01 -2.289218104535978071e+01
-1.208574668692104481e+01 -2.355290062518433558e+01
-1.282552722697285752e+01 -2.368510346833887681e+01
-1.372686190829662323e+01 -2.405276189619456062e+01
-1.441920185695051160e+01 -2.432342598000434108e+01
-1.512947053049851398e+01 -2.465603029480303121e+01
-1.570529763942035828e+01 -2.482895668858356331e+01
-1.614778478083310276e+01 -2.496349577666174113e+01
-1.771910180617379638e+01 -2.066625241133167279e+01
-1.664051479259599020e+01 -2.501683184058782672e+01
-1.702740437282761121e+01 -2.509246818400455226e+01
-1.740190783844250078e+01 -2.511384835588113518e+01
-1.779760428505397840e+01 -2.506175218491680923e+01
-1.810082141687163215e+01 -2.484647867584513037e+01
-1.826620814001546833e+01 -2.458778836538883183e+01
-1.825079907405522661e+01 -2.427675058563332655e+01
-1.814962305525517650e+01 -2.406718229618017091e+01
-1.759539528657835206e+01 -2.385575505443061317e+01
-1.737296544556018674e+01 -2.381045073297011072e+01
-1.736886420392439945e+01 -2.057413540764955684e+01
-1.678312209727484117e+01 -2.373000395590443290e+01
-1.595764452778437992e+01 -2.353123097722894741e+01
-1.559963886352702644e+01 -2.337337689406774643e+01
-1.525726156601357175e+01 -2.311386011995903544e+01
-1.458819902205439689e+01 -2.265191494687060114e+01
-1.357055487389021309e+01 -2.210287984288296670e+01
-1.231504217246675381e+01 -2.194080613278763536e+01
-1.239351522164064079e+01 -2.193985035946774431e+01
-1.270685052142610871e+01 -2.198932388073788147e+01
-1.222989423472959558e+01 -2.155784056142420724e+01
-1.697339509204750740e+01 -2.056251191280861690e+01
-1.268357028585425539e+01 -2.179390187178202964e+01
-1.218226293991894593e+01 -2.126363663314811348e+01
-1.229665473982688084e+01 -2.125677940137102695e+01
-1.284463271943915430e+01 -2.146155010890728221e+01
-1.283412515689044930e+01 -2.140994818070386785e+01
-1.239901017594224975e+01 -2.099828438775116979e+01
-1.294052119793518685e+01 -2.113412322064862536e+01
-1.252932403366371616e+01 -2.078144111568376928e+01
-1.245069276891872789e+01 -2.071601868026814230e+01
-1.283036109073707998e+01 -2.072321409077950705e+01
-1.653031771345801815e+01 -2.034543910954152324e+01
-1.304149734945107042e+01 -2.088028739986890869e+01
-1.341011573962870607e+01 -2.122024966026974013e+01
-1.438304929244731234e+01 -2.153325900980176399e+01
-1.547816904946955319e+01 -2.171878384660922023e+01
-1.611500081119541150e+01 -2.165701647459023249e+01
-1.644626016246306577e+01 -2.159298666819091750e+01
-1.670362542076938084e+01 -2.168899798726338091e+01
-1.709962104119529869e+01 -2.167658561094787117e+01
-1.749686565860917753e+01 -2.181778307231415681e+01
-1.789635100117844502e+01 -2.182226106140259958e+01
-1.606903987358375829e+01 -2.035004617604205279e+01
-1.814970064963933538e+01 -2.179108807241161472e+01
-1.824638197407971418e+01 -2.151623524431722245e+01
-1.547305015182443100e+01 -2.003865325017148891e+01
-1.486737073556925637e+01 -1.981899962947219862e+01
-3.082870013490579097e+01 -1.479950860753799269e+01
-3.086813038396750741e+01 -1.398402727922163002e+01
-2.492339168041880626e+01 -8.390513151925558688e+00
-2.388667991676053859e+01 -8.207846530022434806e+00
-2.281661623866051514e+01 -8.095141953529820356e+00
-1.915566686576014988e+01 -7.926936628500020454e+00
-1.244865620144460294e+01 -7.931230562898210046e+00
-9.805589974780270168e+00 -7.574245893528226858e+00
-6.052193234966080304e+00 -8.386160177460272536e+00
-5.278098480863045339e+00 -9.322146762313979096e+00
-5.318740128334630946e+00 -1.002671128013140489e+01
-5.968372712820538162e+00 -1.093299106257639863e+01
-3.073838339920793317e+01 -1.293529710080712825e+01
-1.177159464970065450e+01 -1.297417553032000370e+01
-1.781360487849424956e+01 -1.604672507255822822e+01
-2.019348002457109104e+01 -1.659372785844406550e+01
-2.106308748933832220e+01 -1.704209791484282022e+01
-2.209302871074515551e+01 -1.780803606190067967e+01
-2.304352325250117417e+01 -1.854384705879408202e+01
-2.392306594444317724e+01 -1.925954965781814465e+01
-2.483556545557312489e+01 -1.958214531115589452e+01
-2.583826684251715378e+01 -1.965052061550541040e+01
-2.673053311802426180e+01 -1.956093072414974543e+01
-3.046360023091204283e+01 -1.231762551461024735e+01
-2.762224165413013210e+01 -1.928790718977666074e+01
-2.868056591930946908e+01 -1.878202571692789746e+01
-2.942174434036425268e+01 -1.820545516854929602e+01
-2.991547483125386364e+01 -1.766131306343836016e+01
-3.027487592424347795e+01 -1.702548604879694949e+01
-3.062769395261122085e+01 -1.616072544809459544e+01
-3.087004010301734169e+01 -1.520731165014506026e+01
-3.097701414620259186e+01 -1.427438782355365454e+01
-3.089991492413052043e+01 -1.353671853755163923e+01
-3.059394272172020024e+01 -1.252190574132780831e+01
-2.999574594990128773e+01 -1.174823829340689940e+01
-3.023752805976348057e+01 -1.165216347755643156e+01
-2.955375837200156397e+01 -1.079262563472036440e+01
-2.866086444260583121e+01 -9.987747600904912204e+00
-2.774717503438848709e+01 -9.427171686247584503e+00
-2.675177393919889113e+01 -8.997613084791440841e+00
-2.554369399651071859e+01 -8.584383521466101286e+00
-2.450316985262595537e+01 -8.337551448264509446e+00
-2.344080043430067661e+01 -8.165078041416345300e+00
-2.189819572017690774e+01 -8.041260853584729418e+00
-1.727868038095689940e+01 -7.791825657719187781e+00
-2.935050983786261725e+01 -1.087160373861821228e+01
-1.154580958752489295e+01 -7.867163037168278805e+00
-8.289301127919037171e+00 -7.737904545745168505e+00
-5.477273672083238232e+00 -8.957757535520022074e+00
-4.515166717212856895e+00 -1.056297338910546735e+01
-4.494148490378321092e+00 -1.077054143999828995e+01
-5.284077279114394621e+00 -1.099144046192923518e+01
-6.617097630820090615e+00 -1.174481649601311872e+01
-1.563835758019473410e+01 -1.549923420510000582e+01
-1.924089315429647939e+01 -1.652678849559356067e+01
-2.063634804830108038e+01 -1.701562373632628322e+01
-2.860880393344117678e+01 -1.017551753950319871e+01
-2.179205959445221907e+01 -1.760427196483420786e+01
-2.289312933907375580e+01 -1.838123115969610311e+01
-2.377987006849476970e+01 -1.913110431314251159e+01
-2.479525219805767122e+01 -1.952658947760882313e+01
-2.584806915159432705e+01 -1.963678143216998961e+01
-2.689519330223367533e+01 -1.953326299553809164e+01
-2.791066271934963439e+01 -1.921336589465624201e+01
-2.878758785833108291e+01 -1.866830121025143185e+01
-2.962480360806213042e+01 -1.803040169986402219e+01
-3.004238408475796973e+01 -1.745001358711931871e+01
-2.774139688467604259e+01 -9.629428117875111326e+00
-3.043419915905429107e+01 -1.652293112967819866e+01
-3.073774240788580414e+01 -1.574211257611110781e+01
-2.692355419213865630e+01 -9.117193045598030565e+00
-2.597846353708381528e+01 -8.692876357718112956e+00
1.419384064164525450e+00 -1.217897609697330985e+01
1.742443236909776649e+00 -1.258406038377229663e+01
4.957435542145591789e+00 -1.279216620680030481e+01
5.326430371743951397e+00 -1.287584471775740269e+01
5.665194392704814064e+00 -1.294506775585534619e+01
6.206089602220403734e+00 -1.303247419709755306e+01
6.626737326162776220e+00 -1.305804492187123600e+01
7.097308190405687611e+00 -1.314421195725384273e+01
7.657585113513293074e+00 -1.322588200890376342e+01
8.171773438790035371e+00 -1.350446394636574787e+01
8.626318994513164640e+00 -1.384907750473399268e+01
8.818005963896554888e+00 -1.427875321843790957e+01
2.049563869065909927e+00 -1.250258684026658784e+01
9.035035419481229013e+00 -1.478620062072596042e+01
9.234525420108464999e+00 -1.536438498455033574e+01
9.376665451153652242e+00 -1.576753090736863605e+01
9.601877908364576442e+00 -1.630329656642070901e+01
9.794047624859619106e+00 -1.673684575727779844e+01
9.964312369426881588e+00 -1.710905594309685540e+01
1.011568974226364581e+01 -1.741060802704784294e+01
1.019224479478202205e+01 -1.756493465758275008e+01
1.023878664729719112e+01 -1.771581414828333223e+01
1.032571248153731069e+01 -1.817005121349252050e+01
2.275531678492416887e+00 -1.246839936200571408e+01
1.041358666399564648e+01 -1.863142293757904966e+01
1.052679226665926038e+01 -1.912390884482080011e+01
1.060179951508400009e+01 -1.947847831610004121e+01
1.060281970845277577e+01 -1.972237505674860003e+01
1.060554625215477387e+01 -2.000299009080515944e+01
1.115237833181966387e+01 -2.001715716420131841e+01
1.107692959177634862e+01 -2.059937221773688165e+01
1.052719421503392994e+01 -2.051251582737151224e+01
1.045278603743473234e+01 -2.114057722442833409e+01
1.024819750069870317e+01 -2.068356592067058131e+01
2.586901874028026072e+00 -1.245416138333681921e+01
9.717931223898510495e+00 -2.116360263241580597e+01
9.660019796370018952e+00 -2.067924556477685982e+01
9.359876667221527669e+00 -2.062438700484563014e+01
8.960933511902556603e+00 -2.051844987165659973e+01
8.429992581479060831e+00 -2.037215355262784655e+01
7.927307250955841766e+00 -2.018448720279296893e+01
7.523452395521767144e+00 -2.002167008239448975e+01
7.072599141401312295e+00 -1.981578372817314815e+01
6.612211128004154226e+00 -1.959520924307704348e+01
6.225469845365431354e+00 -1.938578434147513008e+01
3.053964962050617959e+00 -1.247686791254158756e+01
5.826133348070310802e+00 -1.910175277754103718e+01
5.471158967307155230e+00 -1.876414077776248845e+01
5.158726410176776689e+00 -1.839618167910993307e+01
4.921926552758842277e+00 -1.802917031636969369e+01
4.743648314548444489e+00 -1.770320045901026873e+01
4.450445379173081584e+00 -1.719286081062520566e+01
4.250566980829439956e+00 -1.686148229046819225e+01
4.076790358033687944e+00 -1.659162324669707900e+01
3.806138759727985654e+00 -1.618363611010401826e+01
3.612065793394835911e+00 -1.592191811575096771e+01
3.556204294977880931e+00 -1.252215276038874414e+01
3.418135904208180698e+00 -1.569709659101408938e+01
3.242569766075032334e+00 -1.550689048963209515e+01
2.909174909570686474e+00 -1.519264553300861209e+01
2.286254068171051923e+00 -1.465856466379772627e+01
1.849181090342729039e+00 -1.428639256304016669e+01
1.516622484792452763e+00 -1.396556138260735480e+01
1.307146672623316741e+00 -1.373099801254329577e+01
1.176484519883619129e+00 -1.350861726676889774e+01
1.127656459624754470e+00 -1.335005163044582233e+01
1.131944295165230097e+00 -1.315709324924275947e+01
4.241658107248505338e+00 -1.261240542594322989e+01
5.736101749652636750e-01 -1.297800074261272840e+01
9.365239770497406635e-01 -1.245344321712409830e+01
4.628543296016971453e+00 -1.221954748359079801e+01
4.617665259386319221e+00 -1.309213625878369314e+01
3.053874539153163070e+01 3.683449999737581493e+01
3.020925790710973757e+01 3.700114817157704294e+01
2.975230514869790355e+01 3.946472342687101076e+01
2.954158268110901631e+01 3.926350700560110596e+01
2.943380005283531631e+01 3.918981847961477172e+01
2.927084959164800182e+01 3.970123612211479980e+01
2.905091896969767618e+01 4.016345716999588689e+01
2.886185771502521291e+01 4.031730077526815137e+01
2.884960035271947731e+01 4.028329021999645931e+01
2.845190441923221059e+01 4.086531801030170641e+01
2.830612344804619340e+01 4.099976680819116126e+01
2.811351461659073792e+01 4.116767020411194267e+01
3.015725648235397927e+01 3.715532045418677143e+01
2.774694115986268983e+01 4.088368005956387208e+01
2.772172806120522992e+01 4.155549759257232978e+01
2.752654528512207222e+01 4.159817584681184854e+01
2.717358385769019335e+01 4.077820361066160615e+01
2.687346097833972181e+01 4.108461206660471277e+01
2.684871940554972980e+01 4.181293398901297564e+01
2.650704293279977364e+01 4.165441733786818190e+01
2.654818082280477398e+01 4.118333083557967456e+01
2.601120360910350726e+01 4.169079079605565141e+01
2.594909973037605511e+01 4.122701672601615996e+01
3.044961757710708028e+01 3.763584136920194823e+01
2.556302866340780966e+01 4.129638858976517213e+01
2.542023909172647933e+01 4.118226453672011900e+01
2.534187756871569519e+01 4.079833619128379496e+01
2.578481405365869250e+01 4.047615861904159829e+01
2.586051470894721049e+01 4.018533042823916901e+01
2.515382935710696799e+01 4.040339726629817818e+01
2.512410949344329936e+01 3.988634445910037840e+01
2.579161487008499876e+01 3.959800851212166606e+01
2.526737918235287950e+01 3.923821851581281805e+01
2.501723547070908538e+01 3.945972255415519925e+01
3.032033606647451762e+01 3.784746694747094864e+01
2.611313275597920835e+01 3.912245640585388884e+01
2.559933559148924331e+01 3.891671723835015939e+01
2.524279252413685981e+01 3.868570908301924050e+01
2.619885032316560114e+01 3.877019647900712584e+01
2.572523953362194504e+01 3.816141832788368049e+01
2.589541184557823073e+01 3.802115169737472655e+01
2.591719500440380131e+01 3.801678343147585082e+01
2.627673764582798199e+01 3.767019927403824653e+01
2.643950149924213733e+01 3.754257138508261704e+01
2.649667143461530827e+01 3.762424888609047713e+01
3.023250283343986666e+01 3.806222828552002824e+01
2.689575371358770184e+01 3.728223234752522330e+01
2.719604373502044581e+01 3.694821576919478900e+01
2.739822563640410635e+01 3.681449497727856368e+01
2.762038303548051843e+01 3.665188454103546434e+01
2.782265549002486082e+01 3.687220601698318490e+01
2.821739221205573855e+01 3.664665698580831332e+01
2.832386650670658312e+01 3.625678793098749964e+01
2.853169591864448762e+01 3.641491892116098228e+01
2.880468194558099171e+01 3.621623018373548319e+01
2.893202917288519060e+01 3.589970289304189777e+01
3.011418549493010488e+01 3.860417763181501272e+01
2.893909012227042510e+01 3.574238087447387358e+01
2.912390437821522937e+01 3.558933692967092099e+01
2.962561859889371263e+01 3.560403436232802932e+01
2.980152745747579246e+01 3.530238131041554084e+01
3.015660796159149726e+01 3.511084282333547435e+01
3.049302500652785142e+01 3.535807275903003699e+01
3.072781197934950725e+01 3.554055852822742878e+01
3.044135032274179054e+01 3.610737828759803136e+01
3.101603009765750230e+01 3.604790552663395431e+01
3.125551275682957808e+01 3.630416316384294362e+01
3.005440704696027865e+01 3.878251005459255651e+01
3.120106755061267378e+01 3.696153964194786568e+01
3.101787447088812755e+01 3.675763842698045636e+01
2.996315393401913596e+01 3.899740405270197385e+01
2.987607098403748651e+01 3.924116738880481137e+01
9.522118616262959634e+00 -2.227805333667129517e+00
9.543257650763631972e+00 -2.318725702577705494e+00
1.290728452114770874e+01 -2.404894036556027181e+00
1.331449660016807712e+01 -2.014879704053733178e+00
1.364775722378660916e+01 -1.758364662968772363e+00
1.400534877173825876e+01 -1.381487874684155903e+00
1.466757978551236086e+01 -7.296752497305328822e-01
1.563834896336129532e+01 9.097336704848215660e-01
1.592614449836730550e+01 3.134319251695590225e+00
1.635075256383228037e+01 3.580955327791615961e+00
1.663560160071151373e+01 3.292141848638500345e+00
1.649554449249504984e+01 2.374139041076021694e+00
9.709027886619177039e+00 -2.272083535715236469e+00
1.481248577929803290e+01 2.054437770188616508e+00
1.395098915804680573e+01 1.933671572175414077e+00
1.351153099381277478e+01 1.944110236894045718e+00
1.312902954074502482e+01 2.184942734261017705e+00
1.273468838740437015e+01 2.304785313418121540e+00
1.247636412550520646e+01 3.576112807077480582e+00
1.192805414720610990e+01 5.143530278897879171e+00
1.292352561828807112e+01 1.168136388962672534e+01
1.321417572579228228e+01 1.275075994320734907e+01
1.355101021914298975e+01 1.378535180501132196e+01
9.978750473553327893e+00 -2.487473716067238438e+00
1.393603177835628948e+01 1.498453815989062043e+01
1.405221481599691202e+01 1.592227488156973614e+01
1.461618611795095113e+01 1.649292027760219170e+01
1.428359636755829065e+01 1.698366574496407821e+01
1.428534403097272332e+01 1.714881980349684554e+01
1.428032177809531511e+01 1.735394885692934608e+01
1.428703993903968161e+01 1.755200596239428279e+01
1.423248671036189883e+01 1.765247080132191471e+01
1.400699586035816679e+01 1.766978080661440131e+01
1.390439262117343588e+01 1.772675895094167231e+01
1.023589603403040016e+01 -2.615917621700749152e+00
1.360826389504005363e+01 1.768072186052604522e+01
1.311859096456392848e+01 1.760394624542799136e+01
1.282841002629751159e+01 1.751418943643096782e+01
1.221767428830355229e+01 1.738403113472707417e+01
1.191319908878859657e+01 1.713928893675914722e+01
1.154386605453357362e+01 1.694367353403733389e+01
1.131157972126746536e+01 1.660758491820456939e+01
1.123079268611169645e+01 1.633990071370335073e+01
1.101445541009870865e+01 1.593146418053080815e+01
1.111765194855342820e+01 1.489775936546521429e+01
1.074400622692439988e+01 -2.863735546993961822e+00
1.159818314804156714e+01 1.340754930140457368e+01
1.321578866169716981e+01 1.030408461082608618e+01
1.386279483282642033e+01 8.624696499425402507e+00
1.374482530088766907e+01 8.111640767552376730e+00
1.370611480724935660e+01 7.962645354539418463e+00
1.287877477392651215e+01 6.721452120742443803e+00
1.234954186538096543e+01 6.015626653844157623e+00
1.047204997180771358e+01 3.518624485467701124e+00
9.964658660549304159e+00 2.444466029249457772e+00
9.674070755461768201e+00 2.051779243429259658e+00
1.101617507530749407e+01 -2.955980032097900168e+00
9.747740601919170800e+00 1.847580012604018052e+00
9.525292679565371401e+00 1.320007980817653026e+00
9.332248257901614608e+00 9.773434425445231000e-01
9.297974844287626439e+00 5.597086414870240390e-01
9.203924019691283931e+00 1.600029866429852343e-01
9.159338697854689570e+00 -1.360023164507002114e-01
9.006119071267992382e+00 -5.142332806924403421e-01
8.899058125048098233e+00 -9.460025939645954063e-01
9.112029644522264604e+00 -1.323513351947844141e+00
9.159607035101938521e+00 -1.560415551122226629e+00
1.145463997001858836e+01 -3.057145646161260277e+00
9.095481041349383844e+00 -1.995718997117882143e+00
9.212653848859424954e+00 -2.181178259541603381e+00
1.166244613711733535e+01 -3.048741181542875545e+00
1.214192880338180736e+01 -3.085869341097145835e+00
-2.987736214837294568e+01 -1.527351641674327709e+01
-2.999164097000060281e+01 -1.428203761839869301e+01
-2.544089454973771325e+01 -9.700505228411477887e+00
-2.463325853597220672e+01 -9.513916331618954558e+00
-2.390266287686214852e+01 -9.403208902612368192e+00
-2.296195625154664910e+01 -9.300338608738089263e+00
-2.092179565611540681e+01 -9.473567819479796981e+00
-1.261861927445566955e+01 -1.041137408076971127e+01
-9.997682112385389175e+00 -1.196204769684825919e+01
-1.019066479135102199e+01 -1.249575945721575643e+01
-1.029929253725382843e+01 -1.261646320937307486e+01
-1.341101994624151850e+01 -1.449052786011475469e+01
-2.990510666648710725e+01 -1.366886136858458656e+01
-1.446657926782480708e+01 -1.484915977626764771e+01
-2.125104567611575135e+01 -1.606684908792029987e+01
-2.248144421652492397e+01 -1.656748515982402381e+01
-2.328942871067399167e+01 -1.676959912507463812e+01
-2.383766994570347464e+01 -1.692717769118607762e+01
-2.431622448190938357e+01 -1.705802140630532193e+01
-2.496948335005724218e+01 -1.722734800874511407e+01
-2.584892113012696768e+01 -1.714009716517218251e+01
-2.630547232975201410e+01 -1.713178974456186054e+01
-2.670643032599008748e+01 -1.700230176675592020e+01
-2.977304459336670917e+01 -1.326150186505146600e+01
-2.719103503870638505e+01 -1.693037107223967652e+01
-2.785519928823020308e+01 -1.651270756965708131e+01
-2.816678712720000632e+01 -1.604250588713202319e+01
-2.840130036422023707e+01 -1.572949123021828122e+01
-2.864957773890001036e+01 -1.530142060152649108e+01
-2.888408060852949788e+01 -1.483994174359487772e+01
-2.874566379871997412e+01 -1.440687303962974219e+01
-2.861127385138017587e+01 -1.390037587334209590e+01
-2.851349417780210160e+01 -1.331033931344914478e+01
-2.814550394208406203e+01 -1.281308408041536850e+01
-2.949935797526730141e+01 -1.266778571943109100e+01
-2.779610992159829763e+01 -1.225471210805500633e+01
-2.738575127390029351e+01 -1.178840036591651241e+01
-2.692502831692192444e+01 -1.137758121011776957e+01
-2.626767419434859008e+01 -1.119431619646834974e+01
-2.563490256767222064e+01 -1.093244768129820166e+01
-2.512785752450655252e+01 -1.065103259221969267e+01
-2.427151848337983608e+01 -1.042446673337028962e+01
-2.299751689678574351e+01 -9.835717264954443095e+00
-2.166445727251986142e+01 -9.136010057929860650e+00
-1.974870334993646637e+01 -8.928092716610894541e+00
-2.907585175886806894e+01 -1.205036316928293516e+01
-1.217870407299808555e+01 -8.989907489844158661e+00
-9.582982567426352460e+00 -9.151220177104324449e+00
-8.150587731812839465e+00 -1.026453460830631315e+01
-7.918455239512144139e+00 -1.075161746064113721e+01
-7.908225415676341186e+00 -1.178528248492970576e+01
-8.106911828441733192e+00 -1.234358722033251077e+01
-1.200034108882471884e+01 -1.483635079055427575e+01
-1.544049779641244058e+01 -1.661954105630156775e+01
-2.023943057722091865e+01 -1.821994209560840261e+01
-2.118218923435050272e+01 -1.849999020924735760e+01
-2.868928788991552281e+01 -1.164390297855757517e+01
-2.200359767106863984e+01 -1.872020682571620398e+01
-2.283781540773184915e+01 -1.885859664490340393e+01
-2.385714478652025150e+01 -1.867135230410751490e+01
-2.483255340649201415e+01 -1.862621234550816851e+01
-2.566994822538227439e+01 -1.863516395725422825e+01
-2.651594503084899301e+01 -1.855145949865416100e+01
-2.733820349793016291e+01 -1.839460240830049642e+01
-2.799720762456529854e+01 -1.793624466002919959e+01
-2.856644959031595832e+01 -1.752596455120011854e+01
-2.913207384223682084e+01 -1.682076387418481289e+01
-2.825030027491708040e+01 -1.120402652022858625e+01
-2.951060389641506632e+01 -1.622167456395725083e+01
-2.969346480129488342e+01 -1.581202882226158124e+01
-2.759321924975548157e+01 -1.069468135986687152e+01
-2.655545573596249298e+01 -1.010422143005679807e+01
1.965873515096391699e+01 -1.821318422289947003e+00
1.947818439358703912e+01 -1.560194557185521136e+00
2.026516950303163611e+01 3.781795187027233496e+00
2.103931992343533608e+01 3.970494160073851919e+00
2.110505311102698656e+01 4.662665341513691608e+00
2.178318654205162019e+01 4.627581919299606383e+00
2.179120354131525161e+01 5.299880702659784504e+00
2.241285686144669853e+01 5.439044536386053785e+00
2.240037754740252751e+01 6.083160976173421552e+00
2.291802288195301074e+01 6.231340760026230718e+00
2.319816878127085147e+01 6.649423949259631428e+00
2.301089760586783939e+01 7.251829224060137413e+00
1.926956012842682497e+01 -1.038584279825296663e+00
2.365019512971421278e+01 7.388600518639966808e+00
2.354330826882788585e+01 8.043225874267225350e+00
2.403503195113048108e+01 8.251899820047817968e+00
2.391504858214590001e+01 8.840583176248577146e+00
2.428791655409376560e+01 9.376451483660073194e+00
2.441719492033354655e+01 9.860385381149020745e+00
2.478660974603936396e+01 1.027020377931068218e+01
2.519222528724036891e+01 1.023358827851948227e+01
2.558162263906828926e+01 1.045711396198413112e+01
2.589768385403016993e+01 1.045024437411446883e+01
1.915548802656591221e+01 -4.274191344400750103e-01
2.621844569671677050e+01 1.043680398252927866e+01
2.642622639471778712e+01 1.012036579011478743e+01
2.683764871654242512e+01 1.023264642686370962e+01
2.692955280238359705e+01 1.007908282185928073e+01
2.723719747342877184e+01 9.918004337156780537e+00
2.724896204155195178e+01 9.741268025787809037e+00
2.732154489666846331e+01 9.483073142211637219e+00
2.712995328113573734e+01 9.231451036123289100e+00
2.674717167100239479e+01 9.000708200247025559e+00
2.700647620358342493e+01 8.661046147926356298e+00
1.914695049768197421e+01 1.546256950763702787e-01
2.654081765078829847e+01 8.413458031452551111e+00
2.646604064968925130e+01 7.895647340301343853e+00
2.611496103440106609e+01 7.407601306239961048e+00
2.580595418487742165e+01 6.608205776240796858e+00
2.572301383983276324e+01 5.626468129206430469e+00
2.529469180387028970e+01 5.148267377760761043e+00
2.548918832832177372e+01 4.484917377170509312e+00
2.556527596421759441e+01 3.943239030506467291e+00
2.496139849257770393e+01 3.731982495677415912e+00
2.521214798725311823e+01 3.192624931281606404e+00
1.919751091985811442e+01 7.484985668799012393e-01
2.516519568843917298e+01 2.857604325816707203e+00
2.453285623665043502e+01 2.829355397191231969e+00
2.481036669417160567e+01 2.301358454191898328e+00
2.471979141044967676e+01 1.986139450790012306e+00
2.413912514006868548e+01 2.089857836763889143e+00
2.441230793828660950e+01 1.547810983040316390e+00
2.386531733021032764e+01 1.562487606532954709e+00
2.405442221946126580e+01 1.071368015982925304e+00
2.341134194374574662e+01 1.227802057152384885e+00
2.346904585260959664e+01 6.670601748157305444e-01
1.938989398395919039e+01 1.423201068326501062e+00
2.299683096219326472e+01 1.702932126532627835e-02
2.268762343289827754e+01 -4.623278973441992123e-01
2.252877219574992296e+01 -8.723755375203832152e-01
2.218968464052329281e+01 -1.337271555830050307e+00
2.184824804660991404e+01 -1.739734416320403376e+00
2.155801124069241936e+01 -1.962839272849471906e+00
2.129611129270615777e+01 -2.086274492959574900e+00
2.097008836898413975e+01 -2.176752871013413415e+00
2.062555007478865932e+01 -2.206343155807609868e+00
2.034966893140463995e+01 -2.174909963410565084e+00
1.970090446798850436e+01 1.976339643174686245e+00
2.010078669806573970e+01 -2.097883026481088375e+00
1.986891262567447924e+01 -1.983613783423651800e+00
1.968878635644950137e+01 2.674853788834025359e+00
2.028773664265089494e+01 3.022590609940242423e+00
-1.529550836636648370e+01 -1.304548775062468202e+01
-1.504148079419983119e+01 -1.252056119987881644e+01
-1.467749417988467542e+01 -7.812758617638800196e+00
-1.388583625848664660e+01 -7.324162520278178157e+00
-1.254937367906569179e+01 -6.862058913366888113e+00
-1.084445082218792322e+01 -6.631993609916753130e+00
-8.132688562463576076e+00 -6.239413812297297746e+00
-4.708209212048676484e+00 -5.432782427840411543e+00
-3.951065455525410552e+00 -5.293473551125960519e+00
-2.362759063377082303e+00 -5.087161969977577414e+00
-2.393321786639635018e+00 -5.188959686484882816e+00
-3.007782246144991678e+00 -5.409830140839698487e+00
-1.476869217275044477e+01 -1.201209150982747431e+01
-1.111618605858659059e+01 -1.075269505347017152e+01
-1.718402068025098117e+01 -9.833331420836090686e+00
-1.892341650341669279e+01 -1.099183197272729551e+01
-2.046276626359456330e+01 -1.229437084989063678e+01
-2.076832789005981894e+01 -1.326210842694647773e+01
-2.057523002019320657e+01 -1.369352188736482567e+01
-2.006015337669169796e+01 -1.386001546623148073e+01
-1.951473773544810797e+01 -1.372763886341321893e+01
-1.909572423686446641e+01 -1.351333882664301100e+01
-1.866780080529294494e+01 -1.330476942052204770e+01
-1.482017888135783856e+01 -1.148824443647739990e+01
-1.831657254854475525e+01 -1.311769715792894964e+01
-1.803596065389710645e+01 -1.298339824771123396e+01
-1.777206535374819296e+01 -1.281908209692510603e+01
-1.743155876408940586e+01 -1.251811804349520507e+01
-1.718461540166470414e+01 -1.227824388896430641e+01
-1.702268059303342085e+01 -1.209920745851255752e+01
-1.682860050442547006e+01 -1.196658658472620651e+01
-1.657517852012480475e+01 -1.171695485931011049e+01
-1.629471753557736591e+01 -1.140772471175207592e+01
-1.608807627688534936e+01 -1.109663093710067905e+01
-1.481922954873324016e+01 -1.125538881027321025e+01
-1.600554267757880567e+01 -1.084873251385214843e+01
-1.597696054688407052e+01 -1.055397583754111146e+01
-1.598462867700712664e+01 -1.018124905961848725e+01
-1.597119482416347758e+01 -9.708991573704224720e+00
-1.598417115160446755e+01 -9.238779567275397397e+00
-1.596479398974771868e+01 -8.773025274915639216e+00
-1.592715799147386768e+01 -8.006349304491910956e+00
-1.483121873567269056e+01 -7.333283197418791310e+00
-1.311400247819923237e+01 -7.019186728886023019e+00
-1.154034093538028394e+01 -6.783346057190756895e+00
-1.470271655765844976e+01 -1.096127872969397821e+01
-9.072708749868979794e+00 -6.679191081949793052e+00
-5.318994396057001417e+00 -6.528598032449527189e+00
-4.075758159152363724e+00 -6.489462672713337099e+00
-3.054171564843449538e+00 -6.514698609379676597e+00
-2.901871752380127401e+00 -6.549916530551486815e+00
-4.214868200028173639e+00 -7.871728672444968211e+00
-7.629625564389313830e+00 -8.654753519198944645e+00
-1.799171267341829861e+01 -1.011764925733088383e+01
-1.964990506369364098e+01 -1.167497514123355273e+01
-2.046320974817576754e+01 -1.284763822233581720e+01
-1.473389085579630553e+01 -1.032237891163833510e+01
-2.059389511715736276e+01 -1.353097223104147062e+01
-2.033154815159550921e+01 -1.411789474222983998e+01
-1.977881860530252567e+01 -1.438072764662888758e+01
-1.921171854403805312e+01 -1.445084391965339066e+01
-1.870079237289922247e+01 -1.443919226030619463e+01
-1.826241077151746239e+01 -1.439018634544109254e+01
-1.789985865334502080e+01 -1.432660954326202862e+01
-1.749718115769093174e+01 -1.442725388104204143e+01
-1.697720645502542425e+01 -1.428542081721322177e+01
-1.656364668757800018e+01 -1.388422830579324341e+01
-1.487227452803980299e+01 -9.647724962054363473e+00
-1.607272337038888921e+01 -1.352879715975352681e+01
-1.562431859518201804e+01 -1.332516213012114292e+01
-1.505636914023269668e+01 -9.016117945846913173e+00
-1.527439817279021739e+01 -8.330593418919278292e+00
-3.183934012714512463e+01 -1.532960353902241124e+01
-3.190333534009250016e+01 -1.351532091252859225e+01
-2.568759277394190121e+01 -7.630964170695001769e+00
-2.468887681847659366e+01 -7.341619167981904504e+00
-2.353074243448849145e+01 -7.039694470958513861e+00
-2.095284792753569292e+01 -7.582771126698714781e+00
-1.799072763325203894e+01 -8.357822095807508234e+00
-1.137591801757526078e+01 -9.498288121181149180e+00
-1.009933847557552156e+01 -1.006649418630981252e+01
-4.084938604508356441e+00 -1.362909442235032920e+01
-8.856015078155158093e+00 -1.410239396165344061e+01
-1.025010911769895650e+01 -1.533326765250179946e+01
-3.169156791966599584e+01 -1.246156377634926571e+01
-1.276281729568135148e+01 -1.613836079876318408e+01
-1.634438359130975371e+01 -1.727115286753296175e+01
-1.841983927256496045e+01 -1.799557875964833542e+01
-2.086879412819241963e+01 -1.981772133398869684e+01
-2.211427324581812570e+01 -2.026802335594438276e+01
-2.283219990124078080e+01 -2.054522499729960572e+01
-2.387586419013586081e+01 -2.087014147065019287e+01
-2.494365547913243120e+01 -2.105745391396686728e+01
-2.607152790527490183e+01 -2.109846602440326535e+01
-2.696864671540026848e+01 -2.099352068039085140e+01
-3.127252887930026404e+01 -1.151235086004811770e+01
-2.794476318107035340e+01 -2.072857898881942873e+01
-2.890426985140043215e+01 -2.031911624749989542e+01
-2.974369051850301915e+01 -1.980549051345916922e+01
-3.068766061286897795e+01 -1.906594491324880991e+01
-3.149540740234172986e+01 -1.802518847343620578e+01
-3.198994263134965976e+01 -1.700484564231881990e+01
-3.231760308642627422e+01 -1.580875613748744080e+01
-3.231748216315732236e+01 -1.461998492171810504e+01
-3.233007182025357196e+01 -1.340968408046452431e+01
-3.191658694181938571e+01 -1.198848147807905029e+01
-3.069213111544020833e+01 -1.069232132737431051e+01
-3.136699956424309477e+01 -1.076094053598288447e+01
-3.068104115120797815e+01 -9.842978444285600759e+00
-2.984193751078510104e+01 -9.078808307259288668e+00
-2.885450211056621939e+01 -8.388344377293726950e+00
-2.772404718636701659e+01 -7.831870962247464263e+00
-2.653814066657005810e+01 -7.406858674421029853e+00
-2.554399190433814226e+01 -7.142996276197431271e+00
-2.460916012480694803e+01 -6.991853339238244480e+00
-2.267840417165627187e+01 -6.997366451612330174e+00
-2.006129971191807471e+01 -7.772370307324082184e+00
-3.006344584164595801e+01 -9.988701094385964652e+00
-1.319896698119156220e+01 -9.017258199165413046e+00
-1.078840401401336280e+01 -9.262961374856381269e+00
-9.243602586435073931e+00 -9.887140128493166813e+00
-5.804981788139663479e+00 -1.388978636607656902e+01
-5.944709927469126853e+00 -1.459180488726424052e+01
-9.279242850347371174e+00 -1.494048024696489918e+01
-1.138265171261155118e+01 -1.565398253918454863e+01
-1.441170072402191060e+01 -1.666319643703500475e+01
-1.918535139781665322e+01 -1.849764446393163908e+01
-2.046488163537739879e+01 -1.917227668188865053e+01
-2.936426525714959723e+01 -9.346151251348466360e+00
-2.158809790404355766e+01 -1.968064371133726453e+01
-2.275541993804142749e+01 -2.011454152885656654e+01
-2.365983078721530575e+01 -2.043587687011122611e+01
-2.463323001788130995e+01 -2.067019631779251299e+01
-2.575658410338088800e+01 -2.073367781787494835e+01
-2.691098130669285027e+01 -2.056681572176692896e+01
-2.802534363822688945e+01 -2.020946851221438223e+01
-2.898633212854267072e+01 -1.967209258749145917e+01
-2.994160225014464771e+01 -1.899875419590252079e+01
-3.085763946166555982e+01 -1.789725391047938174e+01
-2.855679720867017224e+01 -8.748169122744291926e+00
-3.148467316974237207e+01 -1.675342240128836124e+01
-3.172848374124738413e+01 -1.611934222204485678e+01
-2.782955546641444045e+01 -8.344634958062592034e+00
-2.679426376976800128e+01 -7.952014432242890507e+00
4.394151355771808376e+00 -1.758413041850557912e+00
5.363136574541040424e+00 -1.891369651377095451e+00
7.963103336493747797e+00 -7.225715040874811201e+00
7.498758340216053142e+00 -7.562981358006473975e+00
7.050671802869366012e+00 -7.751596801029278616e+00
6.557272542604787979e+00 -7.948151466915505559e+00
5.872072305992269037e+00 -8.066094825379252597e+00
5.121329612779159213e+00 -8.147281399414403324e+00
4.456796407354925549e+00 -8.196486625440899232e+00
4.024672113606265533e+00 -8.173522879929455698e+00
3.305543099376996974e+00 -8.321982770320722977e+00
2.845952612057147224e+00 -8.352405164581620411e+00
6.251491624689440307e+00 -2.390587611639853005e+00
2.365257361490520793e+00 -8.417912216069289855e+00
1.889485219658050497e+00 -8.477998666548975493e+00
1.371897856113474923e+00 -8.502370955790810925e+00
8.743345992403486200e-01 -8.549359559684491572e+00
4.392715825294662424e-01 -8.514935938109081448e+00
1.213197033298820393e-01 -8.916578157136168414e+00
-3.674222542793658119e-01 -8.765696678801544905e+00
-6.202059183832855371e-01 -8.386726034409281993e+00
-7.075592799403024324e-01 -7.862878355588094337e+00
-5.155852254728066769e-02 -7.705782994255033103e+00
6.986986895542025344e+00 -3.245696684859730841e+00
-2.340829043508859952e-01 -7.088652960963514715e+00
2.666318539482669392e-01 -6.892807468956105410e+00
9.908928153312496212e-01 -6.939622012182068644e+00
1.133556458327135585e+00 -6.268965820663519928e+00
1.938407959451602824e+00 -6.696379372993135348e+00
2.122616162202366041e+00 -6.197886648953739197e+00
2.414840046305921195e+00 -5.835759018973511125e+00
2.820462380699336524e+00 -6.408726413048519532e+00
3.431413758378546230e+00 -6.172690452901241187e+00
3.893249810729570992e+00 -6.191035769555981894e+00
7.575232336155118595e+00 -4.109641526346836216e+00
4.354356445419611532e+00 -6.099369310164317604e+00
4.983900581186593293e+00 -6.197757705891155489e+00
5.725120409044340164e+00 -6.283563544477838825e+00
6.252236910694120020e+00 -5.860178463182233344e+00
6.366223747913186237e+00 -5.169208770896209337e+00
6.154794297996786234e+00 -4.606142804290701775e+00
5.754269380096840081e+00 -4.107751351559342901e+00
5.177202516539397337e+00 -4.010231056295813445e+00
4.878896803635162094e+00 -3.358755512704206581e+00
4.149333627129715651e+00 -3.504053163509815327e+00
7.865105916954797216e+00 -4.810937328944797642e+00
3.807550671569013279e+00 -2.969932593459124970e+00
3.230141585431659745e+00 -2.786735729300851894e+00
3.003998998732812176e+00 -2.489950123480812127e+00
2.479931867294730363e+00 -2.104643831387093211e+00
2.414346979354455414e+00 -1.571929125574051955e+00
1.815738241190331337e+00 -1.850334161916547426e+00
1.364918573575556238e+00 -1.600997423934095387e+00
1.312600589534841156e+00 -2.266596757931326422e+00
9.150043275237997875e-01 -2.229511285991035319e+00
4.606072754336390518e-01 -1.962932741245912771e+00
8.191519384082338817e+00 -5.394309753707605459e+00
3.242172860036819648e-02 -2.183098946300352949e+00
1.426368513355113221e-01 -2.601921563110505708e+00
-2.206192616201015644e-01 -2.813988261921301692e+00
-8.043955100339462982e-02 -3.192496881706324174e+00
1.122579994340567044e-01 -3.531675019726855602e+00
5.853155909022604853e-01 -3.320960223797910782e+00
7.137486541334088219e-01 -3.792064239691139704e+00
1.089708953051888196e+00 -3.573749439318500531e+00
1.541579625353831418e+00 -3.495391548066812515e+00
1.984955089317149257e+00 -3.438654874057206268e+00
7.866520573210971534e+00 -5.907257288462816724e+00
2.362038211508668439e+00 -3.070184354274188010e+00
3.456110338195975462e+00 -1.833369711381846789e+00
8.296615862863310653e+00 -6.347778927637308222e+00
7.919826892255984241e+00 -6.725021698517879898e+00
1.970882099795341702e+01 1.114170877800282611e+01
2.012292347855929364e+01 1.096402557485767382e+01
1.747925145059158325e+01 8.276679231785903923e+00
1.707650448880816185e+01 7.848475707422134739e+00
1.678735514623167546e+01 7.246505170513449556e+00
1.661876901502939674e+01 6.561667859214503906e+00
1.652756410250846741e+01 6.027035607286281405e+00
1.653727716155833249e+01 5.512851038372375001e+00
1.664435714971315505e+01 4.951419717844673052e+00
1.713945474451759665e+01 4.606539745718436052e+00
1.720477889202069477e+01 4.408834638466293754e+00
1.797355425558958686e+01 4.765156898249116146e+00
2.054488843914169749e+01 1.074384494687093117e+01
1.851221913272861386e+01 5.112794369409840556e+00
1.907606806906922969e+01 5.647986174350892341e+00
1.946138553830712681e+01 6.104783457643764066e+00
1.983205804558684093e+01 6.709860764905258179e+00
2.006688319327889403e+01 7.186055047042089861e+00
2.029494253026274464e+01 7.703773964237631944e+00
2.022619082505016763e+01 8.010714532788508535e+00
2.017880778211573300e+01 8.371933710588399080e+00
1.990240361040437023e+01 8.756895000947642060e+00
1.928076379081803182e+01 9.565037341918086966e+00
2.088024787624791756e+01 1.032350740773279618e+01
1.873667184176853340e+01 1.007240625337817619e+01
1.823677621606839239e+01 1.054624801387877220e+01
1.795329132744251410e+01 1.091080093593041234e+01
1.792053853775852090e+01 1.136191026985139452e+01
1.776286091656050559e+01 1.168243631674950400e+01
1.753513271117384420e+01 1.185366730983055028e+01
1.736465853250056668e+01 1.188962154962456452e+01
1.704576099091380925e+01 1.180942154528306354e+01
1.670807009281659461e+01 1.154674077191745063e+01
1.635755952017002812e+01 1.110715874878340870e+01
2.078520293171393973e+01 9.930740686467963485e+00
1.611965962220346782e+01 1.062082618609008655e+01
1.603546298317665020e+01 1.031576607519126476e+01
1.596651489066054275e+01 9.922931468365803198e+00
1.588098088464525581e+01 9.496259565827775972e+00
1.581994039616692760e+01 9.147059943754161537e+00
1.574634945397612640e+01 8.727713445576547713e+00
1.564740689641873139e+01 8.279266849708394105e+00
1.555188974917336786e+01 7.722202210023594304e+00
1.548292358020350257e+01 7.124486694349638327e+00
1.541716239079908490e+01 6.683576555885510473e+00
2.055468871865856784e+01 9.541342303296612926e+00
1.550006903018750215e+01 6.123490044384713116e+00
1.561037802504859329e+01 5.679347143814709398e+00
1.579111722895758163e+01 5.228364476295425334e+00
1.608787932327228631e+01 4.819656640804574899e+00
1.650602556083400074e+01 4.625825088869485846e+00
1.707957301447345699e+01 4.794653190597571779e+00
1.742939027119471618e+01 5.078808794438422147e+00
1.806733936267242413e+01 5.602727644680761010e+00
1.856278671533658553e+01 6.251790194881943208e+00
1.894354841864323191e+01 6.765547445092422230e+00
2.010300483380948577e+01 9.267862506579504611e+00
1.906437030417172451e+01 7.320033791328600437e+00
1.918481573752063341e+01 7.864200383987713927e+00
1.921647930815004202e+01 8.154412256864741693e+00
1.898594077482932008e+01 8.397041421446433063e+00
1.877639028491120854e+01 8.579565656751025671e+00
1.851509145781174226e+01 8.750693243249141773e+00
1.838098524599112693e+01 8.862899667923866076e+00
1.812615569045864561e+01 9.122585224892391764e+00
1.773517759289342166e+01 9.316598983915982402e+00
1.805433013270065601e+01 9.762475051392257797e+00
1.918921749191958881e+01 9.051193530909680263e+00
1.922380472652629635e+01 1.054285893882365954e+01
1.955177711701570331e+01 1.093215929488157201e+01
1.825540417981492070e+01 8.295524927197694964e+00
1.806981857793917001e+01 8.418130135356554078e+00
-2.012806793811906303e+01 -4.204799993466750152e+00
-1.948893702222466118e+01 -4.935419242582828048e+00
-1.280272079174659972e+01 -5.315140359882185805e+00
-1.164857014434477023e+01 -5.131952716629494482e+00
-1.040917147690563027e+01 -4.993761151800798714e+00
-8.985411342455197570e+00 -4.767670798935508714e+00
-7.714249433539061229e+00 -4.629372972663325037e+00
-6.033598266440561630e+00 -4.110565669073606543e+00
-3.870356637006597378e+00 -3.321958180993222598e+00
-3.272096146410118589e+00 -2.637823178793579526e+00
-4.116194751990115641e+00 -2.120556234841513454e+00
-6.857557980801771258e+00 -1.867909760026485344e+00
-1.874873764189376857e+01 -5.550035325875438019e+00
-7.853419086935706339e+00 -1.870512129561016756e+00
-1.040430713912068583e+01 -1.895702669845611199e+00
-1.161963885213102365e+01 -1.914521564746973548e+00
-1.256439901642768753e+01 -1.991865654226480320e+00
-1.374623972194699029e+01 -2.047685564823733984e+00
-1.470991912129566792e+01 -2.039296720384976780e+00
-1.556960936485986124e+01 -2.054114955883376670e+00
-1.630483198958711455e+01 -2.003449242834779653e+00
-1.686570492599550875e+01 -1.682076915662376715e+00
-1.747000195582318938e+01 -1.943633762519093811e+00
-1.814590054738064495e+01 -5.853833161657592932e+00
-1.799006888487603817e+01 -2.071629196703549169e+00
-1.847248555142749993e+01 -2.146935634933151427e+00
-1.848311988693790653e+01 -2.736100310615336095e+00
-1.905879356066259334e+01 -2.871258063913267211e+00
-1.930952842420899884e+01 -3.343486177676187943e+00
-1.965566524796069814e+01 -3.546723295482356431e+00
-1.952196030229516666e+01 -3.874616739129748577e+00
-1.906870616316511402e+01 -4.347075826357230000e+00
-1.853236996802906944e+01 -4.801017120077211153e+00
-1.805730131744814670e+01 -5.009365160490969693e+00
-1.756821057437556277e+01 -5.992189179217110251e+00
-1.753393636912899822e+01 -5.132163819329600862e+00
-1.693716317464701504e+01 -5.187734542788154712e+00
-1.631775641283709533e+01 -5.144442921754466269e+00
-1.565750004794857908e+01 -5.093584445472962408e+00
-1.490096761734997521e+01 -5.055794685640517372e+00
-1.390032831799767443e+01 -4.974731690524602179e+00
-1.294238817794286511e+01 -4.931074062695747884e+00
-1.173459617826839008e+01 -4.893818748080563275e+00
-1.042191383370599489e+01 -4.800327302256429007e+00
-9.483252666873360326e+00 -4.761804145356950180e+00
-1.695149828510088597e+01 -6.073607867581508835e+00
-8.122489980369218543e+00 -4.585336154460092573e+00
-6.549999876364505091e+00 -4.248909943330850147e+00
-4.709317280855273680e+00 -3.474117045840336981e+00
-3.176935237394165501e+00 -2.211453699799732941e+00
-3.697011040340242527e+00 -1.757767147071680469e+00
-6.602516951925371025e+00 -1.534387080075674481e+00
-8.886256024396507414e+00 -1.696362677343904890e+00
-1.010133923493449970e+01 -1.750040482910517614e+00
-1.127351839432002834e+01 -1.867864235325598088e+00
-1.263708869937545209e+01 -2.103671998302983681e+00
-1.636880547217348436e+01 -6.001438060578117017e+00
-1.387282756908226311e+01 -2.430493664258623454e+00
-1.479682872532051796e+01 -2.644028104622889508e+00
-1.570869848925692125e+01 -2.847556168551490963e+00
-1.652307353857320393e+01 -2.933219307966285605e+00
-1.717120344223367212e+01 -2.772418853090417024e+00
-1.771750040494118394e+01 -1.339940490572601561e+00
-1.844742111335592227e+01 -1.270778954660357618e+00
-1.905713597232413647e+01 -1.455287547280817773e+00
-1.955002751413390527e+01 -1.830470596449579102e+00
-1.994087625407075492e+01 -2.378331978098472632e+00
-1.565937308478796552e+01 -5.891626410126968416e+00
-2.023512003258727177e+01 -3.170632638315744156e+00
-2.030978846295845841e+01 -3.768954347379671610e+00
-1.487553626841349264e+01 -5.735209270118600600e+00
-1.393582532152707643e+01 -5.534063966756861852e+00
