1.884801506147406158e+01 -1.507564481051598015e+01
1.900622671737221481e+01 -1.501477911964834533e+01
2.078089585588412902e+01 -1.102909061944301428e+01
2.098995405883040277e+01 -1.025596979305688983e+01
2.114272555371001516e+01 -9.637684681513357887e+00
2.133396976704557346e+01 -9.020419914540754647e+00
2.142577084098271811e+01 -8.396592853433391568e+00
2.141835896951524632e+01 -7.772500368733904708e+00
2.117657001027674468e+01 -7.107827565353951549e+00
2.057770556405883866e+01 -6.475405040802514556e+00
1.987833265863782017e+01 -6.324467509027463130e+00
1.930727894836331160e+01 -6.226404321168222289e+00
1.928310324463042491e+01 -1.479961476213002491e+01
1.874636318233532961e+01 -6.422917835076981774e+00
1.823320238327864828e+01 -6.726196446010966667e+00
1.763199050589599182e+01 -7.108435482887381696e+00
1.691911717523273495e+01 -7.749454156753508904e+00
1.634355215359074975e+01 -8.461652296212196944e+00
1.580633286782041935e+01 -9.156406563549014166e+00
1.543743527629121637e+01 -9.960609370355323122e+00
1.526558004504317623e+01 -1.067342696603947694e+01
1.468819241677277709e+01 -1.111229928903765440e+01
1.463044014946170535e+01 -1.203474944154590176e+01
1.948556804905064865e+01 -1.459346204594685759e+01
1.393510687864069375e+01 -1.218876257744215685e+01
1.343547497753345965e+01 -1.290439175439521158e+01
1.355915833635793000e+01 -1.355030596513527286e+01
1.287908114275024829e+01 -1.367878322651537637e+01
1.256094409996090455e+01 -1.406689968752034403e+01
1.290534679489263858e+01 -1.451649203905610541e+01
1.245260407554764726e+01 -1.468651430837320682e+01
1.252607670668491124e+01 -1.505128502219600328e+01
1.275839096135141659e+01 -1.532236764031657472e+01
1.332273797372276292e+01 -1.520164716973607000e+01
1.979320298200791939e+01 -1.414972233300933091e+01
1.375429930244766119e+01 -1.551336062605947852e+01
1.417974288207562594e+01 -1.501323234173228016e+01
1.475233545816239022e+01 -1.500339742559752487e+01
1.517767585077365489e+01 -1.435378103076562084e+01
1.552825018867531881e+01 -1.356758271916078229e+01
1.895229813194049839e+01 -1.098280339551099694e+01
1.921611345025830531e+01 -1.023724038948806125e+01
1.985855652290809559e+01 -9.838837337693554730e+00
1.980967975641106449e+01 -9.179742583799976430e+00
2.041180425383913644e+01 -8.795838083459049273e+00
1.997046181318756197e+01 -1.384356580685908078e+01
2.023437015212055101e+01 -8.284899952759653630e+00
2.070355790020504827e+01 -7.886927299238403855e+00
2.033882445427872199e+01 -7.497460687106366706e+00
2.047238685825460536e+01 -7.016329213989693336e+00
1.974712627013225230e+01 -7.009236811428681158e+00
1.946592474532212336e+01 -7.348779899040734698e+00
1.891710009933688141e+01 -7.406959291647553734e+00
1.850875002422926840e+01 -7.779295465361467876e+00
1.793817052826744884e+01 -8.223003450592129226e+00
1.749781248607000350e+01 -8.796172114944521780e+00
2.016725615295024809e+01 -1.336566330339010378e+01
1.716776039753841232e+01 -9.463589622164619186e+00
1.681116596100319782e+01 -1.017095855689544770e+01
1.670080935021424651e+01 -1.093566187103022003e+01
1.675677816463047165e+01 -1.161361500487949350e+01
1.698537687783363026e+01 -1.242066659552389574e+01
1.728157064094584427e+01 -1.305115738449571339e+01
1.755275000379271333e+01 -1.369675680363830317e+01
1.790700855355352772e+01 -1.430707307350014368e+01
1.813756651063106418e+01 -1.465803658730217762e+01
1.838347230088055895e+01 -1.490217138084312332e+01
2.031685702028740081e+01 -1.290950078440622839e+01
1.859255305816851234e+01 -1.503765557797863828e+01
1.873570220338791970e+01 -1.506089935456974160e+01
2.049662007065736447e+01 -1.226987647112828839e+01
2.060101578063067507e+01 -1.172465291247932484e+01
-2.136433005398611584e+00 -3.220109941015902422e+01
-1.310401649522140000e+00 -3.229027201450127649e+01
-9.716962752396810510e-01 -2.882089289814869204e+01
-8.934408243808232841e-01 -2.832671457739881049e+01
-8.517145929702967244e-01 -2.776416592195741018e+01
2.691614554207774290e+01 -5.743319215856332427e+00
2.688421868781039592e+01 -4.895019862744760530e+00
2.668489951116462677e+01 -3.571555948595725560e+00
2.603001580999228182e+01 -2.644649787909246097e+00
2.562263619325909048e+01 -2.247559696293977449e+00
2.527791186093762832e+01 -2.091917249118276256e+00
2.429208907422671970e+01 -2.051440960037127059e+00
-1.238686594508334293e+00 -3.181919719477662767e+01
2.339534420138905091e+01 -2.274226409162135365e+00
2.248885069809556825e+01 -2.715423720026790111e+00
2.166097280216729715e+01 -2.931864370518268537e+00
2.081765403287036520e+01 -3.061380782879236762e+00
2.010535337175143411e+01 -3.140987949556207415e+00
-7.397907347114760057e+00 -3.291562653174967323e+01
-6.815264885788170801e+00 -3.296363124617239038e+01
-6.313334265817983848e+00 -3.300374945015281014e+01
-5.676273220495246186e+00 -3.294840759122336493e+01
-5.192503713652169672e+00 -3.292630743335125487e+01
-9.500804747244693260e-01 -3.157175688355006926e+01
-4.618024480513938990e+00 -3.283700172234400583e+01
-4.155669119298734948e+00 -3.279771903822638990e+01
-3.775642300423744047e+00 -3.285336709594240290e+01
-3.381817720596115073e+00 -3.286807813950850488e+01
-3.029315767789913849e+00 -3.293171465031650769e+01
-2.587311242025819524e+00 -3.289095273820329624e+01
-2.102796442791496023e+00 -3.289633480522345366e+01
-1.689712763509346516e+00 -3.270293909481696204e+01
-1.801278341382979598e+00 -3.200848521210793507e+01
-1.935734413928648312e+00 -3.151533892440075135e+01
-1.097790772478622445e+00 -3.113200939500929110e+01
-2.049127721804342883e+00 -3.117419401525244282e+01
-1.953688433607456254e+00 -3.084897380448025217e+01
-2.277300901620519458e+00 -3.055294821339554900e+01
-2.187387381106032702e+00 -3.023104471861970666e+01
-2.138016836795600728e+00 -2.975548829720042221e+01
-2.078389401979618523e+00 -2.921889423691153098e+01
-2.005755421814447548e+00 -2.852761060788527914e+01
-1.865385291624488850e+00 -2.774099904495955826e+01
2.590691769348437745e+01 -5.786285960683668073e+00
2.586354232626770511e+01 -4.983265491617343557e+00
-8.568984261647191181e-01 -3.085213257585031243e+01
2.572703027206453186e+01 -4.078119051313980670e+00
2.561312048777594086e+01 -3.072466345747268068e+00
2.533572914520120989e+01 -2.610840337680753187e+00
2.505869069777917701e+01 -2.379759242167140076e+00
2.452519356580176080e+01 -2.162008790765111321e+00
2.383734204664094491e+01 -2.080239324113577037e+00
2.275266363903947919e+01 -1.883232092481474051e+00
2.170210501670279868e+01 -2.014443813835252062e+00
2.086088925707135644e+01 -2.195158490905930737e+00
2.020418416890539604e+01 -2.362115534551636031e+00
-9.103325518956129070e-01 -3.046477845123877870e+01
1.947289034350468384e+01 -2.597738935295796026e+00
-7.019658269277071483e+00 -3.218150592453873315e+01
-6.336559713098316671e+00 -3.225882321002499964e+01
-5.887437000233956219e+00 -3.220808432974864388e+01
-5.373119569760753222e+00 -3.212161671533412033e+01
-4.888638350452655601e+00 -3.203908535726648665e+01
-4.521882369216892350e+00 -3.196270064924268084e+01
-4.153987031244096961e+00 -3.185616049919247672e+01
-3.771639567571222873e+00 -3.194449627881064302e+01
-3.414301628817848044e+00 -3.182219441402231297e+01
-1.258016449383101865e+00 -3.016024697641947938e+01
-3.036341409451300155e+00 -3.204276725246042901e+01
-2.667870345479434580e+00 -3.215191664910828706e+01
-1.036773657542287674e+00 -2.974776748466119614e+01
-1.116129904825235331e+00 -2.934708166371023097e+01
-5.108974643005279592e-01 3.938413271223770096e+01
-8.245073827222944018e-01 3.933698905667066725e+01
-2.287126400393738823e+00 3.833658875656331588e+01
-2.295101188765038547e+00 3.791977988468524075e+01
-2.742773313311384964e+00 3.769431870866259970e+01
-3.080450391401462706e+00 3.735111472178505920e+01
-2.760261278076594937e+00 3.708386333947059654e+01
-2.870296384474293028e+00 3.679568807279823517e+01
-2.188345185001800530e+00 3.682558270580986459e+01
-2.007598529594444070e+00 3.664918152378476179e+01
-1.832178407800117537e+00 3.594975236918290307e+01
-2.647273547859576581e+00 3.625914272545424666e+01
-9.907560164214055387e-01 3.919184732495589429e+01
-2.114618961284931764e+00 3.630613326851666756e+01
-3.257207636800432127e+00 3.588728582253641974e+01
-2.396719194572433764e+00 3.606669921814427227e+01
-3.283263475132276454e+00 3.614708689288121946e+01
-2.430240024195875925e+00 3.554161194797634238e+01
-3.476480302512613640e+00 3.602643196532113734e+01
-2.838173612351722941e+00 3.548523881651946965e+01
-3.290523391613168425e+00 3.535407281255535850e+01
-3.028517448180781280e+00 3.483091463868444748e+01
-3.292381331980310577e+00 3.511983200673251559e+01
-7.076111063365437825e-01 3.865267003534056300e+01
-2.700465312915348193e+00 3.478815570865337037e+01
-3.370324522794704958e+00 3.449341761926105221e+01
-2.905647934977400482e+00 3.407087615570350181e+01
-3.309696693412022661e+00 3.397795323346060314e+01
-3.234659766005282933e+00 3.353274772455358743e+01
-3.330408401041067279e+00 3.371666624064160089e+01
-2.739666155656538926e+00 3.369130689000341050e+01
-3.422364032091381070e+00 3.322012701756629838e+01
-2.661413487542995338e+00 3.319211947491890413e+01
-3.361112739622288181e+00 3.289116978120193835e+01
-6.044523377040307288e-01 3.830692519868497925e+01
-3.028016876644036959e+00 3.276813970519197738e+01
-2.306804581710897750e+00 3.310587469646058167e+01
-3.267014037421665407e+00 3.221802384973823052e+01
-2.920600593279453427e+00 3.225577572285834549e+01
-2.381754202706168666e+00 3.256464998185474968e+01
-2.611834130282228106e+00 3.203907355698864023e+01
-2.329856575293459908e+00 3.232741211898190414e+01
-2.867125427921950909e+00 3.167220160576755461e+01
-2.415762222782719348e+00 3.162703158557681959e+01
-2.034334054328394537e+00 3.175985243964618121e+01
-5.397509684422941989e-01 3.813364531323216511e+01
-1.830262225752006255e+00 3.193999134189710176e+01
-1.621274896320068049e+00 3.227977632599503011e+01
-1.430484091764213650e+00 3.256506552149443223e+01
-1.312809399488764406e+00 3.200468578694173516e+01
-9.927478710257140460e-01 3.255415048150008062e+01
-9.072128845535732955e-01 3.306073592568161246e+01
-3.738689444931204697e-01 3.322507638616981751e+01
-3.583019362429046284e-01 3.340050893133921761e+01
-2.992408459323091241e-02 3.386744872875159729e+01
3.237848078640995914e-02 3.417582064589189628e+01
-8.023246997498799660e-01 3.805492018915451524e+01
1.851629964682006968e-01 3.446183473475833381e+01
2.310867065365266315e-01 3.487238813472590238e+01
3.537620565391874083e-01 3.528090436667935847e+01
3.945665185903351468e-01 3.584246108670697595e+01
4.740120004685490218e-01 3.643968434584139260e+01
4.159030998645968924e-01 3.737574431414463305e+01
4.229778788399627953e-01 3.765530682804237017e+01
3.013472464199752343e-01 3.797149355521494840e+01
4.400060510753381338e-01 3.842090757540881185e+01
1.813849569389353322e-01 3.885696110678745896e+01
-1.220864115753419910e+00 3.834375647173638413e+01
6.587310787422301361e-02 3.909353344961375143e+01
-2.869129081331328601e-01 3.930689874775360693e+01
-1.575891072922810832e+00 3.845751379843334661e+01
-1.958452016821383701e+00 3.854379156997017475e+01
8.151895375488445339e+00 -2.744172280684752607e+01
7.724319379230782268e+00 -2.738540378556704624e+01
3.869014071396589483e+00 -3.081828597040014728e+01
3.986894036526805518e+00 -3.125471346334467881e+01
4.169723141454301008e+00 -3.183203257153695986e+01
4.606492393987184464e+00 -3.188430069644973486e+01
4.902940254862334868e+00 -3.220696005244992932e+01
5.347678298398945707e+00 -3.202912416324818423e+01
5.737645860988594748e+00 -3.218851839089959554e+01
6.063762650760714301e+00 -3.195179697897571103e+01
6.453507761128411957e+00 -3.207616520038341434e+01
6.548319891241117574e+00 -3.155769824725518546e+01
7.345385795947517948e+00 -2.738587782100578494e+01
6.856594046293728262e+00 -3.159205429798800324e+01
7.092396229359624549e+00 -3.130022901050743656e+01
7.387134908450579296e+00 -3.176025177424197921e+01
7.641467511763885057e+00 -3.159084028783073705e+01
7.869870085837281870e+00 -3.192829516251384447e+01
8.184330644783344155e+00 -3.257585995282597935e+01
8.545202305075473959e+00 -3.418691242187109225e+01
8.949878763545042304e+00 -3.456439574995268771e+01
9.114304476287124146e+00 -3.491875835290746721e+01
9.177369301596518980e+00 -3.534114471274393310e+01
6.851192455685682248e+00 -2.744884110662807686e+01
9.181791283148587723e+00 -3.584976327668226759e+01
9.137673954774655272e+00 -3.633124429501960861e+01
9.034729601740254523e+00 -3.669433225451373204e+01
8.914882591968853021e+00 -3.691549539275923308e+01
8.755726253938176384e+00 -3.709992404754450490e+01
8.561853782304492455e+00 -3.723582816783822835e+01
8.309014671718166767e+00 -3.734424733641868954e+01
8.007017000253775052e+00 -3.739778283603889975e+01
7.614427596018649602e+00 -3.740102377410862289e+01
7.216952285290219038e+00 -3.733674394204899727e+01
6.358240931622953340e+00 -2.759017072705491458e+01
6.832931291798391982e+00 -3.721770300599922621e+01
6.458080067564270443e+00 -3.703937095487309250e+01
6.049599222827373168e+00 -3.678133909416876435e+01
5.638234127053828537e+00 -3.644189295882230795e+01
5.250076641060095639e+00 -3.603955465462309604e+01
4.923898040280325183e+00 -3.565870418749981496e+01
4.855010927923648190e+00 -3.518681829012700035e+01
4.769313024001740509e+00 -3.468310944899225490e+01
4.889413929096259714e+00 -3.413077622948271284e+01
5.201871276192217231e+00 -3.368046574293480688e+01
5.898193316823611809e+00 -2.780035126901048415e+01
5.682570678348194626e+00 -3.346317210772637907e+01
6.072351037112881933e+00 -3.331440590159410675e+01
6.530424287175659259e+00 -3.341758348730911621e+01
6.738454071187941707e+00 -3.301947551201518394e+01
7.124278005261651003e+00 -3.372665037058532533e+01
7.267702304864775087e+00 -3.308112558281347759e+01
7.641094436783654409e+00 -3.334881984897977958e+01
8.045310433255821181e+00 -3.334255165513219055e+01
8.564670630129281648e+00 -3.326962905043836116e+01
9.130587557644533447e+00 -3.329292716715954725e+01
5.323213632144637053e+00 -2.816032032087761294e+01
9.224677587000773116e+00 -3.274497051685456483e+01
9.412109443356502680e+00 -3.222288611193305741e+01
9.339270201054119980e+00 -3.149222411751905426e+01
9.336588436583928896e+00 -3.065338296428238252e+01
9.373625082543112441e+00 -3.000246416956956708e+01
9.364306368048827878e+00 -2.943289597470944585e+01
9.316822271730982763e+00 -2.900718025468967198e+01
9.215459263238953369e+00 -2.863602329368438504e+01
9.070797656734846726e+00 -2.830146045305030711e+01
8.874027187995826793e+00 -2.801451958488646099e+01
4.800975861244492826e+00 -2.856306936428035570e+01
8.694484187070894876e+00 -2.778984840645007637e+01
8.438457715610912402e+00 -2.756663506006776387e+01
4.405611125270527673e+00 -2.912590958590201495e+01
4.012412431224154474e+00 -3.003352153680730297e+01
-1.628205035077150198e+00 -1.027472661591578884e+01
-1.507006142100588919e+00 -1.121514454894869495e+01
5.650975867683375675e+00 -1.216647665769955466e+01
5.487437281125404631e+00 -1.131870648391467782e+01
4.801991624113687962e+00 -1.033008233277540633e+01
3.697617356142697709e+00 -9.580073457799588965e+00
2.084199400247183753e+00 -9.056640782615657415e+00
4.398923418164795707e-01 -8.800352391776003813e+00
-1.641199244520024636e-01 -9.021578009571555867e+00
-5.199121721561490439e-01 -9.647627935139160726e+00
-3.521767134407494670e-01 -1.062467817946546766e+01
-1.266660957590761971e-01 -1.134292235109370850e+01
-8.128251601703869733e-01 -1.245364949503304786e+01
3.087846618171587454e-01 -1.203787542918708553e+01
1.260269021860469740e+00 -1.335182962192586587e+01
2.286022171033947004e+00 -1.368043363020045788e+01
3.086474215507502006e+00 -1.354150887706723694e+01
3.580683329755446564e+00 -1.330700565559864046e+01
3.950671782407271238e+00 -1.303412853132686600e+01
4.193333761531015114e+00 -1.286466893514877086e+01
4.145120925929306921e+00 -1.254030976130681196e+01
4.340852216242106820e+00 -1.221710049675600196e+01
4.192054414578604948e+00 -1.174350756478798807e+01
5.111954087639826172e-01 -1.352773199484342470e+01
4.068623575863838937e+00 -1.109776114914804523e+01
3.488593904757985698e+00 -1.046811418072699418e+01
2.024122579291527391e+00 -9.931508543525161770e+00
9.939783379890246851e-01 -9.830118574109997454e+00
2.466492991184394690e-01 -9.894805971277984113e+00
-5.146919945903836169e-01 -1.009267444283726789e+01
-9.282787201715018144e-01 -1.057402644967585914e+01
-1.000437881713267085e+00 -1.125500429105219524e+01
-3.151177636383527547e-01 -1.232494975619447963e+01
4.084735549823496070e-01 -1.314117802883707675e+01
2.393215476120717611e+00 -1.447428039360719687e+01
1.860334726798572369e+00 -1.440608567162891163e+01
3.239796514602528266e+00 -1.468471843744111638e+01
3.926034739647209726e+00 -1.458498004304936302e+01
4.491188025510750137e+00 -1.433621688954021778e+01
5.096558454659972703e+00 -1.382949816786520536e+01
5.385929273080668267e+00 -1.335415950121396023e+01
5.561288632084083083e+00 -1.268579330460798538e+01
5.540574625766969241e+00 -1.196430169163684099e+01
5.040940753418955644e+00 -1.091447130916593800e+01
4.120813298260559421e+00 -9.866037834561359077e+00
3.276116424728026555e+00 -1.452088118172960662e+01
2.563507364406091504e+00 -9.077554480234759637e+00
1.135493283040452495e+00 -8.814043728342163320e+00
2.210715148011182241e-01 -9.092178996111249134e+00
-6.211757889942658428e-01 -9.523409296328583906e+00
-1.184749775673110461e+00 -1.005928498422282935e+01
-1.569105526998454181e+00 -1.060143476313410282e+01
-6.805781583202381579e-01 -1.171939099440173138e+01
8.283310161643976377e-01 -1.262233305311676368e+01
2.152152067816658576e+00 -1.393010761995097546e+01
2.874079249964576643e+00 -1.398857712897786243e+01
4.120553805235180889e+00 -1.438652454020660088e+01
3.621354874392672674e+00 -1.396402001897422807e+01
4.207855829398940983e+00 -1.361250426130031776e+01
4.505265911423138370e+00 -1.333656464139828834e+01
4.726954927642475823e+00 -1.303721814713014204e+01
4.876622887711717702e+00 -1.258771727918373351e+01
4.818649198405316803e+00 -1.204148059864943043e+01
4.442227558844394686e+00 -1.123355671222912733e+01
3.801739505178535872e+00 -1.052603906128741862e+01
2.576962739466099883e+00 -9.818385098380007392e+00
9.270928673986742474e-01 -9.523123606036412170e+00
4.859230384902279098e+00 -1.388413699015793945e+01
-9.876136708769771566e-01 -9.040754628617902355e+00
-1.374144575613829966e+00 -9.444176754886662195e+00
5.331414764823397157e+00 -1.335181210009912434e+01
5.583080612234612161e+00 -1.282632574089328870e+01
-7.934369935404212981e+00 -1.513966120901281087e+01
-7.952485554483488706e+00 -1.437609681703081321e+01
-9.096603723132732355e+00 -1.587052122871392434e+01
-8.597065218689902366e+00 -1.628620697814347551e+01
-8.780994660952691433e+00 -1.637071085710898188e+01
-8.680021447233613685e+00 -1.665103215279118842e+01
-9.475729377300854850e+00 -1.684874485442250958e+01
-9.700344777457242884e+00 -1.691258204964162815e+01
-9.626126885766499441e+00 -1.706092076683744807e+01
-9.892194970008434396e+00 -1.735069812643812526e+01
-1.001217753901236662e+01 -1.750027749419572487e+01
-1.023078945507930371e+01 -1.761337201090807980e+01
-8.111389344610467234e+00 -1.497590043366672496e+01
-9.496740052433226609e+00 -1.793232744726169159e+01
-9.438650169069360274e+00 -1.809913717007135148e+01
-9.838414993246674456e+00 -1.841359990230900578e+01
-9.232211692213892817e+00 -1.856315406621635233e+01
-9.490491507442641250e+00 -1.890624891166734400e+01
-9.096103997539312758e+00 -1.917821997683335411e+01
-9.408678528773540606e+00 -1.946812824888793614e+01
-9.201090542570819153e+00 -1.965340649947965801e+01
-8.858152890981843441e+00 -1.964511199390278051e+01
-9.044689760247157650e+00 -2.018595061046689310e+01
-8.289332367098273480e+00 -1.518662354869628750e+01
-8.889752391677454568e+00 -1.999773467952105221e+01
-8.842888699059050950e+00 -2.045898282856649431e+01
-8.471238643735295781e+00 -2.025901962871886752e+01
-8.461766818296533543e+00 -2.059201789122867865e+01
-8.283288135084609038e+00 -2.079217403129461061e+01
-8.082429857715975885e+00 -2.080252323997696351e+01
-7.854809488284625552e+00 -2.075393789722955518e+01
-7.898063061852035993e+00 -2.101170436223454274e+01
-7.575016688008774146e+00 -2.099058062677736203e+01
-7.359849301364394414e+00 -2.097025427017750232e+01
-8.617945908380898246e+00 -1.494179414976779618e+01
-7.268942214284145109e+00 -2.029177168116190799e+01
-6.852577814393672639e+00 -2.087835867232950804e+01
-6.872462675434004353e+00 -2.015731279549339661e+01
-6.427404425265084598e+00 -2.064337778414056146e+01
-6.084652583822611760e+00 -2.061096779604996954e+01
-6.410838573798205431e+00 -1.983564241544000950e+01
-6.090384837180893740e+00 -1.997750554863056749e+01
-5.606530362759484909e+00 -2.024262190165883979e+01
-5.420234325715791890e+00 -2.002818429192700123e+01
-5.620802839184185551e+00 -1.963540564317566961e+01
-8.860066531251009181e+00 -1.509049913396987286e+01
-5.214396961607776326e+00 -1.956430040023577632e+01
-5.780718318054387517e+00 -1.910456446538020359e+01
-5.346341288408992476e+00 -1.891542875818955238e+01
-5.752334640254737508e+00 -1.857280299076310115e+01
-4.904148851668876929e+00 -1.855404671349140244e+01
-5.319377966024743110e+00 -1.808911860672511196e+01
-5.709121653964467136e+00 -1.764607173738536972e+01
-6.146736299088936484e+00 -1.665987565246105007e+01
-6.002734740976565675e+00 -1.625107342521684828e+01
-6.446885725259122069e+00 -1.639109211510194442e+01
-8.955863392350110530e+00 -1.512185018109203583e+01
-6.391509641928246666e+00 -1.563897029298692409e+01
-6.868793511821563946e+00 -1.630993853319028730e+01
-6.354006655386294611e+00 -1.483155105296645182e+01
-7.168738288244890455e+00 -1.593436879153957797e+01
-6.911208839526477021e+00 -1.528281544720327290e+01
-7.430612822208973789e+00 -1.591693228970436635e+01
-7.041920868727821414e+00 -1.497428038011532969e+01
-7.532910839302073391e+00 -1.587781023825557192e+01
-7.222213113860926903e+00 -1.488093051595427774e+01
-7.237770808003339162e+00 -1.467751545670998325e+01
-8.501867114563475880e+00 -1.443717730539984068e+01
-7.475338735467532025e+00 -1.471709911027360462e+01
-7.640802258774203715e+00 -1.424382581798901271e+01
-8.742200564059066537e+00 -1.550039841570220034e+01
-8.568441135709520040e+00 -1.566510849813893280e+01
2.773573167028038711e+01 1.962428447067870252e+01
2.731393624346774729e+01 1.931277119876484250e+01
2.821194443054434586e+01 1.648547819609325060e+01
2.852019686577027713e+01 1.655845277367698998e+01
2.867959676457270746e+01 1.681797126516323360e+01
2.920509835295733936e+01 1.742409776776261054e+01
2.931100761210028693e+01 1.763412245045308069e+01
2.923913178891221776e+01 1.814646088617032404e+01
2.879225438582141905e+01 1.766626106963327203e+01
2.864872341603426520e+01 1.767531229097350831e+01
3.017124187227438981e+01 1.823870369363612909e+01
2.973376182368134479e+01 1.776702992454684349e+01
2.713369899570254873e+01 1.893856604378868624e+01
3.021058340867983460e+01 1.794918276862549433e+01
2.969899630417805270e+01 1.758931023643300406e+01
2.982444258219340227e+01 1.731278010401154788e+01
3.010372433527961178e+01 1.745204740798763154e+01
2.997700374157923164e+01 1.706983866549771989e+01
2.972547183903477475e+01 1.676545135304047207e+01
3.052764431003234336e+01 1.704855174513397742e+01
3.000190751875600270e+01 1.655882249745246781e+01
3.055086014003960315e+01 1.671934991743318477e+01
3.051542132631368176e+01 1.644796880430606834e+01
2.693478940699223045e+01 1.858830221726513088e+01
3.087919392070478608e+01 1.633872011424558934e+01
3.078406011103638207e+01 1.612429773323973237e+01
3.045394611947793706e+01 1.586007905816899388e+01
3.220536746501139191e+01 1.531869919150216397e+01
3.148862974501603418e+01 1.576685888759670107e+01
3.162055928868224086e+01 1.555701851533954461e+01
3.266326911208957284e+01 1.463571031491397534e+01
3.195321040224623488e+01 1.547453214716105840e+01
3.285671759832474237e+01 1.491490700424761506e+01
3.358984953239341564e+01 1.434770051795352863e+01
2.683427730640107356e+01 1.817637867155361420e+01
3.312484326795581069e+01 1.467168297410076683e+01
3.393981737971300561e+01 1.455545067705253892e+01
3.326287283641325843e+01 1.505109592380080130e+01
3.362915133085191144e+01 1.469751892258374681e+01
3.415673349866662534e+01 1.481300076789988651e+01
3.321300734328276860e+01 1.556552631659824648e+01
3.341634043685126443e+01 1.544548836852930762e+01
3.363928234482332869e+01 1.547678622074750621e+01
3.400550503751718878e+01 1.537206574493852607e+01
3.414808519612936522e+01 1.544858049976662429e+01
2.676094492682117476e+01 1.779012501938716895e+01
3.429525327333452367e+01 1.538382688334585779e+01
3.362054345056098015e+01 1.612317574363001782e+01
3.396026989129060070e+01 1.616498268829115048e+01
3.330137806684821555e+01 1.651294904258721274e+01
3.311671849177094629e+01 1.626970751445253072e+01
3.329831763669137956e+01 1.695458681794265132e+01
3.323100507930936232e+01 1.687632333436094356e+01
3.289145361786739841e+01 1.709438031463229990e+01
3.274459540565283078e+01 1.750161205595186686e+01
3.250023915201149549e+01 1.767295091135919094e+01
2.700056748837818077e+01 1.745166454322708915e+01
3.225547490748486723e+01 1.796217679992758676e+01
3.205652247825247514e+01 1.821142142741802772e+01
3.138468332157776430e+01 1.831426287891747506e+01
3.151784684301643580e+01 1.874894805801462994e+01
3.084935030376322729e+01 1.914438002445677967e+01
3.054193948376120815e+01 1.943797725896474660e+01
3.015638647822740026e+01 1.975858772498860816e+01
2.979430403223655333e+01 2.001976760954109125e+01
2.935296333289516824e+01 2.011003320265486849e+01
2.903390820984791176e+01 2.020717013918326543e+01
2.706437235739646852e+01 1.705269358509034916e+01
2.862934856816256612e+01 1.999798128820316734e+01
2.815848439390312308e+01 1.981762228478083543e+01
2.752104936659052825e+01 1.676003972331275094e+01
2.785594436047901468e+01 1.658901842069578692e+01
-2.324019684776462924e+00 -5.704810716165876983e+01
-2.161750105442886039e+00 -5.642450801514550562e+01
-3.118553788279694872e-01 -5.548610261493265483e+01
1.942710871874711309e-01 -5.516126974023190144e+01
5.985479768042059057e-01 -5.527138458978259905e+01
8.752057670189077321e-01 -5.484268982228119427e+01
1.898814659573757058e-01 -5.492671741534513075e+01
7.623886863323858787e-01 -5.475458915293683759e+01
-6.857412585649752534e-02 -5.458879476139319564e+01
1.403564760778659437e+00 -5.373579997774543671e+01
1.274418866840502373e-01 -5.409849814473544427e+01
5.658134470346508627e-01 -5.388950872333363407e+01
-2.438420830902014558e+00 -5.640378043731790569e+01
4.162261935164483506e-01 -5.389580054871562709e+01
5.651304471541350738e-01 -5.348055193929197060e+01
9.792688810343732619e-01 -5.273500568946109013e+01
1.292102963521838621e+00 -5.239438090800958037e+01
8.307124407616996997e-01 -5.243458263234206385e+01
1.389508997052067985e+00 -5.209494859588157567e+01
1.287730234121402972e+00 -5.194654121152351678e+01
1.278579522663200407e+00 -5.167513091062640740e+01
9.754123595684053294e-01 -5.166086685388045652e+01
1.700870243460262665e-01 -5.169102802074486647e+01
-2.046159431912622839e+00 -5.656053615532758272e+01
4.961971063203537979e-01 -5.159592104430247872e+01
-7.139076525405876894e-02 -5.158204756333583418e+01
-3.003798715882410320e-01 -5.148202796438793172e+01
-7.791840898900158630e-01 -5.101763895582457309e+01
-1.474810299593716900e+00 -5.037840505613299058e+01
-1.965394517130740315e+00 -4.989496790761388922e+01
-2.432145353059076420e+00 -5.016184055685393162e+01
-2.087523046756946332e+00 -5.138603728815308358e+01
-2.679792061933761183e+00 -5.054523954077694015e+01
-2.034201867806206820e+00 -5.026457089528563671e+01
-9.713596656692807807e-01 -5.665953085187265259e+01
-2.762843954729815810e+00 -5.168988986506624883e+01
-3.190606878521210277e+00 -5.091279772304391571e+01
-3.195972841556499411e+00 -5.099164893438558721e+01
-3.732805669414827054e+00 -5.129885876906580933e+01
-3.301276102849180827e+00 -5.187642127846992679e+01
-1.321515268490491835e+00 -5.159939769818517874e+01
-2.455742752130201989e+00 -5.098109259753691447e+01
-1.574317944889010334e+00 -5.167527183604526186e+01
-2.088000763603588883e+00 -5.187658289857631644e+01
-2.453676280754005123e+00 -5.195139664990917794e+01
-1.633494285000964386e+00 -5.665474707387938480e+01
-1.793526063567838724e+00 -5.207669471195350752e+01
-2.829829820097512272e+00 -5.238663941616094633e+01
-3.393469190733742202e+00 -5.257064627384619371e+01
-3.175282209052907145e+00 -5.277039415407939771e+01
-3.364546560423649524e+00 -5.298274042375636839e+01
-3.856402830982188057e+00 -5.329155132551486673e+01
-2.269387055613539594e+00 -5.282369276548994463e+01
-3.570567491134071236e+00 -5.381048587006250727e+01
-3.206255014191692343e+00 -5.468199703208828311e+01
-3.438892860498921955e+00 -5.399097186737094489e+01
-1.232321607897968851e+00 -5.617228595221263276e+01
-2.700038338143861072e+00 -5.352143107322572746e+01
-2.079746555009232001e+00 -5.346399049429570027e+01
-2.503940386375267835e+00 -5.381367975123497160e+01
-2.271162250295212015e+00 -5.374956049185854567e+01
-2.130343519638083549e+00 -5.398385708473512778e+01
-1.726043554303384742e+00 -5.391049755871795668e+01
-2.679328047867743479e+00 -5.510598828166894947e+01
-2.523906854021092272e+00 -5.555344611657521625e+01
-2.763214670999943223e+00 -5.518981381041143663e+01
-2.583097797225694769e+00 -5.554425919358312314e+01
-1.110242654968718323e+00 -5.586210870562157282e+01
-1.979806426494788552e+00 -5.579581181949900781e+01
-2.441724497804509841e+00 -5.697919905743053448e+01
-6.599261240815731400e-01 -5.591303943177646829e+01
-4.226576272042543159e-01 -5.593209236334774914e+01
-1.829818216777237794e+01 1.609273547922670033e+01
-1.830060255439531147e+01 1.573059542832318769e+01
-1.504579682898848070e+01 1.321435691681380398e+01
-1.444384353666074183e+01 1.248756072473519652e+01
-1.375455503720576189e+01 1.204249867043805189e+01
-1.306595600590928008e+01 1.199066919049441893e+01
-1.263291002787643080e+01 1.228181954562880129e+01
-1.226088780268054457e+01 1.245309229504329274e+01
-1.203148582569975211e+01 1.279337500205081568e+01
-1.174736263486944488e+01 1.308563902085373165e+01
-1.177298850511761330e+01 1.347990205596283175e+01
-1.176106994054986643e+01 1.377974625031336764e+01
-1.806560124073576645e+01 1.554341535049494460e+01
-1.168607601676729857e+01 1.414959171104624858e+01
-1.127846511231463822e+01 1.419396225104555143e+01
-1.127035868979065114e+01 1.470752105625848039e+01
-1.146522319553339742e+01 1.555577373965647858e+01
-1.204004494959803928e+01 1.598640667023825834e+01
-1.273673148918956777e+01 1.669742951851657509e+01
-1.326922395456489312e+01 1.725769671213062395e+01
-1.375976306258392690e+01 1.781718103817323495e+01
-1.416468116835121904e+01 1.819756978679505721e+01
-1.446230238088410047e+01 1.848625358819751696e+01
-1.784683805017816383e+01 1.531660170998011949e+01
-1.484030589700106262e+01 1.875749270905706823e+01
-1.512407901841158520e+01 1.899094086587267327e+01
-1.541711362372866745e+01 1.917785816583563374e+01
-1.577833256085516034e+01 1.927894750455169159e+01
-1.612440920732110428e+01 1.921657550889418431e+01
-1.636110111120390798e+01 1.907449208143688324e+01
-1.648546923697140443e+01 1.882343271502578474e+01
-1.649946881338669868e+01 1.861575820888076649e+01
-1.617449332509762527e+01 1.817284783517585822e+01
-1.601745351168906595e+01 1.804022428757816598e+01
-1.756387417514416782e+01 1.512903991443251073e+01
-1.556858970663719610e+01 1.771661055663708950e+01
-1.496575983513586117e+01 1.718646815530555827e+01
-1.476246155412965955e+01 1.692653775629683821e+01
-1.458615668078256178e+01 1.653229710767740102e+01
-1.417423204857432495e+01 1.580769347137434977e+01
-1.345844776909197904e+01 1.492103399735254676e+01
-1.245007268206474649e+01 1.425228664630699349e+01
-1.251587229532077927e+01 1.429294608912051423e+01
-1.275706336782509176e+01 1.446366846357624425e+01
-1.253215196475097848e+01 1.389413342764031256e+01
-1.721402198990690025e+01 1.497277157854175655e+01
-1.281152105663477236e+01 1.429361650514630355e+01
-1.261763642848747757e+01 1.362866949462371835e+01
-1.272225349610481793e+01 1.367165511356245844e+01
-1.308089465209518032e+01 1.405731006771316416e+01
-1.309524599977566872e+01 1.402321893374716133e+01
-1.289268979724928244e+01 1.348828766924704325e+01
-1.329686935924174129e+01 1.382640739825081333e+01
-1.311544800817014078e+01 1.337141956865541559e+01
-1.307804680509223516e+01 1.328193221576972149e+01
-1.338490714881512034e+01 1.343937387313714105e+01
-1.687684335671989544e+01 1.464354782556308976e+01
-1.349926220768906937e+01 1.367251963990190688e+01
-1.368752052095445571e+01 1.410658308829094132e+01
-1.442799986742284979e+01 1.478214534778145683e+01
-1.543848197978470971e+01 1.544652718184441476e+01
-1.607803245415892945e+01 1.565601686040162832e+01
-1.640950860516232268e+01 1.573038193881238911e+01
-1.657430292735908495e+01 1.588711673542204217e+01
-1.694762279023388274e+01 1.604989272263189903e+01
-1.726391910232760907e+01 1.630230635497699510e+01
-1.762132576151336494e+01 1.644635664513876705e+01
-1.648051094637930447e+01 1.446593044192919741e+01
-1.783564454282609191e+01 1.645965962655215975e+01
-1.801886819836590092e+01 1.625345507488643904e+01
-1.605176679780199933e+01 1.398428156715623416e+01
-1.559381904002038510e+01 1.354854616489029162e+01
-3.538707733746912254e+01 1.235489636929551871e+01
-3.551087385552528985e+01 1.163384352136628941e+01
-3.291622269167559267e+01 3.362446100771962154e+00
-3.228102260703391124e+01 2.624700275691671969e+00
-3.160872935453338073e+01 2.048717428150243602e+00
-2.774036225243704834e+01 4.239864535625330055e-01
-2.585521378412272853e+01 -1.380271600353109251e+00
-2.444872822882921781e+01 -2.837033167911584552e+00
-8.300194080181970691e+00 -1.054186251782584094e+01
-7.727971127929868622e+00 -1.005616204068803654e+01
-7.619585222001164837e+00 -9.099158446607420458e+00
-7.785692289074905403e+00 -7.602907061621973384e+00
-3.558465267597537007e+01 1.051550261409760090e+01
-1.028601163408967167e+01 -5.372086246885152683e-01
-2.262034773682566779e+01 1.551549911239187907e+01
-2.395505372789309462e+01 1.613524670791283810e+01
-2.482092348091564205e+01 1.648382322572881264e+01
-2.599157162054481418e+01 1.701866839706879730e+01
-2.711717992369948504e+01 1.754653602166866833e+01
-2.803349247219709639e+01 1.791308479532445475e+01
-2.903022657926416983e+01 1.796863057071542968e+01
-3.007207374072768502e+01 1.778756511509235594e+01
-3.094938137200091433e+01 1.749344003284008053e+01
-3.560498296485290837e+01 9.803441632561288088e+00
-3.181183093774893678e+01 1.710166584021354907e+01
-3.286790506340953755e+01 1.650493696681532896e+01
-3.363669271378820014e+01 1.590805092901124240e+01
-3.414238339912257914e+01 1.538737958213529922e+01
-3.457249707987502063e+01 1.478044898388892925e+01
-3.503609541035786634e+01 1.389394246388908982e+01
-3.536367581653288283e+01 1.279279095408975486e+01
-3.544585936822121397e+01 1.192215381413382325e+01
-3.548464170024938369e+01 1.119800450831860772e+01
-3.556028979011126268e+01 1.003754551614275137e+01
-3.564249148372437048e+01 9.072279367772626557e+00
-3.538085300501856523e+01 9.136383076205369491e+00
-3.514666657415865103e+01 8.076155357478354446e+00
-3.485654762755473257e+01 6.893811944031313033e+00
-3.449460421951682321e+01 5.896177005580204522e+00
-3.403400675368170170e+01 4.902931623898711955e+00
-3.333613140365984862e+01 3.850879846161595399e+00
-3.268538008817930773e+01 3.049608897549678233e+00
-3.201926631024442571e+01 2.342755999530936606e+00
-3.094684242505126193e+01 1.646296591814516708e+00
-2.682772566260453573e+01 -3.075288590958032975e-01
-3.529934703036803256e+01 7.950305827193036912e+00
-2.546166326048485118e+01 -2.008415514232362309e+00
-2.393821519558096611e+01 -3.754735409441814387e+00
-7.873593444573905309e+00 -1.048738053462938424e+01
-6.934368167001473182e+00 -9.668458572304576393e+00
-6.844214182458479456e+00 -9.441517462512138081e+00
-7.415979129251299540e+00 -8.151875841050383542e+00
-7.802656918828168919e+00 -6.572691777954054793e+00
-2.196876032688891200e+01 1.586315881391882243e+01
-2.332035573620490965e+01 1.608900335320570107e+01
-2.446013994653002044e+01 1.641527261803523885e+01
-3.499249364644457216e+01 6.963565892944732383e+00
-2.563474948932928754e+01 1.686409959586810103e+01
-2.694537982942072674e+01 1.741815809108144109e+01
-2.785827319680345227e+01 1.783911837262118993e+01
-2.897976735345975996e+01 1.794466157660136929e+01
-3.007831387954382052e+01 1.777164109327763697e+01
-3.113187067887866633e+01 1.744143555958487823e+01
-3.211827280090184900e+01 1.697242071979738398e+01
-3.302547439984497402e+01 1.634930274142611140e+01
-3.383820249781823719e+01 1.573076340108050886e+01
-3.428758320593333053e+01 1.518023397399016972e+01
-3.466459332352790312e+01 6.016321137478456649e+00
-3.479795339883713012e+01 1.426201339836004678e+01
-3.522986854257995049e+01 1.337917399325532131e+01
-3.416774747807583879e+01 5.099343170759687460e+00
-3.359353122615544152e+01 4.236634819883156489e+00
1.258407250200555216e+00 5.566015335407767495e+00
1.297951243106927777e+00 5.123184971481758332e+00
-6.320372757923979901e-01 2.557696152102561626e+00
-6.743415766471534400e-01 2.158200273738176467e+00
-7.122675392223509760e-01 1.797536096503772773e+00
-8.063410471705458882e-01 1.228114632916878834e+00
-8.915188360702074322e-01 8.140685979001532901e-01
-9.971633504695680550e-01 3.274554063759633760e-01
-1.137283716919024634e+00 -2.131857784477292350e-01
-1.304564538007799701e+00 -7.915799893790081976e-01
-1.503097116788672416e+00 -1.323806267582575913e+00
-1.694671581641836511e+00 -1.748311943118355360e+00
1.018891195244877590e+00 5.015096973650075896e+00
-1.995066590734563938e+00 -2.241765107738001195e+00
-2.387353641364214241e+00 -2.775240091022793898e+00
-2.697782806287152280e+00 -3.142098060843999452e+00
-3.152678824315862993e+00 -3.597935876979657888e+00
-3.542712162556372224e+00 -3.905358291135177407e+00
-3.887778263424461311e+00 -4.114863228092971781e+00
-4.186387064060033580e+00 -4.237951373812310685e+00
-4.342179086042906810e+00 -4.304128745829154390e+00
-4.499014893155061756e+00 -4.282833522185080177e+00
-4.924764175995047566e+00 -4.084454438310632263e+00
8.385209043992609690e-01 4.902283130679538026e+00
-5.353318043767664847e+00 -3.874192957198935527e+00
-5.811552122928000053e+00 -3.631601875585265038e+00
-6.124273714111883038e+00 -3.441420570296514825e+00
-6.295620610574139242e+00 -3.277186166924222821e+00
-6.489395228862155030e+00 -3.076146386391870990e+00
-6.859951181761910988e+00 -3.426751558033412248e+00
-7.212284633987589011e+00 -2.933496411457469311e+00
-6.762995262655739026e+00 -2.652014055586608965e+00
-7.090691094776076397e+00 -2.160066945659123494e+00
-6.653615082161673300e+00 -2.361267518371118257e+00
6.082600695250394152e-01 4.707960121408205190e+00
-6.520582070173756684e+00 -1.706448524965860081e+00
-6.206803339931432184e+00 -2.049107118428034724e+00
-5.939356891958238016e+00 -1.960688887267850733e+00
-5.575470370909044959e+00 -1.916302562530582732e+00
-5.100021743664790108e+00 -1.899125354709889635e+00
-4.585676849999107851e+00 -2.002929346693624435e+00
-1.671644981171921618e+00 -4.710210934424674534e+00
-1.218530246084529534e+00 -4.757573965903191926e+00
-7.599515069802272871e-01 -4.727461952501867515e+00
-3.456703151908386840e-01 -4.601276270256078327e+00
3.031396403306593212e-01 4.349360241928978077e+00
9.288142351404535257e-02 -4.326572888440926690e+00
5.023152839598966635e-01 -3.922386090074392317e+00
8.617923295459763988e-01 -3.442110766446504044e+00
1.131079092571100730e+00 -2.934434202575391559e+00
1.311555836744870751e+00 -2.476679265635373550e+00
1.575164935305714220e+00 -1.670643561765885909e+00
1.709608540103233931e+00 -1.168967669063329051e+00
1.801638034087405860e+00 -7.621140784359821119e-01
1.919694422076432927e+00 -1.490682389281311471e-01
1.989706147662299918e+00 2.409714036791094638e-01
-3.946644085552111422e-03 3.919302100392151100e+00
2.045895585205338651e+00 5.851518186619071304e-01
2.084568256679040221e+00 8.841628843841536911e-01
2.140799544153723755e+00 1.425853928449893226e+00
2.289257346467878040e+00 2.901494219173934130e+00
2.336734552424584166e+00 3.591679799424213115e+00
2.356432282246475385e+00 4.069096224717918986e+00
2.313308342736841272e+00 4.403223302901942304e+00
2.255086813448598626e+00 4.666580047545179077e+00
2.197900587535188688e+00 4.826571492652695916e+00
2.100102866240411981e+00 4.992699297032534567e+00
-3.866816622977727325e-01 3.281060099377995698e+00
2.471182321522019443e+00 5.302581429961453985e+00
1.820204106798251731e+00 5.564133902804161202e+00
-9.180841199961098376e-01 3.078907801334174632e+00
-2.985255542003921736e-01 2.679179348836876251e+00
1.807877656117059217e+01 5.300286952272903562e+01
1.839423723984432257e+01 5.307158743576928117e+01
2.034408577639239013e+01 5.170448663215094598e+01
2.034796433570964780e+01 5.189712970787266499e+01
2.037510720436306144e+01 5.199474201558158626e+01
2.083977441635394001e+01 5.178560594107526072e+01
2.130871976115301436e+01 5.162069235364877073e+01
2.154828874929899385e+01 5.161274838231360462e+01
2.152874500870735375e+01 5.164106719131560652e+01
2.220287361884824051e+01 5.149328212757843914e+01
2.239028054762780684e+01 5.148874237100913120e+01
2.263329761815058916e+01 5.149541635879425883e+01
1.851800761920196692e+01 5.299019392336619205e+01
2.272329219680997880e+01 5.185941693061135283e+01
2.315261283657551772e+01 5.148303961777243387e+01
2.332648359713056863e+01 5.157924301799020839e+01
2.306210462412390427e+01 5.234927817239423575e+01
2.353133360729334456e+01 5.228219040877698376e+01
2.393729231843417793e+01 5.188426542062964586e+01
2.363865391532712934e+01 5.258628924526034609e+01
2.411857535845422262e+01 5.218050482883152341e+01
2.443069683156215532e+01 5.249234098849908037e+01
2.426793655168679109e+01 5.281882880697049387e+01
1.864716779295349625e+01 5.250448751623242316e+01
2.450214129131642693e+01 5.304638401206137388e+01
2.456340848224340334e+01 5.321416920378253224e+01
2.435075096327548749e+01 5.354806320655413998e+01
2.383965036734024068e+01 5.353346479936033120e+01
2.364835222436101603e+01 5.370438794041281483e+01
2.422389931175408861e+01 5.394252685830421967e+01
2.394318159622129372e+01 5.436858739588236489e+01
2.372385198392998973e+01 5.459568167592225052e+01
2.345990514959024154e+01 5.479596887078528056e+01
2.321283037270921668e+01 5.413386947652653447e+01
1.885755493177253328e+01 5.242433151229213451e+01
2.317999704308315145e+01 5.509429303049196847e+01
2.273944180276761173e+01 5.430385425516504938e+01
2.287720184426780179e+01 5.475767537843357502e+01
2.243935745047150476e+01 5.444358498203595076e+01
2.236267687305816665e+01 5.514321446038141517e+01
2.215152810682486617e+01 5.514423128824541465e+01
2.212827057069207726e+01 5.512898098742650177e+01
2.167073131604301395e+01 5.516744451346659872e+01
2.146256603598094870e+01 5.514765046035117990e+01
2.147205619880903882e+01 5.509224085566598461e+01
1.906841986381355625e+01 5.232505510892357847e+01
2.095039547370900124e+01 5.505922401089325291e+01
2.050409637250811556e+01 5.508900302926027592e+01
2.028081027089941557e+01 5.505371945562345815e+01
2.001927856739225220e+01 5.501892042493821577e+01
1.999612373478267813e+01 5.479656436360374272e+01
1.956827737559879310e+01 5.469824086738059066e+01
1.924232498652700230e+01 5.484426153067948917e+01
1.919242650180128607e+01 5.465533764573294917e+01
1.887791575782911124e+01 5.462376679261917900e+01
1.857902374428926962e+01 5.473622431037772174e+01
1.951828076470285467e+01 5.203990488642389778e+01
1.848363816462081033e+01 5.480211799270498574e+01
1.825473398809036141e+01 5.478613923690316767e+01
1.790469194027474131e+01 5.449594327832149077e+01
1.759123938769538142e+01 5.455527009667445526e+01
1.721429209758105472e+01 5.445018883295438172e+01
1.713443408126552825e+01 5.406951828574208463e+01
1.709519023079899114e+01 5.379000016602470424e+01
1.760811246329234336e+01 5.357147940965437272e+01
1.721394898153211628e+01 5.323009866015534897e+01
1.722612326866094890e+01 5.290969008777774008e+01
1.968417204695090206e+01 5.195696953988672107e+01
1.766341174440968587e+01 5.247801330375996542e+01
1.768996951051929400e+01 5.273744336292616453e+01
1.989638518842888359e+01 5.187754341435778827e+01
2.011725969427615368e+01 5.178016830100506240e+01
1.722924194239278251e+01 -2.285411530372953237e+01
1.715988444811231872e+01 -2.282195960654125955e+01
1.057486210989178055e+01 7.729532750351784109e+00
1.083315056080160588e+01 7.887286098845877724e+00
1.093096152107387553e+01 7.928298329813232570e+00
2.690191733761279380e+01 1.153188085990110956e+01
2.725793367608455142e+01 1.140646514504014597e+01
2.824482956982125614e+01 1.092273701105106198e+01
2.994242357343073380e+01 9.310259202622946262e+00
3.031265640552503271e+01 8.725465481472646445e+00
3.085556191042678265e+01 8.615097405314338985e+00
3.200965359657429588e+01 8.699479061129812507e+00
1.712809329869343600e+01 -2.270277497655817101e+01
3.435339215710499872e+01 7.870942216006000081e+00
3.515157975188122919e+01 7.568474886071703267e+00
3.562855940727943249e+01 7.385826991402989705e+00
3.599531462309304430e+01 7.234260206185244790e+00
3.634680619204617358e+01 7.062096781140934532e+00
3.709533278589324112e+01 6.668578418424399246e+00
3.781035984225125901e+01 6.080902926882681747e+00
-1.653172464537074404e+01 -1.242385789016835318e+01
-1.708303427324424462e+01 -1.295704749147758506e+01
-1.783472140906845382e+01 -1.261790765556091820e+01
1.679635794069471899e+01 -2.258682925038440814e+01
-1.862103772740487884e+01 -1.317883755880763808e+01
-1.895410909358139051e+01 -1.394382863545257933e+01
-1.984247133951791398e+01 -1.378484156209742295e+01
-1.980470711993199373e+01 -1.441396092217408764e+01
-1.991048457004392347e+01 -1.452056266944801521e+01
-2.002063172719611828e+01 -1.464360681103677919e+01
-2.014900574189071492e+01 -1.473582090442553927e+01
-2.018489482976216465e+01 -1.483778531475908302e+01
-2.009288593557915092e+01 -1.500063926139694814e+01
-2.006156352939374798e+01 -1.512269212509371030e+01
1.652451584762690828e+01 -2.244641752565559045e+01
-1.987811230114816041e+01 -1.533355743093060219e+01
-1.958823478312297439e+01 -1.575130778431412359e+01
-1.941637556264813469e+01 -1.605880574294016583e+01
-1.906901088360609720e+01 -1.658081500222789373e+01
-1.881282851189176952e+01 -1.695817975751648277e+01
-1.849243528909189394e+01 -1.737875678715111860e+01
-1.821919726755861646e+01 -1.772247441335563067e+01
-1.802424739557476130e+01 -1.792540871842355088e+01
-1.767249584929741957e+01 -1.824464449090928397e+01
-1.704935993113112147e+01 -1.876329039462415338e+01
1.607388620334825191e+01 -2.219760345107071231e+01
-1.636153304056523794e+01 -1.919553535328367033e+01
2.162903867340985187e+01 1.306876232783569458e+00
2.227486439831751142e+01 2.723405381162317340e+00
2.209900291465335087e+01 3.016252287410468913e+00
2.193561665657980697e+01 3.102089578564027672e+00
2.076548462088146607e+01 3.345045483628496186e+00
2.027073849063848954e+01 3.268846157218321835e+00
2.258278507321579198e+01 -2.109545059122400090e+01
2.201640737805451309e+01 -2.169040545634340234e+01
2.170580780050065073e+01 -2.193413087615192225e+01
1.575595552400819166e+01 -2.201505063738921208e+01
2.144808668546490793e+01 -2.208578417244743619e+01
2.101835979699525936e+01 -2.228410936002959275e+01
2.050347110674894680e+01 -2.248082294984323326e+01
2.009844104462114345e+01 -2.260563751112855613e+01
1.972854711592734489e+01 -2.269927200449707883e+01
1.940740980598095788e+01 -2.275967338304200638e+01
1.903627316295894190e+01 -2.281553228525419996e+01
1.863940130997067257e+01 -2.286476596912910253e+01
1.819774670352461143e+01 -2.285196546494583458e+01
1.798645685495638347e+01 -2.282577568578059157e+01
1.537920724151566176e+01 -2.179604333358284052e+01
1.763794592586602406e+01 -2.299273651790963058e+01
1.742505743677578423e+01 -2.296778124306251812e+01
1.522359076698031366e+01 -2.169693742941929671e+01
1.473308743451813285e+01 -2.131463755473512478e+01
-3.463537041828712404e+01 1.312568683478333575e+01
-3.629170678836883468e+01 1.165822287604110841e+01
-3.427450079633698721e+01 3.222450712460127598e+00
-3.392069465043032750e+01 2.522502902069733821e+00
-3.359587268747821298e+01 2.011694776515422944e+00
-3.320497346128865246e+01 1.362024566280037430e+00
-3.163381087140206205e+01 -4.483458030638903247e-01
-2.591520871514503099e+01 -3.654014045088568086e+00
-1.349712508392934218e+01 4.546373045013163416e-01
-1.318793883514752352e+01 8.980052991100750948e-01
-1.314234606309395659e+01 1.076033094710261873e+00
-1.323889798376407434e+01 2.358180177085471119e+00
-3.638614640741691630e+01 1.102661765885046030e+01
-2.481228905637416204e+01 1.458890683947682732e+01
-2.544628906675686864e+01 1.508341145917514403e+01
-2.642393575069665346e+01 1.551229642695825284e+01
-2.718592221716782475e+01 1.561238559549274463e+01
-2.776143822912332482e+01 1.564451534543114519e+01
-2.828541769667510408e+01 1.562761329678562028e+01
-2.904127734042376829e+01 1.557407391990649614e+01
-3.003365436309731962e+01 1.512906760257309990e+01
-3.051407783118309069e+01 1.498395530570605416e+01
-3.092399472606305366e+01 1.475364904957432444e+01
-3.643554144215206492e+01 1.053606454382468272e+01
-3.144746954661546567e+01 1.457281482527067773e+01
-3.225894139651168757e+01 1.409117387491713558e+01
-3.270812361578014560e+01 1.360720266877937590e+01
-3.306314458606758677e+01 1.330569788341243864e+01
-3.347087905249730255e+01 1.290632425103849279e+01
-3.383614595994064445e+01 1.242390664076100393e+01
-3.410534085661398507e+01 1.203948381214578944e+01
-3.726276428263098950e+01 1.085870446858287686e+01
-3.728496099817964904e+01 9.832989713911377549e+00
-3.728264036360163658e+01 8.888303041550225103e+00
-3.642681955692686557e+01 9.689367030374622658e+00
-3.711600201348019112e+01 7.753968549304207869e+00
-3.679556048302923443e+01 6.715689202152043791e+00
-3.643534925404396319e+01 5.829891063829136577e+00
-3.618284984853990238e+01 4.914083823854394240e+00
-3.585634289945791409e+01 4.121894473478673326e+00
-3.552674677389260438e+01 3.629857215347370047e+00
-3.520186373211650022e+01 2.916188335400882625e+00
-3.201061144613045428e+01 1.069680508884166548e+00
-3.074954439660787386e+01 5.550150189320117722e-01
-2.981034339404447664e+01 -3.265921845583396599e-01
-3.633972963547740420e+01 8.652054167836984888e+00
-2.704233701204191220e+01 -1.697592637226252421e+00
-1.465907484957015505e+01 -7.988132430423623198e+00
-1.360489822893711143e+01 -8.503130559152152657e+00
-1.308345852818960964e+01 -8.670894206188894060e+00
-1.218758158483138843e+01 -8.698851492761393800e+00
-1.183594447455479326e+01 -8.545096124772893376e+00
-1.081042390278606824e+01 4.360445445260858754e+00
-2.196195036056387195e+01 1.717942034637494686e+01
-2.402272743207635841e+01 1.771835705211328715e+01
-2.493137181339977815e+01 1.791499276276582009e+01
-3.626788205831418566e+01 8.025553181224383437e+00
-2.579434206786141814e+01 1.798788789339839056e+01
-2.654221078041439696e+01 1.797790257689898041e+01
-2.809435309779429701e+01 1.717889782937094623e+01
-2.901557073494722871e+01 1.696019290139233959e+01
-2.980554858908971028e+01 1.678982597909399033e+01
-3.066368111576056421e+01 1.652358169241057695e+01
-3.152176607131092467e+01 1.620204746904756021e+01
-3.222146004523809637e+01 1.566731066273180950e+01
-3.281492121235204706e+01 1.518816845920235181e+01
-3.349376270597371530e+01 1.448938051386635983e+01
-3.610106831224319279e+01 7.356068713100713197e+00
-3.399641058855408460e+01 1.396252985598479590e+01
-3.428768006263032930e+01 1.355718356203807851e+01
-3.580907008360367882e+01 6.502040411931697683e+00
-3.522180485132743399e+01 5.215614289382118685e+00
-1.697540604918754426e+01 -2.702350665348092917e+01
-1.670273386733648380e+01 -2.704044358150835947e+01
2.089517685030183713e+01 5.945031621513142461e+00
2.135221376184597020e+01 6.449155895183865006e+00
2.110004386936094889e+01 7.126347994140919795e+00
2.183640947663817400e+01 7.160391037578175855e+00
2.158808413732121778e+01 7.766925402055813166e+00
2.220670187667381157e+01 7.992523094987940446e+00
2.199552406304241714e+01 8.526257270283872813e+00
2.251166418668632474e+01 8.782144599665750562e+00
2.267120979590685792e+01 9.230447539237358612e+00
2.211076815247005811e+01 9.580603959397791414e+00
-1.619360331420834598e+01 -2.704233836817611802e+01
2.271637992252461302e+01 1.001597384030806204e+01
2.234332050634420241e+01 1.042688787550028628e+01
2.252849304855849866e+01 1.095066530366797330e+01
2.196520607101475520e+01 1.110682350346620240e+01
2.170040310320601762e+01 1.169281180825731070e+01
2.129875574726349541e+01 1.192255474424224104e+01
2.081628005032506579e+01 1.198214685616917130e+01
2.049508600494182176e+01 1.221265418802911817e+01
2.007118253639018590e+01 1.223556021239137692e+01
1.977060467655593712e+01 1.222298474341173602e+01
-1.569705143768908506e+01 -2.703082375405864823e+01
1.948137885645472878e+01 1.221422775895833013e+01
1.920899770150547070e+01 1.205618592949537060e+01
1.885766996260292316e+01 1.211752409235070083e+01
1.873433760081898569e+01 1.202282084225086223e+01
1.842629563280357985e+01 1.192578621102391523e+01
1.837849115204291550e+01 1.178264723118997281e+01
1.825343999444671184e+01 1.156993213107318219e+01
1.839824333185547545e+01 1.130618840851877849e+01
1.865361325963672812e+01 1.102326638167808426e+01
1.839855664268564794e+01 1.076587247464888186e+01
-1.521727068116595660e+01 -2.700983387738100561e+01
1.884472369278966042e+01 1.050570225237806987e+01
1.869149830562773573e+01 9.990693966322513830e+00
1.931455176310742061e+01 9.782026711651852224e+00
1.946810460515800045e+01 9.085489758326454890e+00
3.191982602947500069e+01 3.451016125230704557e+00
3.267179458245357182e+01 3.625829255688602704e+00
3.255875640308105545e+01 2.875850614264812588e+00
3.318214329931723228e+01 2.854112651955226454e+00
3.342465474884867405e+01 2.500382879231262567e+00
3.310978290625588727e+01 2.055134795075905352e+00
-1.472459616856744091e+01 -2.694005414177773261e+01
3.360177909888227532e+01 1.831093400884593159e+00
3.311350650868842393e+01 1.541720443648133987e+00
3.361614198044216550e+01 1.204494572762465410e+00
3.307582878195195519e+01 9.972017753975335186e-01
3.347921074808406416e+01 6.772949209795157133e-01
3.332272563261479092e+01 4.272831750652773541e-01
3.281062712550198768e+01 3.285947201969663389e-01
3.304422739788782337e+01 -8.346853846353266548e-02
3.278205102279449079e+01 -2.931139981356318813e-01
3.224639108097445472e+01 -2.658770239094179755e-01
1.885734384860547763e+01 5.566092263119609029e+00
3.187992109123206674e+01 -9.054510756373155278e-01
3.138975102508928217e+01 -1.137206069145272558e+00
3.142592682830738227e+01 -1.611671312268185607e+00
-1.933229048951382012e+01 -2.610832033143075037e+01
-1.898974960418442137e+01 -2.638467979110894035e+01
-1.873342516990395623e+01 -2.651809994854259500e+01
-1.849973713646139828e+01 -2.661257392056806026e+01
-1.821822343725723670e+01 -2.672258384716473500e+01
-1.794682258883573311e+01 -2.681945537384088851e+01
-1.770768744209059165e+01 -2.688928773888672552e+01
1.922718442443846598e+01 5.999024624721678300e+00
-1.745161146014121201e+01 -2.694487460909498466e+01
-1.723160804802423840e+01 -2.699083655749078403e+01
1.988768452743355297e+01 5.601478050988026425e+00
2.013540810084826660e+01 6.270759416289780397e+00
-2.364036562988386692e+01 6.927167589368440126e+00
-2.409241637583558671e+01 6.503363532160552296e+00
-2.496672952596047423e+01 1.670924242609796551e+00
-2.459171542329550064e+01 5.783044394810428201e-01
-2.398034996204853542e+01 -5.648603160005577495e-01
-2.328229370425312084e+01 -1.828828499045120903e+00
-2.215527714909933366e+01 -3.701087379291503776e+00
5.933894222296861365e+00 -6.645779739252909435e-01
6.391244277310356381e+00 -6.656730200655807117e-01
7.629473210923888971e+00 -8.396430327806228000e-01
7.937106269827786775e+00 -9.522330853550828866e-01
8.385404158291533960e+00 -1.070983844315598787e+00
-2.442048647355594682e+01 6.040424128618540500e+00
-1.060955236776109700e+01 -2.320684819400590015e+00
-1.117586134118119112e+01 -1.819307726507261469e+00
-2.136818480711740520e+01 1.429094194387059247e+01
-2.236362018787780315e+01 1.396397613392289827e+01
-2.295503071761829261e+01 1.335494425785983097e+01
-2.334859697234539055e+01 1.285168904117825939e+01
-2.373386435732019706e+01 1.226808894429262331e+01
-2.409507247148792786e+01 1.165698782861273131e+01
-2.436196334020865351e+01 1.109967068353586761e+01
-2.462482892931187095e+01 1.048010487292730986e+01
-2.478296000088788631e+01 5.696221309826088763e+00
-2.478102489352929894e+01 9.971476165208681408e+00
-2.486635184685455968e+01 9.575282077157680760e+00
-2.492807332755041116e+01 9.174579133795081276e+00
-2.505317192148988426e+01 8.627178370510344863e+00
-2.514043160428928303e+01 8.212122403090019063e+00
-2.520531546574224180e+01 7.925577965839463168e+00
-2.527579261930098298e+01 7.643598935730570254e+00
-2.543536963338589274e+01 7.208203015351287490e+00
-2.564997447054439306e+01 6.694668033260453122e+00
-2.583446387385508913e+01 6.237378667771980467e+00
-2.492975094693833782e+01 5.496129157527012588e+00
-2.595597124607565220e+01 5.922126253531142304e+00
-2.607492919184701563e+01 5.567735806005628341e+00
-2.616700430747185635e+01 5.122924601290553603e+00
-2.620396926346498034e+01 4.516704313965258066e+00
-2.622414516208631596e+01 3.917740714563416660e+00
-2.619839613716879967e+01 3.303320826152972955e+00
-2.611849194250787320e+01 2.283712048826477048e+00
-2.551977517490983871e+01 8.714744373529519361e-01
-2.463149457257804897e+01 -4.777377818169064594e-01
-2.397509822603708685e+01 -1.563964804962041599e+00
-2.494884869474199718e+01 5.191578808962536762e+00
-2.299785673012038600e+01 -3.091171174383379405e+00
6.137706419025702687e+00 -2.424716471846994015e+00
6.779272063488523514e+00 -2.495577452581749345e+00
7.747041489083189347e+00 -2.646369892318432893e+00
7.900405427896360244e+00 -2.638031703206993317e+00
-8.939252481517740989e+00 -5.665537235671662231e+00
-9.996351511443020144e+00 -4.079839866175087870e+00
-2.039160585348666288e+01 1.313430056391533185e+01
-2.131419965506341541e+01 1.333589544029876173e+01
-2.222627736991834269e+01 1.312309749274403003e+01
-2.504924834969784797e+01 4.624205694111616083e+00
-2.265353243056744859e+01 1.279491498398406435e+01
-2.299003490382518322e+01 1.231426523220777547e+01
-2.325450773114187797e+01 1.172752222665270416e+01
-2.341244526016293648e+01 1.115977500944999967e+01
-2.350764810411196137e+01 1.063514754106641469e+01
-2.355961221310541731e+01 1.017823338903679620e+01
-2.358098595959825516e+01 9.807210219767924286e+00
-2.345920079831108751e+01 9.465313445049705621e+00
-2.340478098576768318e+01 8.934648166652037204e+00
-2.357223815783444110e+01 8.423563889430802476e+00
-2.515332887016550600e+01 4.014296173864018158e+00
-2.345883091595610992e+01 7.823283638129931994e+00
-2.361574055870230282e+01 7.368125152398157240e+00
-2.526215695360889057e+01 3.398660535920158487e+00
-2.521390494910104607e+01 2.669250393602189408e+00
-3.618133477860951785e+01 1.338110856825526440e+01
-3.472114571821931861e+01 1.081717968148563891e+01
-3.245428788885237026e+01 4.184000443299160210e+00
-3.175355716796473260e+01 3.503979237823407811e+00
-3.079732127203624259e+01 2.963279498755567953e+00
-2.948106728486802197e+01 1.084238450058178538e+00
-2.856374589430619437e+01 -1.021195751723540601e+00
-2.802222034532699269e+01 -2.416637594137037937e+00
-1.599680033851216621e+01 -6.654058300671879422e+00
-5.299842847932916712e+00 -1.071434623387014362e+01
-5.296650796687982776e+00 -1.071075244482325850e+01
-1.003700769519936564e+01 2.385202298684943933e+00
-3.463706278428541907e+01 1.008732106577706134e+01
-1.057665260001327034e+01 3.164710712147814409e+00
-2.229860858618775055e+01 1.877914129916933916e+01
-2.311438043813625853e+01 1.905390380616083235e+01
-2.493104362565141585e+01 1.936216191853936053e+01
-2.632481517500045243e+01 1.938693514328461376e+01
-2.709898076791298749e+01 1.940116154060125098e+01
-2.825076295067430010e+01 1.939969289078371517e+01
-2.938588438413411907e+01 1.931075370578729888e+01
-3.053054162238592184e+01 1.909236146615640806e+01
-3.135784727550877449e+01 1.886159589613747656e+01
-3.457009249456802280e+01 9.396272719982929900e+00
-3.225959459354601933e+01 1.848958326932698881e+01
-3.315211348768636412e+01 1.803924719738789051e+01
-3.393814552250112371e+01 1.754211651696512675e+01
-3.484886290310394230e+01 1.684977805885520752e+01
-3.571340951185344181e+01 1.585537605007950646e+01
-3.625686969858555386e+01 1.495059524760297087e+01
-3.667066654892638411e+01 1.382482246072858878e+01
-3.670847773485509435e+01 1.278156531313554822e+01
-3.413383677213236211e+01 1.085228026706219673e+01
-3.393835791473743058e+01 9.988692263003635219e+00
-3.446038497436148873e+01 8.686614275965407472e+00
-3.374286582221062503e+01 9.145090741076208118e+00
-3.357880497179942836e+01 8.379689849267446533e+00
-3.339185361090532922e+01 7.589163464606855314e+00
-3.314425263464937643e+01 6.747754106935592411e+00
-3.282419699259877888e+01 5.877424196651764632e+00
-3.237618064108422544e+01 4.996927977214953742e+00
-3.189779637299681170e+01 4.273295770391525750e+00
-3.137645094017600300e+01 3.645659779540066037e+00
-3.013097572149876058e+01 2.392083131751598035e+00
-2.892892266153143765e+01 2.230847996219641471e-01
-3.429495600724195015e+01 7.983577544180451291e+00
-2.802001531005236146e+01 -1.493433778307596160e+00
-2.737135864694672804e+01 -2.644195524174608902e+00
-1.602766337056530688e+01 -7.608737749295332975e+00
-4.829645934039760391e+00 -8.625128473560693010e+00
-4.661029858816870153e+00 -9.172284843992187575e+00
-9.225492460904451519e+00 2.263722174772592410e+00
-9.742114708006658574e+00 3.101050522547087684e+00
-2.178939601149542327e+01 1.819999024638105212e+01
-2.340312419639283092e+01 1.859215817848679819e+01
-2.442429055094961399e+01 1.889924985097312771e+01
-3.405685068101704616e+01 7.276371800364403342e+00
-2.571553988298277815e+01 1.903538846015482733e+01
-2.702737143178784152e+01 1.904815259753727119e+01
-2.793673941427074681e+01 1.908021536797214779e+01
-2.896448015788355690e+01 1.905856741940208465e+01
-3.010897957667625136e+01 1.886919649219077755e+01
-3.126305813979839954e+01 1.844445420463412688e+01
-3.229966826294931082e+01 1.793877667465704917e+01
-3.317680635350538410e+01 1.735287822536382052e+01
-3.407780924049573201e+01 1.673414693415002930e+01
-3.500828732565970824e+01 1.576253009382702608e+01
-3.374019839620972760e+01 6.506859924848710897e+00
-3.572880569379660187e+01 1.466463776789399276e+01
-3.601025856963275373e+01 1.410382737390300356e+01
-3.344472632960167857e+01 5.844563506417556731e+00
-3.301837607116446804e+01 5.006686020806007775e+00
1.124651503588649426e+01 4.222879601942470806e+00
1.223497285281334435e+01 4.356236536384908931e+00
1.568273662338267727e+01 -2.202458777484105623e-01
1.553231200796806455e+01 -7.429154726997523328e-01
1.539327803725745980e+01 -1.203039040846652696e+00
1.514564891993051532e+01 -1.666585174477253295e+00
1.482348254117168551e+01 -2.231646884982644519e+00
1.439077592765437075e+01 -2.756980456729334339e+00
1.402383193433091968e+01 -3.206313716572582795e+00
1.363375527943999010e+01 -3.317422173361327165e+00
1.333610348811687629e+01 -3.872804823411347463e+00
1.310116124382345326e+01 -4.151801209182482744e+00
1.332026972578640489e+01 4.190405967285125044e+00
1.285730778890090598e+01 -4.452922288168540632e+00
1.268950165956420228e+01 -4.800149096118617287e+00
1.260898672818092336e+01 -5.239857321813534696e+00
1.227784158933034853e+01 -5.536788018093685260e+00
1.250289926526393103e+01 -6.098821027088738411e+00
1.193797880019586799e+01 -6.040710970476985686e+00
1.197928675146791200e+01 -6.579582167264963033e+00
1.147090610372899455e+01 -6.559809683115881640e+00
1.096778006624061064e+01 -6.341006797502468650e+00
1.115590609738544003e+01 -5.755996556808989695e+00
1.430288776688573904e+01 3.674651589037313482e+00
1.062265459966610237e+01 -5.495768694655991382e+00
1.113903090250658501e+01 -4.918599418101393006e+00
1.055917013225391088e+01 -4.471294597402414084e+00
1.097510870209156941e+01 -3.840818725393299715e+00
1.019934253423858017e+01 -3.456536879179986865e+00
1.069195170753754454e+01 -3.033198247527158387e+00
1.036068032455746390e+01 -2.548560183092110965e+00
1.113331263776064084e+01 -2.589751591570121469e+00
1.132689344040905866e+01 -1.970761794078529139e+00
1.164656896734843095e+01 -1.635167582570555833e+00
1.498261289132727470e+01 2.984723853800440807e+00
1.188849127551299034e+01 -1.199011238204927610e+00
1.240920070321523028e+01 -8.008368450302233432e-01
1.289354062867435324e+01 -2.615951725676822770e-01
1.347612280979058319e+01 1.429709605851810506e-01
1.380253133209746963e+01 7.902981734199443498e-01
1.392393907811191234e+01 1.415292982273565814e+00
1.349017523684658215e+01 1.801130210801521914e+00
1.313357877399546858e+01 2.219623742345754547e+00
1.247994781741785708e+01 1.845366140527404220e+00
1.202748770934924494e+01 2.349181159563195731e+00
1.531470546715043746e+01 2.277080243415065208e+00
1.145457690047615174e+01 1.866714059832288664e+00
1.091427718489036636e+01 2.144534140023254043e+00
1.069534246688644430e+01 2.257055169201022338e+00
1.019680517243722839e+01 1.719372063490972602e+00
1.004269297066047706e+01 2.563140279153929058e+00
9.588744217096316191e+00 2.197328674595626197e+00
9.415838648243378017e+00 1.401168705014017579e+00
9.129159617444463137e+00 1.648809849650184400e+00
8.803501799240034842e+00 1.930257973202281985e+00
8.431330361079439228e+00 1.392789916114392179e+00
1.555468812363306874e+01 1.658488803866621009e+00
8.150558901493951680e+00 1.743535436316915321e+00
7.766616356489109307e+00 1.731922635564895563e+00
7.603695090095876630e+00 2.056704202770450074e+00
7.510419792572580633e+00 2.406233057455144042e+00
7.617816302415152840e+00 2.768451148970743958e+00
8.100137856447064522e+00 2.715182448948302074e+00
8.096770708996210431e+00 3.198683481161114450e+00
8.532287639051901351e+00 3.070932149474506989e+00
8.982252367210065813e+00 3.221350549800472418e+00
9.323924410531526874e+00 3.613952378530556064e+00
1.546909809343842745e+01 1.080607414343899952e+00
9.899708094463676389e+00 3.631077121101177418e+00
1.048604831411802429e+01 3.914864011703773183e+00
1.573119373149978628e+01 6.854367034769373035e-01
1.557948391556834622e+01 2.248287129355695246e-01
2.618929868999610378e+01 2.917779250401271174e+00
2.652341426341774167e+01 2.919690805593654570e+00
2.722604878885665869e+01 5.033125714771036208e+00
2.788989709064084010e+01 5.177975610529647277e+00
2.841115047436606744e+01 5.545979241948075789e+00
2.885957305091522329e+01 6.104970756816370248e+00
2.915151298539627689e+01 6.545226809594744566e+00
2.937540277397661725e+01 7.002523309612533886e+00
2.956098551206542879e+01 7.511117904777998788e+00
2.925117674982972815e+01 7.904701423467805910e+00
2.933206493570352791e+01 8.101735815628011039e+00
2.835083411177074453e+01 8.191860431528800390e+00
2.689252029012603984e+01 2.985828062847930120e+00
2.768866727965307462e+01 8.110737568500660188e+00
2.690178369807769343e+01 7.847335050510435117e+00
2.631782295041236708e+01 7.545358329883025128e+00
2.565934337948818467e+01 7.098779222338505335e+00
2.519295368404752011e+01 6.679994030817986150e+00
2.472863244256623361e+01 6.223973774628522193e+00
2.458761610934970321e+01 5.870301957321264474e+00
2.438381037829746845e+01 5.487793760772831320e+00
2.428512457704562522e+01 5.107844487717742687e+00
2.421856533893666352e+01 4.608088477803011784e+00
2.722712751600139569e+01 3.221543004459204163e+00
2.414223757092990397e+01 4.118883128195119703e+00
2.420259728730474436e+01 3.495646862902248575e+00
2.424903252630609884e+01 2.915675379070572504e+00
2.439756685412167059e+01 2.398237386307982888e+00
2.454683442215985067e+01 2.072514767138364356e+00
2.478805136576780299e+01 1.830471310326431844e+00
2.497455669155677782e+01 1.699476839674826767e+00
2.530436710288342539e+01 1.535750612659036562e+00
2.579943033581924539e+01 1.399383083569127884e+00
2.656045244166937991e+01 1.340377819018646166e+00
2.733410212887397250e+01 3.511065171098424642e+00
2.728129331603474839e+01 1.451089098540485844e+00
2.762026277998699797e+01 1.611143566965985041e+00
2.801178572501227748e+01 1.890341606955764364e+00
2.837747105614491971e+01 2.259955115336580445e+00
2.863369246583749117e+01 2.667812781824770774e+00
2.887920175922554122e+01 3.183883093765486727e+00
2.907335426105485965e+01 3.732702117351863080e+00
2.927183028906069495e+01 4.374806302489498755e+00
2.952384679517473387e+01 4.986324373686183975e+00
2.977237435194009052e+01 5.410659254665052487e+00
2.735498624013737157e+01 3.876675517249816405e+00
2.994037273315386471e+01 5.986986868142708751e+00
3.005445504994443340e+01 6.438519212275553905e+00
3.005867670772549261e+01 6.932532579584747445e+00
2.998467553932292518e+01 7.452449725064363761e+00
2.969013262761481542e+01 7.866441762397718307e+00
2.910042202103725018e+01 8.024504214182178075e+00
2.871650787572099617e+01 7.815636448842256279e+00
2.788983405505030433e+01 7.558892896877507539e+00
2.708384960419845910e+01 7.091481460573656470e+00
2.641273913790801586e+01 6.697677841069240579e+00
2.712635049604408621e+01 4.233181048574983230e+00
2.604178737303023183e+01 6.203895517183945607e+00
2.570564318143626181e+01 5.719646136519885182e+00
2.554621602276047199e+01 5.478874463358397229e+00
2.565169818897306087e+01 5.205378935902344573e+00
2.576087186405825591e+01 5.013763575669487160e+00
2.585472158156469646e+01 4.785695312511574429e+00
2.587804550648579749e+01 4.642042475392486267e+00
2.586153562424511065e+01 4.336626575638685921e+00
2.583371907989623040e+01 4.013536453181436592e+00
2.565443401206485419e+01 3.699043926173759544e+00
2.689611139989865052e+01 4.608897005277084347e+00
2.576107520728739786e+01 3.269089311552140664e+00
2.602887889409267075e+01 3.021126107480630818e+00
2.668657170281991853e+01 4.951718646858855877e+00
2.662181962065545804e+01 4.924878849697143401e+00
-1.928069759914832559e+01 5.076032527453912202e+00
-1.985597022609023199e+01 4.729436175918633189e+00
-2.168834713091337107e+01 -2.695887974761733696e-01
-2.134744260360024626e+01 -1.235271537941947884e+00
-2.089133926988758816e+01 -2.254627609910459185e+00
-2.036203684775655631e+01 -3.456661365077641879e+00
-1.979875872986900376e+01 -4.415725788318537681e+00
-1.882524474028597083e+01 -5.469539586443476153e+00
6.010472982924098595e+00 -4.559550124310629116e+00
6.939844101046435121e+00 -4.662346495750699482e+00
7.630499510753390169e+00 -4.682761386278207816e+00
-1.066000739767487460e+01 -6.059864479493244360e+00
-2.050670983916536372e+01 4.404667276189544900e+00
-1.101677114647203126e+01 -5.505851131865834525e+00
-1.211622442478681094e+01 -4.086706630400111173e+00
-1.271965749306369808e+01 -3.401324494401496867e+00
-1.310342216815542393e+01 -2.885435547839016124e+00
-1.808371379374623444e+01 1.086845806435874984e+01
-1.834110933568867452e+01 1.051382297837183799e+01
-1.862966556667515761e+01 9.972611682769148445e+00
-1.878684091203453477e+01 9.381946701840059077e+00
-1.863558923782385790e+01 8.800266723849867745e+00
-1.879144064382045798e+01 8.271202296316740643e+00
-2.098754516399835168e+01 4.138986208912869280e+00
-1.875830511203502127e+01 7.770920865245651399e+00
-1.839382538142115919e+01 7.431962421915609518e+00
-1.833678171657233946e+01 6.925336914762484142e+00
-1.819772108369500074e+01 6.273778788674001738e+00
-1.819730965653653598e+01 5.592042084193947105e+00
-1.823374680865736153e+01 5.174271842347048178e+00
-1.844257543746160266e+01 4.886067092845747695e+00
-1.895310083931175527e+01 4.330281626294312680e+00
-1.957384409486501653e+01 3.876234668944175343e+00
-2.003932628060979226e+01 3.667133776627110375e+00
-2.137417196037738876e+01 3.805697980271490533e+00
-2.047765909061037704e+01 3.441006173748125008e+00
-2.084170341100254831e+01 3.043052604852026999e+00
-2.097852028294472504e+01 2.529207613892844542e+00
-2.095968286189701502e+01 1.980823217228299349e+00
-2.111903483050318542e+01 1.402297683728763289e+00
-2.109918071241126114e+01 6.173173268672241809e-01
-2.108125053704439011e+01 -1.513423784153687390e-01
-2.097021379729828183e+01 -1.118310621616491973e+00
-2.066673038085833625e+01 -2.215030814342761722e+00
-2.037057733293449147e+01 -2.985648160571588328e+00
-2.173954035152097930e+01 3.388997719387393026e+00
-1.967165521063488853e+01 -3.951234829141223148e+00
-1.865023373748374524e+01 -4.783831757603961066e+00
5.407062803848476484e+00 -4.311944450191149691e+00
6.806410008177212312e+00 -5.127360350963350299e+00
7.142262320104361351e+00 -5.371230549085280082e+00
-1.051019487266848174e+01 -6.510301959368726799e+00
-1.151569312360144437e+01 -5.168951206921383879e+00
-1.207621913427918869e+01 -4.364376387355910936e+00
-1.259568196962016096e+01 -3.603532025625256097e+00
-1.309849228907188845e+01 -2.834625668134216792e+00
-2.187587073862960452e+01 2.862955330470027260e+00
-1.861841408913698004e+01 1.115275402870992316e+01
-1.902775069989989021e+01 1.080480550105778903e+01
-1.946320027690372001e+01 1.028119969108533205e+01
-1.975181667169522370e+01 9.642646898060835525e+00
-1.984886460041169087e+01 8.974589490700042305e+00
-1.973621756023960927e+01 8.316436545827501803e+00
-2.000489504095222415e+01 7.813442703464267503e+00
-1.971243620496206361e+01 7.355346928341439217e+00
-1.990898105183201494e+01 6.870408567312736636e+00
-1.940596342299838639e+01 6.420915146864496492e+00
-2.198139838608269514e+01 2.220998451577825605e+00
-1.919320962260197660e+01 5.768288707861040088e+00
-1.909409022653563071e+01 5.316564543624092032e+00
-2.202122274980341032e+01 1.527402061757237917e+00
-2.190729757383866172e+01 6.781543000625609441e-01
