-1.821838807375762177e+10 -1.191481733485468102e+10
-1.831721888471316910e+10 -1.231968592967178917e+10
-1.624717248420234108e+10 -3.045068894235680103e+09
-1.170170112297162170e+11 4.488045186684066772e+11
3.900283542687218475e+10 3.991190470730308533e+10
2.640221506808699799e+10 -3.254648222488826752e+10
4.084059467549262085e+11 -6.238567776824942780e+10
6.665372262266792297e+10 -4.743318802233119202e+10
-2.763807374799041748e+11 -2.211687951860956726e+11
-1.145025191027169800e+11 -5.664745766612479687e+08
-4.011116482870600128e+10 -3.290640354249635696e+10
-7.773245293094224548e+10 9.547749335033378601e+10
-1.970982633890752792e+10 -1.218450092444144630e+10
-3.028395789188311768e+11 8.260601429431026611e+11
-2.046095253627721405e+10 3.242330206555484390e+10
-2.645080943985977554e+10 -2.666254521479013443e+10
4.839978009312911987e+09 -2.865249287073768234e+10
7.894670471930802345e+09 3.382317552458584309e+09
-2.007873830929571152e+10 7.028859955899484158e+08
3.190534378382696533e+11 -5.823983780574470520e+10
-3.751509044096578979e+11 -2.361082060344550171e+11
6.304454323188529053e+11 -4.625816859316445923e+11
-2.665001416091477585e+10 -1.186108762080720711e+10
-2.112658010069520950e+10 -1.252287404065701485e+10
-4.986673340067134857e+10 -4.120977714770658875e+10
-1.085578117495481873e+10 3.246088725664174652e+10
7.194053115056845093e+10 -2.495495314796905899e+10
3.096040664838490601e+11 7.712440986501396179e+10
1.336913267369171715e+10 -4.715395802284028053e+09
-1.467237340199111700e+09 -9.269081051347125244e+10
1.637000874044688110e+11 1.375578452986928406e+11
-3.388192683585469055e+10 -3.595484419497064972e+10
-2.738771666810741577e+11 -1.141540324099268799e+11
-4.536336522710087776e+09 -1.378809428938422012e+10
3.115920957710732422e+11 -4.942225054067215729e+10
-8.371972915367469482e+11 1.893461778647089355e+12
-9.287663291713856506e+10 4.221875661567568207e+10
1.763643843277753067e+10 2.856585136337556458e+10
-8.246655418705850220e+10 -1.977090876633068466e+10
-1.704129103675690186e+12 1.231996236059815063e+11
-4.804674641399810028e+10 -2.981121502979639435e+10
2.595596513942180252e+10 4.506220848057776642e+10
-7.525030803553540039e+10 -5.947319640514809418e+10
1.274757380850903473e+11 -4.402129416132336426e+11
-8.397300494599555016e+09 -2.888554564661619186e+10
-1.044535281915667572e+11 9.668893685963180542e+10
-7.211688758116102600e+10 -5.371977963427520752e+10
-1.042356930650078583e+10 -6.557216599301157379e+10
-1.448408510007576599e+11 1.995652841233316345e+11
-9.446863748026800156e+09 -1.601569276927620697e+10
-1.184503096853837585e+11 6.278055941026517487e+10
4.040697110616323242e+12 -8.029193247334616699e+11
1.058165982772728729e+11 -7.600553161593395996e+10
1.321694240236892853e+11 -2.949560806996919556e+11
1.213024324001793289e+10 -2.035002212470233917e+10
-2.239952731879317871e+12 4.740596770999790039e+11
5.094889376418952942e+10 -1.183418679030156860e+11
-1.797483698244565201e+10 -1.132071679765350342e+10
1.222024262115439606e+11 3.163173801272344360e+11
2.131467408637703857e+11 3.242826011502706299e+11
2.502047215717050171e+10 1.448761048394398308e+10
-8.449515223792976074e+11 9.140072205664237976e+10
1.752393034344671249e+10 -7.465554122954052734e+10
-5.463562017346681976e+10 -6.264219617782576752e+10
-3.120619664395128632e+10 -6.767181832904726028e+09
-2.205395005868509293e+10 -1.167940858483183098e+10
-2.019466954336135483e+10 -1.285673581448462868e+10
2.514916208672509460e+11 1.447616172284912109e+11
-1.891959371168651962e+10 -1.186196653346714973e+10
-2.042427489182351685e+10 -1.172878394591048813e+10
-7.779485215299067497e+09 -3.030357345931708527e+10
-2.439509062952255249e+10 -7.575409399607064247e+09
-4.236178742207748413e+10 4.563774432216943359e+10
4.295901353650485992e+10 -3.053827246865269470e+10
-3.124293419997113800e+10 8.119151279702757835e+09
-4.721518628614376068e+09 -1.535774520276549339e+10
-4.369483980043513489e+10 8.075205878684558105e+10
-1.733555306835181427e+10 -2.633539767534254074e+09
1.703835272787072182e+09 3.997859130180146027e+10
-1.194327048522052148e+13 7.971031045289446289e+12
-8.943496825864920044e+10 -5.730640307931475067e+10
-2.230127059743978500e+10 -4.329222963391767883e+10
-2.206371281656874847e+10 -1.301607727378365517e+10
-2.832490715871621323e+10 -1.355781090890516205e+11
1.566080705303604980e+12 3.711935233236517334e+11
-2.554691854721358948e+11 -2.642101607252628708e+10
-6.306881130688404846e+10 -2.184170211506991577e+10
-1.660016026245334244e+10 -4.579191653211743164e+10
-3.771458864825625610e+10 1.636693012141372986e+11
-1.517296755398738480e+10 -2.534719715118472672e+10
3.920888867585118408e+11 -6.964496121519027100e+11
-1.740588650719868851e+10 -2.200533799119769287e+10
-5.198969038816290283e+10 -3.623154702571469116e+10
-6.608213599054479980e+10 -7.352747160120844841e+08
-2.367264419345196838e+11 -2.779088411328587341e+10
-2.512695358117464447e+10 -4.008534465665982819e+10
-2.318878248634165192e+10 -1.373659067360917282e+10
-2.179320373609869995e+11 2.554496680616279297e+11
1.778429291959343872e+11 -2.517740773770440292e+10
-1.833108275314296875e+11 2.039356467338267517e+11
1.450135269276863098e+10 -1.969713457328875427e+11
8.430158416235063076e+08 -4.264721379271670532e+10
1.875681840352039185e+11 -1.156892130444700775e+11
-5.683483586440636444e+10 5.108225140641633606e+10
-2.255323562711690521e+10 -1.221560773290765076e+11
-5.009331274515346527e+10 1.263983160954757309e+10
1.865041090415728760e+11 2.682570487396627502e+11
-1.169996218473824615e+11 2.227803278157966919e+11
2.772105153679459229e+11 -5.278635576642664185e+11
-5.122165661219434357e+10 2.425273757623252487e+10
-1.339428373477160072e+10 7.549321679570269775e+10
-1.932163254466728973e+10 -1.871743670855075073e+10
-1.429764175554838281e+13 -3.098445607159496582e+12
1.239112447421184326e+12 1.650458710990631348e+12
-4.300941474308454132e+10 -1.746029031940848541e+10
6.170331073699046326e+10 -7.861008946523904419e+10
2.337750115404607010e+10 3.799740660315273762e+09
-1.158129821386069794e+11 -4.572907396665126953e+11
5.040104888372639465e+10 -1.036416009637726746e+11
-1.975918782721205521e+10 -1.280000715535630798e+10
-1.922489295428775406e+10 -1.287313885173870850e+10
-2.103752773203357315e+10 -1.286958057374835777e+10
-1.872602675444272614e+10 -1.383053116244149017e+10
2.059732269293056030e+11 -3.210215965610826416e+11
1.341640652726946564e+11 3.314113692130862427e+11
-4.355177737637715912e+10 -7.490124047729014587e+10
-3.032543311394657516e+10 -2.572757378115314484e+10
3.541008075731199646e+10 -5.365099088164220428e+10
1.132367169136145020e+11 -9.357114056061265564e+10
-7.806479608165399170e+10 -4.200475592276605225e+10
-1.420335707773385620e+10 -9.227679811621650696e+10
-2.159515530662520599e+10 -1.056019825466162491e+10
4.733692399285031128e+11 7.885510314543695068e+11
2.990960890308222580e+10 1.225617250549803734e+10
-3.948828384105909729e+10 1.014441060033043861e+10
5.149440453929638062e+11 2.664763835882691956e+10
7.684313415675457764e+10 -5.352613222464643097e+10
-1.002707608970064545e+11 -8.604765614339559937e+10
-6.426557360180499268e+11 -1.236242906884015961e+11
1.271358810958723755e+11 -5.068090962363288116e+10
-4.988752106489281464e+10 7.948727792076083422e+08
1.224481626964157104e+10 -1.243216090688892174e+10
-5.154994243942839622e+09 1.416683486124348259e+10
2.511551214070353394e+11 -3.610473945461666870e+11
-2.176392516469894791e+10 -1.312860963277110672e+10
3.512396770079242554e+11 4.917381282134179688e+10
-5.732328465540152588e+11 9.090852572542309570e+10
6.755154147824499512e+11 1.677033992800354919e+11
-4.115526236081678772e+10 3.168518333140876007e+10
-2.568182516292535305e+09 -6.934379364009635925e+10
-9.188528644492141113e+11 -4.722402505677640991e+11
-4.082632358624402466e+11 1.863074252757153320e+11
-4.483231891828186035e+10 -1.832204914639066162e+11
2.465821020098854065e+10 3.871907796944692612e+09
-1.945580089970577621e+10 -1.445371677951006889e+10
-5.235132616702042236e+11 7.290542977015173340e+11
3.041032064110894531e+12 -1.309826519267828320e+13
-1.802914842510561829e+11 9.816595246548117065e+10
1.953131548793841858e+11 -6.192185364739483643e+10
-2.055887147703843689e+10 -1.197602744297833252e+10
2.136750026080513611e+11 -9.646617893669786072e+10
4.288894470681962280e+11 -5.502528359655498047e+11
-3.717323912097159386e+09 -1.263899885898217773e+10
5.448610478908540344e+10 2.191453690073588562e+10
9.111568959725631714e+10 6.941719891097735596e+10
1.160782477223665619e+11 -1.618676156327606201e+11
5.501112134681700134e+10 -1.682492255465193558e+10
-3.905086159769913330e+11 -8.942396845280566406e+10
9.248523532140911865e+11 -5.636598967288473511e+10
-1.139304157459891701e+10 -2.012474193770085526e+10
7.806427166173652649e+09 1.572052885531814766e+10
-9.673810837164713135e+11 2.962219832288520508e+12
-1.265068488352552979e+12 -2.086187788846742249e+10
2.142993557168268204e+10 -3.444774498883705139e+10
-5.176147929529220581e+11 4.362176115180201416e+11
6.255585882975483704e+10 9.843180735336860657e+10
-6.403691620315464783e+10 -2.993983243703907776e+10
1.968119275246784668e+11 -2.372719180860929871e+11
-2.384539793871691895e+10 -7.740959613301655579e+10
-1.033625916197140503e+11 -6.554746504409633636e+10
-1.549545857516090775e+10 6.748843396028913879e+10
-9.357732925608279419e+10 3.588099935568103790e+10
-3.410474704965320206e+10 -1.264346164394885254e+10
-1.734118669243856812e+11 -1.617995178276991577e+11
9.125614128191776276e+09 -1.996145770752194824e+11
-2.349923274778963253e+07 8.469937589949481010e+09
-3.215316110511952209e+10 3.608803508460193634e+10
-7.894095579892720032e+10 -8.503829843796692848e+09
-6.067194216992259979e+09 -6.494664632153989410e+10
-2.608020991729164124e+11 -5.257075675591463013e+11
-2.763478285998495865e+10 3.835578288652675629e+10
-2.287497128662388306e+11 5.889919440980154419e+10
2.194775127140863419e+10 4.825561671818733215e+10
-1.447026489972296143e+10 -4.771249022398192406e+09
-8.748262864673572540e+09 -4.168869216067317200e+10
-1.407852410239648438e+11 -5.050635137017262268e+10
5.357478856868578911e+09 3.847510790957519054e+09
-1.327290951471881256e+11 8.572757171207821846e+09
1.623361002241948318e+10 -2.421738044307469940e+10
-6.095423135665409851e+10 -7.329118531638470888e+08
5.624336181648124695e+10 -5.977564105264961243e+10
-8.946644779848089218e+09 -2.940985211440441895e+10
-2.560886034217557907e+10 1.717976210348110390e+10
-3.451450590213742828e+10 -6.779153974039047241e+09
-1.717517226838445091e+10 -1.708886052594117928e+10
-2.136822359760657501e+10 -1.233280919570593643e+10
-1.973909077393516541e+10 -1.359630142087008095e+10
-2.088999137157046890e+10 -1.236435665601702309e+10
7.309691093094407082e+09 5.465905594652231598e+10
-1.269312233167922058e+11 -3.860438006528536224e+10
-5.654321167766640472e+10 8.810370297965075684e+10
-3.417442113370920181e+09 -2.989608258835259628e+10
-1.836912255790033722e+10 -1.279188081513688850e+10
-4.521658743070774841e+10 -3.566637440296901703e+09
9.511898036575080566e+11 -8.817282873906510010e+11
-2.389409944503483200e+10 5.659572685016695023e+09
-1.953263057807175446e+10 -1.302470914079468918e+10
-4.643686212586247253e+10 1.775778778313526306e+11
-4.062623262648416138e+10 -3.886470103067901611e+10
-2.494312804030013123e+11 -3.962369278009977417e+11
-7.049823529335738525e+11 -1.067535968588976318e+12
-1.330491109903598633e+11 7.939520237356472969e+09
-6.090773232219537354e+10 -1.887550924697324371e+10
1.009208673932007690e+12 -2.174864875024718323e+11
-1.913707820395928574e+10 -9.415275955151008606e+09
-3.094825962209666443e+10 1.742468570595449463e+12
-1.047586085936431885e+10 2.381371583295465946e+09
-3.150838664149067383e+11 -3.330565781069362183e+11
-2.258149631957245255e+10 -1.607773306339939880e+10
-1.930953707852700806e+10 -2.902053058880469799e+09
-4.743242753287715912e+10 1.482348179122867012e+10
1.527201349407560120e+11 1.052339093794050446e+11
-2.185347155617693176e+11 2.144446579195803452e+10
1.034203113488188362e+10 -1.991168345256242981e+11
-4.701329499295289612e+10 -9.805784482929004669e+09
-2.086084339670038605e+10 -3.095053660673480225e+10
6.879572112045413818e+11 3.522698452907191772e+11
-2.663112595185369492e+09 -3.109742282252304077e+10
-2.019588880213967896e+10 -1.100207618518146896e+10
7.615824359045610046e+10 7.607798715619001770e+10
-2.729619598997609329e+10 -1.638081035930383301e+10
-2.891879830633023071e+11 4.631314001189589691e+10
2.392774208720126953e+11 -8.287396465399624634e+10
-2.548055681102676392e+10 4.854069884822295189e+09
9.151568496961957031e+12 -3.981069061309985840e+12
3.479417334230691406e+12 1.786964726854923401e+11
-1.047185958509133301e+11 -5.303346297714221954e+10
-5.283112586140409851e+10 -2.765765157314548016e+09
-3.798078842936250305e+10 -3.596329056261051178e+10
-1.997970546707527924e+10 -1.336927144827254295e+10
-1.969686680958786392e+10 -1.327281125616020393e+10
-2.076025856348474884e+10 -1.352908136066796684e+10
-1.880018442139393997e+10 -1.146403527579105759e+10
-3.898347931677485657e+10 -5.818629249374527931e+09
-1.160669333951145477e+11 -9.866034763118586731e+10
-7.590340770391849609e+12 1.034582877075700000e+13
-1.773299192642943192e+10 -1.334945649049799156e+10
1.750349840468828583e+10 -2.548276515607344437e+10
-1.922260231302291489e+10 8.961692391799143982e+10
-1.794666374318361282e+10 -4.163828302587081146e+10
-4.415091941026131630e+09 2.573620293804759216e+10
-2.225359139889058685e+10 -1.203119477753820992e+10
-1.574730839276601410e+10 2.116515088038907242e+10
-1.275458716120510101e+10 2.123744319351559639e+09
-1.565027582334750366e+10 5.718735272919107819e+10
-4.602735375526619720e+10 -4.788045458904102325e+10
-2.488319739836749649e+10 5.165459985228478432e+09
-1.681210917247564507e+10 6.760226810957700729e+09
3.845383976139808655e+10 4.280724992629001141e+09
2.238850181624836914e+12 8.606216798391971680e+12
-4.431863834995030212e+10 4.273661119580244541e+09
-2.715425483049177170e+10 1.060006657512729526e+09
-2.112755491011964417e+10 -9.984162944583915710e+09
-9.888049087718675232e+10 -1.900132695995487305e+12
-8.583131629071354866e+09 -3.290319057424869537e+09
6.015518378111713409e+10 4.846414587374144745e+10
-4.680279146667966843e+09 -1.795818785046686554e+10
-1.512422849059354782e+10 -3.677732673929361725e+10
-5.300393342101537476e+11 3.568982536523205566e+10
2.013208347435593567e+11 4.951536571510175171e+11
-5.396371974414730072e+10 -8.713075379727589417e+10
-1.939794613783675385e+10 -1.372875291080204010e+10
-1.988273170869502640e+10 -1.069710815099598312e+10
1.358124477329323006e+10 -2.253141992593706512e+10
-2.130345046517674255e+10 -1.275015609276822662e+10
-2.114372188569878006e+10 -1.215777595637936974e+10
-2.326176711961424637e+10 1.133323004075099182e+10
7.330459745922747612e+09 5.621237433428874969e+10
-1.178952236390175247e+10 -1.799568972765575867e+11
-8.933938723733309507e+08 -5.528111465237344360e+10
-7.341084887488929749e+10 -3.033396139134510422e+10
2.695884851689530273e+12 -1.631413908025799561e+12
-6.300819500210348129e+09 -1.420336214187296677e+10
-1.155887883854958038e+11 1.138764996750391846e+11
-1.345879441097034607e+11 -1.654418010002985229e+11
-2.292011427192751770e+11 -1.568520285511034851e+11
-3.787438453336554565e+11 3.550668610836521606e+11
-2.187242872020333099e+10 -1.574896953763850403e+10
-2.069710019868165207e+10 -3.673870922708687592e+10
-3.541668439190141296e+10 5.610225858506705284e+09
2.920551744621500854e+11 -1.572664897841232300e+11
5.556102556963329315e+10 6.094310947145897675e+10
-7.608663306020100098e+11 -3.670208747613959351e+11
-1.890816307015390015e+10 -1.283734088136412239e+10
1.878504706673983154e+11 -2.821718734454541626e+11
-1.107387619410824585e+11 8.808886675664707947e+10
8.876891033658792114e+10 -3.722032937628123474e+10
-5.974286863370976562e+12 6.300510521191167969e+12
1.836817603502835999e+11 3.226660546868334579e+10
-8.719913135329301834e+09 -5.618058379700735474e+10
-1.542882393432191467e+10 9.213348271064787292e+10
-2.042911443054461288e+10 -2.689139788684584427e+10
5.080016139947797394e+10 3.804156911730796051e+10
-4.671820340066765594e+10 4.897886211764952660e+09
-4.674334027350485229e+11 1.063950599520494385e+12
-2.738641517054776001e+10 -7.131985366934965134e+09
-1.711413338979817505e+11 -7.134939960391067505e+10
-6.059224135034233856e+10 -5.929642029786985397e+09
-3.385155766000816345e+10 2.123088509906400299e+10
2.850417739465315628e+10 3.149934721175853882e+11
-9.665773234644861221e+09 -1.213311417402047920e+10
-2.387568030488902664e+10 -1.242585826190772247e+10
5.871352366970046234e+10 -7.589160604886265564e+10
-2.127036531820923233e+10 -1.033029025761813812e+11
-1.688898148100168762e+11 -9.602485664754609680e+10
-1.643373448951515579e+10 1.816833936838260803e+11
-1.856592468855029297e+10 -1.178606040517192078e+10
3.970216132758995361e+11 -6.830588492373181152e+11
-1.708306550363117065e+11 -1.065356564003103485e+11
-8.209724996771985054e+09 -1.467030436028590012e+10
-4.408516057157558441e+10 -3.102409251671430969e+10
6.406559818467399597e+10 -3.767970783058665771e+11
-7.922976838453627586e+09 7.446498206412563324e+09
-4.812043648058835602e+10 -1.186306413442563629e+11
6.813026307172553711e+11 1.463236786554382629e+11
1.509376870059778137e+11 4.653731904666064453e+10
-2.437714875642475510e+10 -2.360255586804450750e+08
-3.544553409185777283e+10 6.847598408441253662e+09
-4.919577448840670013e+10 -3.778496712118866730e+10
-3.304038312438306427e+10 -3.233413035191463470e+10
4.007804326366751862e+10 4.751450788628128662e+11
-3.293846228251717758e+10 1.172400826305132675e+10
-2.083515278291481018e+10 -1.266225947402488708e+10
3.240591773693957520e+11 -1.392992796983831177e+11
-3.324654326345178833e+11 1.594523031118188171e+11
-9.115939214973966980e+10 2.993509483648187256e+11
8.954224641071105957e+10 -1.014190417415373230e+10
-2.242633241399118652e+12 1.897115812115249512e+12
3.798345760776862183e+11 -2.781782907097374268e+11
1.174833575071033783e+11 4.717376832858743286e+11
3.726165257137812042e+10 -2.607077795722404785e+11
-9.490230642908073425e+10 -1.223776803723704834e+11
7.252910326464082336e+10 1.010181617231435242e+11
-5.100543774740679169e+10 6.377282919435363007e+10
-4.216645120812677246e+12 -1.872798096899658936e+12
4.471028466788841248e+10 -5.790292292890489578e+09
5.062396998561078125e+12 2.248500771511619629e+12
3.441571395761193848e+12 -1.273375966020826172e+12
-2.532746038897841797e+11 1.889914773261248169e+11
-1.486021475998212585e+11 -3.210811989853239746e+11
-2.567397394382152557e+10 -3.414845013179041290e+10
-2.573158841735747528e+10 -2.213933206455295944e+10
-1.562316626995454788e+10 -2.434324660566387558e+10
1.187515620715633698e+11 -4.739098850422505951e+10
8.271337984384906006e+10 -1.477835189159273682e+11
-1.942416618689669418e+10 -8.627128603240650177e+09
1.425333527852602844e+11 -8.779312963426921082e+10
-4.190710043640422058e+10 7.654310901673178101e+10
-5.559607311129467964e+09 -6.639598809436692047e+10
-6.829008544459370613e+09 -2.597595349255372238e+10
-1.198504556008555603e+11 7.850036654253898621e+10
-2.275334588329069901e+10 -1.785419152795980453e+10
-1.542513834455132751e+11 1.433930891857249260e+10
-1.638681536668575764e+09 4.657261511462635498e+11
9.805654501820295715e+10 -6.169301752066944122e+10
-1.989174506205157471e+10 -1.454108945046441269e+10
-1.847430955711544495e+11 -1.630382277377043915e+10
-2.576499784060546094e+13 -1.859299054198917188e+13
-1.924976800224140549e+10 -1.318773810404411125e+10
4.591290900963828278e+10 -1.051579646572316132e+11
-2.525522370911406708e+10 -1.282053980287537575e+10
2.373283680787024536e+11 -1.005955872958961639e+11
1.948139506424047089e+10 2.172897232544197083e+10
8.566012240333305359e+10 -1.518964777997110291e+11
-6.238881058164748383e+10 -2.062414469506199265e+10
-8.150401824272009277e+10 4.775785554031407166e+10
-5.789743850104722381e+07 1.123218519555043488e+11
1.296685479364208984e+12 8.325050428745151367e+11
-1.924143715760234680e+11 -1.659284843170325928e+11
6.290759276071661377e+10 5.431544048992053223e+10
-1.002532314574779968e+11 9.357224713247840881e+10
-6.403429119566748047e+11 3.683725298135654297e+11
-2.037726878715813065e+10 -1.393275266422270584e+10
-2.709466381099724579e+10 -1.802473070667243004e+09
-5.554682399060272217e+10 -4.195430209040268707e+10
-2.862220146170393677e+11 -3.048563303844990921e+10
-6.013317272397788086e+11 2.603808826501110554e+09
-6.003439116017232666e+11 2.846850303331000977e+11
-7.144747620570843506e+10 5.260597088265640259e+09
-9.690653555835531235e+09 -1.655561435137394905e+10
-2.485059130558940125e+10 2.306993820071036148e+10
2.537722586391727066e+10 4.397184702067655182e+10
1.433969322041725830e+12 -5.754837848952117920e+11
3.833212449728840637e+10 -3.662322239641788483e+10
-5.942205832379644012e+10 -1.677989532245157471e+11
-7.265198814385729980e+10 -9.590240105797134399e+09
-6.923149964621853027e+11 1.497891801113910217e+11
1.692017509096308289e+11 -9.659186055161608887e+10
-2.058622072817527771e+10 -3.431949692732286453e+10
-1.738394476299005127e+10 -1.150055048050997353e+10
-7.398625067608873291e+11 4.787449941333806763e+11
-2.040842696918555450e+10 -1.950120285977353287e+10
-2.839176175749076538e+11 3.622538302397562256e+11
-3.892543657911910248e+10 -2.196680894782402039e+11
-1.096730316203099823e+10 -2.554547056488025513e+11
-5.471718253909432983e+10 6.012905723162355804e+10
-5.518455158150512695e+09 -9.294698938842954636e+09
-3.294468501377554703e+10 2.237139358547573471e+10
-1.738770049576019287e+10 -1.040291304701971741e+11
1.408910096230648613e+10 -3.881793092741401672e+10
-2.845357559133256149e+10 -4.624478620348458099e+10
-3.526453517969254303e+10 -3.909211553673698425e+10
-2.905528576327424927e+11 3.755985499930720215e+11
1.908755947932480621e+10 -7.636110886927241516e+10
-5.263794694760698242e+11 6.237545719066763916e+11
-3.155195329373321533e+11 -1.849329852909521790e+11
6.273354005547625732e+10 -1.084892429491734924e+11
1.351200936781965256e+09 -6.669033921992025757e+10
-2.643390122099430561e+09 9.759730979611008167e+08
1.610753443306799927e+11 3.301250854874104004e+11
-7.299609961416362305e+11 6.529700705566500092e+10
-1.592055256141724586e+10 -1.409797615339253998e+10
-9.837965964744804382e+09 -3.371791321454112244e+10
-6.040298703997523499e+10 -1.274269803392432404e+10
-5.863509742833805084e+09 -1.727859191577866745e+10
-6.430752559845166016e+10 -3.005801123077248573e+09
-4.306291159689951782e+11 2.866622357810904694e+10
8.847386233299081802e+09 -9.770913510770904541e+10
7.019664955603726807e+11 9.334727997153945312e+11
1.590563601460592041e+11 -1.563394191033928955e+12
2.254736527306618881e+10 -6.461487309771523476e+09
-1.060268080666276550e+11 -4.260793564494271088e+10
-7.724773268072823486e+11 -1.184080830888482056e+11
3.576923084364329529e+10 -1.500118601868889160e+11
-2.010931703642869568e+10 -3.162472142474770355e+10
-5.749448115311120605e+11 -3.150022680437593079e+10
-5.661193088974233246e+10 -8.255076889350108147e+09
-4.469107532788285828e+10 4.677186051780222321e+10
3.325487441157293701e+11 6.122806279834234619e+11
-4.440339752008486176e+10 -2.341946850960598373e+10
-9.402424738408854980e+11 1.300144672127789764e+11
-1.907132621124720383e+10 -1.426621390103315544e+10
-2.965614620800962524e+11 5.373183899472148438e+11
8.454678440782698975e+11 1.445774317887033008e+13
-2.642004648144814301e+10 2.093667417955746889e+09
3.231177296852257919e+10 -1.326703538475023041e+11
9.967372574543519592e+10 4.730181110540184937e+11
-2.156396114169675827e+10 -1.140279169855064392e+10
-1.461599209176384926e+10 -2.728058337260850830e+11
-1.551285805689490356e+11 -1.960560488973387146e+10
-1.795676536131252136e+11 -2.591354896695425781e+12
2.918691568312948608e+11 -2.456429860159542236e+11
-8.111661949230795860e+09 -1.977664597394416428e+10
-2.307992391194944382e+10 2.033605369258779907e+11
1.494681476983152390e+10 -1.982614018638430176e+11
-1.016454986394236183e+10 -2.326300291950898743e+10
-3.753615935264994812e+10 -2.437567553423064423e+10
2.212340764513887024e+11 1.635105056500459290e+11
1.826353687945364075e+11 1.978054497410509949e+11
-2.807659255110671616e+10 -1.694440013768722534e+10
-3.767104020967224121e+10 -1.386745426815592194e+10
-7.317367294327438354e+10 -5.160396242969541168e+10
-7.495698108826320648e+09 -4.987190647897139740e+10
-8.217030046299501038e+10 -4.399715958981849670e+10
4.755177600848819733e+10 -5.243433399152805328e+10
-1.670183894965851212e+10 -1.898412530551346207e+10
-1.979831280647691345e+10 -7.119473137135647583e+10
1.332419576415032959e+10 7.242524496717767334e+10
-3.214601219823993683e+10 -2.284155404823356628e+10
5.865147376166347656e+11 -4.158743219702342987e+10
-6.727788458631685638e+10 -1.678368598207734375e+11
6.210150198410022736e+10 -6.343783527176684570e+10
3.788556883645695190e+11 -1.861528766082160950e+11
1.458926347003606796e+10 9.119426751471492004e+10
2.095445803396019363e+10 8.369176558434149170e+10
-4.383224401025744629e+10 3.394430277084715366e+09
-5.639462777520587921e+10 2.690641906036387253e+10
3.538668633687022400e+10 -6.016001489428114891e+09
9.241314281674707031e+10 -8.407918208982060242e+10
2.326136316250927734e+11 -2.603274058146488953e+11
8.178750432764920654e+11 1.290791832467197852e+13
-3.104205695203103256e+10 -7.202393209224571228e+10
1.043104735515998650e+10 -1.412104550636536980e+10
2.046374360974288635e+11 1.842945644261748505e+10
-7.029121276575878906e+11 1.299081203073380371e+12
2.170686582387480957e+12 -8.212655459576995850e+11
-3.901441478273788452e+10 -3.711047746241407776e+10
-3.800746556353071594e+10 -6.307830537131414032e+10
-5.419624992396492310e+11 -1.863613393753059692e+11
-8.112737801962678528e+10 3.427556402015822411e+09
2.509149086271109924e+11 -3.750358717988110352e+10
-1.540969073402158508e+11 1.735591024580123291e+11
-4.605155993790390015e+10 2.857920072108696289e+11
-4.143096846518184185e+09 -4.962909432686438560e+09
-3.358968917162148438e+11 -1.852331680436027765e+09
-9.221209466289196777e+10 -1.457998806977657471e+11
-7.505285305130097961e+10 -3.020651608281115112e+11
-1.965699919896049194e+11 -6.277784621290604401e+10
-1.485341036416895752e+11 2.734309846594427109e+10
1.362889891668332367e+11 1.232485023209736633e+10
1.478326651338889771e+11 -1.242252519071202240e+11
8.771673877008660889e+10 -2.747211859416336823e+10
-2.532118232463332825e+11 1.522347904841673584e+12
-6.379743284406834412e+10 -5.291026926410343170e+10
-2.237200025893526459e+10 -1.315666932605453300e+10
-2.079641191632824326e+10 -1.437791053661929321e+10
8.392588325537387085e+10 -2.854987248647920227e+10
-1.015218124955753899e+10 1.039016681693542671e+10
-1.903376972755990906e+11 1.543309083536797180e+11
-2.136791817696617126e+10 -1.508369528353173256e+10
1.503856600876268921e+11 1.200993756983529968e+11
-3.487953230411926270e+11 -3.178488792754639816e+10
-3.542403086753584290e+10 -5.537649097818606567e+10
1.948176319946220779e+10 2.836194784716024017e+10
-6.376907933889060974e+09 -2.192465902373952866e+10
-2.803197437764090347e+10 -6.814715060761609650e+10
-2.022376185823505402e+09 1.933560327164571762e+10
-1.770552944029945374e+10 -1.853244226722607040e+10
-1.862227947904093170e+10 -1.260240636733761787e+10
-1.994791660020588303e+10 -1.488519208909362221e+10
-1.512810146083648872e+10 -2.476571398457660198e+09
-2.554344037506234360e+10 -2.112163258805750656e+10
-3.505573255907195282e+10 -1.139961793219538307e+10
4.241345222009575195e+11 -2.450129472285559387e+11
5.694523352146818542e+10 3.972863896566919556e+11
-1.490478985932306641e+12 -1.190386248151169678e+12
-4.096097391567898560e+10 3.731108964326589966e+11
8.621828049091964722e+10 2.870525411183267212e+11
-1.711496618053437996e+10 -7.884135087119963074e+10
-6.006253877363580322e+10 -5.317989591066860962e+10
-2.466659670362898636e+10 -1.204264450164419556e+10
1.164791918725620728e+11 -2.059317632122956543e+11
4.983239038129088593e+10 3.516592435656025410e+09
-2.590435294428658676e+10 -1.666120766908149910e+10
-3.917464749945069885e+10 -1.709760796762842560e+10
2.390305482911209106e+11 -7.648593411330070496e+10
-2.373430583820198059e+10 -1.104987001898245049e+10
-1.050839461835894653e+12 -1.104502687193348236e+11
3.709039414846713257e+11 -2.529602899663086853e+11
-1.015738672477135086e+10 -1.241364334333683586e+10
1.013013858771172638e+11 3.067468089791253662e+11
-4.962443501190764771e+11 1.392363508310816956e+11
3.907536339784752655e+10 2.336189166636071472e+11
-1.454347466729173584e+11 -1.104728577755648804e+11
-3.364449178390889359e+10 -5.415491812316207123e+10
-1.096804887749518280e+11 2.469198961704838562e+11
-2.189557282347330093e+10 -1.200820907598085785e+10
-1.070998794211119843e+11 -1.944330393171569061e+10
6.246951702169278564e+11 7.068662864305717773e+11
-1.277930345817181969e+10 -8.625911078585173035e+10
-1.999871089362971878e+10 -8.421230098134501648e+10
-2.084110758636495972e+10 -1.065273140888098335e+10
-1.064062740533398285e+11 -4.847600087514376068e+10
-2.275018764355490875e+10 -1.402040806343439484e+10
1.016760544585524750e+11 -1.582283224496163635e+11
-2.349947564913602539e+12 1.798779871634922607e+12
-2.999990588250578003e+11 4.606333020411839294e+10
-2.117940003544747162e+10 -1.058412388903562737e+10
-7.937770958978359985e+10 -7.172985414031256104e+10
-4.242689305019779205e+10 -3.468592978318061829e+10
-5.209194028396233368e+10 -2.718021990505394363e+10
-2.604653777433077621e+10 3.553896577776525879e+10
2.723177676164269714e+11 2.610297802898816223e+11
-1.069751260935800934e+11 3.889300703106607819e+10
-7.113826134162779808e+09 7.076813960029678345e+10
-1.293958325204610443e+10 -3.000524123249837494e+10
1.729037577070363770e+11 1.053897914930402069e+11
8.914039203484930420e+10 -3.703303819834790707e+09
6.527083140558609619e+11 -2.889658206899691772e+10
-2.646913922835994263e+11 -5.747675785830799341e+08
-1.618755256386242485e+10 -2.545638167466572571e+10
1.580546107807352905e+11 9.020352505638336182e+10
6.148261523486834717e+11 3.286716494712837524e+11
-8.848753972844709778e+10 2.962137891852363281e+11
-1.338255996717299652e+10 -2.219797084800889015e+09
2.187838560438552490e+12 2.175683551970172607e+12
1.041592239785740356e+11 1.527001165172204590e+11
-3.364866666336252594e+10 -6.191478028398361206e+10
-2.081398685240363693e+10 2.891176977986188126e+10
-5.512654867520553589e+10 1.211076377051685715e+10
-1.929799156149066544e+10 3.563566620301961670e+11
-9.386288374110414505e+09 8.701013816602060318e+09
-2.119976149134165049e+09 -1.359260633381359100e+09
-4.483787242724142456e+10 6.626164321287297821e+10
-6.674642622798805237e+09 1.856193543268217468e+10
1.005799876301466179e+10 -2.258115130525290527e+11
4.247551607616869450e+09 -1.122668087712345505e+10
-8.574871356715132141e+10 6.406318983447431183e+10
-4.916694677161612701e+10 -2.418160338047579956e+10
-7.380562971042367554e+10 -6.768266016170482635e+09
-9.587056595328298950e+10 1.672304903124360657e+11
1.325149333703303711e+13 -3.130991614628428711e+12
-4.236064494628961945e+10 -2.773616218821208572e+10
-2.422753166975016022e+10 -2.747480246405462646e+10
1.129036268742287750e+11 -1.112270308389718628e+11
1.424968584500977173e+11 -1.130872029561510742e+12
-1.490436353681122437e+11 -9.707963748238775635e+10
-1.517148408021986580e+10 -5.454971620313325882e+09
-5.016827565961154785e+11 -4.626220382292615967e+11
-5.044688381110119141e+12 -9.861599382714652344e+12
-3.732866092960223389e+10 -4.303954185267059326e+10
-2.044291327566047287e+10 -1.541392806849122620e+10
1.745642395075306445e+13 1.310617992235643359e+13
-7.548752428933827400e+09 -5.112228013588208771e+10
-2.284096947992581177e+10 -1.104273444126243401e+10
-1.451142068374086189e+10 -2.642362328057338238e+09
-3.367986791741614380e+11 1.831569107588819580e+11
-2.871887003769065094e+10 -2.964505374170984650e+10
-3.099878926175749207e+10 -5.191893619081855774e+10
-2.140467924346942186e+09 -3.433729214344256592e+10
-8.032176729034103394e+10 1.911333422852451477e+11
-1.009471643802355957e+10 -1.716209451478159904e+10
-7.147103620505857849e+10 -2.091736610918020325e+11
-8.267695658668301582e+09 3.806731082527360535e+10
-4.605900943912786865e+10 -2.042821564382292557e+10
-1.406614664069863892e+11 -4.263927045695564575e+11
-4.313147587695687866e+11 -6.162916703042586670e+11
4.425920742273372070e+12 2.493352981485631409e+11
-2.519557931505895233e+10 -2.960639863020140457e+10
3.246087612041516724e+11 1.440861585211788750e+10
-4.663335153158239746e+10 -1.424911590627679138e+11
-4.177267963406463623e+10 -1.827663066012378693e+10
2.819739435200315857e+10 -3.107346188501570129e+10
-2.671756813954033661e+10 6.547863461315639496e+09
-6.188633222389453888e+10 6.223242253684649658e+10
-2.123429589433427048e+10 -1.127613548391410637e+10
-2.963295100249237061e+10 -3.378544904020240402e+10
1.221311499726619873e+11 -3.444239177814472046e+11
-2.062605067193485260e+10 -4.043996562231055450e+10
9.791049889975910950e+10 -1.038708863042432556e+11
-2.183435196281517334e+11 -7.341300277707100868e+09
1.580522100930824890e+11 4.143774395096741699e+12
2.698777553918983078e+10 -1.729043281208589554e+10
-1.885421989503287048e+11 1.032596567102189178e+11
-5.429536783246028423e+08 -1.259172538676278114e+10
4.383898224101435852e+10 -1.957375628933001328e+10
-2.087950018664253998e+10 -2.157729909729890442e+10
-3.155758132901727539e+12 -5.509696540838185547e+12
-5.256060794447544861e+10 -5.971736217893361092e+09
-5.434036617751058197e+10 1.235495757938100243e+10
-1.976102390351796341e+10 -1.248728694357914734e+10
-6.956417568139600754e+09 -3.007126956204146957e+10
-1.990238597545684052e+10 -1.303592469487240982e+10
8.134828202228327637e+11 -9.922693045800483398e+11
7.183153867219403076e+10 3.533281249442046509e+11
-6.084598477414505005e+10 -2.626873776523709297e+09
4.971720116502628784e+11 -1.286418918683093872e+11
-1.698569692753248901e+11 9.293349907993005371e+10
-1.619686180280990982e+10 -1.456954260385260201e+10
-1.386035471769093513e+10 -1.916582041845864487e+10
1.112666658098129425e+11 8.410803488646354675e+09
-3.248868477983048096e+11 -1.048803516209738770e+12
4.876848362035312653e+09 1.836075416105588150e+10
-1.670833056055250740e+10 -1.065432599691606522e+10
-2.389393343894974136e+10 2.824046058800176144e+09
-2.024060632722595978e+10 -1.068449944407189941e+10
-1.258079784556135864e+11 -1.940686731894539795e+11
-6.952601507557417297e+10 -1.039257903819204330e+10
-3.474293166005619507e+11 -1.231106539924594238e+12
7.710075838774601746e+10 3.794212595550399780e+11
-2.282573507691087646e+11 1.165656730804956818e+11
-3.091157693798374023e+11 -2.136274016063641663e+11
-1.985640271036949158e+10 6.769537752486851501e+10
-2.226489746647786865e+11 -5.771021108054136658e+10
-2.045922864997665787e+10 -1.117750796156994629e+10
-2.943719906343096161e+10 -1.414365069126704407e+10
-1.513819618756745911e+10 -1.515677269759787941e+10
-1.584417489050879517e+11 -8.686150085160108948e+10
-3.179011459143868256e+10 1.065658102805599213e+11
-1.096552968443075104e+11 2.403699602938905716e+10
4.379263057524411011e+11 4.263605458280792236e+11
-1.932203392567061234e+10 -1.214805178460867882e+10
-2.133223533422570419e+10 -1.093376483316651726e+10
-2.061289992744297791e+10 -1.224669806775727844e+10
-1.707052762336107635e+10 -1.392153372655051041e+10
-5.240881380101553917e+09 -1.881085397191181946e+10
1.295864346743597603e+10 -1.911835956539712830e+11
-1.588558058560649170e+12 4.263290028178742188e+12
-1.426449534085966110e+10 -2.197187899076852417e+10
-1.944290355229532623e+10 -1.406171732985867691e+10
-2.250331973785311890e+10 -1.179332457481681252e+10
6.272318672342613220e+09 -8.662809488550317383e+10
3.889747816732504883e+11 4.910688680420748901e+11
-2.153967571755331421e+10 -1.256967226072903061e+10
-1.591675560063332214e+11 -4.599389246275020599e+09
9.819723897760681152e+09 -3.034624063195125103e+09
-1.843776736604019928e+10 -1.805935958258161163e+10
-1.864810519313299561e+10 -1.343440840823141861e+10
-2.190599010752617264e+10 -1.373032535519906807e+10
-1.027687881588854790e+10 1.814801059512445831e+10
1.801974498806460190e+10 -6.090819436377038002e+09
4.829686654041212769e+11 1.619375723767545471e+11
-1.749072252146929741e+09 -5.115978743422729492e+10
-3.464407564275083160e+10 6.676951115658158302e+09
-1.593973707592817688e+11 3.553130560214897919e+10
-2.110738979893728256e+10 -1.457436889677720833e+10
-4.698451717142694855e+10 -2.571534562474347305e+10
4.270408670890319824e+10 -5.336174133790928650e+10
7.709881997459245300e+10 1.132465335857685089e+11
6.359255417984292030e+09 6.594724583024005127e+10
-4.597405633226443481e+10 1.123276325891310120e+10
1.958849275575746484e+13 -8.452935368284942383e+12
1.296322216033575897e+11 -2.419378043225449371e+10
-2.110307863944247437e+10 -1.183636636434990501e+10
8.394036337681837463e+10 6.675361794224304962e+10
-8.378327656757286072e+10 6.684516907865754700e+10
-3.545116265140419006e+10 -2.240469163325554657e+10
-4.955106814427255249e+10 3.850395448332398987e+10
7.517042364499408722e+09 -6.842356931787273407e+10
-2.781563641447013855e+10 3.944712122525806427e+09
4.411611191514237061e+11 1.911290629733811951e+11
-2.263730971430404663e+10 -6.062249295182994843e+09
6.134418275673698425e+10 7.862468587376100159e+10
9.458440505862276077e+09 -3.343560392426345215e+11
-5.795603133275547791e+10 -5.971357957784337044e+09
-2.874950182040616608e+10 -1.205243381344717979e+10
-1.389269092323466492e+11 5.604319998985949707e+11
-1.253182985041423096e+12 -1.261148447114889404e+12
2.564516741271243286e+10 -5.985660955592559052e+10
-3.533556770167239380e+10 -1.667422572105612946e+10
-2.235831853953175354e+10 2.245700652348626137e+09
-2.142017885506338596e+09 -5.151425707885749817e+10
-2.306305335440068054e+10 -1.259122879906145859e+10
1.793347287100229797e+11 -2.596563234209780579e+11
-1.550797507427519989e+10 -1.837541273160999680e+10
-1.801743311316318893e+10 -3.259130656243772125e+10
5.927210948887506104e+10 2.164122136761964417e+10
-1.206327505672755890e+11 1.126662570037458496e+11
2.688635923713853455e+11 5.025659511020374298e+08
-1.988564004991759491e+10 -1.648403449516580009e+10
-2.289570227114233398e+10 -1.350148946070845842e+09
-4.203927529206320190e+10 8.391256511950187683e+08
-2.095063534534975815e+10 -1.534323530278927231e+10
-2.080033246258112717e+10 -1.177193874881870079e+10
-1.980329911768302536e+10 -1.152218704646663475e+10
-2.992305741948505783e+10 9.178522776641683578e+08
3.383545426795128174e+11 -2.893071418316976318e+11
-2.097406824260618591e+10 -2.545280322078042984e+09
-3.311101961470770264e+11 -5.740480836652749634e+10
-9.051140957199548340e+10 -1.534579963303579903e+10
-1.663751524763158691e+12 -2.507108276677714355e+12
-3.907560160546874523e+09 1.154884685029442787e+10
-2.459510271347057343e+10 -9.790110844856172562e+09
5.866829761291925049e+10 8.411251928465917587e+09
-1.039985466628341866e+10 -3.396020150700194931e+10
-7.423664602514064941e+11 -3.583123673531707764e+11
8.192970954595644951e+09 -1.235865272925669861e+11
1.527488776354002686e+11 3.190496497614630127e+11
-1.259808307146248627e+10 -8.732104102706216431e+10
1.541654364787127113e+10 -2.164770867972908020e+10
-2.206718325992563629e+10 -1.268678116517745209e+10
-2.098772990690316391e+10 -1.101284196156639862e+10
-2.058567661874188995e+10 -1.251589866136146736e+10
-1.843161344147157288e+10 -1.134045425224469757e+10
-2.043231108175863647e+10 -1.363146322891067886e+10
-2.807574719496121216e+10 2.491143537947914124e+10
-1.946047782229449844e+10 -1.101199972864443970e+10
-2.105489058728447342e+10 -1.341261133779785156e+10
6.439585918314823242e+12 -1.940625728467828674e+11
-2.795071903504211807e+10 -5.820538563717100525e+10
-2.172630785244297409e+10 -1.344250712929203224e+10
-2.167735556067685699e+10 -1.174456300042235947e+10
-1.802237576125043869e+10 -1.278427269744541740e+10
-2.076869021698141479e+10 -1.474358593272169876e+10
-2.062947511778622818e+10 -1.019227682964217758e+10
-2.130001615398919296e+10 -1.391254275151406479e+10
8.829590316759455872e+10 1.040365908533945160e+11
-2.039276081788053894e+10 -1.484255788833922195e+10
-2.237949317678267670e+10 -1.257359379423423576e+10
-2.246844136536879730e+10 -1.352739754351921654e+10
-2.091366083670063782e+10 -1.316501228019189072e+10
-9.276672481778771973e+10 5.213243943168317261e+11
2.305054927743560791e+10 3.457844627842046356e+10
-6.970388932621429443e+11 3.824026622864046478e+10
-2.720341759882344971e+11 6.050292872105257416e+10
7.632011408755006409e+10 7.803646191259575195e+11
-2.564544937449353638e+11 3.679486191153919983e+10
-2.473477954432424316e+11 -7.654833252080809021e+10
2.107356611374049759e+10 2.511388849856827927e+10
-8.792167899600814581e+08 -4.303562392192242622e+09
-1.355928152855117340e+11 -1.623450634586189880e+11
-1.385821169179119301e+10 -2.397576406689391327e+10
-5.034846664160387695e+12 -1.884845845634119873e+11
2.329141975283838272e+10 2.516491800954441833e+10
4.646673540286420441e+10 -2.657956310311835938e+11
-5.583062726221851562e+12 2.143755735855470215e+12
-8.771356760427323914e+10 -1.552857458448287354e+11
3.719552765162977295e+11 1.692022180174800110e+11
-2.364229723848353577e+11 6.260321271019128418e+11
-1.873490207103005219e+10 -2.616755358260112762e+10
-9.083410711183208466e+09 -3.926695620865526581e+10
-3.669759810996121826e+11 1.636731977462373657e+11
-9.335925654704668045e+09 -6.766314367153638840e+09
3.272750386384082642e+11 -4.142936620681650391e+11
-1.808938328181472778e+10 -1.092038709363717651e+11
-1.032831800143244171e+11 6.235379266720506287e+10
3.864557177794129028e+11 -5.104870990432771606e+11
-1.279974765873501205e+10 -2.673198234160888672e+10
1.035077482161339111e+11 -8.123045550009806824e+10
4.139450986416198730e+11 -5.828104951311461182e+11
1.669115157696262817e+11 2.974370344196251831e+11
-4.549426485942694855e+10 -9.331770113669813156e+09
-2.269101120813028336e+10 2.229550081071322250e+10
2.225266669994080078e+13 4.776903769512047852e+12
1.553109807031847656e+12 8.252294296428187256e+11
-1.260616157576390869e+12 -1.585056124321091003e+11
-8.539147661401713371e+09 7.430440422757574463e+10
-1.882006205034242249e+11 -3.150525626381516113e+11
-5.741714884555680084e+10 -7.479296356730101013e+10
-2.450686459875544739e+10 -9.301272632319398880e+09
5.300938004693341255e+09 8.970190197223248482e+08
5.380610582000975037e+10 4.400463132972869263e+11
1.154249517808384094e+11 1.449574001923030090e+11
-1.160750231179442871e+12 7.853018390783756104e+11
-1.003914102561587334e+10 -4.853910969882996368e+10
7.921260180470742188e+12 1.507292580763214062e+13
-2.255363395718788528e+10 -2.777571947097315979e+10
-2.171452364887562866e+11 -1.279951374799027405e+11
2.013415136641680603e+11 4.616011814001414299e+09
-2.671000621462941360e+10 -4.917533707897443390e+10
-7.352515543749424744e+10 -7.383578605447399902e+10
1.601898851067017822e+11 4.054130089557440948e+10
-1.335027766979115967e+12 -3.516309952592758789e+11
-1.268525710786630630e+09 -7.210939091061430359e+10
-2.067854437769256973e+10 -1.382192770596256638e+10
-1.681508800135070038e+10 4.204236973261531067e+10
-2.079983547339776306e+11 -1.248489076474403381e+10
-1.918535302543800964e+11 1.964382201238864746e+11
-4.507801845634542847e+11 1.160479369768630676e+11
1.744227538822590637e+11 -1.400724730621390869e+12
-4.320549781783727264e+10 4.528054288813099861e+09
-5.436724394528817749e+10 -1.049988710084073486e+11
-1.483439561702041321e+11 -1.963751182496833801e+11
-1.910674716676319504e+10 -1.112247189134105492e+10
-2.063524809835465240e+10 -1.327860510068583870e+10
-1.922438091877139282e+10 -1.048397069305012512e+10
5.013285794579712677e+10 -1.654001566377398376e+11
2.352162125546811523e+11 -5.302788784061838531e+10
-7.960125876457174683e+10 -2.001680020682645798e+10
-1.648668286665022888e+11 -3.199364017806588745e+11
-3.650108629631648254e+10 -2.678590712314916077e+11
-7.476520502927243042e+10 -2.696950109666274643e+10
1.013258403137369995e+12 1.806511943070447754e+12
-2.259744422648428345e+11 1.313910397026605072e+11
1.389694161381926537e+10 -6.013665332231271362e+10
-1.802185143305474472e+10 -3.400081588557631683e+10
5.262517825183631134e+10 1.062496370212552032e+11
1.241947589613079071e+11 3.174631970812856445e+11
2.872248922811952591e+10 -2.879252565874985123e+10
-1.095733405925255890e+11 -3.733543347078583984e+11
-4.459975703608876038e+10 7.004014245969540405e+10
-7.257474624691740417e+10 -7.627376402860654831e+09
-2.736493203307065964e+10 -2.951709153761249924e+10
-3.548695480313924561e+11 -4.588713931235624390e+11
-2.262302880533867645e+10 -1.229738733586268806e+10
-1.059983279500490875e+11 4.658060465691713715e+10
-3.265021570662578735e+11 -1.543965039435211182e+10
-2.121737655838067245e+10 -1.311360549492562866e+10
-2.001006405548234940e+10 -1.264845161993497467e+10
-2.066314892858773422e+10 -1.151696376459159660e+10
-1.990111322881848145e+10 -1.704228461823472214e+10
-2.712280551455987930e+10 -3.050837532785468674e+10
-1.889949516277418900e+10 -1.247945789598958778e+10
-2.144682560930324554e+10 -1.330050298993192101e+10
-1.914060803167326736e+10 -1.148410297161266136e+10
1.188188354297552338e+11 2.588105025417240295e+11
-2.171850043276277161e+11 2.530200017843609619e+10
-3.086541751810753906e+12 -1.288299041730663330e+12
-2.130713208116197968e+10 -1.357122399959832764e+10
-2.207861996473536301e+10 -1.340456909777210617e+10
-1.733570478035041809e+10 -1.472419125285335541e+10
5.542391493031829834e+10 2.030759106815151672e+11
-2.239808211252243042e+10 -1.071315844517481613e+10
-2.505893569709046555e+10 -9.926237894906982422e+09
-2.068651181390140152e+10 -3.663617969738671303e+09
-2.008546969262057877e+10 1.061470485087854385e+10
-2.258960924833894730e+10 2.809042095354234219e+09
-3.369867381626846313e+10 -1.786619181714867783e+10
-1.544575169226799622e+11 -3.863583147425590515e+10
2.129484058039452744e+10 1.782761210676416397e+10
4.958106762108102417e+10 6.894978748595133972e+10
-3.613342223559293823e+11 -1.630713411749963684e+11
-2.416284290976700211e+10 -2.036234508328869629e+10
6.736904889671056747e+09 9.755780522624543309e+07
-2.259112709053786850e+10 -1.287435025138334656e+10
-4.057185451752270508e+10 -5.130269218933946991e+10
-2.016739203378717804e+10 -1.314335164961487961e+10
-2.181212937002600479e+10 -1.242018890660387802e+10
-1.449391546317235565e+10 -5.316693481892663002e+09
-1.601320943850851631e+10 -9.834380138888767242e+09
-2.253364726744314880e+11 1.975224098226327515e+10
-2.101521811967877197e+10 -1.374024550397784996e+10
-2.010152914625584412e+10 -1.362827198763530159e+10
-2.086489737470228195e+10 -1.206297416870894241e+10
-1.946364631203715897e+10 -1.157701647956248283e+10
-2.044830983251516342e+10 -1.306243702537520599e+10
5.411190487476067383e+12 2.168808334899553223e+11
1.039609538746636009e+10 -8.456215917778045654e+10
-6.198285471347784042e+09 -8.401191202254571915e+09
-8.688454954032481384e+10 -6.318578494165562439e+10
-1.331136203113121490e+11 2.306369088543302917e+10
-2.124030603646283875e+11 -4.032564707371092529e+11
-2.403074075881245117e+11 1.098077908150986023e+11
-1.580099990948113251e+10 -6.964301884353718758e+09
-1.948328099749916077e+10 -1.270072642004302788e+10
-1.828999051253190613e+10 -1.375957309602871323e+10
-2.238741617686884689e+10 -1.137816542976734543e+10
-1.346389599138475227e+10 -2.069633326790504456e+10
-2.646418633208445358e+10 -1.646996696990524483e+10
-2.115333989969918060e+10 -1.420126809579296112e+10
-2.009839449940181351e+10 -1.170027328549674034e+10
-1.923700928786710358e+10 -1.182282959573508644e+10
-2.035380881726439285e+10 -1.449567751315203476e+10
-1.952371687609326553e+10 -1.068255396786247063e+10
-7.100804788945121765e+10 8.727804097099235535e+10
1.590009192935071289e+12 -2.648424224409713379e+12
4.724187475111387253e+09 -1.234765107590184975e+10
1.881206134863482285e+10 6.170041765383927155e+10
1.839490357684065186e+12 4.732344928443176270e+11
6.925426126733176231e+09 2.358029686187327194e+10
-4.259959184499620056e+10 -1.160279339720453644e+11
3.465195950496620483e+11 -2.041156599093955994e+11
1.915180140664924927e+11 3.149756323792385254e+11
-2.837253729930141449e+10 -2.345578290427300644e+10
-1.383645363789131165e+11 1.462405056099737644e+09
-2.068980698306301117e+10 7.629817275553163147e+10
3.621132717346168213e+11 -1.079363340230943451e+11
1.005946724009871216e+11 -1.803371472983595276e+11
-1.284570440488163605e+11 3.155611814317007065e+10
1.794344806487502136e+11 1.987785845177340317e+10
-1.959451319380096054e+10 -1.128834557219588089e+10
-1.978551916064733887e+10 -1.422216907740437698e+10
2.020793920242691422e+10 4.842379794912956238e+10
-2.515623560058403015e+10 -2.599125144898828125e+10
6.898794012450941467e+10 7.088102611660522461e+10
-1.782900782291180801e+10 -1.200855711686335754e+10
3.465459485259019775e+11 -4.278426519936081543e+11
-2.151619166378818512e+10 -1.421011006084338760e+10
-3.284645447286122437e+11 -1.009266716697860718e+11
-3.269083352199298096e+10 -9.129480867253166437e+07
2.590120595057078934e+10 1.787187472331860352e+10
-1.975530201057192612e+10 -1.389544513999744797e+10
-3.833466617131275940e+10 3.138962014077362061e+10
-2.789249324841521072e+10 -1.567770618255553627e+10
-1.443482226961548996e+10 -1.655978985237836838e+10
4.889616547442744446e+10 2.004797813872447586e+10
-4.037894563533496704e+11 -2.180613356686878052e+11
-2.770537675445565796e+10 -4.760127716354222107e+10
-8.763346362396714783e+10 4.298023175485517120e+10
-8.964867259770733643e+10 -1.304386060171163177e+10
-4.893286352930839539e+10 -2.960535330789638672e+11
-3.165935234490378952e+10 -2.638363457756859970e+10
-1.997635145893108368e+10 -1.205316939724161148e+10
-2.033746358256061172e+10 -1.337314370222160721e+10
-2.505541214011855698e+10 1.625896509872695446e+09
3.164428636590892410e+10 1.502198217730241089e+11
-1.127635951033834457e+10 -2.417848462217389679e+10
1.044181318394447899e+10 5.025324187427645874e+10
-9.825893943604338074e+10 -5.561451721257372284e+10
-6.792034938975874329e+10 3.745941804403424835e+10
-8.606344415576091003e+10 -7.456248338892214966e+10
-2.511676131775718307e+10 -1.333267523414754677e+10
-3.467849868246956543e+12 -1.650951630153585205e+11
3.802010904251097870e+10 -1.630498274722073975e+11
5.204923809669373322e+10 -3.333832859978361511e+10
-2.483098961083859634e+10 -6.263811449668836594e+09
-8.931745783835926819e+10 6.593084912595944214e+10
-2.466211270751034164e+10 4.611976024532427216e+10
8.409285498643818665e+10 -7.397424998374172974e+10
-8.254876623193980408e+10 2.668387396304169893e+08
-1.801777606071682358e+10 -6.194757842663002777e+10
-1.462192696263172531e+10 -2.243160316513574219e+10
-3.583550374809349060e+10 -7.550569572477413177e+09
2.219918924845849304e+11 -7.281185208099476624e+10
5.114013247902672119e+11 5.496171014801755981e+11
-9.201874639609732056e+10 1.952407320970513916e+10
-5.741342395248798370e+10 7.835379036731361389e+10
-1.693409999504443169e+10 -1.485988729348221302e+09
2.980774143706315308e+11 3.308722044718965454e+11
-3.169431314549221802e+10 7.039269956726709366e+09
-4.700427575653952789e+10 -1.525238979376719055e+11
-1.945179625953864670e+10 -2.048919386679218292e+10
1.537915586000019073e+10 7.314548693355616760e+10
1.230814464130402374e+11 9.472555078059831238e+10
-1.111404495721461773e+09 -2.025506409975544739e+10
3.956052784760243988e+10 -5.405510726061264038e+10
-3.435805483418149567e+10 -3.381038709678724289e+09
-2.590867694288010025e+10 1.325942491940604210e+10
-3.244243389747396240e+11 1.031617996147340454e+12
-2.843113626585776520e+10 8.608834505029020309e+09
-7.799120587939617920e+10 -3.666997533114605713e+10
-2.481636237885908890e+10 -2.908120993146512222e+10
-4.423780620837188721e+10 -3.354933434735618973e+10
-2.531187042231819534e+10 1.385677728015583229e+10
-2.073002807802408218e+10 -1.294389820667956543e+10
-2.078914232679051590e+10 -1.124718762428733635e+10
1.972013387977111053e+10 5.984777984152478027e+10
-4.040339673213327789e+10 -4.381330283953919983e+10
-2.166480610502747345e+10 -1.105733774472351074e+10
-9.170365054652505493e+10 -7.031252677840193176e+10
-1.217975987471422577e+10 5.980737648908322906e+10
5.295625862867221832e+09 -3.996390430144194794e+10
1.496334583112019157e+10 4.743170228372005463e+10
-2.785963310542997437e+11 2.097601080026589966e+11
-5.057165226247435760e+10 1.419613108639402199e+10
2.222601754054683304e+10 5.125204701171960449e+10
-9.454233573312826538e+10 -4.236067141538043213e+10
-2.285835325258102036e+10 -9.848863097553637695e+10
3.765637904277183228e+11 -5.487229664131857300e+10
4.637981932983957291e+09 -5.192263660065492249e+10
1.069763783867770233e+11 1.922447734458593750e+11
-2.509542656830349731e+10 -1.146261355127579117e+10
-4.859898041668406250e+12 2.999713643282952148e+12
-3.353939894922766876e+10 -2.008252520021136475e+10
-3.454561083098850250e+10 -3.242947163326261520e+10
4.549610544697753906e+10 -7.990580560284640503e+10
-2.200113056060266495e+10 -1.088217434480426025e+10
7.384644858391146660e+09 -1.791337564031481934e+10
-2.238047320627794800e+11 -6.883559890101736450e+10
-1.475494500704230957e+11 6.606217764315173340e+10
2.247942237986606598e+09 -5.279975005368115234e+10
2.005574084761313782e+11 -3.029453738740209351e+11
2.777913947657207966e+09 -2.038375657335099411e+10
-2.024839989103760147e+10 -1.197966491766801453e+10
-3.579063875441834259e+10 -3.275001318300753784e+10
1.247298106861952591e+10 -2.905139714612856293e+10
-4.968513992871919556e+11 1.532879674831333923e+11
2.885253666086922852e+12 1.257092164283537109e+12
-2.442922017817562485e+10 -3.784474541192166138e+10
-1.406937102436648750e+10 -6.619736362827575684e+11
2.499506665834534073e+10 9.588457729678076172e+10
2.762639041761966553e+11 -1.186909625153614960e+11
-1.267363535641981049e+11 -2.554565226584498291e+11
-4.932001030712110138e+10 -6.331982834571745872e+09
-4.339020488605221558e+10 -4.158192082795575714e+10
-6.953794914908489990e+11 4.577421286653060913e+11
-6.541036222167146683e+09 -1.785948094684383011e+10
-1.714556313979580383e+11 -2.614930827073200073e+11
-1.108213592694737625e+10 2.556209747191561127e+10
-9.862261273634452820e+09 -7.890406652884132385e+09
-1.542404818901159668e+10 1.199992903762758827e+10
-5.366537004198744202e+10 -5.383558227943749428e+09
-1.057434968503915405e+11 -2.165502409472026443e+10
-4.419230594134059906e+10 -6.783317963386364746e+10
-1.436603746228175354e+11 2.490627456131081009e+10
-2.766499077640129852e+10 -1.253273150656363297e+10
2.541660972215839539e+11 4.517938996380436401e+11
-7.434908290451300049e+10 -1.507947073324365541e+07
-9.009413800127670288e+10 -2.655310775050678730e+09
-6.233148852086558533e+10 -9.423443264280294189e+11
-2.178420501832871246e+10 -4.602261496203534698e+10
-5.902401042500963593e+10 6.216947252018985748e+10
-8.570676675849678040e+10 -1.259172942346989899e+11
1.457196679301861877e+11 -2.303651318375647888e+11
1.016970752883792686e+10 -2.815155188347487259e+10
-1.639608359089955902e+10 -1.676183849422810173e+10
6.073048049838214111e+11 3.036116058400045013e+10
-1.201804852970774460e+10 -2.240060163399565506e+10
-5.531283608460300446e+10 -5.162868668855076599e+10
2.405488989117450195e+12 -1.467636730756845093e+11
-2.180232316687625885e+10 -1.469142651440012932e+10
5.354388388636506653e+10 8.507928795897867680e+08
1.848132267507521973e+11 -5.711277777897592163e+10
-2.484614678731225281e+11 7.828164178795005798e+10
2.750102179207504272e+11 8.464382221613438416e+10
-8.802277398987052917e+09 -1.481003350794472694e+10
4.677506137111410522e+10 -5.411699567358712006e+10
-2.006405051381140518e+10 -1.601609899974612808e+10
2.325178715852428436e+10 -7.640252659152386475e+10
-2.262694845059691620e+10 6.319444542796510696e+09
-7.522174516604099609e+12 1.167945610796044922e+12
4.454004540884717407e+11 1.637788852872657471e+12
-4.842913772494740295e+10 -1.363924886144903564e+10
-4.949750399647192955e+09 2.374475623424130917e+09
-1.182657948483788681e+10 -9.527610671349809647e+09
-2.430066895592741394e+11 1.989313471530947571e+11
-5.079015446052071381e+10 -1.685851517990084648e+10
-2.703630368232536697e+10 -6.226092408326753616e+09
-3.510448909772576904e+10 7.485167601181670427e+08
-2.220043354089472580e+10 -1.651181973108475494e+10
-2.564905782052528381e+10 -9.906032307718172073e+09
-1.666192980418387985e+10 -2.313155645966955185e+10
-8.624428255267446899e+10 -1.299258337875431442e+10
-3.128343549196349487e+11 -7.177703377951921082e+10
-4.898561457302649498e+09 1.225382253016667366e+10
-2.427620113707648468e+10 -1.313245727791902161e+10
1.174196808150144386e+10 2.587674949401425171e+10
-2.006522763180889511e+10 -1.135306756187429619e+10
-2.220290075620356750e+10 -1.390979405254862022e+10
-2.101399654548579025e+10 -1.150938045438066864e+10
4.644245184227816772e+10 3.992811759848311157e+11
-1.987360754522192001e+10 -1.108380495826179695e+10
-1.521471845128000259e+10 -3.298305489024782658e+09
-1.249226583981418419e+10 -2.900127832368513107e+09
-2.176357712336661530e+10 -1.278294725277400970e+10
-2.754948014576664734e+10 -3.724238425054649353e+10
-2.319923578038336426e+12 1.991382030712175049e+12
1.590307646004353760e+12 -1.786627040898431152e+12
-2.195061637705410767e+10 -2.645890172834582520e+10
-2.354750666278406906e+10 -2.719304564736221695e+10
2.111210928624686584e+11 2.288767131397706299e+11
1.287853798890493393e+10 2.151981576555018234e+10
-1.603410226935046005e+10 -4.819174046012379456e+10
-2.762026018513146973e+10 1.110702608479073486e+11
-1.980430116428931427e+10 -1.181624726111736298e+10
2.347509785977973938e+11 -2.658917674285389328e+10
-2.162570479775967026e+10 -1.216360254895638657e+10
1.936596829324535751e+10 -1.629184286538385925e+11
-2.431316897828371811e+10 -1.612910872730503845e+10
-1.947502577080203247e+10 -1.239436488041067886e+10
-2.028614674628050232e+10 -1.254673531351750755e+10
-1.403777735784638672e+11 -2.902161719681573105e+10
-8.508383572743635254e+11 8.156364203504312744e+11
-9.120130412824481201e+10 -6.794434769297558594e+10
-2.352191326135483170e+10 -2.174919108955697250e+10
-2.809478408378150635e+11 2.391113281032570801e+11
-4.565185040210217285e+10 -1.878506656455473328e+10
-2.230236917974338913e+10 -1.718757787730899811e+10
-5.009870834216870117e+10 4.828595589883450928e+11
-2.003196720739285278e+10 -1.233986232092967224e+10
-1.919706893572356796e+10 -1.253819003433672333e+10
-7.917558105556692505e+10 -3.045026467317536163e+10
-1.618559480144225311e+10 -2.333561801269120026e+10
-1.443779245892428207e+10 -5.255080339506204224e+10
-5.596347138889189148e+10 -2.107210551498210907e+10
-2.014669488666750336e+10 -1.423387753049933624e+10
-1.979440668202989807e+11 -2.820874523195893860e+10
-1.908209503071463394e+10 -1.388057120351865196e+10
-2.133907500296515656e+10 -1.163062177418736267e+10
-1.905953035298228836e+10 -1.351398311092316818e+10
-1.953779036751453018e+10 -1.192349191995344925e+10
-2.034558213729840088e+10 -1.145223966514870644e+10
-3.088625795533837891e+10 -5.085869213596199799e+10
-1.857848501798913193e+10 -1.307091309615645409e+10
-2.405360868775666046e+10 -1.368165730139471817e+10
-6.513761594381507874e+09 -4.344239054415859985e+10
-3.104846658102657318e+10 -1.136541095960274315e+10
7.750697776032217407e+10 -9.962188079112819672e+09
-5.967322459010864258e+11 -4.811665129323247681e+11
-1.093173118989201050e+11 -8.053618031112896729e+11
-4.681056157042691040e+10 1.052066095080036736e+10
5.120159966858161926e+10 1.254434092227456665e+11
2.267525700638987109e+13 -1.271789781148777734e+13
-2.819987380642319946e+11 1.158801597364345551e+11
-8.184502018636770020e+11 -3.142248829553402710e+11
1.708988929142244263e+11 8.511732374094928741e+09
-1.391581672569884949e+11 -4.255320969314937592e+10
2.490961904912519531e+11 -1.483046041539957047e+10
-7.413267875766420364e+08 -2.218551827188175964e+10
-1.124144277984858154e+12 -5.421586932094160156e+11
1.723086211145824280e+11 -8.146521354287805176e+10
-2.052015903733038712e+10 -3.596830393319169617e+10
-2.040033346770790482e+10 2.237787740868796539e+10
-2.501822842595338440e+10 2.663033017838707733e+10
2.606872601363346481e+10 -5.323388196697609711e+10
-1.433431899015319252e+10 1.616012263462565613e+11
5.510685049026821899e+10 2.939784391295435333e+10
-3.771728779223291016e+11 -7.467987724926512451e+11
-2.494575949160367676e+12 3.970587328544259033e+11
-5.845516247490588379e+10 -6.272345867282044411e+09
4.463890250224333191e+10 -6.870711255935604095e+10
-3.734517824869359589e+10 -5.217737808066888428e+10
-4.701753204283741760e+10 3.335084741103519058e+10
-2.877496383879494858e+10 3.129130768756248474e+09
-1.899273284892276001e+11 -1.287118896038333321e+10
-1.632216103610898209e+10 -4.769893828117168427e+10
1.761330581635338211e+10 -1.928832653453485870e+10
-1.701674473479500122e+11 -3.482789708271110840e+11
-2.522176729757309341e+10 -7.754511664999453735e+10
-2.547952394015242386e+10 -1.086505702707036972e+10
2.955319685916218567e+10 -2.899544773425224609e+11
2.222238236909144592e+10 -1.626556949800412750e+10
4.639184484683056641e+10 -3.145890520608826447e+10
-1.456624099576808472e+11 3.289049345572424316e+11
2.192652401573869705e+10 -7.183484323870329285e+10
-1.280819174435277588e+12 -2.094056445254760547e+13
4.347547296169759369e+10 -2.496725427433692017e+11
-3.020105334531340942e+11 -1.409750900857598877e+12
-4.409557844031931763e+11 9.319110459594149170e+11
-2.350267752414653015e+10 -1.461336149226201248e+10
-1.866821844552825546e+10 -1.216689567099568939e+10
-1.288239226499517250e+10 -1.951447829741833496e+10
-2.149782095626857758e+10 -1.296543000679044342e+10
-1.902561672836449432e+10 -1.218983347335699272e+10
-2.441487569831503677e+10 -1.150580345560290527e+10
-3.545185613836600494e+10 1.052294363785004578e+11
6.806679408118080139e+09 -6.228573667170969391e+10
-2.818888988725959778e+09 8.747203578234193802e+09
2.784967954883936768e+11 -3.816321083801478271e+11
-3.807327287149096680e+10 -1.167866197313542938e+10
-1.471399564015967102e+11 -1.071973303313082275e+12
-5.138508120211252570e+08 2.812318295963541031e+10
-1.742063171143759918e+10 -5.142712363758489609e+09
-2.374506456527894211e+10 -1.600926259558658218e+10
-2.703278508953847122e+10 -2.168260515150842667e+10
-2.773635660786400986e+10 -2.313922274998510361e+10
1.807242799494919128e+11 -8.547859762590063477e+10
2.161100428244861755e+11 1.226845865104327545e+11
-4.939844186048461151e+10 -5.160667973688460541e+10
-2.043420572882313538e+10 -1.045006279112499046e+10
-2.145916445224401093e+10 -1.456085149571031380e+10
-9.275649364270765305e+09 -2.190802177089098206e+11
-2.028749568424484863e+11 -3.355539577934737549e+11
-1.222287412093316269e+10 -2.040525663460140610e+10
-9.724315744734791565e+10 -1.134126578281539459e+11
-7.786706791124234009e+10 9.109899410723437500e+10
-4.215579364897131348e+10 -1.891871425805170822e+10
-2.860292502525178528e+10 -1.649508616575062180e+10
-1.135540010921930313e+10 -3.838499528556395721e+10
4.703104698710756683e+10 1.484693311660121155e+10
-4.024656935786805664e+12 2.019704053084716797e+13
-1.263426593666996765e+11 3.344619559127642441e+10
-3.566050634102261353e+10 -1.682685645446972351e+11
1.255827697070298195e+10 -1.642193363258995438e+10
-8.460873212859598160e+09 1.691930080303355026e+10
-1.992781772515322113e+10 -5.738428531589111328e+10
2.506258810395699024e+09 1.409806575159909973e+11
1.305224292069779968e+10 -6.457182190897928619e+10
-1.741504912589636993e+10 2.448412308760622406e+10
-5.832975273126091957e+09 -9.713186915973134995e+09
-9.228777750849244690e+10 -6.643412094067755890e+10
-7.928307243627102661e+10 -2.750685173117169189e+10
-4.869275815495140625e+12 -8.213113687689573242e+12
-3.708219010140388489e+10 2.196892611692321777e+10
8.719441566651243896e+11 -1.131852246366589600e+12
1.739310896964049530e+10 -2.212650680226989441e+11
-4.953059379737705231e+10 -4.141922774784309387e+09
1.350248181925330925e+10 -2.837192374029944611e+10
-2.891901924974915314e+10 -1.152943852184428596e+10
-8.958239294779505920e+10 -2.370827638520474625e+10
-1.936872402184437561e+10 -2.808969147750621414e+10
1.553176405219965935e+10 -4.779131598476222992e+10
-1.593390396891708069e+11 -9.411088907523693085e+09
-4.084834423006116486e+10 1.213704385812077141e+10
1.858301746039057312e+11 -2.045545285157171387e+12
-7.523554664088772583e+10 9.479693991621492004e+10
-2.602363136470042419e+10 -3.419468598905787964e+11
4.170833956122501831e+11 -3.189600218107239151e+10
-2.972260728329012299e+10 -6.734989404994683266e+09
-6.396191564644795990e+10 2.698610236279049301e+10
-1.752383228685786438e+10 -3.740637334672916412e+10
-2.409136175397368622e+10 -8.614491117547651291e+09
-1.998390586156141663e+10 -5.748714268897170067e+09
6.385074015982649231e+10 2.545429768601697540e+10
-1.586513828332493896e+11 6.527572425254420166e+11
9.098767666465672302e+10 4.286573506884899902e+10
1.512138225095895996e+11 4.844241591715803833e+11
-6.085983178170652771e+10 -3.410519214070286560e+10
-1.056411231570805168e+10 -3.924720255772345543e+09
-1.930283174745160294e+10 -2.292507030181764984e+10
1.454029757663340088e+12 -1.423843110564310791e+12
-3.959529776419595337e+10 -1.548149331533039474e+10
-1.488456298645811462e+10 -4.156158067173006439e+10
-7.951841038828503418e+11 8.333155623870268250e+10
-8.154316036869140625e+11 -1.815350806682767868e+10
-2.901209309572670288e+11 -2.820998431230965576e+11
8.455714880550750732e+09 1.814569666513044739e+10
-5.459575682910343628e+11 -4.057211356024572144e+11
-3.513115436780748749e+10 -8.119709947294141769e+09
3.049645686398936462e+10 -1.146075030729344177e+11
-7.610697336070363998e+09 6.546926280992478180e+10
5.167067919341062546e+09 1.403452728415916920e+09
-3.296954950104135132e+10 1.464521257210455322e+10
1.855902121482642365e+10 -5.017091142702549744e+10
-1.708249082688954353e+10 -5.260887847094068146e+10
1.909874464990346375e+11 6.977868150842863770e+11
-2.172892769494602203e+09 -2.923729419179087830e+10
-2.273934219325513611e+11 -8.550143641152587891e+10
-3.032170215597274780e+10 8.044821415894989014e+09
-5.743468634612032318e+10 -7.129636308980259705e+10
-2.459846371333246994e+10 -2.151159755257042694e+10
-2.737070162195460510e+10 -2.556975790551959610e+10
-5.203183806089627838e+10 -7.836333017440999031e+09
4.378221465523431396e+10 -8.408427049964874268e+10
-3.060299222181784439e+10 -5.689928453682266998e+10
9.319986301036849976e+10 1.363731497426057281e+11
1.104626551939169922e+11 -1.376881647527979431e+11
-3.130354113553592529e+11 1.001465842496442719e+11
-1.152389508997303619e+11 -4.412243848679102173e+11
1.585345613279567337e+10 -4.459248029842648315e+10
-4.140412523741915131e+10 5.317352575200672150e+10
1.005107221058091583e+11 3.619988610884310150e+10
2.385848765806039429e+11 1.992841546561669922e+11
1.044135270560983276e+11 1.251475727895198822e+10
-2.643795125040789490e+11 3.537671166331655273e+11
-1.275909479358666039e+10 -4.030786793567591095e+10
-8.259437343619363403e+10 3.397714860286633015e+09
-2.110425840712773132e+10 -2.890701015995948410e+10
-2.183547139281044769e+10 -1.410050947095173073e+10
7.029011366958209229e+10 7.847833825529364014e+10
-2.157688301300177383e+10 -1.375422659490341568e+10
-3.564128939017928600e+09 1.869361582734829330e+10
-1.943084685152819443e+10 -1.342659549283537292e+10
1.012192080010616302e+09 -3.207558908265758753e+08
1.079260750919047607e+12 -1.270367904365756989e+11
3.894314325608799744e+10 7.221043387975259399e+10
-5.433382060161700439e+10 -1.040047459829647217e+11
-1.278587344368174362e+10 -2.155015685205641556e+10
-9.136400724093388367e+10 -1.632750004181486206e+11
7.280877865935560226e+09 -3.769604731906356049e+10
-1.372522586910159683e+10 -1.118356899538004761e+11
5.764101054547828369e+11 -1.262127651839726868e+11
-7.000620314100552368e+10 -6.973819733602420044e+10
-2.192403994880102158e+10 -1.135274446220388412e+10
-8.517114870263815880e+09 -5.803497466561563873e+10
-1.392957984623740578e+10 -9.694081019910314560e+09
-3.783452654682403564e+10 -5.874149956766612244e+10
-5.704114412926555176e+11 4.667343856306021118e+11
-7.047887533186758423e+10 1.744475461264392853e+10
-1.336829081517341614e+10 2.198825207245638275e+10
2.780429713779733276e+11 1.233386333341825439e+12
2.835041466402117729e+09 -1.795064348353004456e+11
-3.266528657665277004e+09 -6.169163067743187904e+09
-9.682842631080171585e+09 -1.515490048091702461e+10
-5.152180685242707062e+10 -1.997843326991658926e+09
1.262516369670927490e+12 -6.607444530453480530e+10
-4.436796740349736938e+11 2.072663229502481079e+10
2.950292420359411240e+10 -1.221338413121707001e+11
4.955944668891224670e+10 -2.283905091582556152e+10
-1.663271166731549683e+11 -1.268722057426225128e+11
2.533408867017934799e+10 3.726384724975485229e+11
-1.959610389421038086e+12 1.166631536816885071e+11
1.329372368194886780e+11 -1.450287072898548889e+11
-1.887218265827810287e+10 -1.160191049059251308e+09
1.107716075397554016e+11 -7.545243177888926697e+10
-1.880324846986361313e+10 -1.873013146909214020e+10
1.438918473324231689e+12 -4.937611910067944336e+11
-3.218624703770294800e+11 9.361927191039022827e+10
-2.869780052453756714e+11 2.483349438365668335e+11
-9.287028794224333191e+10 3.132597332215371704e+11
-1.565490345284505005e+11 -3.013089510221782227e+11
1.248347925642121124e+10 -3.565817215746781921e+10
-2.569312218551895142e+11 1.855685253204280701e+11
2.161433086306534424e+11 -5.537180790231854248e+11
-2.005003911209042358e+10 1.150025811880234146e+10
-1.982153965974250031e+10 -4.089923177650802612e+10
3.677164416515586426e+12 -1.354684902960791260e+12
7.293785447767781258e+09 -3.456182985214170837e+10
1.233236757968904877e+11 8.665091711428372803e+11
-1.413338421601797295e+10 1.915735194826245499e+10
-1.145083699615179443e+12 8.430091426173358154e+10
-1.892976747106699371e+10 -1.318005722934337234e+10
-8.436760719326175537e+11 -2.839134678990734253e+11
-2.211369053900534058e+10 -1.232405950643786812e+10
-2.815241761473913574e+10 -1.289381684009533501e+10
1.904914568736996155e+11 -1.071651065316895905e+11
9.046646171907298279e+10 2.042180724704151001e+11
2.624845586499255981e+11 -1.480939171243496704e+11
-2.540831435797878647e+10 -6.340786719013429642e+09
-2.032034121117940140e+10 -1.225880545920057297e+10
-2.060611219498890305e+10 -1.089217193066776276e+10
-2.619687902358028412e+10 -7.289198277128196716e+10
-7.335111479294202881e+11 -4.887836911189023590e+10
-1.157925245124859375e+12 9.122253938126256104e+11
7.336515650319944763e+10 -1.030325718958432617e+11
-1.078554909308291321e+11 -4.923424456528839111e+11
7.228016161743122559e+11 -4.279508201592130737e+11
-2.048872403410409546e+10 -1.277632604953901482e+10
8.178591678643032837e+10 2.493031722539156189e+11
2.709670177376969147e+10 -4.566801100804451752e+10
-1.041874102205540009e+11 -1.097299529808613014e+10
6.152770311725900650e+09 1.258507019238639832e+10
1.656551606803587341e+11 -8.331400054907409668e+10
4.388097730923242950e+10 1.018205911192319946e+11
-7.095496457057327881e+11 -3.317400080002780762e+11
-1.397957117602929878e+10 -1.258305358353388214e+10
-2.126959953292219543e+10 -2.074390856044622421e+10
-3.193738637296953583e+10 -6.255468164875240326e+09
-3.930066193592939758e+10 -2.963058374570787048e+10
-2.475373265975096512e+10 -4.210280739653842926e+10
2.887114695329406738e+11 -6.013214398904303741e+10
-9.441541904383573914e+10 -5.074155917414409637e+10
1.119882227705840912e+11 3.670355478283054352e+10
-2.140417565222287369e+10 -1.195573028214731216e+10
-2.058827855400370789e+10 -9.790506199340637207e+09
-2.929715277251110077e+10 -1.779927660313594818e+10
-2.654575801126958084e+10 -4.686484353222927094e+09
2.761357201752045898e+11 1.584419820021978149e+11
4.870863712697967529e+10 2.745713216006563416e+11
1.520943235606867432e+12 4.902044128263352966e+10
1.786701496855830078e+12 7.339627120667985840e+11
-3.432781677039226913e+10 -4.219330231395256042e+10
-2.037957035950060654e+10 -1.804525857036590576e+10
-3.054619059501747513e+10 -1.406213128817289352e+10
-2.067738445107668304e+10 -6.609774219595080376e+09
7.412872003063920593e+10 -3.073597214258414078e+10
1.687162382513497543e+10 3.709561848977962494e+10
-2.714926194633762360e+10 -8.022362168447799683e+10
2.116164632437770844e+10 6.230176444227661133e+09
2.875788680966098022e+10 -3.916769458026109314e+10
5.536083976846112823e+10 1.408924341783513260e+10
1.814510088379762878e+11 -4.424845025041820526e+09
-8.207229445977236328e+12 4.007040428643021973e+12
-5.911786280912713623e+11 -1.469053544985618896e+12
-4.575847954482419586e+10 8.437096447741146088e+09
-2.036702551178484497e+11 -9.623776349005754089e+10
9.979892263587113037e+11 2.345451552644657288e+11
5.841412309778977203e+10 5.922025232428456116e+10
-2.817731692036041641e+10 -2.152545535112945557e+11
1.193401815232567596e+11 2.709224173252568054e+10
-1.941247715012150574e+10 7.880445679833624268e+10
-1.970562124393306396e+12 6.016784734663559570e+11
-2.053175954703133392e+10 -1.419631477782618332e+10
2.284325641474146729e+11 -5.363765791887923584e+11
-2.656056758308871155e+11 3.721844742939679718e+10
2.749897134923261230e+12 -6.190050386031479492e+12
-9.620272727384927368e+10 7.663186402815354919e+10
9.869367159164244080e+10 -1.812049253049438171e+11
8.242630300067558289e+10 1.398301677268953552e+11
-1.766029439436415863e+10 -2.275340714217980576e+10
1.855861747823577271e+11 -2.260876691634139633e+10
2.076499236214233093e+11 -2.500722359881500244e+10
-2.006862239600485229e+10 -1.392060425880853081e+10
-2.087773318653284454e+10 -1.404274779205267715e+10
-2.997981110176021576e+09 -2.432520945430271530e+10
-1.060699859855202637e+11 8.053272033213433838e+11
-9.747704711909039307e+10 9.223943229844425964e+10
-1.483480805527334404e+10 -7.723151178640705109e+09
-2.830166872713763046e+10 1.300499799940705109e+10
-1.925456121861833572e+10 -1.511816508035420609e+10
4.050062094920110321e+10 -1.083186625528752747e+11
-2.388840360648200226e+10 -1.792112757645823288e+10
-3.980543183007808228e+11 -4.850922026880175781e+11
-3.410403273067847900e+11 1.344217855572189484e+11
-1.644209112609289856e+11 -2.417300327653537598e+11
-2.812445416547524929e+09 -3.931420775394485950e+09
-1.807063214992126465e+10 2.007437226857379913e+10
9.486007503301717758e+09 1.698240493893350983e+10
-8.422656947506054688e+11 -1.455195884996024414e+12
2.139540747112360382e+10 7.675827228054441833e+10
