1.381090643072012369e+01 1.389458217535463902e+01
1.380871434692696198e+01 1.389404511737464532e+01
-2.365003305370015685e+00 1.038731447025638666e+01
-2.545434291084065492e+00 1.103606928732346226e+01
-2.684740312076503432e+00 1.156390896708892591e+01
-2.837139742364521489e+00 1.210695085309415120e+01
-2.916504515906205519e+00 1.265425071683878322e+01
-2.939602328683093457e+00 1.316162845529446734e+01
-2.565629936425793289e+00 1.359732307781932015e+01
-2.008455725929138680e+00 1.386592217301670438e+01
-1.664939425887764557e+00 1.401220716888396289e+01
-1.312131189543894516e+00 1.400580797420269796e+01
1.796264510106422918e+01 -3.788689478308123171e+01
-9.653680844287151341e-01 1.388055730942246591e+01
-6.122338850591859671e-01 1.370214685365950480e+01
-3.057685484546405763e-01 1.329493098016914310e+01
2.226347075562507549e-01 1.287233170870671728e+01
6.520025018182020737e-01 1.242309337851238205e+01
9.802748016290757649e-01 1.190944346555690636e+01
1.389965604410903222e+00 1.143125090105789710e+01
1.504973605513447055e+00 1.086030732961904910e+01
4.241920073727937002e+00 9.755200896066883232e+00
4.499726318394296598e+00 9.121208983497249179e+00
1.787391324571059670e+01 -3.775588007891660425e+01
4.376264219241901010e+00 8.573496307166394104e+00
5.178939437915063948e+00 8.346321080407014037e+00
5.010791505271016355e+00 7.791934702788147149e+00
5.575835129498895704e+00 7.668555818396735724e+00
5.883350109586034549e+00 7.407787443492385826e+00
5.811048617799895233e+00 7.010058420189525741e+00
6.021051344959579943e+00 6.876214215535976670e+00
5.969012990605811808e+00 6.604682925756317324e+00
5.778372613660487822e+00 6.409986015825924532e+00
5.292655629782546889e+00 6.406664991871480197e+00
-1.544612955926364162e+00 8.225343885826763568e+00
4.872820656993394728e+00 6.308543937638372512e+00
4.401658472485874718e+00 6.408470487766278367e+00
3.865390113332669575e+00 6.547150225598233675e+00
3.100310214247041785e+00 6.788050719319225657e+00
-1.518679779001628483e-01 9.527634677779964534e+00
-7.372285207217004199e-01 1.034863962807410154e+01
-1.071282231577238564e+00 1.094392045876800879e+01
-1.544797698653213480e+00 1.138312592510417431e+01
-1.656864035585017492e+00 1.192209687121271600e+01
-2.049107842735361729e+00 1.234444584413197354e+01
-1.666840553854648910e+00 8.410568380089966212e+00
-2.037984709713990483e+00 1.280990401524765332e+01
-2.293457575606882237e+00 1.316664661950992254e+01
-2.742294073451712055e+00 1.398419374407986915e+01
-2.506348324026558494e+00 1.437989840856871737e+01
-2.004935743390450220e+00 1.469616291772658734e+01
-1.582693344361579380e+00 1.478946051764360803e+01
-8.923852355795972580e-01 1.474038236659239942e+01
-2.647248520739769462e-01 1.443741342056639709e+01
4.051462183804213635e-01 1.393384133980877237e+01
9.769618897550602643e-01 1.343843463671545813e+01
-1.797937336844120271e+00 8.710013122215562120e+00
1.534631775606905890e+00 1.291531015248658143e+01
2.023614475065887763e+00 1.229346831030651899e+01
2.466633399530895332e+00 1.170243093850674043e+01
2.723383494758520929e+00 1.121817303408482935e+01
2.938614925561294555e+00 1.068017451748482394e+01
2.952745495428255929e+00 1.034606831576187780e+01
2.962835631470087883e+00 9.984074648180715883e+00
2.782897039436291742e+00 9.532031383986694806e+00
2.657537860966554089e+00 9.263085191224424975e+00
5.048989223730057319e+00 1.096592251602114310e+01
-1.907891835773072309e+00 9.011325508546690344e+00
1.824172799341690876e+01 -3.829588765716734855e+01
1.819059721520733319e+01 -3.822280901530232455e+01
-2.077635884720194337e+00 9.466990656379477898e+00
-2.174885709406510159e+00 9.853766887130957386e+00
4.552420374822249016e+01 -4.884790426766154603e+00
4.496471944852912372e+01 -4.379325149077573087e+00
4.741609004226038593e+01 -2.460848137115541512e+00
4.778518225279069043e+01 -2.243780786731665255e+00
4.534375525392488449e+00 2.142308602479089075e+01
4.191099766112502678e+00 2.173198350048466665e+01
-6.889551770564727562e+00 2.112637707393412612e+01
-6.269171235668312470e+00 2.211582759214286753e+01
-5.333438908375010001e+00 2.252092520592884384e+01
-4.861002592766705988e+00 2.262063998095938544e+01
-4.516494717032263573e+00 2.258054940584598924e+01
-3.731748185087237157e+00 2.224137920726846929e+01
4.520433777603905412e+01 -4.040709441887841535e+00
-3.009597140738137444e+00 2.165226474709817950e+01
-2.402494324394369052e+00 2.068304052642848134e+01
-1.810242860103131735e+00 1.999858199453368002e+01
-1.108425177813842755e+00 1.944645607322554781e+01
-5.232445155935605552e-01 1.914401508990705381e+01
-2.060282902335130173e-01 1.896489095149184934e+01
4.575233405871908587e+01 -8.938763190569204653e+00
4.573959379902942146e+01 -8.492986182274414375e+00
4.580708873870747055e+01 -7.933946177851053605e+00
4.579781300212125927e+01 -7.526464933500856880e+00
4.527567806145892604e+01 -3.728318058000489543e+00
4.585313929214697026e+01 -7.028933889765163201e+00
4.586291398835182065e+01 -6.634721668614474765e+00
4.572790226302415562e+01 -6.338172473544745777e+00
4.556157329848468152e+01 -6.053211733533228056e+00
4.549206613224561835e+01 -5.784998572637162439e+00
4.519676557937786043e+01 -5.522930079090669686e+00
4.496530077267319570e+01 -5.199048128367420141e+00
4.489966419594376390e+01 -4.845010622835056679e+00
4.532331384664536955e+01 -4.543460366223214031e+00
4.573908046443047226e+01 -4.339262756742198412e+00
4.555881160311266598e+01 -3.503234905279689837e+00
4.602704930213386803e+01 -4.204203596865180081e+00
4.623434864542136324e+01 -4.012829525120970686e+00
4.657461984784087150e+01 -4.049431692709966057e+00
4.678432162514881298e+01 -3.891882680515374560e+00
4.709534596123840799e+01 -3.671679277575101263e+00
4.747333548197087794e+01 -3.463807357967742195e+00
4.802817238213786766e+01 -3.227657424329366087e+00
3.707170642966384655e+00 2.093941934115834513e+01
-6.471149223844418152e+00 1.999902076456369926e+01
-6.164135139860381862e+00 2.057956297329818440e+01
4.575371620831575115e+01 -3.263554091998202455e+00
-5.772741141174474677e+00 2.128386951725233089e+01
-5.296815252729111023e+00 2.205288539724455532e+01
-4.895260811851182225e+00 2.229596100756727495e+01
6.290029060826740448e+01 -8.185899169824292443e+00
-3.767821034668320301e+00 2.226269602030845007e+01
-3.231570284859744735e+00 2.197340511745232305e+01
-2.383848648598093423e+00 2.145358870293201647e+01
-1.533855968156380367e+00 2.069848082956661273e+01
-9.193409551491802389e-01 2.011720711620594315e+01
-4.199962130080756029e-01 1.975104676269412352e+01
4.606673328926558497e+01 -3.087329239857146135e+00
1.383629871952763712e-01 1.943546199163511545e+01
4.190096659743534624e-01 1.925119454198228652e+01
4.633565383300127394e+01 -8.470760629077989989e+00
4.638847240182042242e+01 -8.064318717578863982e+00
4.646928784088736819e+01 -7.585762309688349525e+00
4.653173447009693575e+01 -7.128775707652657445e+00
4.655822312961296205e+01 -6.776321072659618139e+00
4.654279333352975812e+01 -6.416981864455853390e+00
4.645538881987529578e+01 -6.071802776853425954e+00
4.636550012199444382e+01 -5.732361838531937259e+00
4.639601683652571040e+01 -3.067856180090116069e+00
4.613316201691895913e+01 -5.459788369083173443e+00
4.589011512928129122e+01 -5.222859650257800190e+00
-1.949032554692159280e+01 1.531306216883256432e+01
4.700016223729306830e+01 -2.716316915065225768e+00
3.026426311481035114e+01 -3.359503206883093895e+01
-1.414854505009251362e+01 1.019500813844507192e+01
-1.274065826515659339e+01 9.731913483618239269e+00
3.063644033420870016e+01 -3.222170049015585391e+01
3.007050969577149147e+01 -3.177435085141528504e+01
3.024779804053713406e+01 -3.145222865805393653e+01
-1.180617648999425562e+01 1.026915922782923118e+01
-1.161500309013394272e+01 1.044017477313461661e+01
-1.200952497263717689e+01 1.081320818166564557e+01
9.171273145582775399e+00 1.818175555362225637e+01
3.135389156065322069e+01 -3.094947687526626012e+01
8.482754888110457969e+00 1.843443124070665462e+01
-1.405043198402596616e+01 1.032099677524413472e+01
-1.177609275498852170e+01 1.121537360143294926e+01
-1.069833633397813344e+01 1.062555094117897880e+01
-1.151637306389212867e+01 1.127599210947911779e+01
-1.107844976393438152e+01 1.083351009001295573e+01
-1.106476390488656136e+01 1.151841639699257591e+01
-1.083284012633270521e+01 1.060511274401245885e+01
-1.078939219557549123e+01 1.128361742106493537e+01
-1.051378158548462771e+01 1.113411580153222680e+01
-1.023034882207362628e+01 1.148614827370465541e+01
-1.035130319521689302e+01 1.122578164347583218e+01
-1.409063911889272447e+01 1.061382667970041105e+01
7.266374531133751979e+00 1.789354333650747364e+01
-9.874762778552105047e+00 1.143401130606492266e+01
-9.655000226667759478e+00 1.188941177858028908e+01
-9.496516553196933330e+00 1.171667828191889171e+01
-9.202121853611245683e+00 1.198189855266774018e+01
6.115015738560392045e+00 1.779763838128078390e+01
6.396188016860757664e+00 1.753723561044740364e+01
-8.908771381776768195e+00 1.193488356974423148e+01
6.106081711561953895e+00 1.718802152066783506e+01
-8.768349157993450049e+00 1.223464075627872027e+01
1.129761353673380775e+01 1.917319575087435979e+01
5.520772256828199609e+00 1.735741441788131212e+01
-9.135949515636520246e+00 1.278129241086611323e+01
5.125838875138929218e+00 1.709489786903699127e+01
-8.323375315132636842e+00 1.275249522556436688e+01
5.818822811960995267e+00 1.670677430817705655e+01
5.430740540548593565e+00 1.668903941141735814e+01
-8.509437029313481560e+00 1.313401996700678964e+01
4.956175590842291534e+00 1.654510503773550667e+01
5.159391304062406647e+00 1.629739554371185051e+01
-8.382309694957085000e+00 1.357686888454564311e+01
3.158149581244979132e+01 -3.352951589763332407e+01
-8.710188754583327864e+00 1.367195041933976363e+01
5.856659655854757673e+00 1.603981502117392921e+01
6.041058910950422245e+00 1.587469900252792065e+01
5.579622623288949868e+00 1.574324971024661579e+01
-9.374645097010365191e+00 1.395786503371127374e+01
-9.846269056457360946e+00 1.386959990801860698e+01
6.948559719612338981e+00 1.547061548938768993e+01
-1.035618377085505770e+01 1.409484082018881601e+01
3.402205451098074462e+01 -3.036841571805826234e+01
-1.104162678247914364e+01 1.398907331902411677e+01
1.082419000248632379e+01 1.930820386379168951e+01
3.378029785409514574e+01 -3.046413714620640434e+01
3.351049698948702371e+01 -3.046375346752810387e+01
8.826057317070233665e+00 1.585797241951426884e+01
-1.357378589631488808e+01 1.241906041077206702e+01
3.303251690763127613e+01 -3.160667896241729835e+01
-1.449666429819067659e+01 1.165995711875308771e+01
-1.466221885617638776e+01 1.161409568157916539e+01
-1.474146783187563514e+01 1.148420661649956820e+01
3.103821603282546349e+01 -3.424513324849605311e+01
3.081244091635894478e+01 -3.410768800902857834e+01
3.113215679650429735e+01 -3.320820281871647950e+01
-1.509716299336474421e+01 1.040525725303912985e+01
3.020847560934624099e+01 -3.386882199516837488e+01
1.034892035548090305e+01 1.959385892468721480e+01
-1.298720862269718701e+01 9.608675533635839372e+00
5.881698988182484378e+00 -3.867705603680151683e+01
6.200090384017955536e+00 -3.871456554788035476e+01
4.056285121611858102e+01 -1.790915401185451117e-01
4.029798802095562849e+01 1.209128388196581971e-01
3.992136819095971845e+01 4.268260109469929620e-01
3.960856852533319739e+01 6.303520972082776730e-01
3.928268316368652791e+01 8.264029827951526741e-01
3.894882090355406490e+01 9.697001234484003973e-01
3.859655585701354852e+01 1.057583504426040877e+00
3.829980044879084744e+01 1.152310488273191158e+00
3.801009921646571144e+01 1.239246134218044526e+00
3.790378120837965525e+01 1.591365199247173123e+00
6.441420248883300559e+00 -3.874118763853289948e+01
3.765692876168525061e+01 1.650903316091746120e+00
3.744610923268778180e+01 1.841445096888741695e+00
3.715784296089869798e+01 1.584260544373980339e+00
3.696577202598928125e+01 1.600590844006506641e+00
3.674613505976223848e+01 1.356576907594652326e+00
3.641692556094061928e+01 8.382261629594615071e-01
3.587232245173032652e+01 -8.096260269241546403e-01
3.550853164115250138e+01 -1.095774494825353162e+00
3.532319473414160882e+01 -1.361898641311846125e+00
3.519299264843416353e+01 -1.689291353505132820e+00
6.750028522515351348e+00 -3.877319754404039998e+01
3.508700378459944602e+01 -2.090310700035076241e+00
3.502969355500275128e+01 -2.486614586694543938e+00
3.503950499139552477e+01 -2.832356927278865566e+00
-3.270522083531361091e+01 6.376720840099853405e+00
3.523511426171408090e+01 -3.357291561350357334e+00
-3.287601943271395299e+01 6.500546195583540410e+00
3.563588439235990535e+01 -3.725126066332622887e+00
3.591741020442857746e+01 -3.816912489120017238e+00
-3.337577808563322179e+01 6.870497180075938459e+00
3.687929852259379260e+01 -3.825808225619529157e+00
7.028889684964801710e+00 -3.880046746606137731e+01
3.723134566319043870e+01 -3.737241927354766791e+00
3.753465199336400815e+01 -3.602008284729686594e+00
3.787831167804315413e+01 -3.394463217880339112e+00
3.824375367107656842e+01 -3.103375825692979095e+00
3.858439270745827798e+01 -2.748508688634004660e+00
3.884997749339482453e+01 -2.418618849749125665e+00
3.891720784132778022e+01 -2.019149527401739252e+00
3.896976578569272220e+01 -1.603392109406152288e+00
3.885178312591634864e+01 -1.127995854356481198e+00
3.863935232428599420e+01 -6.840262313554545948e-01
7.270227124246855688e+00 -3.882273153574043079e+01
3.836060867835768562e+01 -3.388152151336719653e-01
3.808492551221188904e+01 -1.254088023019403197e-01
3.771467871755833556e+01 -1.746334111456251947e-02
3.756825931183108480e+01 2.472503125738924057e-01
3.716270173202961047e+01 -3.202769203692519828e-01
3.710276803693774639e+01 1.896275329288637235e-01
3.675641249334335470e+01 3.666976812333536118e-03
3.642756891179528367e+01 1.397997433482040149e-02
3.605058745413852250e+01 3.635392171080924217e-02
3.559673422022309808e+01 4.083814260577375843e-02
4.182736666898180999e+01 -1.682396106888240706e+00
3.548002959069332007e+01 4.489008736613761541e-01
3.528077643167854660e+01 8.419176636444187789e-01
3.522586876306139914e+01 1.411876901381088123e+00
3.498133855606864984e+01 2.010989304240494491e+00
3.469629228311356428e+01 2.444222384093251765e+00
3.442851861577722161e+01 2.817097085383093891e+00
3.422944685055904301e+01 3.089892821400437750e+00
3.406001911411786409e+01 3.319540023914026250e+00
3.390810895444099060e+01 3.527633081509464308e+00
3.377288139731964378e+01 3.722227043056298701e+00
4.170112275753429287e+01 -1.562394336497836100e+00
5.434704045038379228e+00 -3.862947542821869007e+01
3.345965055181410008e+01 4.168701244453182575e+00
4.140710735773582485e+01 -1.289224328155714083e+00
4.095405080045368607e+01 -7.384378387231546048e-01
1.467283885636129170e+01 -1.076466280562368105e+01
1.445911784693429247e+01 -1.145713110470025775e+01
2.053503320662268194e+01 -1.540184296077510240e+01
2.068038727536648835e+01 -1.463721773534994064e+01
2.039487237944726417e+01 -1.348894614215969945e+01
1.952228000939236452e+01 -1.248427576958441598e+01
1.788258968664237258e+01 -1.172467379456303327e+01
1.676644049912069789e+01 -1.110976124992636827e+01
1.626646482845555397e+01 -1.098219999770729061e+01
1.578891829442217087e+01 -1.103410226501867974e+01
1.554838315641640634e+01 -1.159239127244330092e+01
1.544743356391024491e+01 -1.223710752857541095e+01
1.459311241508880919e+01 -1.284129095490339978e+01
1.558668447116562028e+01 -1.303431620785645606e+01
1.615174324956111462e+01 -1.467115940940408692e+01
1.715699842803893915e+01 -1.550003372102577615e+01
1.791443674542197684e+01 -1.566209681261868525e+01
1.844496685087168686e+01 -1.564688756006056813e+01
1.887175035960894220e+01 -1.556963864153295241e+01
1.913103771736262360e+01 -1.551239141873037575e+01
1.923761947521825633e+01 -1.523951499655677466e+01
1.950609165909288834e+01 -1.502572804444259447e+01
1.957897961485265625e+01 -1.456642327654951785e+01
1.567558582506024223e+01 -1.436578471213261388e+01
1.971908828705317518e+01 -1.396500856348926689e+01
1.954732439347372974e+01 -1.322475563310093527e+01
1.825667109531502774e+01 -1.121759704059210172e+01
1.727110865292693376e+01 -1.051227594963008904e+01
1.623686286467319917e+01 -1.020773948099363615e+01
1.532000403415638878e+01 -1.048074735316093786e+01
1.487714080032593067e+01 -1.102472641552532551e+01
1.469707987481395861e+01 -1.174307580308097165e+01
1.502199656014297702e+01 -1.304199332816829937e+01
1.542946849700089906e+01 -1.404519466132351013e+01
1.693803784664958556e+01 -1.606206043420534257e+01
1.653727961754740150e+01 -1.563307281506061663e+01
1.759814666680734163e+01 -1.653805255410188124e+01
1.821007053249999785e+01 -1.671058306851728759e+01
1.875996473494348749e+01 -1.672615990590875512e+01
1.947533526468309617e+01 -1.653753492658683655e+01
1.988525124108575071e+01 -1.626576415241926554e+01
2.027055349747973523e+01 -1.580372667277857701e+01
2.051857949772012546e+01 -1.523393620913683577e+01
2.046527654746112646e+01 -1.414193232800615796e+01
1.920506500867165300e+01 -1.287242492588342024e+01
1.770294056812286954e+01 -1.643345411609305629e+01
1.825183434133449722e+01 -1.193711462885899444e+01
1.724694508036940732e+01 -1.120592237075906894e+01
1.654453094293899795e+01 -1.105191486002656909e+01
1.580440766398861285e+01 -1.080558483270067960e+01
1.532026136022035701e+01 -1.109814747141851043e+01
-4.109097880225706234e+01 4.047701254578613117e+01
1.499600554932872498e+01 -1.234882582133920614e+01
1.597138262302699374e+01 -1.373190612499668362e+01
1.693727608013825758e+01 -1.564214386142202962e+01
1.754986676469701479e+01 -1.590690925590914162e+01
1.845123199253301394e+01 -1.664405863198864211e+01
1.818931672903303109e+01 -1.616681321592643528e+01
1.883107639499188579e+01 -1.608742040822330921e+01
1.917707798395991503e+01 -1.597714324504422301e+01
1.947282604027950725e+01 -1.582455763259902781e+01
1.976281081040598409e+01 -1.550341735633202589e+01
1.991994943843900501e+01 -1.502750831287009348e+01
1.990826945286136862e+01 -1.421063289822797415e+01
1.973971082447781100e+01 -1.336281451623811911e+01
1.863454351902733919e+01 -1.177148593263465415e+01
1.688341448358212560e+01 -1.028299780796495710e+01
1.926321154400979552e+01 -1.650610684339486056e+01
1.572617231505492086e+01 -1.005227049718182641e+01
1.524519577160806705e+01 -1.018536051273992449e+01
1.984763196909718275e+01 -1.624539391097033914e+01
2.023963799923011564e+01 -1.591239215774611893e+01
1.009782600903117000e+01 -2.532262712172873798e+00
9.894108998336083260e+00 -3.080737106202992237e+00
9.527144159471113483e+00 -1.509420320735655352e+00
9.914330629704569020e+00 -1.317388444423185367e+00
9.819172360406087208e+00 -1.190790863894126916e+00
9.819319703304095981e+00 -1.027263442780522951e+00
9.420751753041233911e+00 -5.276621490524476821e-01
9.285888594923465078e+00 -4.117152849883910504e-01
9.267211971265494341e+00 -3.357676021873978178e-01
9.194496006180125747e+00 -2.475645479027029083e-02
9.145339123823287508e+00 1.190857123895891490e-01
9.003769732812640925e+00 2.650230716642791307e-01
9.931412383317987036e+00 -2.561749190718958236e+00
9.555692218835080354e+00 4.227355547925893409e-01
9.669318573140794015e+00 5.442112190296095608e-01
9.546586555629982485e+00 8.390485094672601729e-01
9.933509130582345747e+00 9.234408127510538300e-01
9.911213341761905937e+00 1.225552477754177749e+00
1.021713745336367651e+01 1.451047523112359849e+00
1.031517859999618025e+01 1.534846254524543152e+00
1.037561172470395476e+01 1.786381186503676721e+00
1.054653867103135667e+01 1.817278180044136437e+00
1.072938848131800427e+01 2.093740654082024477e+00
9.845223919026091508e+00 -2.344681279402760943e+00
1.068848574864881762e+01 2.055134816148722621e+00
1.094247842479959765e+01 2.289032245032515789e+00
1.108794969513879103e+01 2.281563551517085120e+00
1.127738258556008510e+01 2.354075113907246664e+00
1.148263386109040063e+01 2.452401225778720217e+00
1.164135587085850077e+01 2.462528963055288234e+00
1.180798279398505990e+01 2.432640367651215829e+00
1.182513678520639289e+01 2.512300020604848694e+00
1.208913900056077750e+01 2.472621126143398129e+00
1.226543493641617921e+01 2.411327475806360976e+00
9.574218336875894408e+00 -2.388378442934337098e+00
1.221859611839080806e+01 1.884111533530059557e+00
1.264164312635048582e+01 2.136418756341096792e+00
1.251320200800784477e+01 1.630909487669306435e+00
1.296308296731479359e+01 1.844972751284646995e+00
1.322035839145014791e+01 1.703320344569878353e+00
1.283744478696463531e+01 1.226653649970971260e+00
1.314230285532484643e+01 1.247570532755061912e+00
1.350522602639764713e+01 1.239911887121510681e+00
1.358398467340517790e+01 1.028868777175877547e+00
1.341480687395211291e+01 7.919559895601833155e-01
9.460179142713927902e+00 -2.218904625237810624e+00
1.359856021574028340e+01 6.047206878049395939e-01
1.318716228650524158e+01 3.723630786137028248e-01
1.332103101761772379e+01 8.825117370670225447e-02
1.302342437359929761e+01 -9.951754498757972578e-02
1.358911343292887430e+01 -3.478884946190862193e-01
1.313766657025377604e+01 -6.169794278433732293e-01
1.276115557228287756e+01 -9.454732253395035091e-01
1.203931419047762041e+01 -1.752495463031137124e+00
1.203830832402351803e+01 -2.107745907705195432e+00
1.172980584739674192e+01 -1.914202174351685937e+00
9.377871027532671988e+00 -2.179484517215988237e+00
1.152395206974889952e+01 -2.539106773266633699e+00
1.137408482354883965e+01 -1.904730056612840894e+00
1.129566288372160976e+01 -3.227160004161903295e+00
1.099962357840180793e+01 -2.092252830315056933e+00
1.098972776161148168e+01 -2.710811239903923919e+00
1.079614361595749017e+01 -2.041749710248936811e+00
1.077980568478587209e+01 -2.917574251595330903e+00
1.070526446062694248e+01 -2.034601498439724487e+00
1.061498964975102233e+01 -2.937820445438622308e+00
1.053807701691223464e+01 -3.044896574746633444e+00
9.444129993937483647e+00 -2.845499044785550602e+00
1.037739839348128967e+01 -2.981020395833969605e+00
1.008679158162611067e+01 -3.274345883554970804e+00
9.584715885223015874e+00 -1.952041922856896150e+00
9.634746930924354302e+00 -1.874123080298351507e+00
-1.239052726610109900e+01 4.153893193608711698e+01
-1.199388960605690357e+01 4.132293215457209357e+01
-1.236277000191198461e+01 3.864445369768696992e+01
-1.261734632974232539e+01 3.866626808939471971e+01
-1.280279275690158514e+01 3.881367087941220717e+01
-1.338327854741565837e+01 3.926825232892405637e+01
-1.350093626826743964e+01 3.940295886152786409e+01
-1.347289047910448367e+01 3.983136694204193873e+01
-1.306294450000393859e+01 3.951986592319779845e+01
-1.294344114647933708e+01 3.955933267291092648e+01
-1.425453641403620786e+01 3.987097010361271288e+01
-1.385773898322042541e+01 3.946251011247882445e+01
-1.178915204843049835e+01 4.105961652912831283e+01
-1.426329254110625477e+01 3.960422762628487448e+01
-1.381173483633466859e+01 3.932646061902488555e+01
-1.391440775600080215e+01 3.911338258978226179e+01
-1.411178040299315128e+01 3.916222809569538299e+01
-1.401537923612309910e+01 3.887634784472877669e+01
-1.378398418130925940e+01 3.865389330752726949e+01
-1.442318643094821162e+01 3.874595105156426911e+01
-1.399727564464164686e+01 3.844557688465427958e+01
-1.441303749885511110e+01 3.845421668650396185e+01
-1.440522677817808450e+01 3.827620971524662252e+01
-1.159501004702926252e+01 4.082492187747875079e+01
-1.465667506529474373e+01 3.809183958905744305e+01
-1.460268017360117021e+01 3.795640995223628522e+01
-1.433377833512090938e+01 3.776187317316851022e+01
2.150696745665814369e+00 -5.849206657875954107e+01
-1.522323632082148848e+01 3.748369899379863313e+01
1.289726885859489691e+00 -5.835438285173949424e+01
-1.638493959845846248e+01 3.629820219182885666e+01
-1.570273532493304636e+01 3.708116904036341310e+01
2.165978022302253780e+00 -5.789300663105964873e+01
-1.730617118170273372e+01 3.603011706778641354e+01
-1.144289545095966432e+01 4.042595669946791759e+01
-1.683601093824256623e+01 3.625921086801123039e+01
-1.747778122133226120e+01 3.616418008188669120e+01
-1.691192655855485683e+01 3.651324751857694650e+01
2.922542248165587253e+01 -4.948075118624607427e+01
-1.762590503133796460e+01 3.636279996569846418e+01
-1.681751777037829498e+01 3.694040683889196686e+01
-1.700387210808531790e+01 3.685182299068857503e+01
-1.722226232491966513e+01 3.689757958888699818e+01
-1.758262465464605739e+01 3.686538692916936100e+01
-1.767502294710157074e+01 3.690437847749081612e+01
7.317040071566330539e+01 7.889872350591454975e+00
-1.777758981995247822e+01 3.685396264115274789e+01
-1.716347571645005488e+01 3.746388729291059860e+01
-1.749426978354841822e+01 3.751252257146465752e+01
-1.687611104189964806e+01 3.779000043460959546e+01
-1.683235632498755407e+01 3.764506993628501164e+01
-1.688738627281355775e+01 3.815397762532895598e+01
-1.696104730454733556e+01 3.813485790029655220e+01
-1.666038536850729557e+01 3.838543885559926139e+01
3.183865329683896128e+00 -6.040236948559301311e+01
-1.630918598139709630e+01 3.898628492074495711e+01
-1.144034488304344244e+01 3.965960538879403430e+01
-1.611592969717090540e+01 3.932172854884601776e+01
-1.597903996489126577e+01 3.957119357039393037e+01
-1.542312328394040399e+01 3.975280638311044612e+01
-1.558953251471867851e+01 4.006946605495814140e+01
-1.510651104036529091e+01 4.052859175354754484e+01
-1.489484304649571200e+01 4.082920954390757373e+01
-1.458121740950130452e+01 4.119056282081370313e+01
-1.567447001391592876e+00 -5.968173532326375863e+01
-1.378752806544519594e+01 4.170868244308420003e+01
-1.349853018610926192e+01 4.187386831542713850e+01
-1.146725330400891352e+01 3.931148152663801909e+01
-1.318265614544611175e+01 4.171969657891399663e+01
-1.276306339803332790e+01 4.163952588064638149e+01
-1.181412457434950092e+01 3.887233748232813468e+01
-1.207642155347027568e+01 3.874015564349564755e+01
4.808091243626964939e+01 1.919108440500378521e+01
-6.347938150045811057e+01 2.983835562611503889e+01
-1.534172219966283279e+01 -6.521061462886653715e+01
-6.323398233542918945e+01 3.239596163990874800e+01
4.504249171666215545e+01 1.803140889044507489e+01
4.483436021451264963e+01 1.785792018358411326e+01
4.545345464356940113e+01 1.784400240040088903e+01
-6.329316930106082850e+01 3.315838039145363325e+01
4.551058027351389512e+01 1.749901050067375152e+01
4.396087026229756844e+01 1.703464942064800880e+01
-1.443442968298727536e+01 -6.575836861980573644e+01
4.471344541725562038e+01 1.701281485158948570e+01
4.799216393589640006e+01 1.858793969687248193e+01
4.481283748816748158e+01 1.701426881913489808e+01
4.461169186832787403e+01 1.668352143829084255e+01
4.412512293886118897e+01 1.609330624534009146e+01
4.380212328987216353e+01 1.586619314207656295e+01
4.414413654613774440e+01 1.582578870083259304e+01
4.366271559481167230e+01 1.566508933600285403e+01
-1.179523346683968477e+01 -6.564341876539661769e+01
4.365167213710962812e+01 1.533133307391441846e+01
4.389654329980022140e+01 1.524174418147219789e+01
4.454958827932299670e+01 1.502243753833562323e+01
4.780386216420943413e+01 1.876591107221535992e+01
4.428732469800814187e+01 1.506942618584264437e+01
4.472359540840848524e+01 1.486249992546250809e+01
4.490004717376270804e+01 1.472921426473317474e+01
4.517293310043548615e+01 1.418268781194008987e+01
4.550726575811754770e+01 1.333998341663376586e+01
4.573407104966893399e+01 1.278266714638670543e+01
4.611268590204125672e+01 1.291000930366215904e+01
4.639902191259137965e+01 1.411856955824536008e+01
4.644839239700651490e+01 1.314635815354686699e+01
4.591875486883660074e+01 1.308899811995052787e+01
4.678231387038388789e+01 1.908412173754662078e+01
4.704837921464572048e+01 1.416772172749680259e+01
4.700232491565112980e+01 1.334087017961767607e+01
4.702507144399225325e+01 1.336653411108260059e+01
-6.635580112099081873e+01 2.819534629311510443e+01
4.748006294092056123e+01 1.417691679753893830e+01
4.584587626140287142e+01 1.453262968769665164e+01
4.647520792537537915e+01 1.361683373737786518e+01
4.605980064225534676e+01 1.450405282621596292e+01
4.653162298455904988e+01 1.452152070298630804e+01
4.684365833485797737e+01 1.447447325159520304e+01
4.754641390202741036e+01 1.889969976567006071e+01
4.636723394920818464e+01 1.476971082937319046e+01
4.731457256337601791e+01 1.477168325549898142e+01
4.777401961400727970e+01 1.480185266874104677e+01
-1.323779252303807041e+01 -6.976406495852565115e+01
4.786722711906890737e+01 1.515080427706045896e+01
4.838654610581031079e+01 1.524312895596586692e+01
4.696152302889181840e+01 1.528941403870847893e+01
4.836899804561733163e+01 1.573640466107184466e+01
-6.498099544014806384e+01 2.939787059503743549e+01
4.833568012974745187e+01 1.595556436989337712e+01
4.694598189319081882e+01 1.865398883918314255e+01
4.756611563501537177e+01 1.582372400964917603e+01
4.710406164570822085e+01 1.597372528780297252e+01
4.752351546864840515e+01 1.612793993071985810e+01
4.742079089501012845e+01 1.618537794404842955e+01
4.728132987528894660e+01 1.635004033578076488e+01
4.702928496968932137e+01 1.645421717731296241e+01
4.804655680303802257e+01 1.732333456879644018e+01
4.796110087852916593e+01 1.785149561396051610e+01
-6.434832366205714038e+01 3.046605325526472541e+01
4.787068700330679860e+01 1.770923796616667545e+01
4.677045862628333595e+01 1.847063846082572169e+01
-6.411224521214933247e+01 2.979395319571513312e+01
-6.329616806921622896e+01 2.937662652096393501e+01
-1.580182454126859604e+01 -6.558888902138394883e+01
4.620624065238289546e+01 1.849859593696728766e+01
-2.620082206079351650e+01 -2.537517817185985791e+01
-2.600146911921409654e+01 -2.554061470190335825e+01
-2.247897869055429609e+01 -2.449279981481456048e+01
-2.163404199273228201e+01 -2.438763486843878070e+01
-2.101284111924066167e+01 -2.406766852143626778e+01
-2.067848631999275710e+01 -2.357889614095706676e+01
-2.069550325860326723e+01 -2.314176366280239705e+01
-2.065867858510193500e+01 -2.279560182090943243e+01
-2.080047098132721928e+01 -2.247171871048704972e+01
-2.089381866197519955e+01 -2.216707192345829824e+01
-2.120033979253084411e+01 -2.198338537852614039e+01
-2.141362899773048767e+01 -2.181601613848709320e+01
-2.577841282660798683e+01 -2.552832127355751268e+01
-2.156918576368927987e+01 -2.159863414027872963e+01
-2.130452464465511397e+01 -2.130842778143843219e+01
-2.156985182246208055e+01 -2.098618707802079086e+01
-2.220675479952615561e+01 -2.054458227827667116e+01
-2.282099158773609204e+01 -2.067560844021798871e+01
-2.380984194958811528e+01 -2.084918067806147945e+01
-2.459397065093605406e+01 -2.093694556198652279e+01
-2.526937192633748808e+01 -2.103671637500587721e+01
-2.575698765688896685e+01 -2.113051399490720428e+01
-2.611219742409627997e+01 -2.120467622001448049e+01
-2.550182836740926717e+01 -2.548821526641227564e+01
-2.651181190416574296e+01 -2.131955146589156769e+01
-2.681953156373442582e+01 -2.140960879515396087e+01
-2.709592686502167069e+01 -2.152670229175680916e+01
-2.733781323167029598e+01 -2.175154202299350814e+01
-2.746444299159389857e+01 -2.202380546856741717e+01
-2.748940937441229693e+01 -2.224385983027750058e+01
-2.741960776300556191e+01 -2.244298794510747896e+01
-2.731469762236774912e+01 -2.255780990573942901e+01
-2.686469546840272571e+01 -2.263206691573635609e+01
-2.669031993723371698e+01 -2.260018919502376633e+01
-2.522199615198099920e+01 -2.537623125720827133e+01
-2.621732481887312360e+01 -2.245624886074532256e+01
-2.550475822899040068e+01 -2.231373536385040168e+01
-2.526249786584762091e+01 -2.232172088634661833e+01
-2.485083329450593581e+01 -2.242113249675069042e+01
-2.400782331434783856e+01 -2.252342458782725743e+01
-2.298829939453623794e+01 -2.246301258150764468e+01
-2.205852590928381574e+01 -2.212266929542794358e+01
-2.210220571140492396e+01 -2.214649933099576629e+01
-2.229175447198718274e+01 -2.221083568204610614e+01
-2.191596708602505927e+01 -2.231671266844365675e+01
-2.492955090041468225e+01 -2.521589499827980774e+01
-2.218879365012631411e+01 -2.231927264016180601e+01
-2.173530155896093419e+01 -2.251964123130431616e+01
-2.183599738984527150e+01 -2.257072980369182957e+01
-2.214652763273015523e+01 -2.262904912184312778e+01
-2.211005414225164145e+01 -2.265685454183748249e+01
-2.177683715561739675e+01 -2.276706238155869855e+01
-2.209295833404432585e+01 -2.288305329385615750e+01
-2.177249839051551916e+01 -2.294302691492436352e+01
-2.168951943239366997e+01 -2.295417657689565161e+01
-2.190692217059631375e+01 -2.307588261206308289e+01
-2.453307071435335729e+01 -2.510017617152206171e+01
-2.211323310591287594e+01 -2.305783494104654707e+01
-2.250956081752958937e+01 -2.299916279383688078e+01
-2.338029197469255038e+01 -2.318504955525151345e+01
-2.442098637158064633e+01 -2.362424078875047329e+01
-2.490479866677436149e+01 -2.402177247441129992e+01
-2.513335548256577212e+01 -2.424852127578399674e+01
-2.528103825729073151e+01 -2.425324348896464244e+01
-2.557826019927329497e+01 -2.442900883370179344e+01
-2.592291941076184258e+01 -2.456699650795749790e+01
-2.616590640478023744e+01 -2.476523118461160067e+01
-2.420348501637818117e+01 -2.495734064609323610e+01
-2.624218647014195227e+01 -2.491230100236318989e+01
-2.620619947961284879e+01 -2.511500993395871717e+01
-2.363613389192152425e+01 -2.487604705493662038e+01
-2.306518191833407982e+01 -2.477281316671770028e+01
-3.869789745482793109e+01 -1.745108538820831967e+01
-3.920663626782253175e+01 -1.766116470183344234e+01
3.915472787271428956e+01 -4.656463954977712660e+01
-8.236353799245401675e+00 -3.056268055601702471e+01
-8.066231199369475746e+00 -2.991178785016959552e+01
-7.549682566626050750e+00 -2.793023226529867031e+01
-6.752181058846394635e+00 -2.635567073137954708e+01
-5.914570005655671814e+00 -2.524700422016974954e+01
1.227153357612149520e+01 -6.120320145961637870e+00
1.171715047646626218e+01 -6.540023125484110800e+00
1.094261370941473288e+01 -7.073714034629870362e+00
9.686484359669547572e+00 -7.814297667472872355e+00
-4.012789961038062359e+01 -1.795932221019344865e+01
-1.659136634679551037e+01 -1.220291304739942007e+01
-1.804839682733971173e+01 -1.290404537012089037e+01
-1.373936428169309920e+01 6.515984067601141305e+01
-1.353371376803318604e+01 6.531251337071334717e+01
-2.818591217891535905e+01 -1.379666975367703863e+01
-2.884829170512271546e+01 -1.387918047468251004e+01
-2.989526788726296047e+01 -1.393853348071527343e+01
-3.089590617859059307e+01 -1.418675633840941153e+01
-3.182160714616708930e+01 -1.456408225072741836e+01
-3.250100747270837331e+01 -1.500153557648322611e+01
-4.069173464475927915e+01 -1.800427961948339473e+01
-3.320083038076311510e+01 -1.540302762985201213e+01
-3.397459518678880386e+01 -1.603931074556899361e+01
-3.457253823556199990e+01 -1.638693444014692702e+01
-3.506316908756198814e+01 -1.668779316514385513e+01
-3.857206012591473332e+00 7.565947031322758676e+01
-3.767287044882220215e+01 -1.730009026715733000e+01
-3.824272390631417551e+01 -1.746816226679830564e+01
-3.882008116442048618e+01 -1.762444264185117859e+01
4.879712580148319745e+01 -4.775151185205345428e+01
-4.056842306579395085e+01 -1.805392724270094007e+01
-4.120001456874148715e+01 -1.791672458123464295e+01
-4.120706036271664630e+01 -1.820860470270102027e+01
-4.198458438308407636e+01 -1.825586347842056512e+01
-4.279835330394105597e+01 -1.814806515705965495e+01
3.951011908384249693e+01 5.003482155479712645e+01
4.039303664532872773e+01 -4.699663790562468080e+01
-4.565299755464521070e+01 -1.785533180158096300e+01
-8.392173384974347172e+00 -3.093906567011084618e+01
3.842039579394193538e+01 -4.687127366303008813e+01
-8.078809996544547900e+00 -2.920944833217256331e+01
-7.281281762484010045e+00 -2.715452254564951318e+01
2.389603895476641870e+00 7.327826890329453136e+01
-6.446090333293222230e+00 -2.605446039020450399e+01
-5.160862119779239698e+00 -2.502467041010985582e+01
1.235688738320863322e+01 -6.442407776480897574e+00
1.220384610012565219e+01 -7.558269004093779664e+00
1.210404420424881167e+01 -7.764029383161739517e+00
1.027966052578326384e+01 -7.781104262630661239e+00
9.087999312678723740e+00 -8.188600166385342050e+00
-1.765456810665487808e+01 -1.235094259838166231e+01
-1.878937618589862879e+01 -1.274804650932718353e+01
-1.981224511425874724e+01 -1.673948833588078600e+01
-4.299212042501806508e+01 -1.795598921442415374e+01
-1.330525526597886099e+01 6.551222750388673433e+01
-2.875113706822716253e+01 -1.392117431988191711e+01
-9.375567187905026856e+00 6.889225761104452772e+01
-3.094861680339750265e+01 -1.413141990267252979e+01
-3.182124146336534665e+01 -1.449602009617048815e+01
-3.267460927231977053e+01 -1.487100335384537964e+01
-3.348344198485368395e+01 -1.542314500843127334e+01
-3.417444411141805460e+01 -1.595901263843551376e+01
-3.477788328250137084e+01 -1.650417761777375958e+01
-3.529851701190679591e+01 -1.679740145654719896e+01
-4.379206927120078774e+01 -1.774158867489825298e+01
5.376553038652320993e+01 5.187862413203299639e+01
-3.794900883145972870e+01 -1.728274259158033388e+01
-4.450962171277075896e+01 -1.767781116514195006e+01
-4.519052969976765155e+01 -1.772472945725228399e+01
8.157615612737822985e+00 -2.332819851888520546e+01
8.353372978360530610e+00 -2.359176753903125245e+01
1.830589244540959015e+01 -6.712013185453651332e+00
1.848170452934582997e+01 -6.449783853279551948e+00
1.861206189780155995e+01 -6.217085628942027320e+00
1.879242385411329508e+01 -5.801665206747042447e+00
1.890531634187842158e+01 -5.461805421142942762e+00
1.902736542556236898e+01 -5.049977713634923759e+00
1.916016088812889606e+01 -4.526232215787862501e+00
1.932475625517848172e+01 -3.969317431698630827e+00
1.949468910407375688e+01 -3.427415821368613003e+00
1.966844178916834807e+01 -3.025232129976060502e+00
-5.263508075014724596e+01 1.387905253438362863e+01
1.990988617830999630e+01 -2.506394891263329150e+00
2.022805399881444899e+01 -1.924891236410305462e+00
2.047205972697332044e+01 -1.538954579631457653e+00
2.081859626998539525e+01 -1.002874633699072149e+00
2.109916937494221045e+01 -6.088433692689028121e-01
2.131904017848558652e+01 -3.132111493544674219e-01
2.148794006749656660e+01 -8.976716868063967791e-02
2.156960056050883523e+01 2.630150438563826770e-02
2.168680612345683301e+01 1.273351303254202371e-01
2.204754464278605042e+01 3.686396134948892733e-01
8.610715587725445985e+00 -2.320282919808596844e+01
2.243562514785325845e+01 6.395254385087804083e-01
2.284745909531919850e+01 9.408826759065965772e-01
2.312314018592527276e+01 1.128119299521045615e+00
2.331461160529018173e+01 1.215693461936903308e+00
2.353520185356132544e+01 1.309982461550994293e+00
2.336102884793631773e+01 1.665661697963529475e+00
2.382504316991488835e+01 1.852972167918301105e+00
2.394885817116655247e+01 1.384483235755658903e+00
2.439799326066638585e+01 1.437973764166512680e+00
2.415543246328843452e+01 1.220985903582099352e+00
-5.246638077281068746e+01 1.357165889731221142e+01
2.452911467846020699e+01 8.049981078745880314e-01
2.429761743125103379e+01 6.988804514823726555e-01
2.432538284895811387e+01 4.144008438432764119e-01
2.430692867274360580e+01 9.764702123440697004e-03
2.428777213390673140e+01 -5.898567067132703956e-01
2.418798528933650616e+01 -1.323183550457689206e+00
2.407748033396593001e+01 -1.850673511372169733e+00
2.394291309428368564e+01 -2.454236324379002188e+00
2.377468846923106227e+01 -3.132582252286049140e+00
2.361895996556230060e+01 -3.713008552719584632e+00
9.004625317249725924e+00 -2.273071572972916599e+01
2.343236472120961977e+01 -4.345681096820368516e+00
2.323969418916886553e+01 -4.950073008597951407e+00
2.306340285977365312e+01 -5.483647499661405966e+00
2.292014702163356077e+01 -5.940135532868650259e+00
2.279308436913969516e+01 -6.299895425667699556e+00
2.259913338574693498e+01 -6.862596256347790025e+00
2.248130871205114190e+01 -7.204204763340703366e+00
2.241973302767867438e+01 -7.451468268336105538e+00
2.233131156813222162e+01 -7.772286316127910766e+00
2.228680503730647189e+01 -7.963424135023289274e+00
-5.215903658841270385e+01 1.301822084948085489e+01
2.225329078251786186e+01 -8.147294092951899103e+00
2.430442070957794698e+01 9.504182517224050386e+00
-5.060575225380134867e+01 1.567984005381608448e+01
9.744293252495747737e+00 -2.472744555649539322e+01
9.458408779372321717e+00 -2.462427493399253464e+01
-5.180439183242456380e+01 1.534823402930848069e+01
8.841671397892088891e+00 -2.443267750810431593e+01
6.457179405814791551e+01 4.487815429266214795e-01
8.497468140725432661e+00 -2.426589261833257183e+01
8.387464599882434868e+00 -2.416360573637573594e+01
-5.202598772563652574e+01 1.275583206884955345e+01
8.122202539051118109e+00 -2.444411253513254323e+01
7.823853618125488296e+00 -2.385388457415130858e+01
1.764924303390023042e+01 -6.866946219441915744e+00
1.826066893801951707e+01 -7.154367336757105456e+00
-6.469440171095592973e+01 -2.962734218736048675e+01
2.901506867891002983e+01 -6.571927034020234260e+01
-6.815665956865129260e+01 -2.709981136386131340e+01
3.077660639859556113e+01 -6.668214029539545606e+01
3.079570629230537193e+01 -6.661864232957751142e+01
-4.170791292963826180e+01 6.503495009262142901e+01
-4.197034574803049622e+01 6.482630918090423222e+01
-6.875878746789872764e+01 -2.623124786969455968e+01
-6.874238455827114080e+01 -2.624730595998425642e+01
3.338121522239929817e+01 6.762063232425212789e+01
-6.905224298089815704e+01 -2.564518710589757333e+01
3.367622871686777586e+01 -6.708040023749256875e+01
2.983638098440476227e+01 6.566621764494401248e+01
-6.888190240388172469e+01 -2.521616070440877522e+01
-6.929337161581695170e+01 -2.502144298532200040e+01
3.380832357458009341e+01 -6.663333030747236307e+01
3.426935873963433465e+01 6.705009856227152909e+01
-4.378038894067198328e+01 6.379540499936449294e+01
3.457122709366586122e+01 -6.644422134974672645e+01
3.437880740270326640e+01 -6.591291191822629969e+01
-6.904159331288867918e+01 -2.422656627121734374e+01
-6.908870089002587633e+01 -2.377473493647480751e+01
-6.858672955365481982e+01 -2.391176178541230968e+01
-6.459986309278495753e+01 -2.901390598001569998e+01
-6.871601353470532558e+01 -2.340579800941911870e+01
-6.853689577850640546e+01 -2.340335756536181577e+01
-4.494424891246921305e+01 6.425198346514032721e+01
3.451086626079517572e+01 -6.490014333309530059e+01
3.487248860807698492e+01 6.556956644146188751e+01
-6.797657403444191004e+01 -2.331916135200530249e+01
-6.760966126214535166e+01 -2.381307059411366112e+01
-6.732329074311206796e+01 -2.336837691493207458e+01
3.384374807887059688e+01 -6.390847923904102856e+01
3.374084470348609699e+01 -6.445363414007074709e+01
-6.458054751898659163e+01 -2.886523311596043229e+01
-6.677894810097832590e+01 -2.383800573074817564e+01
3.317621805030631066e+01 -6.413714406101441057e+01
3.404260465888151543e+01 6.470845145532230447e+01
-6.689803553506560263e+01 -2.451847027423496428e+01
-4.496335698594740649e+01 6.648141917659636135e+01
3.346725794954996758e+01 6.423714899649081644e+01
6.823568691359544403e+01 -3.682946207942248407e+01
3.204710782639828892e+01 -6.386637235306309179e+01
6.802949718514568644e+01 -3.707875566172383230e+01
-4.450355708653710707e+01 6.682059125671719357e+01
-4.033080774647831390e+01 6.594598118817883403e+01
3.134539800482864536e+01 -6.394909451129777977e+01
-6.575976664734756127e+01 -2.690257292269844669e+01
-6.576493191912108216e+01 -2.705625487212839886e+01
3.136958831037450324e+01 6.400298264046831775e+01
3.051226327629451163e+01 -6.410345596183819339e+01
3.017658336371843930e+01 -6.415243465127697675e+01
2.989401081914327563e+01 -6.405646751366414549e+01
3.067299389260793419e+01 6.412310656794585384e+01
-6.603727256821370872e+01 -2.842376703836776386e+01
2.930119803179773186e+01 -6.403096779521830229e+01
-6.439476442751681873e+01 -2.835236786864187053e+01
2.924059839971291197e+01 -6.405496815250619136e+01
-6.633178361158871894e+01 -2.883915221865847300e+01
2.862716640698225845e+01 -6.429252429544948200e+01
2.930686626168637687e+01 6.423022537810933841e+01
-3.961578307420307254e+01 6.792447652893815757e+01
-6.617562374071573572e+01 -3.001714146767978164e+01
-6.588928456343676032e+01 -3.008623036438116571e+01
-6.570784376725299580e+01 -2.964702528176428586e+01
-6.538757613142260539e+01 -3.004361200044647262e+01
2.818177759144997552e+01 -6.535701231889358098e+01
3.035267686721578784e+01 -6.666724079583867990e+01
2.897346517046418413e+01 6.542157829367538113e+01
-6.467075885139996672e+01 -2.998276858922622168e+01
3.092471478495987469e+01 6.674352165662948266e+01
3.062901134275530524e+01 -6.675970117956548222e+01
1.542773708459936222e+00 -2.322318062336553623e+01
1.564486544158550041e+00 -2.317912479228648692e+01
4.713998535889909469e+00 -1.838526626524897623e+01
2.815255102418148803e-02 -4.757298955246461247e+01
2.814170282752887289e-02 -4.757501309066154249e+01
-2.198150817816317470e+01 3.137879099820063189e+01
-6.116235521454115087e+00 3.678725209760704473e+01
-6.328496524643957954e+00 3.646244443912201660e+01
4.953348534324320873e+00 -6.702176068610062032e+01
4.982316238665874586e+00 -6.698947699162489755e+01
-8.132136792320451946e+00 3.456667672597050966e+01
6.677529425840877764e+01 -1.415136973693858913e+01
1.618783967907416965e+00 -2.316109271117442958e+01
-1.256626538036370633e+01 3.349880783646963778e+01
-1.273475847385517667e+01 3.342357575824052418e+01
2.904122554982465587e+01 -2.306443296699634260e+01
-2.164186894081885626e+01 2.227648687472429145e+01
1.604698338053779949e+01 8.139144085063090728e+00
1.663765140378232132e+01 7.501801509868438522e+00
-3.214910109274883965e+00 -1.171956959107076024e+01
-3.765557395241407423e+00 -1.183592130828698430e+01
-4.038974239959985724e+00 -1.234149774412728995e+01
-4.656660011651663211e+00 -1.195643609518581485e+01
1.797337459396815218e+00 -2.297961634399731778e+01
-5.071585490358063275e+00 -1.267496260515933315e+01
-5.939188250102719557e+00 -1.213705554049764679e+01
-6.220559423661581988e+00 -1.302626878449580516e+01
-2.412717832281024855e+01 -4.033564294348352774e+01
-2.410581594548580142e+01 -4.029713654452768168e+01
-2.408729135663712029e+01 -4.026480187803761623e+01
-7.095471149323404170e+00 -1.310285024286084976e+01
-2.404754893149182848e+01 -4.019621795626171945e+01
-7.304681387611498877e+00 -1.310213759971536085e+01
-2.399678001568404184e+01 -4.012766317017609907e+01
1.938607992468270202e+00 -2.283438120785769598e+01
3.062245216232508582e+01 2.763311872476996101e+01
3.067890688851701597e+01 2.736112469898446875e+01
-8.091450591208277032e+00 -1.277364377985410648e+01
3.080148757096662848e+01 2.679393793523313505e+01
-2.253587414577924264e+01 -4.557762719865442591e+01
3.091539823730187564e+01 2.626589499267909034e+01
-2.245634359489261556e+01 -4.601293575002525671e+01
-2.244417664610318397e+01 -4.607791110585389305e+01
1.070556175740245841e+01 1.082053703409887468e+01
1.055049451319491816e+01 1.104549843724623237e+01
2.179724168939598528e+00 -2.259082987316966395e+01
1.024256941329820414e+01 1.154387290254098986e+01
-2.518471228294135500e+00 2.538707893087961054e+01
-2.809148656376274644e+00 2.709931893991161544e+01
-2.622161565806718553e+00 2.729495585611529407e+01
-2.476921363643192375e+00 2.733880981163880719e+01
-1.187368076691568630e+00 2.727854283460968787e+01
-7.648866060009413825e-01 2.706998908018742611e+01
-1.061765211948246135e+00 4.757258711587207145e+00
-1.008368712445832482e+00 4.729368709085952638e+00
-3.264082834518662679e+01 -5.221142488911443991e+01
-4.966157390415335726e+01 8.877242027483280395e+00
2.091964141267579080e+01 1.637582417873931107e+01
2.746516523533991894e+00 -2.662243991241674834e+01
2.707672922349430689e+00 -2.654775658335090682e+01
2.648102904061720775e+00 -2.644207897524370665e+01
2.212803312957257873e+01 2.591142982450162791e+01
2.212896015121192761e+01 2.591359175251047375e+01
3.474833178841675085e+00 2.966867702409198948e+00
1.284668433528732612e+00 -2.427862541761201598e+01
1.329946337593242545e+00 -2.389377273672530677e+01
1.331968548174655709e+00 -2.374234128571643154e+01
2.262900703034536321e+01 2.171138058800142545e+01
1.330691317753830427e+00 -2.348727204032434912e+01
1.399632773413108655e+00 -2.333810831110390183e+01
-4.966339492433590408e+01 8.876422939934199619e+00
4.032678740911775250e+00 -1.919352183717776583e+01
-3.743241128452410749e+01 -1.650649606857612639e+01
-7.372704886069704200e-01 7.388166521261435093e+01
4.072503390454549077e+01 -4.571520374882780402e+01
-4.450043172251778145e+01 -1.521718575264820572e+01
-9.318047404394111055e+00 -2.994165970113352770e+01
-9.206632246713967405e+00 -2.953809713314961982e+01
-9.085712303544765334e+00 -2.848415391561829324e+01
-8.577531057514676149e+00 -2.734184899247380329e+01
2.030194020336843597e+00 -1.285016617188993315e+01
2.116130486076214900e+00 -1.251409153899227000e+01
2.117149458214700353e+00 -1.241176583272211253e+01
-1.468453669784840088e+01 -1.101377207019037208e+01
-3.999565800406553251e+01 -1.716362533659100365e+01
-1.473509215220627588e+01 -1.105522078118576701e+01
-1.372912052860164067e+01 6.371462058862157107e+01
-2.756110536019163249e+01 -1.556573780573967802e+01
-2.776072872583276663e+01 -1.541682201369285643e+01
-2.793049801923725894e+01 -1.538102302142407041e+01
-7.574313203007047690e+00 6.798262883807532830e+01
-7.523706520539853670e+00 6.805056679877405656e+01
-3.369438697165740848e+01 -1.366071465332823287e+01
-3.390428664679016180e+01 -1.379911035947100117e+01
-3.419264384928996492e+01 -1.391766242848563628e+01
-4.033156171548152003e+01 -1.715582741346610618e+01
5.758409128890781403e+01 4.981559712027281961e+01
-3.555335627712009483e+01 -1.450043572629721389e+01
-2.588608675846104656e+00 7.491550945154963870e+01
-3.780104660812055073e+01 -1.534364477155763673e+01
-2.438838246741446447e+00 7.515586186606901720e+01
-3.871961550982555167e+01 -1.599238090236142718e+01
-3.918392721212541829e+01 -1.599305946644177290e+01
-3.972750286880465609e+01 -1.599526867025527643e+01
-4.034021226199308074e+01 -1.605041345768303174e+01
-4.088975446177651207e+01 -1.603387941616683321e+01
3.493606512878605352e-01 7.359139655985899253e+01
-4.144493010084566009e+01 -1.600629785270316319e+01
-4.198977544421493491e+01 -1.590043001081650864e+01
4.286613425581786174e+01 -4.662958356671153126e+01
-4.533934128370163563e+01 -1.637461648824208282e+01
-4.574942340041847899e+01 -1.631900949092365849e+01
-4.599759484344145477e+01 -1.627625920218082456e+01
1.115879553928817103e+01 6.826137396167685267e+01
-4.732080811649522190e+01 -1.564023822689878962e+01
-7.000003988404213118e+00 -2.929435367549821123e+01
-6.595687414634291201e+00 -2.847072213208396363e+01
-4.171494217062345911e+01 -1.712282744453876404e+01
-5.580744455795758618e+00 -2.695221125494569492e+01
-4.547510700568570208e+00 -2.599098231705086093e+01
5.345630690796005169e+00 -1.276609323821289621e+01
5.561236593316048804e+00 -1.254980295041269223e+01
6.095021184338436981e+00 -1.205573234940084681e+01
6.324973058007628879e+00 -1.182661603559472496e+01
-1.708003688370207129e+01 -1.063631169781893071e+01
-1.757428720746263551e+01 -1.113283307163761116e+01
-2.058640389652061131e+01 -1.240597098790497554e+01
-1.174656984339643095e+01 6.516884554974259913e+01
-4.220145860848514019e+01 -1.700371231676690442e+01
-1.167916465868012921e+01 6.519694673172426747e+01
-2.932767189779401917e+01 -1.500400975982687513e+01
-2.967473716129047290e+01 -1.511892861961049839e+01
-3.014561042805380353e+01 -1.538509494892345764e+01
-3.059601590509870661e+01 -1.560620733977676799e+01
-3.098620041066241981e+01 -1.596661747056656999e+01
5.908591201785670677e+01 -4.356194835663718123e+01
-3.526608201223938721e+01 -1.538399911129969411e+01
-3.580781386280825984e+01 -1.570162216352661844e+01
-3.256007580508574417e+00 7.362312316855847882e+01
-4.264821713192668540e+01 -1.687151866143536694e+01
-3.682944028025315220e+01 -1.630920770274293474e+01
-3.715474281690348590e+01 -1.641046754797532614e+01
-4.314567563576846254e+01 -1.675649517722155224e+01
-4.369154204262764551e+01 -1.654388615144946328e+01
4.141128879106543259e+00 2.776164679411562020e+01
3.847301351674234038e+00 2.787237838093121667e+01
-1.255599123662502814e+00 3.003307399104864572e+01
-1.762717996149737898e+00 3.039295897338679708e+01
-1.587032889278824355e+00 3.093544660604530705e+01
-2.134091192173013685e+00 3.111252655052780014e+01
-1.957301402146657932e+00 3.156014392551918846e+01
-2.233183221069370283e+00 3.193069641058074382e+01
-2.119056997581493906e+00 3.232110872223465492e+01
-2.328617872099801644e+00 3.268037586631934488e+01
-2.317498306225411753e+00 3.307374410695593525e+01
-1.857962243466755980e+00 3.328575711069020571e+01
3.362345127190445648e+00 2.805369840637548151e+01
-2.103924016249395290e+00 3.374703651471177324e+01
-1.853961515052630293e+00 3.409967357759045115e+01
-1.727594125781002798e+00 3.445031247287607812e+01
-1.391570360206260792e+00 3.466781642619100978e+01
-9.916861529409094489e-01 3.505952772221477431e+01
-6.390709756537477082e-01 3.522020705527390305e+01
-2.199448117321426699e-01 3.531411618558032472e+01
9.974457924641293161e-02 3.535711697682783949e+01
4.934113459874356900e-01 3.534950410795357101e+01
7.623070992791309841e-01 3.529797839209683019e+01
2.808121214372845564e+00 2.827686870726096657e+01
1.244955222921223381e+01 -5.026621410030006132e+01
1.255996219832818728e+00 3.513711423507976406e+01
1.525988902380051693e+00 3.506988897289034668e+01
1.643685039367693168e+00 3.500128565787098012e+01
1.869222603401540228e+00 3.488171289787716489e+01
1.892425883211478865e+00 3.478447301440701978e+01
1.973536585138176536e+00 3.461825521578391118e+01
1.884597301465240848e+00 3.441321558007520309e+01
1.780829524896841543e+00 3.415407351392430968e+01
1.768100908743610811e+00 3.395410277623783202e+01
2.272075474222069236e+00 2.850833710601503768e+01
1.605669437782386133e+00 3.369099881388530804e+01
1.558885885951927674e+00 3.329948272996250580e+01
1.159420789462834556e+00 3.305542249196705029e+01
9.662973809224643107e-01 3.250794452642031018e+01
-1.210917473455348059e+01 2.987834835797459476e+01
-1.258743242966197684e+01 3.003461669346773633e+01
-1.307463807525030752e+01 2.982381123088629593e+01
-1.305771500916292283e+01 2.938681567039060383e+01
-1.350438272515394367e+01 2.933393188854798339e+01
-1.355695457745988008e+01 2.896851301200887008e+01
1.729001755831128806e+00 2.874158128056377137e+01
-1.376958238263454959e+01 2.878990064352439049e+01
-1.358330182231662242e+01 2.848505507170192175e+01
-1.394130059264225707e+01 2.827172626918772380e+01
-1.375637099676124997e+01 2.800865424407582438e+01
-1.393054034637865968e+01 2.780429787237531514e+01
-1.386266015856050871e+01 2.757780048651385130e+01
-1.370810449904597483e+01 2.732108234227167642e+01
-1.369720739749292271e+01 2.709738377381640717e+01
-1.355882916541199812e+01 2.688608876053501007e+01
-1.326665207396458079e+01 2.670413050712913972e+01
1.076266711936077369e+00 2.907125914399502875e+01
-1.291734670888986258e+01 2.617412196885609177e+01
-1.278003687485853490e+01 2.573669795052501996e+01
6.557620298847501417e+00 2.652271450731568692e+01
6.215739533263846539e+00 2.674252026022984552e+01
5.912852198548466554e+00 2.692927624676197595e+01
5.702659271754416892e+00 2.705487104722194047e+01
5.523987478301933152e+00 2.714761966605481902e+01
5.307958195560834369e+00 2.726201339525267997e+01
5.075487025686585163e+00 2.737653743544316498e+01
4.870946595293934145e+00 2.746799395584818626e+01
5.062073216455611480e-01 2.935280849425045702e+01
4.657347570135656589e+00 2.755727896054471771e+01
2.130383555755073388e+01 -3.059472579587457730e+01
-1.105363445269347822e-01 2.961661830157455455e+01
-6.468645295330593958e-01 2.983749942300802616e+01
5.985619544172634754e+00 6.338962717272814729e+01
-1.558575778227411135e+01 -2.659675831539032131e+01
-1.059918184582378586e+01 -2.624263422688920500e+01
-9.409966217655837184e+00 -2.570249140002189492e+01
-8.343993014028022515e+00 -2.512908454656183466e+01
-7.168775369864508029e+00 -2.441779346300751286e+01
-6.076106183058488597e+00 -2.347304198947999510e+01
2.323442658502367308e+00 -9.272675060598388752e-01
1.913758771427631178e+00 -1.071781725278752484e+00
5.632175812477642207e-01 -2.541068816991145507e+00
4.910320718130271600e-01 -2.757455708030954522e+00
2.949822130808409160e+00 -6.960241354282367787e+00
-3.735827429147038004e+01 -8.099238036116844341e+00
3.382857942203661761e+00 -8.016341632336152045e+00
-1.618743872721699972e+01 -1.323499063368819151e+01
-1.750523939455877453e+01 -1.401490900691122654e+01
-1.860205484264587383e+01 -1.471785004144963160e+01
-1.932199181399055021e+01 -1.493083122712225830e+01
-2.010519520728125187e+01 -1.513013838175488246e+01
-2.056199221855592540e+01 -1.521657159499285683e+01
-2.095626550570358759e+01 -1.530052489739484933e+01
-1.809191890499192468e+01 -2.947916594860206274e+01
-1.792606561679639654e+01 -2.932780768702911800e+01
-1.463480698111417588e+01 -2.698503182978571857e+01
-1.775618189737667763e+01 -2.919624359197892716e+01
-2.330145926828406644e+01 -1.624963881530238652e+01
-2.335629344773941796e+01 -1.629679541369419837e+01
-1.634620817978458973e+01 -2.836357744482843302e+01
-1.608538899598471517e+01 -2.826795349410513936e+01
-1.591417858400798302e+01 -2.822017776447432524e+01
-1.574237644429229377e+01 -2.816536558657141853e+01
-1.543102915116765672e+01 -2.809969886871510525e+01
7.731100254523202153e+00 6.255611359559392071e+01
-1.448262985919356716e+01 -2.799833888585059327e+01
-3.790906298465905877e+01 -8.518254738248156599e+00
-1.417404939348278603e+01 -2.797792656986016624e+01
8.285384450213314267e+00 6.268580214278188834e+01
-1.330418595657682168e+01 -2.785281428609524923e+01
-1.280456114047680671e+01 -2.771643322523682329e+01
-1.237167638203455056e+01 -2.759235260518822130e+01
-1.190453422268753769e+01 -2.744921553539694870e+01
-1.102754031360104570e+01 -2.719494224060758825e+01
-9.728622619769236479e+00 -2.640266085013671926e+01
-8.406274121747362216e+00 -2.562946343573247887e+01
-7.468934728953300350e+00 -2.499406814669166366e+01
-3.800740865544278790e+01 -8.881583953620381777e+00
-5.714930170342618077e+00 -2.409666517753856496e+01
-4.688982013355505352e+00 -2.380299327117670316e+01
-1.989423637551537838e-01 -5.306714218787500492e+00
-8.613669497978367062e-02 -4.891028495461649861e+00
7.664936252925751148e-02 -4.715820723925612690e+00
7.661560323420991026e+00 -7.289778000386046841e+00
7.175587511472668822e+00 -8.019009065792594981e+00
-1.669916029529774804e+01 -1.380220469186561161e+01
-1.791045640275845585e+01 -1.454642109067128075e+01
-1.894312995521052301e+01 -1.481526448311841193e+01
-1.355150467047498530e+01 -2.682460749040645709e+01
-1.949918580497904586e+01 -1.496746793202243531e+01
7.235743796028013719e+01 2.083444171574926429e+01
-2.122237247500406809e+01 -1.529124399515326971e+01
-2.156002628457101267e+01 -1.552115712550509841e+01
-2.182257111316097564e+01 -1.540138426475762756e+01
-1.822625852294769544e+01 -2.821169610561518226e+01
-1.812910628326685014e+01 -2.804047322345209636e+01
-1.821896453257060244e+01 -2.778617665813969850e+01
-1.785000153707024140e+01 -2.738294893221939574e+01
-1.733411977708244578e+01 -2.719162444203229967e+01
9.316457439227191273e+00 6.410691053666688788e+01
-3.623992574824838186e+01 -6.462467432775285126e+00
-1.654009553162021362e+01 -2.666782460628630247e+01
-1.231884330941568706e+01 -2.668546760138466922e+01
-1.156526059066404066e+01 -2.654837304077133453e+01
-3.771869776325102208e+01 -1.837539664926809380e+01
-3.961225660764983303e+01 -1.905983836658997532e+01
-7.863434879809245714e+00 -3.220335118168414112e+01
3.801143186017483089e+01 -4.589936412097227958e+01
-6.707840130960857294e+00 -3.057554798018908926e+01
-6.040853579373780313e+00 -2.960834762803795783e+01
-5.290380075968337259e+00 -2.827949203918878140e+01
-4.152736882003736696e+00 -2.735960244710647515e+01
-3.177810178168610111e+00 -2.681338147365896418e+01
9.299367185785690992e+00 -1.287705734886414888e+01
9.283897950142252498e+00 -1.286781133887138928e+01
7.937408846254981221e+00 -1.293786119545998403e+01
-4.016420653797801776e+01 -1.918349413841889373e+01
-1.863358151494322357e+01 -1.028908810417934738e+01
-1.930988376147096375e+01 -1.079211434317261542e+01
-1.999331039897448292e+01 -1.091199682119895087e+01
-1.256015846149712090e+01 6.694480243686936660e+01
-2.874776107778331991e+01 -1.240982052030567218e+01
-2.908868417310166521e+01 -1.257488284422944602e+01
-2.963058808876001748e+01 -1.272789913949401353e+01
-8.288451375740422122e+00 7.084216661169794804e+01
-7.992197774696810697e+00 7.111382486314073503e+01
-7.702105512635946560e+00 7.137526057581294481e+01
-4.071633737439746170e+01 -1.925899319419719902e+01
-7.321899950255365219e+00 7.171430866656001513e+01
5.737501218357459720e+01 5.189058435558510496e+01
-3.389873776738179600e+01 -1.749481549473988551e+01
5.655336408713711194e+01 5.190380454753056938e+01
-4.655591626498739366e+00 7.435071224190936334e+01
-3.693211829339973917e+01 -1.893405497933594361e+01
-3.767415246886033486e+01 -1.902341319706365041e+01
-3.831846659130211208e+01 -1.901101640453854458e+01
-3.891439660085198682e+01 -1.911286518663933620e+01
1.279094023732049390e+00 7.512716931993470837e+01
-4.131157848808945232e+01 -1.924749860186335582e+01
-4.181566966584234990e+01 -1.957011607077992821e+01
-4.239507918068652259e+01 -1.949889299260398445e+01
-4.305512146143318120e+01 -1.948550081901117537e+01
-4.384914648365251111e+01 -1.942074355446298384e+01
-4.453571768564738420e+01 -1.931440309604195349e+01
-4.510298094724760887e+01 -1.925167436712353464e+01
1.253715455216514485e+01 7.000901631912644518e+01
-7.086156065605367260e+00 -3.140087580608618367e+01
3.660097130731982418e+01 -4.627585049388124361e+01
-5.683929867712445017e+00 -2.882064019260121412e+01
4.513573703187773845e+01 -4.699082374442951959e+01
-5.095672009326121632e+00 -2.772773971075569577e+01
-4.182521905706355625e+00 -2.682195573907135611e+01
-2.947189201425462812e+00 -2.593801892503548601e+01
1.036514168560846905e+01 -1.124376459973173503e+01
9.891046027257546669e+00 -1.121806627896687125e+01
7.975235659021040924e+00 -1.213260114180106264e+01
-1.802435946553025303e+01 -1.010853744306236734e+01
-1.874604106916843449e+01 -1.100828363909861451e+01
-2.031852096954010634e+01 -1.128842665106209786e+01
-2.072080048070694858e+01 -1.120229105509540446e+01
-4.330005863132058863e+01 -1.883445991281905307e+01
-2.838214482374731773e+01 -1.257966245948962936e+01
-2.890856932979388816e+01 -1.287693422224784356e+01
-2.950027305384971044e+01 -1.309200967810015470e+01
-9.039715656797978838e+00 7.053212051900170820e+01
-3.175504288341887715e+01 -1.565187485239919774e+01
-3.221678072127494374e+01 -1.599465957447390352e+01
-3.272362657980596623e+01 -1.632454858759329497e+01
-3.323586718055673828e+01 -1.666515434028611864e+01
-5.200735686898156018e+00 7.310226336259874813e+01
5.548003708398783829e+01 5.121430483770323860e+01
-4.392739228605692858e+01 -1.874841530042448667e+01
-3.681884524797941793e+01 -1.809349520186128757e+01
-3.720845203075177920e+01 -1.823565237451569843e+01
-4.439287263659689131e+01 -1.868319701956787782e+01
-4.493038137136758792e+01 -1.863945205247834735e+01
-1.286817698462164650e+00 -1.273122648826363168e+00
-1.900645205856883901e+00 -1.315535454148871741e+00
-6.847734373171610933e+00 -2.150251792382961824e+00
-6.770805319474719752e+00 -2.604391367320078476e+00
-6.647117686908885048e+00 -2.991193367835669470e+00
-6.447625129986105819e+00 -3.400136134572091073e+00
-6.174468598469644576e+00 -3.915256492264438393e+00
-5.823234743609170927e+00 -4.423210846378153427e+00
-5.509512428707158627e+00 -4.820965598521725681e+00
-5.272217968714623559e+00 -5.004722619579918153e+00
-5.022701953694765464e+00 -5.505722187490198927e+00
-4.815990159662393744e+00 -5.748977731066479357e+00
-6.083940285762636790e+00 1.517541134088110866e+00
-4.638876381949388339e+00 -6.028566681867513211e+00
-4.482686152878838648e+00 -6.322320924832973255e+00
-4.317199796998393069e+00 -6.653788686131057339e+00
-4.068599081387225702e+00 -6.931571196960002013e+00
-4.204363154820565107e+00 -7.372921442695573369e+00
-3.970979335664833521e+00 -7.559159748844006543e+00
-3.661587803098841576e+00 -7.729778981273869753e+00
-3.339071806250287988e+00 -7.646673856509863754e+00
-2.942712731334741427e+00 -7.496332589147771230e+00
-3.058241864907856211e+00 -7.003020312813435844e+00
-6.343900993145775935e+00 8.978294840191208825e-01
-2.593226247966994524e+00 -6.739322464659617040e+00
-2.849179484193615775e+00 -6.262905251179721411e+00
-2.882266912887731181e+00 -5.623470867628688197e+00
-2.258193039963770854e+00 -5.332328822387395029e+00
-2.239755669901871915e+00 -4.760817286200511589e+00
-2.678332188785456314e+00 -4.432714874545331085e+00
-2.208342384733024577e+00 -3.998798376063558369e+00
-2.671100521001896766e+00 -3.864592716826554586e+00
-3.197583564946007595e+00 -3.514719090528871437e+00
-3.457047402535927905e+00 -3.177950512758225265e+00
-6.500642948701366386e+00 3.237169176729479125e-01
-3.735548264032658494e+00 -2.733177593206696177e+00
-4.111002669897652062e+00 -2.211732204694953463e+00
-4.436586647768972824e+00 -1.618036983559763886e+00
-4.741145725420733648e+00 -1.099982673852732074e+00
-4.795071909502580887e+00 -4.401265708691016187e-01
-4.700994000652336524e+00 1.222577420359073075e-01
-4.406274212984750527e+00 6.034020179124188754e-01
-4.168693102978361154e+00 1.108737166449846878e+00
-3.554841827551787237e+00 1.012851492497913286e+00
-3.080606321621214949e+00 1.403418962839671380e+00
-6.465016987729373277e+00 -1.930363729904877312e-01
-2.525411894389736567e+00 1.187777397131257517e+00
-2.020664761022395783e+00 1.101801809481088412e+00
-1.737597188601116338e+00 1.245609156198068446e+00
-1.429941890738794408e+00 7.441747478676178362e-01
-1.317575654334093738e+00 2.079217314773477432e-01
-8.417746434259805177e-01 2.057744413043510467e-01
-6.465880146129090456e-01 4.369445246546848072e-01
-5.500473734128724645e-01 8.079683899989490437e-01
-4.185772821644412889e-01 1.096077865155067110e+00
-3.456502884044499457e-01 1.502589503950107153e+00
-6.514457349145039267e+00 -6.636251019567043219e-01
-4.796944734525702969e-02 1.641649591130451169e+00
2.502559109698247464e-01 1.591549430646193919e+00
4.771842562429925994e-01 1.455044487249697927e+00
6.524080892964772005e-01 1.240020904021967851e+00
6.926753435687247329e-01 9.903705981129239388e-01
6.495100092823034021e-01 7.078141604722990587e-01
5.912955345554129494e-01 4.321316311137283761e-01
4.806550178650464966e-01 1.484352484311088904e-01
2.438345395251811376e-01 -2.306782087357162336e-01
1.248507582430425679e-02 -6.188047807613263895e-01
-6.598444877536737252e+00 -1.089995581041185879e+00
-4.119429727019933707e-01 -8.261671124583156445e-01
-8.300229506189538142e-01 -1.046979413271843740e+00
-6.821358341768115174e+00 -1.393704877571670275e+00
-6.829940615913576707e+00 -1.773254083839302053e+00
-8.394254319725435565e+00 2.992702637538091182e+01
-8.698671429098975949e+00 2.980780216374379066e+01
-6.741083134846753921e+00 2.918655687361098572e+01
-6.645854148551672225e+00 3.008182491490330790e+01
-6.736852288896104213e+00 3.092964565706893509e+01
-6.918889493277458058e+00 3.172424318568831936e+01
-7.061704340747911424e+00 3.218962589376565120e+01
-7.243256428331104502e+00 3.263494007463086888e+01
-7.517530247419790257e+00 3.310126507646160832e+01
-7.928467208027375257e+00 3.326548851643169513e+01
-8.014848271697886162e+00 3.340826715782662149e+01
-8.605921527943609206e+00 3.306652244927344952e+01
-9.044896734337466881e+00 2.958727903181195984e+01
-9.025573347834992433e+00 3.277797731098824130e+01
-9.420092621213585815e+00 3.234511029489001288e+01
-9.646716274669534741e+00 3.193581207995801563e+01
-8.830096479659674813e+00 2.671267316117247148e+01
-8.478300340317174388e+00 2.662885909097513704e+01
-8.126618961036838229e+00 2.648537447449539783e+01
-7.869864317707626178e+00 2.652989126794948760e+01
-7.595181520016273780e+00 2.648240949804573319e+01
-7.316079699157569394e+00 2.650243456665584318e+01
-6.961427995061770346e+00 2.655081243470015551e+01
-9.256272630157232228e+00 2.925850257896494000e+01
-6.648817135365900910e+00 2.651684160349091712e+01
-6.280305950657889547e+00 2.654884220800230921e+01
-5.926944735888242555e+00 2.644705693894126597e+01
-5.584011384724800742e+00 2.649893909809826198e+01
-5.332699341697275663e+00 2.656598576880416474e+01
3.655096319203291699e+01 -2.197823630703799935e+01
-5.034327760745871849e+00 2.688537713839389909e+01
-4.920469606312369848e+00 2.714872455781943472e+01
-4.835504412288863740e+00 2.751372182316530512e+01
-4.753094658812881512e+00 2.798465261551575978e+01
-9.147854517815666497e+00 2.902474456095959354e+01
-4.704010503467215720e+00 2.843380609714895613e+01
-4.745956796028248270e+00 2.866675910631665047e+01
-4.825852546332583870e+00 2.895813947370570318e+01
-4.891835445735713606e+00 2.927505353659366705e+01
-4.994476458870557245e+00 2.954699337394923120e+01
-5.125625781677612736e+00 2.988947762854649781e+01
-5.263677238346486931e+00 3.028058775420362991e+01
-5.475100598226025461e+00 3.080724367347537296e+01
-5.719851869416405776e+00 3.139354469081688137e+01
-5.881733344686975506e+00 3.183557106128402481e+01
-8.881396443953493147e+00 2.875305016856106377e+01
-6.152179882731142690e+00 3.232162931637684267e+01
-6.366855750585110663e+00 3.266472928127007691e+01
-6.646920335799660684e+00 3.295349565503840950e+01
-6.970340092395294285e+00 3.321304172326033211e+01
-7.339401402653138007e+00 3.335440113124588635e+01
-7.778518670866610307e+00 3.316634926504431746e+01
5.840603635113946979e+00 -6.597216341294095798e+01
-8.504260681462794125e+00 3.236645091533459606e+01
-8.728760533856428694e+00 3.170426271322870804e+01
-8.691625405197035192e+00 2.751145662839629580e+01
-8.508367255145106611e+00 2.851381515874983208e+01
-8.257458578396391857e+00 2.758808537049440801e+01
-7.886956465339950206e+00 2.764873006942328715e+01
-7.700887178759281859e+00 2.766630684783059024e+01
-7.466680772946673983e+00 2.786631049117728764e+01
-7.306640420794361823e+00 2.804792595994240756e+01
-7.116781500964965090e+00 2.827530558705543129e+01
-7.049835290490706008e+00 2.845557168649479962e+01
-7.017116539139742315e+00 2.888027954966490896e+01
-7.053930956347892689e+00 2.941798034819258945e+01
-7.358493534149951110e+00 2.976422748452617384e+01
-7.903082123869273445e+00 2.859018873898510549e+01
-7.920349537262622697e+00 2.978743596408445171e+01
-8.260821186112918824e+00 2.987341156344269777e+01
-7.433506995881160151e+00 2.858598695855851801e+01
-7.105556616495447564e+00 2.861711445759788219e+01
-1.429316627649364158e+01 -2.165038036616691741e+01
-1.415644902884644019e+01 -2.226168899689105984e+01
-9.332703229098006759e+00 -2.329620961053815265e+01
-8.466667097947878418e+00 -2.289111314660050667e+01
-7.551267297424709035e+00 -2.240881385885775856e+01
-6.569669302179000248e+00 -2.187067725062938095e+01
-5.791896258613075332e+00 -2.151483974567855029e+01
4.458048768397787853e+00 -1.197537257790698861e+00
3.454889253086697476e+00 -2.454317637215614134e+00
2.811288782231753380e+00 -3.376006663604014690e+00
2.593394388498651448e+00 -4.024567327434117381e+00
5.021440978929850196e+00 -6.073645494219881869e+00
-1.392571523592469696e+01 -2.296282815246970088e+01
5.253756915835118946e+00 -6.838126614573247330e+00
5.411064558977354721e+00 -8.256342193632862703e+00
5.337871088661430008e+00 -8.761648314215056743e+00
-1.562399388580382720e+01 -1.523090154184171041e+01
-1.596242052780820764e+01 -1.580213432931429729e+01
-1.618998298723513685e+01 -1.647123636340572261e+01
-1.625991456391646039e+01 -1.717520783279120167e+01
-1.613797645877863829e+01 -1.784486355436610694e+01
-1.589101872430314444e+01 -1.839524521123449574e+01
-1.569827940599889970e+01 -1.890813517220455608e+01
-1.362120316012467391e+01 -2.340264440716658711e+01
-1.547436333435794609e+01 -1.931615102074035661e+01
-1.523460936646699260e+01 -1.963296766403236404e+01
-1.483669771233035739e+01 -1.984669535989782929e+01
-1.438336159860890362e+01 -2.018426768549029759e+01
-1.398677941570581496e+01 -2.057739779265524049e+01
-1.375912218561947675e+01 -2.075354894862885757e+01
-1.370758944718384065e+01 -2.103444337820444332e+01
-1.357027316009307860e+01 -2.161179305558450991e+01
-1.345143011577459369e+01 -2.225606939696542597e+01
-1.334257128420930627e+01 -2.268555647273445786e+01
-1.323792278698740610e+01 -2.369998401020841428e+01
-1.302465179472416779e+01 -2.296894915594113584e+01
-1.256472455464591498e+01 -2.314106141539526362e+01
-1.206812171872441830e+01 -2.314694775603291532e+01
-1.156215715867629434e+01 -2.309274563853422890e+01
-1.099404867812301134e+01 -2.308983506151452403e+01
-1.023856613741567045e+01 -2.300371775948039854e+01
-9.508342294137626993e+00 -2.290359945429486643e+01
-8.591903154469211046e+00 -2.268833506046840753e+01
-7.595603521063498675e+00 -2.226479631164483308e+01
-6.898484052957315704e+00 -2.199469528920847949e+01
-1.276553374970135302e+01 -2.391903925101626882e+01
-6.031527100317663148e+00 -2.164098794132668502e+01
4.245203223087745670e+00 -7.892420607443945135e-01
3.738321737763754093e+00 -1.865768270334831724e+00
3.093023087543385508e+00 -3.408772593127725514e+00
3.203349226349784473e+00 -3.889564887022459505e+00
5.165980340065173593e+00 -5.627548720489008005e+00
5.617708796430660456e+00 -7.180576382813478986e+00
5.516108450863961288e+00 -8.106648803941894244e+00
5.393379973966007768e+00 -8.619783269217535349e+00
-1.569320093262626337e+01 -1.521447969800229494e+01
-1.225734954614843097e+01 -2.394136210790152575e+01
-1.616823331969663613e+01 -1.578123193667332025e+01
-1.655969096170547417e+01 -1.641144981371815348e+01
-1.684815859396843152e+01 -1.718170933686861090e+01
-1.689732807443762042e+01 -1.797451175026923664e+01
-1.673842221072058578e+01 -1.867412714774459204e+01
-1.644163274465872959e+01 -1.927266191435169418e+01
-1.629310889783604210e+01 -1.981473484309583455e+01
-1.605527571144950016e+01 -2.023367456305894052e+01
-1.577251867395815310e+01 -2.064084928311046241e+01
-1.525423881674220539e+01 -2.086394959192289988e+01
-1.163637880318655426e+01 -2.391634926720697507e+01
-1.469686879595946571e+01 -2.116266029182057551e+01
-5.167740643621248076e+00 -3.514118149428036730e+01
-1.098346368126333594e+01 -2.382711101592861880e+01
-1.020805799508486800e+01 -2.361144781563205441e+01
