8.563881006488092244e+07 1.967210739204290211e+08
2.164628063559386730e+08 -1.556340264735286124e+07
2.679749444008017182e+08 1.155549116540627033e+08
6.065314430384777486e+07 -6.247676112527216971e+07
-2.666037699389172345e+07 -1.877911605816457048e+07
1.950799210973594487e+08 7.611420332612530887e+07
-4.807943318386818469e+07 5.263045558084854484e+07
-3.222483714960953221e+07 -1.992976832048668563e+08
1.769651155269005895e+08 1.274028979413972646e+08
-1.906279388271154761e+08 1.195778009199484289e+08
1.107551156699162126e+08 -1.415546739248417020e+08
1.214107744600026608e+08 -9.836864987391638756e+07
-8.185907248043844104e+07 1.753363755664458573e+08
-3.719637077527096272e+09 -1.436157086454222107e+10
4.406896693394955993e+07 1.721118100743429661e+08
6.265904795187279582e+07 -5.168368421311265230e+07
-6.624275726198546588e+07 1.717908482889432013e+08
-1.497226747555277646e+08 -1.847035790366197750e+07
1.049086115521331728e+08 4.556647397016354837e+06
-1.799980427883608639e+07 2.065041489205175042e+08
-7.254131936409965158e+07 8.048265149189433455e+07
9.432099917787969112e+07 -1.572571306368776858e+08
-4.503538475014550984e+07 -4.387743676486349851e+07
9.221136095187509060e+07 1.381809740227753222e+08
-4.815360648421034217e+07 -2.431410472160264850e+08
7.152288500564425252e+06 1.794188226776697934e+08
-5.189134248594641685e+07 9.190756084240339696e+06
-1.512003933719853461e+08 -6.936023502157333493e+07
1.036531408318619430e+08 -1.176294139860387146e+08
2.069252342286296487e+08 -1.761181259437648356e+08
-2.373035825536998361e+07 -1.045910045008569807e+08
-1.396542380247564912e+08 1.519853742658360898e+08
-8.816283699822933972e+07 2.502172891392669380e+08
-1.188353073294945955e+09 3.641067478381912708e+08
1.713146360595977008e+08 1.040856797087200284e+08
-6.868261284360012412e+07 5.931876944497597218e+07
2.655989292604500055e+08 1.464132607020940632e+07
-1.751529447629298866e+08 1.873457212376559675e+08
-1.277388785169841647e+08 -7.388330903503976762e+07
9.122503218485178053e+07 -1.205418497831435204e+08
1.485766261837485135e+08 -1.533036845916077495e+08
3.335823162386396900e+07 5.206685123286939412e+07
7.716206208296926320e+07 -3.393996458158105612e+07
-9.261728555802989006e+07 8.999299823867526650e+07
1.239666871670409292e+08 3.719606494369959086e+07
-2.800286114093038440e+08 4.499375693230580539e+07
5.809424893849579245e+07 3.063267035012650117e+07
-2.203988019511836171e+08 -3.480024040776175261e+07
-1.680342646865721792e+07 -2.709676230670018196e+08
-1.063867555262879431e+08 2.136749972362973094e+08
1.696147464682388902e+08 2.585794185203535855e+07
-1.254268783429067135e+08 1.036134663486625999e+08
1.621247610257600248e+08 1.296694511963224262e+08
2.472091293511570096e+08 2.846618382665632293e+07
1.955969554797320440e+07 2.649044154995047152e+08
5.769680758147747815e+07 2.064619656295579374e+08
2.082453273674750924e+08 2.009049844475613236e+08
1.857694667921335399e+08 1.014223815167855769e+08
-3.015803874118459225e+07 2.138181639436419606e+08
9.746222696127380431e+07 -1.441483199623048902e+08
-7.128965459950654767e+06 2.411675044778609872e+08
-1.168084185331319273e+08 4.870725353168646991e+07
-1.050869809678579271e+08 1.134420238583584428e+08
4.362585907373446971e+07 -8.117752302729760110e+07
2.049108345720110238e+08 -4.036565003653793037e+07
2.234029245141117573e+08 -1.668185881732425988e+08
1.450244506861661077e+08 -5.758620081552421302e+07
-2.184786344938312471e+08 8.603242184184466302e+07
1.412948518781697154e+08 1.766426567455957234e+08
-5.634279394238001853e+07 2.969014588299334794e+07
-3.808014307228904683e+06 -1.503103307390076108e+07
-6.529117273165714741e+07 1.952109326309632957e+08
-7.523573058491557837e+07 -5.786787429523366690e+07
1.048548621407640129e+08 2.749028900978123397e+07
2.732261085938245654e+08 -1.448681906235523336e+07
5.505105052624034882e+07 -8.360040558067600429e+07
-6.309259767297143489e+07 -1.105525775903708339e+08
-4.989716915090017766e+07 2.853288035411089063e+08
-1.563311434137355983e+08 7.728258449889384210e+07
2.076250574926960468e+08 -8.023787751324934652e+05
-1.716681736297165155e+08 2.524363394083177298e+07
1.817144789492868483e+08 2.039165155366852507e+07
-2.309116569128330797e+07 -2.512042642579816878e+08
1.432824172568477392e+08 -8.066677595317336917e+07
-1.025174718868089467e+08 -6.084857320195531100e+07
-1.803104940003651977e+08 -1.659865328628986375e+06
4.688758984729923308e+06 -2.438542270409321040e+07
1.275326717192264646e+08 2.543077883872297406e+07
2.167380018121187389e+08 1.827042708575684726e+08
7.820942504477845132e+07 -1.573952804978532195e+08
-1.808179315638964474e+08 -9.367650550460760295e+07
2.062608266835458577e+07 -1.849548204030674696e+08
-1.108577973298502862e+08 1.505941579568670392e+08
2.040047118652102351e+08 -1.367596257601121962e+08
3.773568936889966018e+06 2.540469021817044020e+08
6.738516907140377164e+07 1.350474716458356678e+08
-3.836597418138764501e+08 -1.985413054122625887e+08
-9.213822795574575663e+07 2.079650572565723583e+07
-2.251756573273544014e+08 2.767703268707696348e+07
1.205149662685035467e+08 7.179259262648050487e+07
-9.030568551913915575e+07 2.056267761983010173e+08
-1.534016395418271422e+08 1.292675316624092162e+08
1.368971472672746778e+08 -1.318350534702758938e+08
-1.343360116885583699e+08 2.336569581704570651e+08
9.621253974144637585e+07 2.083839702200900018e+08
-1.088005944515406042e+08 -2.596724133925620615e+08
-1.542918172817161381e+08 4.054768139454363286e+07
-6.441906728087146580e+07 3.860105278965317458e+07
-2.222300489857127368e+08 1.683797027957144976e+08
1.216610093437461704e+08 -8.579988922796513140e+07
1.709122959563892782e+08 2.160638766271632612e+08
2.300814927881727815e+08 -5.271118846257724613e+07
2.538419204992808998e+08 -1.394665557901474535e+08
-5.190794355569880456e+07 7.202875200733332336e+07
7.435434711455649137e+07 -2.578273539362389129e+06
1.737889566930176616e+08 6.762024593932843208e+07
4.755741178012106568e+07 -2.384847228452261686e+08
-9.599575917384529114e+07 1.743707341246719956e+08
2.337423286356080770e+08 1.428311895765224099e+08
1.148170568968532607e+07 1.190267689078613818e+08
-4.046033091175887734e+07 2.031880241901967227e+08
-1.928458363253479898e+08 1.811850613453505039e+08
-2.310008396324948967e+08 9.403107473434531689e+07
-4.455402986576654948e+06 1.592217287324897349e+08
-2.942320141510875821e+08 -7.464233750780820847e+07
2.175543116590956748e+08 1.482264706817246675e+08
-2.037222612973612785e+09 3.969668224947018147e+09
6.730783508320079185e+06 1.928216491905782819e+08
-3.558484084347051568e+06 -1.476694705529235303e+08
-1.403734731885785162e+08 -7.764176482677912712e+07
-6.724153041648520529e+07 -1.442739842780973017e+08
9.575608845730154216e+07 -2.217667176951963603e+08
1.913834861467299983e+07 1.719884444733542800e+08
1.536360910275557339e+08 -2.412878710251091793e+07
-1.288985230782232732e+08 8.067399676489260793e+07
2.657367336965546757e+07 -6.306336377706865221e+07
1.129969309056882858e+08 -2.148235048465528488e+08
-3.300305761227909923e+08 -4.950037344896149039e+08
-3.058038549941885844e+07 2.877000886980351806e+08
1.910020444545916915e+08 -1.614634565069459975e+08
9.314347869042757154e+07 6.405173402549891733e+06
-2.171941483140596375e+07 -3.976567291079230607e+07
1.951977401134448647e+08 -9.485934597539506853e+07
-5.871898883045241982e+07 2.100359392998788655e+08
-6.133326915966748446e+07 1.030388053670845777e+08
1.131331471229759455e+08 -1.279937218700756729e+08
-5.295157520668917894e+07 2.268387598367644250e+08
-1.608601614215306342e+08 2.415073144549783170e+08
7.134096939277867973e+07 9.284475954398426414e+07
1.678075997296017706e+08 -2.389390478992825001e+07
1.400110707868026197e+08 -2.352903387288022041e+07
7.547768938093693554e+07 1.239252398576099426e+08
1.103246652403126061e+08 1.525412661534090340e+07
-2.200815098447247744e+08 4.269013501201499999e+07
1.463332405243873224e+07 -9.745517210941216350e+07
-1.161908996173499972e+08 -8.050934828413896263e+07
2.434333988270178437e+06 -6.775449910287736356e+07
-1.013650489216247052e+08 -1.613341843395268917e+08
-7.230373170944024622e+07 -7.938600329988956451e+07
4.158050104061308503e+07 2.274421689549488425e+08
3.716738647122287005e+07 -2.101308194556388557e+08
1.765610938157565519e+07 -2.554333747865904868e+08
-9.518341972005623579e+07 -1.482398278431399465e+08
6.752070898772974499e+06 2.069797332043032050e+08
1.105707719792893827e+08 -9.083777881928609312e+07
-1.796760104722332954e+08 -2.002388854108596742e+08
2.308804887877406776e+08 3.337207018310925737e+07
-1.085288878268100694e+07 -2.392697511025609374e+08
-6.432609427918124199e+07 -3.641386237939650565e+07
-2.362613778361509740e+08 4.104100060034880042e+07
-5.525424040794688463e+07 -2.224670754735186230e+06
-1.950212305405864418e+08 -4.448574390566229075e+07
5.654913674742477387e+07 1.670871055214903057e+08
-1.539065704024163187e+08 -3.215822558962919563e+07
8.270633261272901297e+07 -1.106022945347830504e+08
7.023501829288521409e+07 1.127332353744288683e+08
2.421354413863680363e+08 1.577344098226315975e+08
1.959218501732940376e+08 5.395630978139340132e+07
5.246279819025727361e+07 4.206089801128352433e+07
1.338455397476359457e+08 -8.987945213647902012e+07
-1.721613406120491773e+07 2.523264577286007404e+08
1.343364558410179615e+08 -1.603071752625285983e+08
-6.826778403726390004e+07 2.686395983949958533e+07
-2.046298174256992042e+08 -7.380450364393940568e+07
-1.209974077271344140e+07 -1.366291452901956141e+08
5.501857503477625549e+07 1.318110339855243713e+08
7.618395871829088032e+07 4.049594371431273222e+07
1.319764528823621869e+08 1.866789802455026209e+08
-2.135071676127080619e+08 -2.161898675958766043e+07
-1.408683570661320388e+08 7.750394006279598922e+06
-2.712292932947323918e+08 6.003925996052547358e+06
-1.496436178071410628e+06 -1.980836079381674230e+08
5.375022584605105966e+07 2.353423329761465192e+08
1.466759604440170228e+08 7.080431554861892760e+07
-2.890677979986368865e+07 1.706866387443394363e+08
-1.102799775773149878e+08 2.580515872720943093e+08
2.511151161548685730e+08 1.216215357503268272e+08
2.004995896152696609e+08 1.733495790039704442e+08
1.204170602023639157e+07 8.032032157612295449e+07
-1.932458741584696770e+08 1.465531293978942931e+08
3.142936072209540755e+07 -8.364065555336673558e+07
-3.818588664735986292e+07 -2.624340038926078081e+08
1.949730713141693175e+07 2.480063699741673768e+08
8.261926732625375688e+07 5.091754421024587005e+07
2.633910419640511274e+08 1.557446714872651696e+08
-4.597469698337501287e+08 8.554917203645312786e+08
-3.333649909651946276e+07 -4.179779164830409735e+07
-2.074613099271510029e+06 -2.250633358316225111e+08
-2.661704985547892153e+08 9.256933593194898963e+07
2.083081374334428459e+07 -1.401906097909114063e+08
6.880449575929112732e+07 -2.097523732573459148e+08
8.451515475399759412e+07 9.352042732961578667e+07
3.439743190744386613e+07 -2.701899278557270169e+08
1.070072645524181426e+07 -1.931707585974331945e+06
-1.184454602245862037e+08 -1.381899516068091691e+08
-9.148284913778795302e+07 -1.253013209902421571e+07
-7.976479343164090812e+07 2.908876334909237027e+08
-8.411187121120674536e+06 2.656886398997195661e+08
-1.206400754066003263e+08 2.442310418585555851e+08
1.919665837931099236e+08 2.994761105457010493e+07
-1.033532829088482857e+08 -1.654127736344224773e+07
9.606232534500779212e+07 -2.795768116869768873e+07
4.782970400312209874e+07 2.892937651749232411e+08
1.145367899648022652e+08 -7.598840940609176457e+07
-6.183398656252257526e+07 -5.733756732938140631e+07
8.411259480998980999e+07 -1.459916480382145941e+08
1.327828493955764733e+07 9.264033561795683578e+06
1.588886174483392537e+08 -1.015367862050498128e+08
5.847833266742387414e+07 7.233237242644026875e+07
-6.917678727105616033e+07 -4.798625257734238356e+07
1.470897734269065782e+07 -1.522227226515047848e+08
-4.434013059186838567e+07 -9.723953177000583708e+07
-5.421430202982439041e+09 -9.505525908609434366e+08
3.138197570016396418e+07 9.052711974533672631e+07
3.731905771595949680e+07 2.728773328108642101e+08
8.624731863388308883e+07 -9.839264429237827659e+07
1.058949121208515316e+08 -5.201172009304295480e+07
6.615696536689233780e+07 -1.212331849242861196e+07
1.737397014376085103e+08 -8.144287897381393611e+07
-1.415823217711268663e+08 4.340084715328516066e+07
6.070839859130456112e+06 -2.111722839046773016e+08
2.272108104163972735e+08 2.022328292838627994e+08
-1.252300931405481547e+08 1.508110290451758206e+08
5.817215329314547777e+07 -7.306590595384076238e+07
1.591650112904948294e+08 4.773381936088790745e+07
1.471091847758470774e+08 -1.691636875533193052e+08
-1.268210453490702957e+08 -5.963768224645364285e+07
3.642295619694282860e+07 -2.799554987734591216e+07
-2.147481700341700613e+08 5.745746018152998388e+07
-1.594369048353472352e+08 1.454079775257203579e+08
1.016851977211963236e+08 1.282655148845048994e+08
-8.010866381007379293e+07 1.133604155462372452e+08
4.415273549892067909e+07 1.467532800281506181e+08
2.716691913528372049e+08 8.031745412728701532e+07
2.004120876173689067e+08 -5.532848901741635799e+07
1.515616376748064756e+08 2.121024652095252573e+08
3.115778822455114126e+07 1.306689444217459112e+08
-4.720778497334557027e+07 8.250411790618321300e+07
1.052950343728618920e+08 -1.686818227959736586e+08
4.114114508251060545e+07 2.245136078235483170e+07
8.370411399953573942e+07 7.230931394516830146e+07
-1.738791418545129895e+07 1.780738455839006603e+08
-2.183415002396905422e+07 2.355525834626942575e+08
1.135837415015061200e+08 6.074585136199255288e+07
6.956285916771592200e+07 -1.470484316985400617e+08
-1.941204353874595165e+08 -1.015965428222551197e+08
1.671139970682553649e+08 -9.219967740455743670e+07
1.034773944765320271e+08 1.434766052451973855e+08
-1.154001866779599488e+08 -2.045285600256552920e+07
-1.673161488030809760e+08 1.326419703759644479e+08
-3.365820912129682302e+07 -1.283908386395677775e+08
-2.022192592378718853e+08 1.655911432626308799e+08
-4.346106209395218641e+07 6.394724417394718528e+07
-5.274453883399738371e+07 -3.428368982577510923e+07
-2.518906084060943127e+08 -1.107757192709331661e+08
-2.030694101091152523e+06 -4.713933305421435833e+07
8.077966763654382899e+06 1.542974266183777750e+08
6.692189103196733445e+07 2.738451635304495692e+08
1.303163602179176807e+08 4.798486338677085191e+07
2.375033168841039836e+08 -7.461410138054785132e+07
2.048397837742088735e+08 2.647299085240177438e+07
-2.289800308452547789e+08 1.495616635426314771e+08
1.205192736722882092e+08 -3.175878792418321967e+07
-9.553637858521531522e+07 2.242325886940023005e+08
-3.147350761259254068e+07 -9.516885290720373392e+07
1.288761477760391235e+08 9.433514781859365758e+05
-2.488906696156305727e+06 -2.560322736753762960e+08
2.837183212604874372e+08 2.248232332237663865e+07
-1.595099588888391256e+08 -1.793489434868108332e+08
1.167723405632340312e+08 1.067475621799148321e+08
-1.324443608606290519e+08 -1.911079295986926183e+06
-1.162053193391498923e+08 1.424678403511169739e+07
-8.540006366868753731e+07 -8.026595057763394713e+07
-2.341331525222925544e+08 1.284401960155055374e+08
-5.528624875909875333e+07 -1.204259569338652045e+08
-5.629690809648557007e+07 6.121142163837295026e+07
-1.941840708518534303e+08 -4.726711688523430377e+06
-5.410341231549270153e+08 3.116824250826241374e+08
6.344803360129144043e+06 2.745378925064629316e+08
-2.552945646248173714e+07 -5.129170356593329459e+07
-3.689454672076219320e+07 -2.209430248468479514e+08
9.099193111667281389e+07 1.046693659594165087e+08
2.457410025316010043e+07 1.001081426512632817e+08
3.555185205203992128e+07 1.311678625002898462e+07
1.070148671865924262e+07 -7.685988035758882761e+07
-1.275854555359643549e+08 -2.248547410590204298e+08
1.300081572690176725e+09 6.211346273922965050e+09
9.662683206355975941e+06 -4.494005585653793812e+07
-1.952638215801990405e+07 1.072788541825563312e+08
-5.312939968908952549e+06 2.134887764991919398e+08
-1.462541492080283165e+08 1.405268847539357245e+08
1.850761359055748880e+08 -3.317514847660665214e+07
-6.163818772276111878e+06 6.860671717118589580e+07
-3.836841036805084348e+07 7.515259917379234731e+07
8.593949732692390680e+07 2.690121880662226677e+08
6.588751328314051032e+06 6.970556538336516917e+07
-8.924501577664360404e+07 1.623896612552038133e+08
4.218567520555690676e+07 -5.354288386925617233e+06
-4.354744084381172806e+07 3.673370213314976718e+04
1.582806645405275524e+08 1.579678863559606969e+08
-1.164694548758913130e+08 -1.621616059747432768e+08
2.822189022061710805e+07 -1.509955433740405142e+08
-3.011431985361842439e+07 1.119806427924082577e+08
-4.447114046916959435e+07 3.206364101934200898e+07
2.158803918540504277e+08 1.641693085897110403e+08
1.648211273012310565e+08 -7.135324502706778049e+07
-1.207577373890226036e+08 -3.187392976594219729e+07
-5.704802566275053024e+08 3.382670642912677526e+08
-2.046224102791487873e+08 5.868867702889026143e+06
-8.309232310704110563e+07 -2.099603778253101185e+07
-9.050311374544870853e+07 2.673253880315406322e+08
4.309120299700121582e+07 1.340291666810611188e+08
5.761071482213310152e+07 -1.718023410540805161e+08
-6.490941648147482425e+07 -8.930901848928375542e+07
8.072175082300919294e+07 -1.814024653525356352e+08
-2.211817857298173010e+08 -1.914304319176437857e+05
-2.971032731503770500e+07 -6.282239225970233977e+07
1.100727178058483601e+08 -7.496186504153220914e+06
2.298188464884437323e+08 9.679150860658723116e+07
-2.300348336291317344e+08 5.667816725580962747e+07
4.887032136901299477e+09 3.405124415563366890e+09
-9.239047468366645277e+06 5.732320718920637853e+06
3.222186588741964102e+07 7.153422749267293513e+07
1.748425784109697342e+08 -1.698737318363078237e+08
-5.419639546666395664e+07 1.341418185006030351e+08
-1.588667436152750850e+08 -2.322472857304615080e+08
1.078447737601330429e+08 1.693988465490785241e+08
-1.078736352895087302e+08 7.272616863000693917e+07
-2.378297637538028359e+08 -2.786468215139580425e+06
1.722491406174547076e+08 -3.544662934514014423e+07
-1.899003448647936285e+08 9.100031488485584036e+06
-1.999222759889875650e+08 5.683963240653813630e+07
3.439668029277757555e+07 3.240972763523721322e+07
2.675775687607472897e+09 5.157684918073354959e+08
2.048590570195143810e+06 7.495827842309040017e+06
-1.475696959724908471e+08 -1.138044783651764244e+08
-6.626249426856106520e+08 -4.024049527745580196e+09
-1.001947364903419912e+08 2.994347451431578398e+07
-2.332948349172309041e+08 -6.801861939745303988e+07
-1.542760831481235288e+07 1.516590062511400878e+08
-1.543095085150960386e+08 -1.632888659748513699e+08
-5.735998897013283521e+07 -9.910416036294665933e+07
-7.271977432071775198e+07 2.717279728094668388e+08
5.542587836375489235e+08 3.463515336191273332e+08
6.612239146701207012e+07 -1.832024413285175264e+08
2.294316487244049311e+08 -9.247548305296650529e+07
5.092384135948919505e+07 1.014546951393896639e+08
7.052183230583482981e+07 2.295684023374275863e+08
-7.585915094281408191e+07 3.173003832328782417e+06
8.011412252765278518e+07 7.842476298973726034e+08
1.598202408136911094e+08 6.938408626398317516e+07
-4.174861559134843200e+07 -1.185784968850648701e+08
-8.507940299508886039e+07 7.934374541743606329e+07
5.915079874899298698e+07 -2.123887412700436264e+07
-4.941740887231989205e+07 -5.547411744611168653e+07
-1.768082030507434532e+07 -6.069461622516427934e+07
2.263307690711935163e+08 -2.716916160323525593e+07
1.370488503528121412e+08 2.300703035910426676e+08
1.413381256290107369e+08 -1.008774988678643946e+06
1.969756430825845301e+08 1.097091006033289880e+08
1.221583443008568436e+08 -1.513437929324766994e+08
-1.187721989093176723e+08 -9.249537238059425354e+07
-1.494710771294302940e+08 1.759616550984411687e+07
-5.843503615371288359e+07 -1.358796592416522093e+07
-4.581297264586426318e+07 1.259337038661710471e+08
-3.327804322894027084e+07 1.236838306451071501e+08
-5.789544630177654326e+07 -2.604816738364627063e+08
-5.757333871311837807e+06 1.707301950504644215e+07
-1.846025279093007743e+08 -1.561999959456600808e+07
1.717561368161471188e+08 -5.927569231318883598e+07
-5.231081757387987338e+06 1.723322517849258780e+08
5.116000009971100092e+07 -1.845023996664060950e+08
1.191585663236640543e+08 1.612997286156412065e+08
-1.606903174534218013e+08 6.499333678026375175e+07
2.037500777429299802e+07 1.472828463624994457e+08
-9.386004896619886160e+07 -2.442870419779179990e+08
2.645533823477876186e+08 3.083883820005055144e+07
2.836361305520747304e+08 3.134975243430907838e+06
1.153641472894068509e+08 -1.942323545209158584e+07
-1.669289651668427885e+08 1.484135254214494256e+06
2.300254315890924260e+07 -7.452938736650095880e+07
-7.984593119384229183e+07 -6.939758038001582026e+07
-1.333570684278728366e+08 9.201866008302056789e+07
1.617563289210381508e+08 -1.298281019652703702e+08
1.388401016589427888e+08 2.615406822632163465e+08
-2.017755670506363362e+07 8.736548815568363667e+07
-2.223256485343122780e+08 -9.493854537656976283e+07
-1.637992362579800189e+07 1.648996222282124758e+08
-4.223435853588707745e+07 1.142763080613035113e+08
2.174540768123170361e+07 -2.111226558337221444e+08
-1.164200085576736182e+08 -1.896167582109385431e+08
1.811382744949297309e+08 -9.553074624315768480e+07
2.581815732435286939e+08 -2.299119997336359322e+07
6.289449288707069308e+07 -2.260973228878462613e+08
-1.583354147366670072e+08 2.767145691067965701e+07
1.563202025503831804e+08 7.109823424333035946e+06
2.188339462581659257e+08 2.421249640197460726e+07
3.071619169465536252e+07 -8.812375330862738192e+06
5.541729604923578352e+07 -3.402237329274019599e+07
-1.674947921034921408e+08 2.003625560492446125e+08
-1.482026874422769547e+08 -5.549109700381731987e+07
-5.432133999638033658e+07 1.145402684329052567e+08
5.651487491023053229e+07 2.211997543839653134e+08
-5.095315034304201603e+07 -1.649717841201595962e+08
1.897165857076249318e+06 -9.978198993289896846e+07
5.220822702799689770e+07 6.225424799247846752e+07
-9.604831651313713193e+07 8.529070161155333742e+06
-1.337749596043545157e+08 -1.874709997130997479e+08
2.917688279712500572e+08 -1.854693692224324122e+07
-1.219009337465447374e+07 -5.568428740950167179e+06
1.363049792177766562e+07 6.045053969690257311e+07
1.669617998525542915e+08 1.851154765359007120e+08
2.720571326208740473e+08 -3.475468909674237669e+07
2.078489298543366492e+08 8.028111747182835639e+07
3.395698525565899163e+07 -1.391172285919473767e+08
5.301402315283627063e+07 -4.541131499932948500e+07
9.460260463825722039e+07 1.651799799718462229e+08
-1.895801749979218543e+08 -3.001170161671600863e+07
3.146411161635358334e+08 -9.097983795499312878e+07
1.610112637153772414e+08 1.767428166474475712e+07
-1.391162761772203743e+08 2.548918543125770688e+08
-2.481057965901570916e+08 9.267466858107107878e+07
1.327570192004082650e+08 7.245636505737672746e+07
8.510415059776474535e+07 -5.402428653036550432e+07
-1.975495608033068180e+08 1.047174211737864763e+08
-1.449878373472779691e+08 1.730512824914882481e+08
-6.158376038504127264e+08 7.742914497327891588e+08
1.705938198032525778e+08 1.694077430200764835e+08
-1.150130441916196607e+07 5.796134034597229958e+07
5.163079092264913917e+08 -1.609509163430810869e+08
-1.235395827836006731e+08 -4.596557120376203209e+07
1.014700140888175815e+08 -3.897298519432970881e+07
6.941334038739039004e+07 1.861797583035904169e+08
-1.128743340320002884e+08 2.284524952971467376e+08
6.411607592560359091e+07 1.023477861022540182e+08
2.477742017555577755e+08 -8.523044598917631432e+06
-2.671403730265026689e+08 -5.132649336321960390e+07
2.552864687252629101e+08 4.486828484186701477e+07
-1.546274995545279980e+09 3.446575584980387688e+08
8.161232703456455469e+07 2.928379229758289456e+07
-3.662489434001550823e+07 -1.624035919877739251e+08
1.446057392655286491e+08 1.032082692948234268e+07
1.032047747891883701e+08 -1.778927265557628870e+07
2.223480522588374913e+08 7.862541901286393404e+07
-8.429831946523600817e+07 4.515655434402389824e+07
-3.658447642226924002e+07 2.281321298765666038e+07
-9.851713001711851358e+07 1.254068513445896953e+08
1.486114898286993206e+08 4.281439419596612453e+07
1.790827906891261935e+08 1.995478666657218635e+08
-1.572178935902303201e+05 -1.330775312813853025e+08
-4.282032206785456091e+07 -1.752959817944678366e+08
2.727638836453111470e+07 -9.521073025158900023e+07
-1.246048503396225274e+08 1.265718776794189513e+08
1.960922294306521714e+08 -2.599177034220691398e+07
-1.586334126011568494e+07 -1.140055431045107245e+08
-1.804957298854519129e+08 -1.095420653344444931e+08
1.997643427639667690e+07 1.347137501096904874e+08
1.374125942194457054e+08 -1.015133624580795467e+08
-1.112779791813654006e+08 1.259691114694374204e+08
1.032588132380605116e+07 2.217506672642200887e+08
8.772884795620931312e+06 1.421388198780988753e+08
-9.108765423670673370e+07 -1.128398470049095005e+08
-7.353140870713685453e+07 1.249154298591108024e+08
3.851499770076713711e+07 8.128904586396433413e+07
-1.148000637604693919e+08 -2.137650464470874667e+08
-1.609168673537008762e+08 1.724621846334885955e+08
-2.033404197724994645e+07 1.192598905226157308e+08
-8.434105680989676714e+07 -2.292910461929754019e+08
7.898867546174938977e+07 -2.220546726871044636e+08
5.215344673108855635e+07 -1.263988141368862540e+08
-6.749359809840354323e+07 1.134767474887509644e+08
-1.634655700356473029e+08 5.173299407955049723e+07
1.614383812889209688e+08 -1.341309305907240137e+07
1.087382016172623821e+07 1.001548921083257049e+08
1.098813447155606598e+08 2.032353297361193001e+08
1.335658293719427139e+08 1.277645401325089782e+08
9.272448228786445688e+05 5.935188834068632871e+07
-5.997397617015486956e+07 8.152864898676246405e+07
-1.998294314114258885e+08 1.972768763570825383e+07
-3.633922490377314389e+07 1.356371769654164314e+08
-1.947601358669861034e+07 -2.255751576459369957e+08
-2.421871609992183149e+08 -8.357970643488439918e+07
-4.830696209818401188e+07 2.064546021427415684e+07
2.360676829640251994e+08 2.759487778944500256e+06
6.544244348346565664e+07 -1.249349581720326841e+08
2.023715933710190356e+08 -1.352255394860089943e+07
7.627264595373599790e+06 -1.313835423884486221e+07
-2.042214265066328049e+08 -3.339738147218544781e+07
1.674628102136626542e+08 8.029742608482623100e+07
-2.112466572265547514e+08 7.250197677383585274e+07
1.207834198793666601e+09 -4.402282352482302785e+08
2.369724887629506588e+08 -3.980563919093900919e+07
2.067360076015884057e+07 5.125766749058665335e+07
-2.313450556675826907e+08 1.190489381966526620e+07
-5.480359185198393464e+07 9.244829772809530795e+07
-1.268272862360597849e+08 2.181724108788328767e+08
-8.428417092512962222e+07 -1.020199735316997319e+08
-1.763798237245382965e+08 -1.819963434770112336e+08
-1.098282860424872935e+08 -1.493973220395146012e+08
2.618804528115913272e+08 -1.496753819561132928e+06
-9.128848270338857174e+07 1.875931609316254258e+08
2.326440461500329077e+08 -1.319437754342193156e+07
2.066539512647983730e+08 -1.547683131723735332e+08
3.203804894371133670e+07 1.918451641435136795e+08
-5.961227272955076396e+07 -7.783904125309509039e+07
-1.076143706150750220e+08 2.774426063003888726e+08
-2.607554308589640632e+07 1.438763584024882913e+08
1.121343392482285202e+08 1.349702935798640847e+08
1.159809331659336835e+08 -1.974081589400195181e+08
1.312202074329293072e+08 1.668463342741935849e+08
9.048334960463042557e+07 8.308047839124822617e+07
1.811395563717586696e+08 7.818199175429309905e+07
7.311877495876295865e+07 -5.688046432399874181e+07
1.591510114533164799e+08 -3.545322796093805879e+07
-7.122319783259119093e+07 1.833974434078195095e+08
-4.496271595579029620e+07 -1.522278713414437175e+08
5.661260974202540703e+06 1.884336659928845242e+07
3.686905129719413351e+06 5.920882027846422195e+08
1.661598415064078271e+08 5.769206248346645385e+07
-8.485370811100777239e+06 -1.598928744908219278e+08
-1.577095770418238640e+08 -4.610084386470746994e+07
2.333098920312343836e+08 1.732455660000216365e+08
-9.749026311785945296e+07 7.831541104264059663e+07
-2.003540496009455323e+08 -5.876540074264135212e+07
-1.680641146607379243e+07 -1.486719435681534111e+08
-1.781045554279098809e+08 -7.901815167560118437e+07
-2.269459198007303774e+08 -1.608909403788810782e+07
-1.083555330634424686e+08 3.926545020222097635e+07
-8.670688992297759280e+06 1.118683009131672233e+08
2.017699471954065859e+08 9.505230995882739127e+07
-2.391508332097493410e+08 1.096256454717143029e+08
-5.317636166826596856e+07 -1.421643612433026135e+08
-1.060892967560107559e+08 -7.300225287393261492e+07
1.133427359758336991e+08 -4.191061182802297175e+07
2.119618657021339834e+08 -9.368434156141139567e+07
1.622789771848815680e+08 9.317379844322969019e+07
2.327153605761737525e+08 6.404749478230459243e+07
-2.425261287385559082e+08 -1.992907910733917728e+07
2.435880772434147298e+08 -1.566665242845733166e+09
1.342622086436627805e+08 -1.116649672801850177e+07
9.996493663704587519e+07 3.906972495075572282e+07
-1.475830737656124830e+08 6.634330195731949061e+07
-8.076518461013835669e+07 5.752582445706827939e+07
4.146760873791337013e+07 -4.862566435644244403e+07
9.923247417794343084e+06 -1.090368265582044125e+08
-6.815602697017634287e+06 -2.635285841335168108e+07
-1.429636487350513339e+08 -1.743721071372559667e+08
-5.689844692797055840e+07 -4.599448232013846934e+07
2.642824263559048474e+08 6.217622795814584196e+07
-4.186945208964391053e+07 -6.492552341143423319e+07
-1.453572853468522727e+08 3.044083722934899479e+07
-1.375438097185161412e+08 1.863985935112551749e+08
3.950160496776642203e+08 -5.586991374551370740e+07
-7.180437668469302356e+07 2.518685617387445867e+08
1.286978547941952348e+08 -2.075590864625146985e+08
-1.673128165092175305e+08 3.847108880977501720e+07
-1.412060254190134704e+08 -2.794407664614756033e+07
-1.465338573622552454e+08 9.123589774286089838e+07
1.995586045411049947e+07 2.110980572613230646e+08
1.099660045721991730e+10 -1.095778686572401619e+10
-1.865291831080677733e+07 -9.304858837097112834e+07
1.930846455046145320e+08 1.238746098053292334e+08
-1.675938676724137664e+08 1.585231804090938270e+08
-1.052974818520590067e+08 8.939555499891509116e+07
1.467256126920310855e+08 -1.346552629967055470e+07
2.077825557479275167e+08 1.216498846872790754e+08
-1.317870449593018591e+08 1.388702244799656272e+08
1.239789324264401793e+08 -1.375720986429302990e+08
1.256266515909210145e+08 -1.237006240939714313e+08
-9.874750930554178357e+07 -1.020672637335582823e+08
2.115788982188166976e+08 1.066901985194650739e+08
-1.202786599264861494e+08 1.891062132194082141e+08
1.719002351925732791e+08 1.547406498706443608e+08
-1.416617352525414526e+08 -1.273134918230538517e+08
-9.171431151551388204e+07 1.375283130572970808e+08
-1.371912804965662956e+08 -1.433824742931406572e+07
-3.509475413990838826e+07 -9.315429849036827683e+06
1.075929934418443292e+08 1.824183543342097104e+08
1.196637039088867307e+08 -1.653086193029558957e+08
1.911617980084218830e+07 -1.113137494161565043e+07
7.297379118055918813e+07 -2.163833417660648748e+07
2.031476510526961684e+08 -8.160459403760151565e+07
9.533634636428636312e+07 -1.778130528954952955e+08
9.888587973719753325e+07 1.679336806983271614e+07
-1.712123705323052406e+08 -1.216891365742111951e+07
1.354187099200667627e+07 -1.979154177242750525e+08
1.020445166359548569e+08 -8.236229554854886234e+07
1.191052915472200215e+08 -5.343617043060264736e+07
1.581609514218894541e+08 -5.916074400949169695e+07
1.274950189487531483e+08 -2.149592550721669942e+07
-2.512787542270028293e+08 1.147822308303695731e+07
7.124888577305313945e+07 7.235775880324001610e+07
-1.336653121596579850e+08 1.640985365924813151e+08
-6.451567440154206753e+07 2.369277786346020401e+08
1.100998002065884918e+08 1.179436614473166615e+08
6.424234950448150933e+07 4.102318246051385999e+07
-7.258145619295507669e+07 -1.577229150738313198e+08
2.766565630959340334e+08 -6.912818810810147226e+07
8.111480248518434167e+07 7.524728670619167387e+06
-1.200821454952678084e+08 1.441085401967765531e+06
2.248011236582590640e+08 -6.614337559692902863e+07
-1.730232460628277659e+08 6.442243282699664682e+07
1.882079540332181156e+08 -1.272783182320455909e+08
9.860474593642798066e+07 -9.517905415677271783e+07
-1.034402420361256897e+08 1.624502900162948966e+08
-1.014043324665315636e+07 -3.776509467106471956e+07
-7.681225711316047609e+07 -1.120773060837923288e+08
-1.283576525263019800e+08 1.086539997386991419e+07
2.529340323549735248e+08 7.620636448379535973e+07
3.753965695928103477e+07 -2.512212552722723782e+08
-1.853761871985900402e+08 6.284533091863510758e+07
-1.696839433101977110e+08 8.007141232767306268e+07
8.832892885222488642e+07 -3.804428212052312493e+07
-2.635812185056072176e+08 -1.320945270211675316e+08
-1.664554508296723127e+09 -4.989297265638326406e+08
-1.115433291963369995e+08 1.017750855973809212e+08
1.442200861238198876e+08 1.055096615239327103e+08
-4.729399907729022950e+07 -1.302983304896899015e+08
5.850175043315836042e+07 5.202408779341730475e+07
-1.323877833184707910e+07 7.790672320215597749e+07
-1.367474765845720768e+08 2.056170232480845600e+07
2.163091704613182545e+08 9.249845831619390845e+07
-7.400622250356736779e+07 1.021866793305840790e+08
-2.155214395893265307e+08 1.531439490711150132e+07
-1.199260214708106965e+08 9.235174038179966807e+07
1.614025077529160976e+08 -1.611786164844108820e+08
1.086268025118142813e+08 -1.037957849831493497e+08
7.555669915982477367e+07 1.882568101774576679e+07
9.300609270628270507e+07 1.518042137469224930e+08
3.416238971049515158e+07 2.325669641432336532e+06
5.955990687570863403e+06 2.952430616358866096e+08
1.309880791292632073e+08 1.050006628479427099e+08
1.589388220855381191e+08 -1.957081023388361931e+08
2.027093196384688616e+08 -1.067682617971394658e+08
-1.117557417795504779e+08 1.740803759975377619e+08
2.197321024273225963e+08 -8.027147121566849947e+07
-1.122952574809847772e+08 2.686598098379289731e+07
1.382669343744469285e+08 2.356691627776624262e+07
1.674538541673427820e+08 -6.955346580978046404e+04
1.875149155472829044e+08 4.365740569734769315e+07
-6.406122254345484823e+07 -1.689940178357569873e+08
1.605484535414768457e+08 -2.148758950821596086e+08
1.586694695495314300e+08 1.428859904797791243e+08
1.273892631034437753e+07 -1.723867885777530670e+08
8.202161533264388144e+07 2.403147501059598029e+08
1.082761561218346059e+08 7.217167820954285562e+07
-1.827848176266681775e+07 -2.828410623401194438e+07
-5.072471161789199337e+06 1.853785325681845248e+08
4.014639222833006084e+07 4.239506292014604807e+07
2.343973447867410481e+08 1.258984690610787868e+08
-7.630499150444060564e+07 3.588341233175768703e+07
2.531618682029963434e+08 -4.069873684763883799e+07
1.485178574801941514e+08 3.460087293234572411e+08
1.162418870605150163e+08 2.629074137786553428e+07
2.457461623832495511e+08 9.261241806008404493e+07
7.761049605861241817e+08 7.523091296136874199e+09
-1.831405152932362854e+08 1.330803214766031653e+08
2.338459400097439885e+08 -1.272604879301230609e+08
1.043977390613041520e+08 2.202475561008644998e+08
-1.894663521421618164e+08 -6.936842009981922805e+07
-1.389047303550185263e+08 1.274123315420113802e+08
-1.173561717026782967e+07 2.847815645582461953e+08
-5.884254639238990843e+07 1.464978253276132941e+08
-2.622921505506779850e+08 5.145461503040795773e+07
6.084498167399925739e+07 -1.366996300829213560e+08
-1.331975679858233482e+08 -1.153144467853718996e+08
9.834769785953277349e+07 -5.604657214815946296e+06
6.480827090497799218e+06 -8.827350592406755686e+07
1.901864665999720693e+08 8.863222007019086182e+07
7.783389931357616186e+07 8.284011432214118540e+07
-2.986056139618902002e+06 -1.114729631517448127e+08
9.729385403171026707e+07 9.429335174543596804e+07
3.176802466393661126e+07 1.787771999518351555e+08
-2.167541421617172062e+08 1.323766766386635602e+08
-7.817137985928614438e+07 -1.713282643883853853e+08
7.106810460264708102e+07 -6.873171104150876403e+07
-5.719905024988538586e+06 -5.856026579821305722e+07
8.317165784481447935e+07 -6.535952308762249351e+07
-9.017481834487864748e+06 3.772648527816904336e+07
1.943209022314834595e+08 2.228592865215979517e+06
2.217755094909313917e+08 -2.887112498148956336e+06
2.203331225084945858e+08 -1.421236247623114288e+08
-1.165056188155618906e+08 -6.709555319210799783e+07
2.244518162036633790e+08 1.133435928184228390e+08
4.434907083391840011e+07 1.852571588271726966e+08
-4.236293171394895911e+08 3.424376582831574082e+08
-8.019371332480360568e+07 1.941294117717614472e+08
4.813104950745974667e+06 -1.596335048063133955e+08
-2.001275881607225835e+08 1.326613831190847754e+08
4.361841890084123611e+07 1.107916142430036366e+08
4.717857608927503228e+07 -6.927222908723069727e+07
1.862129781152465641e+08 1.508298566939515769e+08
6.602298897285628319e+07 -3.025803394757838920e+07
-1.382101973755917549e+08 5.629697727378193289e+07
3.548908538579936326e+07 -1.618925282616863251e+08
-1.345146629619565308e+08 6.874391651776173711e+07
-1.985629354616905153e+08 -1.886737809773982316e+07
-7.209996170403786004e+07 1.505030046184469759e+07
1.379214203125782311e+08 -6.779229198526480794e+07
-1.179142267973830849e+08 1.142402870892719179e+08
4.603961488495470583e+07 5.235734484970165044e+07
2.856522014865360856e+08 6.561834819826082885e+07
1.789940037612121925e+07 9.045546298830279708e+07
1.330222820116807371e+08 1.208325455689929053e+07
2.120371686476981267e+07 -1.628435259785134196e+08
-2.369064734908591956e+06 1.001629741045731455e+08
1.169254414981747419e+08 1.483476286323310733e+08
6.374446000352524221e+07 -1.591935382523975372e+08
1.261173909555392712e+08 -4.369142057371135056e+07
1.788021413820300698e+08 3.414632227214808017e+07
-3.450994168915012479e+08 -2.166793656444877982e+08
6.968675138824334741e+07 -1.130501786458889991e+08
1.223602470934087485e+08 9.516045204223456979e+07
-1.750229335941575468e+08 -6.459747720000205934e+07
1.937217676843930185e+08 2.124712179025643170e+08
-2.566203886399281919e+08 1.168420879075084180e+08
-7.811193262595920265e+07 -2.126033976678259969e+08
7.858855706314386800e+06 2.374328241118791699e+08
6.625746694415824860e+07 -4.147557642121611536e+07
-1.045162577297013104e+08 1.380093809084260464e+08
-1.772095508619615138e+08 1.721048771395723820e+08
5.611827084594392031e+07 1.431722113254466653e+08
-6.457608823647592217e+07 7.053561822972722352e+07
4.419318299548526108e+07 -3.672248058332806826e+07
-3.456405229298305511e+07 -1.856759229355933070e+08
-9.906972290975399315e+07 1.012405682443884313e+08
6.197907070463039912e+06 -5.636317167972589284e+07
-3.229215527374403086e+06 1.468294071369822919e+08
6.513798039987232536e+06 -1.850185586825202405e+08
8.209521804503132403e+07 1.716338872023045719e+08
6.291675612153040171e+08 -6.326652178309408426e+08
-9.664638934377215803e+06 -2.115983744040350914e+08
-1.946966958070646822e+08 3.364405533629992604e+07
-8.820255774570819736e+07 3.298352975850257277e+07
1.361027232256151736e+08 -1.458856927189073563e+08
-1.326937257390179783e+08 -1.632024214510521591e+08
3.711431408074726164e+07 1.210310763441775441e+08
-7.885406119674552977e+07 -2.579183882490700483e+08
5.661027952179466933e+07 -1.149129602920522541e+08
-5.140058165283649415e+07 -2.260893729593288302e+08
4.418126884206221253e+07 1.594097584077482820e+08
4.668849515897928178e+07 3.218092316829616949e+07
1.816013408096868694e+08 1.145107498046046644e+08
-2.207073667352916896e+08 -7.869108014450016618e+07
4.919454205964035541e+07 2.498505355778082311e+08
-8.963616063657298684e+07 -2.004440130982078910e+08
1.519139519637097120e+08 -4.676196745420189202e+07
-9.737331919098183513e+06 -6.998435555285738409e+07
4.549005746460758150e+07 7.190807614369671047e+07
1.119178887751469612e+08 3.820329863849893212e+07
-1.058339184103803337e+08 -2.012745094736816883e+08
-9.622939038264875114e+07 4.222860423586709797e+07
1.356556377609282136e+08 2.146397953088635206e+08
1.628143324885646626e+07 -2.228898549822676554e+07
1.398030160634821653e+08 1.172308775972764790e+08
4.761448154748966545e+07 3.482562602986415029e+08
-1.395737871444606483e+08 -1.028211448191619664e+08
2.190354754487989098e+07 3.173628463979689404e+07
-4.216813741938595474e+07 1.761245956451866627e+08
-9.339999864721818268e+07 -6.986832620231373608e+07
1.252622653821355551e+08 1.387434650777891874e+08
1.057618137598295212e+08 1.563699189113617837e+08
-2.067561646429840028e+08 -8.998222619253900647e+07
-6.723361304479384422e+07 -4.964157377447971143e+06
2.461877689210503697e+08 -8.926748364681717753e+07
1.299509710801042318e+08 -7.699516254093737900e+07
5.200746119769816846e+07 2.009012557593925670e+07
2.605929359742115438e+07 -1.283231435567360371e+08
1.761947314868496060e+08 -1.529317584215237498e+08
-9.472692975296403468e+07 -2.513796118558806926e+07
-4.122315234681057185e+07 -3.222498874047701061e+07
2.908593425268842373e+06 3.940069117568523437e+07
-1.711016307184023261e+08 -5.049383059109362215e+07
1.212453663561324775e+08 1.763181486305161715e+08
1.168053517679832727e+08 2.905099926573728211e+06
-1.477659700692585409e+08 1.999439446190921664e+08
6.521123307981738448e+07 2.449534082137671113e+08
6.264015391050048172e+07 -1.653890380009003682e+06
1.367997370891539454e+08 -1.164032074446250349e+08
8.819852258850862980e+08 4.856859985626279116e+08
8.158657630991055071e+07 1.592947302684681714e+08
-1.626697753310430646e+08 1.476462821418794803e+07
-1.450161886193363667e+08 -4.155818435358072817e+07
1.758756231765749156e+08 9.115366902799443901e+07
-4.521032146164785326e+07 -2.079431238843193352e+08
7.567185056882714853e+06 -1.424983828358775973e+08
1.171777948459621817e+08 -1.797811059934623539e+08
-1.975450764929949939e+08 6.947006928251406550e+07
-2.606283404095274583e+07 2.684202694539121687e+08
4.182372517223781347e+07 -1.498912618332259357e+08
-1.873864482734715939e+07 6.725584015348020196e+07
-1.193394030784423798e+08 -1.145582201697791964e+08
-1.601564944589774013e+08 1.176012930551959872e+08
-1.219796354146237135e+09 1.050388868145658612e+09
1.625816998929907978e+08 -1.453301632323118746e+08
6.992844560810428858e+07 3.014486217487070709e+07
-1.206180382083451748e+08 3.636457740557307005e+07
-5.303446735633226484e+07 1.689697874112055898e+08
-1.147962443430323750e+08 -5.497227332281264663e+07
-4.470527406239415705e+07 2.393526741326376498e+08
2.892046111446362138e+08 2.358734064691009223e+08
1.927786745715762302e+07 1.978543240210326910e+08
-7.694571833298930526e+07 6.913618241949117184e+07
3.893777408882109821e+07 -1.274904744330943674e+08
-4.973564340108893067e+07 -2.275913181340102851e+07
-1.729112015268179774e+08 -1.222779050575344414e+08
-1.925841954496212900e+08 -8.449540272415842116e+07
-8.655266179448667169e+07 1.016715556919374913e+08
1.411915012841966391e+09 1.502036875638774872e+09
1.414530765728580356e+08 5.104320955519078672e+07
-1.805602754232414961e+08 -4.057545755798445642e+07
-2.846162219801874161e+08 -1.932484570365523994e+08
-1.187189538276798874e+08 1.626163824715964496e+08
2.499388822277407721e+07 8.086086372115296125e+07
-2.145520482179222703e+08 -1.593971247075765431e+08
1.092336484300158620e+08 2.428310480897834003e+08
-1.523248736234528780e+09 -4.184229163788326263e+09
-9.935743662983629107e+07 -1.871580520562737584e+08
6.913159123320326209e+07 1.729895546051839590e+08
1.410958280453815460e+08 8.234285043839852512e+07
-1.678453809208958149e+08 -1.368687550370142758e+08
1.483241375493149161e+08 -1.087975818507529497e+08
-2.361850615924295411e+07 -7.407065910880644806e+06
1.198777009055018425e+08 1.259208451618415564e+08
1.884828926519199908e+08 1.371520543767268956e+08
-7.363301369767099619e+07 2.068289447009317279e+08
-3.280332504057120532e+07 8.625610541674102843e+07
-1.541211250213714242e+08 -9.916087327030734718e+07
-7.605685253772480786e+07 -3.859403803945131600e+07
2.770164270115374327e+08 -5.048929770816209912e+08
6.919777641174438410e+06 -2.399156845481287241e+08
9.696917399468688667e+07 2.335452406723894477e+08
1.900494573861692101e+07 -8.597025782328717411e+07
-1.041537380182094872e+08 1.757811574163282663e+07
1.481426412120918334e+08 1.313540992605772465e+08
6.795844031144852936e+07 -8.050629182024984062e+07
3.214260481004970521e+07 1.541560495913668871e+08
-1.733908016785319746e+08 9.379711628686246276e+07
-1.080452802252039015e+08 5.027958073238486424e+06
-1.847280824493168592e+08 2.201270559278176427e+08
3.925940850113234669e+07 6.208499068014507741e+07
-3.265568144515327737e+07 3.412860801094023883e+07
-2.166867420180243254e+08 -1.392951137296057045e+08
-1.522615191599394940e+07 -1.689326801946403831e+07
-1.518234388830464780e+08 1.589988296965506971e+08
-2.884767243068546802e+07 1.975201464434520602e+08
-8.099767454643990099e+07 2.344624974127334952e+08
-7.953073884688165784e+07 -8.797311547978576273e+06
-7.297000311089595780e+06 -1.849682545437765419e+08
1.065749222010681778e+08 4.978225812650396675e+07
-4.513353074112652987e+07 2.156641043066270053e+08
2.759195608757567033e+07 4.194430613595619053e+07
-9.737412573945342004e+07 -3.813621343133084476e+07
-1.492504568915320635e+08 -1.932468832347526848e+08
3.518593854214689881e+07 -7.205038694452908635e+07
-8.093096749588763714e+07 -1.466354172040961981e+08
-1.178548510579221249e+08 2.038758904478264451e+08
-3.070786924360230938e+07 -1.502906793202463388e+08
-7.529215948824797571e+07 -1.338528176044843942e+08
2.035403542094726861e+08 1.382306658511343598e+08
-1.071086544726604521e+08 -2.310011163608583510e+08
2.685092587304319143e+08 -8.767411597429732978e+07
-1.318410828161029071e+08 1.153157138019002378e+08
-8.785327257863023877e+07 -2.525443434311234741e+05
-2.085688012141825855e+08 -1.070596548772919476e+08
2.063608842084321976e+08 1.295868765756914765e+07
3.507797432250606418e+08 -5.886045248511213064e+08
1.381591020724474192e+08 1.400338044706118703e+08
-1.376809100998836942e+07 9.786353877628999949e+07
-3.115609200375397876e+07 6.571407265451747179e+07
1.613912240990428627e+08 3.453590458107079566e+07
8.087417996649803221e+07 1.470382915641319156e+08
-8.325435202930328250e+07 -1.233953522937131673e+08
1.527512350499314070e+08 1.185508512454996705e+08
-1.085976047349754348e+07 -1.022328694759477079e+08
-1.238382649011260867e+08 -1.754828666705843806e+08
3.173754039514713362e+07 1.662897601140676141e+08
1.542966970306855142e+08 8.172348108747750521e+07
9.453393309669622779e+07 -4.815553833447016776e+07
1.085018565177926719e+08 -2.937632640382737666e+07
5.178337313626872003e+07 -4.698394297717586160e+05
1.886515156542798877e+08 -1.794469643850905597e+08
-2.576997393690570593e+08 7.129758158441878855e+07
-2.412070153079729378e+08 2.449833587038923055e+07
-1.984380825115165710e+08 -1.415723624612008631e+08
1.560705861895807683e+08 2.277769138074594736e+08
-1.508117393952473700e+08 5.342572343236256391e+07
1.558211970019207001e+08 1.725800889068726897e+08
-2.135681067361088991e+08 1.016948665315617770e+08
3.139476923553631827e+07 -2.249570461315009892e+08
-1.712677386081764102e+07 1.914946783969896138e+08
-1.816517596269277334e+08 1.075930349476914108e+08
1.796666358281074762e+08 5.444128092315550894e+07
-6.080911160528843850e+07 1.242825238110889643e+08
8.722273337832768261e+07 1.786027560837884620e+07
3.288022984887591749e+07 -3.984495721443104744e+07
1.330404028170792907e+08 -3.364651724837831408e+07
2.983944501370109618e+07 -5.151608347391541302e+07
4.438807366131453961e+07 -1.973127041020803452e+08
-1.669206945363176167e+08 -3.643176170750121027e+07
-3.489768361685498804e+07 2.278002163557155132e+08
5.014204377564132959e+07 -5.733369398329367489e+07
2.367727293853396177e+08 7.944613377131859958e+07
1.032512771470557302e+08 -7.038390938681869209e+07
-7.255741036741079390e+07 4.782428873200102150e+07
9.610033111449766159e+07 -6.069586719599411637e+07
3.837267828465482220e+06 1.098899637625795454e+08
-1.718736444391774759e+07 1.528288643905038387e+07
7.452007969109158218e+07 -1.352600960128751695e+08
-2.858375823933469877e+07 -1.165409575899422169e+08
-8.419453309053725004e+07 1.498289701006916761e+08
-2.055651906754115820e+08 -2.969935738315318823e+08
-8.315961242249643803e+07 -4.732311947546835244e+07
1.877203902023601532e+08 6.484383882451742887e+07
1.744828092201397419e+08 -1.059162258983220160e+07
-9.143724680430333316e+07 -9.191413631071235240e+07
-6.770473747778603435e+07 2.217966289110495746e+08
-1.427407944021974802e+08 7.924455854912269115e+07
-1.763388384904908538e+08 5.029977708036177605e+07
2.554455072084420025e+08 1.381967250424631834e+08
5.155001535136523843e+07 -9.421484766397581995e+07
-2.408000558389585912e+08 7.606333271173283458e+07
-1.609439404507597387e+08 -2.067812380888574123e+08
5.664312794628165662e+07 1.796779343890549541e+08
-2.101845794707601517e+07 -1.853475598275575340e+08
4.911187511301435530e+07 1.217407186383534074e+08
1.920163909622102603e+07 7.079577757620888948e+07
9.701807751399883628e+07 1.161395164233050346e+08
-4.719788753404242396e+08 7.447389819627448320e+08
-2.090294668393748999e+08 -7.905778311337606981e+06
9.042917973881153762e+07 -1.926009860420121849e+08
1.004756398181128800e+08 -1.309926179924471080e+08
-2.068911306763471365e+08 -1.242527328527141511e+08
1.440347806681648195e+08 1.621029271024844944e+08
-2.448377907063302398e+08 -5.583924648628772050e+07
2.396780722522874773e+08 4.522843344558688998e+07
5.645176572555729747e+07 1.549361837494257689e+08
-1.920780423752660155e+08 -1.191859964856635481e+08
1.459524047257014513e+08 -3.503955328373259306e+07
-1.117717196356972605e+08 -1.258560439743939787e+08
1.267759527983520031e+08 -1.089536351922983378e+08
1.452616770316406898e+07 -2.249655930533095300e+08
2.416243077828024328e+08 1.084156343447103798e+08
5.993592741575902700e+07 -1.963833808330855966e+08
-1.255789121904101223e+08 5.859328436663213372e+07
1.275990432312890738e+08 8.363668370744873583e+07
-1.953663579268648326e+08 8.214184185208964348e+07
-6.772751659142082930e+07 -2.415719915778930485e+08
-7.220855077604699135e+07 -6.471837804259794235e+09
2.866102477612429485e+07 2.241175753268049285e+07
1.010704567581216395e+08 2.777363208524446487e+08
-1.803068918824771047e+08 -1.492684413829751611e+08
2.105563361176755428e+08 5.191581969320343435e+07
1.315556642458054870e+08 -5.632096972221695632e+07
-2.163809595904636085e+08 -6.246784496170487255e+07
1.187559389812428951e+08 2.297347078196792006e+08
-1.853649693301399648e+08 2.273458665260710195e+07
2.308883623997973651e+07 1.217187286986573786e+08
1.879512316604893208e+08 -8.217675957498353720e+07
-1.637836205219583213e+07 4.707073832547031343e+07
1.443683487045302987e+08 -2.049211444215915799e+08
-2.515128162981375456e+08 -3.990271302028598636e+07
3.091003850990497321e+07 -1.165707212017108798e+08
-7.605290727127125859e+07 1.622519990398832262e+08
-8.405643935300248861e+07 1.186514404606162943e+07
-6.093238221106130630e+06 -9.059680197750155628e+07
1.061611718917274922e+08 -2.581797167107994258e+08
1.709985180118672177e+07 2.062853464853321761e+07
2.161033293402769268e+08 3.824097072173042595e+07
-1.001804714088114351e+08 6.376495670554300398e+07
1.451188011823868155e+08 -1.856010491879431009e+08
-4.678603005059263855e+07 -7.630111272185230255e+07
1.926542479795233011e+08 1.499704025721407495e+07
4.928113065003756434e+06 -1.208122849835117757e+08
-1.128332505024858415e+08 6.085426052175816149e+07
1.813625660975684226e+08 1.373947093578896252e+06
6.384965684885670245e+07 -2.443594720320974886e+08
4.023291351469989121e+07 -1.652328059931200556e+07
1.511739025814541280e+08 -7.035179301809759438e+07
-5.498827076497572660e+07 2.506528618447750807e+08
9.326747606375834346e+07 2.844952357350272313e+07
1.607707603439631760e+08 -1.783793312025054097e+08
9.613798703150300682e+07 -2.422427271215659082e+08
2.094144932234618962e+08 -6.791732209821557999e+07
9.397351093987974524e+07 2.524373515568353534e+08
8.272241831730166674e+08 6.034945796844543219e+08
2.472772406121525168e+07 2.866956162654037476e+08
-3.209533388693608716e+07 2.476268432798089087e+08
-1.848590629837704599e+08 8.011169771298760176e+07
1.713467166301868260e+08 1.199319792600390315e+07
1.805366909840856493e+07 -5.406742984225327522e+07
-1.150918267454794645e+08 8.177451680650135875e+07
-9.259123341790781915e+07 1.132065877026346177e+08
-1.427715768142022789e+08 -2.135962432489491105e+08
-1.940401335646609068e+08 -1.601779316621793509e+08
9.461557072039811313e+07 5.038707583085801452e+07
2.613956896681751609e+08 9.673546081793031096e+07
9.563406919649483263e+07 -1.076448338858627677e+08
2.342559824151249528e+08 1.836183471089899912e+07
1.184710290534239113e+08 4.909790600639785081e+07
6.544684321258421987e+06 1.667211927077151239e+08
-7.977751047263113782e+06 -1.235042348218754828e+08
1.695049881977855563e+08 2.426077752569931746e+08
6.070030338902725279e+07 -1.034744930360317528e+08
-1.051285890988983959e+08 -4.830531408502449095e+07
1.492004313405843973e+08 2.453335273031562865e+08
-1.265338634443826973e+08 -1.272628653481807411e+08
8.534026066187062860e+07 -2.074875822870654762e+08
-1.534265472786517620e+09 -2.427355815782613754e+09
-1.289573900173689425e+08 -2.330390080922304466e+07
2.361662155318671167e+08 -1.080128264225616306e+08
-2.239870497698453963e+08 -1.152843887026628256e+08
-2.527001485553453490e+07 -2.113849118611632884e+08
7.774999959704658389e+07 1.033539203545554429e+08
-1.391704548216416836e+08 1.037212298985331506e+08
-1.266453723722922504e+08 -1.024863825505072922e+08
-1.048173201279087365e+08 -1.142186671943449676e+08
1.078473056881294772e+07 -4.385878239999490380e+08
-2.222302904145720601e+07 -1.606873034546727538e+08
-7.251762923720906489e+06 8.837504370800264180e+07
-1.119982978613604307e+08 -1.033380682253349870e+08
-5.911413016402932256e+07 -1.546424753779334128e+08
-8.229019269107291102e+07 2.184161089047060311e+08
1.502633680229832791e+07 4.097751895569831133e+07
2.470265573851544559e+08 6.002556693508671224e+07
-8.641432446563734114e+07 -3.379229720919251442e+07
-1.676967486999240238e+06 2.833333656061682478e+07
-1.390580099907967448e+07 1.391047915447261930e+08
-1.384081811034311950e+08 -6.453548070829747617e+07
9.894588628436957300e+07 1.931017250833147764e+08
-6.686074967563495040e+07 1.362315721186774969e+08
-2.693733295110668242e+07 1.575596089869940281e+08
7.424254845394307375e+07 2.567583634065036774e+08
1.713952866749040484e+08 4.421777685052880645e+07
6.931054127017490566e+07 8.585676013014871627e+06
-7.922546664717832208e+07 1.371892166072717011e+08
-6.911219757253746688e+07 -1.221054557163466215e+08
-4.647838653889188170e+07 -1.927003653667899072e+08
-9.811538340438041091e+07 -8.169028083384853601e+07
-2.534591974814210460e+07 -1.383609531177545488e+08
-6.931674644312481582e+07 -1.831772345429562628e+08
7.706270239759196341e+07 6.175967931453634799e+07
1.365251090082663298e+08 3.656810248970019817e+07
-1.427858030089162588e+08 -9.072440870464338362e+07
8.806407578221049905e+07 3.979731221986372769e+07
9.604830764118540287e+07 7.223919932612739503e+07
-2.109395334601189792e+08 -4.747692064247753471e+07
2.491608004017544091e+08 1.145635921828512475e+07
-2.975035553797845915e+07 1.838049515626963973e+08
-1.433671985019143671e+07 -1.723488614406635463e+08
-2.086342385277765244e+07 3.599649064674098790e+07
1.924776269408271015e+08 -1.049307670942908049e+09
2.186621756140423417e+08 -1.075771935050601214e+08
1.474587097098159492e+08 -1.230097573287969232e+08
1.489381265404364169e+08 2.122604499187485129e+07
-5.233709849380910397e+07 4.120569483414543420e+07
-1.568048022141555250e+08 2.155568798356335163e+08
-2.012852302638560867e+10 8.416637369147546768e+09
-5.645350764280545525e+06 1.993015302429301441e+08
1.128237265128534079e+09 -7.434314031063164473e+08
1.098623641136989146e+08 9.487281569893677533e+07
1.483297603761807978e+08 -9.310452393185533583e+07
7.979031916571718454e+07 -1.293328966142316535e+07
-1.460561430627574921e+08 1.159370845732369423e+08
1.116008039753387421e+08 -6.268941134865199775e+07
1.755083397151391506e+08 -1.364742196284143031e+08
3.025240104184374958e+07 1.112399486744035184e+08
-4.222154179292094707e+07 1.888991739769681394e+08
-6.128563257452768087e+08 3.643035630806769133e+08
-7.361426167066513002e+07 -2.751148940394704044e+07
1.220574284200853705e+08 -9.232915024818321690e+06
1.988498949980244339e+08 -1.965809379873589277e+08
1.496791633781884611e+08 -1.381158184096015692e+08
1.258082016641659737e+08 6.004287539156424999e+07
4.766143873606882244e+07 -1.050465811115825325e+08
1.454778100005034916e+07 -6.548252076471699774e+07
1.943350249625432491e+07 1.848284618900584579e+08
1.379189707425575852e+08 6.180694502547594160e+07
2.208134764999005198e+08 1.060421167985359021e+07
-1.581712547139051855e+08 -8.627366825447171926e+06
-1.799514135462419689e+07 2.217997980094038248e+08
2.443906922541432828e+07 1.107116915972627513e+07
-3.692910821286211908e+07 1.502137796026586890e+08
-1.428670348145696521e+08 -1.527118644629655182e+08
8.970207888416799903e+07 -8.598843553092041612e+07
6.388647784421011060e+07 1.989760322695511580e+07
-3.233548811854089797e+07 -2.366701121440747976e+08
1.259361740947437584e+08 1.157683324301676899e+08
5.337799083000122756e+07 2.649513366545120776e+08
3.845938096178278327e+07 -6.040786690895397961e+07
1.081409905212273896e+08 -1.550143212677681148e+08
-3.814788346992711723e+07 -2.072181300513373688e+07
7.845629209027633071e+07 -1.229286113607878834e+08
6.476846929519592226e+07 6.214132652548460662e+07
-1.004218748379568160e+08 2.400944718033364415e+08
7.851157340099833906e+07 -2.596917015362997353e+08
-2.822355233022027835e+07 -1.729065146461521983e+08
1.128911521349890083e+08 2.593320917829818428e+08
-1.852499275555048883e+08 -5.488079444184426218e+07
-9.361211526935173571e+07 4.088233639204667211e+08
-7.815627849559818208e+07 -9.058091559473483264e+07
-2.099123195685792863e+08 3.009159987456237897e+07
-2.767342508545060754e+08 -1.599975285237425193e+07
-1.706279075197987258e+07 -4.066561012920235395e+08
1.110938620864455551e+08 -2.318541528204288185e+08
-1.409381524611124583e+07 -8.144338991007924080e+07
-3.910362922769139707e+07 -1.402290891357352138e+08
7.111208002510012686e+07 1.996757693167692125e+08
8.665151972743926942e+07 -3.498071484729119111e+06
-2.493567729945499450e+07 2.475774797413509339e+07
1.899459810741797388e+08 -1.440685186345876753e+08
-1.358345764404139221e+08 -5.054398173549427092e+07
-1.870503509477014244e+08 9.443167306525735557e+07
-3.732573353162337560e+06 2.270567054335876405e+08
-1.123483707113871872e+08 -3.973486252869508415e+07
1.873542515777426660e+08 -1.104091365865774751e+08
1.967132404777221009e+07 1.596750784384467900e+08
2.850703002881829068e+07 -1.974909785710097551e+08
-1.736713758554182053e+08 -1.650073703024609387e+08
1.650159064188403487e+08 -4.749813948085643351e+07
-8.924637473165268898e+08 -5.605020150127798319e+07
1.799856776135033071e+08 -2.110820884820096791e+08
8.007838911008824408e+07 -7.745332840175235271e+07
9.155201408860795498e+08 -6.102041016290436983e+08
1.855684578687884212e+08 2.294851209184151888e+08
1.726216802830875516e+08 -1.066717966180159748e+08
-1.061006172495141625e+08 -9.067070993212196231e+07
-6.731615965275631845e+07 9.171619949607217312e+07
-1.612432879344961345e+08 -5.996215988123251498e+07
2.039062529581794143e+08 6.544096486299955845e+07
-1.028679209972604066e+08 1.990052013517511189e+08
1.801161238844680488e+08 -6.974909642089161277e+07
-6.033201295896025747e+07 -2.106250680568311512e+08
-4.905367163769418001e+07 1.034168583298074454e+08
-1.266706453306711614e+08 1.761804775432275534e+08
4.883623897409800440e+06 9.006887683509705961e+07
-8.530466944515258074e+05 1.213539881322675198e+08
-3.918412227364972234e+07 -8.576533219266447425e+07
-1.035237254946966767e+08 -1.368910053373423517e+08
-2.677506359365369007e+07 9.714496830431516469e+07
-6.271233969458309561e+07 1.591180026699695885e+08
1.820599388670052588e+08 1.810521613348589242e+08
-1.255899628068117946e+08 -1.503831300133298039e+08
1.947376103657803535e+08 -6.921808396093991399e+07
-7.162238253375753760e+07 1.490142777634940743e+08
1.270384776422102749e+08 -2.440553622509787083e+08
1.539611238695646226e+08 -4.031855783148694318e+06
4.349526383936461061e+07 -1.161425390978351831e+08
8.221008905058677495e+07 2.100050902187329233e+08
3.501349185515633970e+07 2.403936923336227536e+08
-7.996376968388283253e+07 9.077840055891592801e+07
1.302492301900381148e+08 -1.906683841932949424e+08
2.856898506090691090e+08 -4.801037821917812526e+07
6.494223047540820390e+07 8.243403454556085169e+07
9.459787444994881749e+07 1.788199241317394376e+08
8.658042817253968120e+07 -1.677837906551948488e+08
1.513568556601766646e+08 1.874449604470765889e+08
-1.347745668332361281e+08 -1.396174248062467277e+08
-1.082064291090020388e+08 -1.750410272590202987e+08
-1.857436468135180473e+08 1.597152006612477005e+08
8.760650236800470948e+07 -1.333269336089682579e+08
1.226564934437410086e+08 2.765445884788427949e+08
-6.043535253176300973e+07 5.004896863645660132e+07
2.636974496633685008e+07 6.148167275244893879e+07
-2.866137131064936891e+07 1.342618555416152254e+07
3.251022453380225226e+07 2.053979751296985149e+08
2.921481578868935704e+08 4.083447928734178096e+07
-1.665589501882728934e+08 1.055949671288269162e+08
-1.806266053228887618e+08 3.634253793331572413e+07
4.729304026095749438e+07 -1.380194245673930943e+08
-1.454262882665051818e+08 -4.942327307996822521e+06
6.459396799676654488e+07 -9.204846799134348333e+07
-4.021477723434682935e+07 1.143596214148758352e+07
7.755257349312216043e+07 -4.547778028623352200e+07
2.100219544224879444e+08 -2.772837589031295478e+07
-1.625927081104850173e+08 -2.238113635025984049e+07
1.490960362727090716e+08 9.371595102150411904e+07
1.306354735360579342e+08 -2.243499225403207839e+08
1.320797840095169842e+08 -1.750796694574062824e+08
-1.374486606558726788e+09 -4.878550261516375542e+08
-2.651941084427164122e+07 -8.371361552303856611e+07
1.152373425252313614e+08 8.343983555004955828e+07
3.969306879239649326e+07 -9.304596474131456017e+07
2.450264375154026747e+08 -5.759209126428789645e+07
-2.195264148810873926e+07 -7.217863356066222489e+07
-5.535795048394653946e+07 -1.806433632811076045e+08
7.723492683763167262e+07 -8.938545159029470384e+07
-1.538776297374453843e+08 4.774125966133518144e+06
5.260119271269186586e+07 -1.209148536137563363e+07
4.424619865239585191e+07 2.130693159910815656e+08
-2.048932318557248414e+08 4.395268168382374197e+07
1.425093260954356520e+06 -3.572056778112421930e+07
2.469860737091196701e+07 -3.111747500175164640e+07
9.139272383803309873e+06 1.299973614127677232e+08
-4.667385738405371457e+07 -1.134814669453915022e+07
1.217522761299381256e+08 1.398849997339379042e+07
-2.152882199441048782e+06 1.344255495874045789e+08
-1.375723426395034790e+07 -4.922159792776045948e+07
5.553893352839018404e+07 -1.485798147522477806e+08
-3.960823168150857091e+07 1.632664219633328319e+08
-1.556259018320490420e+08 1.864053581630549729e+08
1.749323904066156149e+08 -1.208632706271715611e+08
7.054702068285711110e+07 5.137750545231666416e+07
-2.043909832130145133e+08 9.008405511215870082e+07
-2.043863224142878503e+07 -1.263852166528356224e+08
-1.644028844512725770e+08 -7.389072063789415359e+07
4.452975271869248152e+07 9.150035360306107998e+07
1.156534528304671347e+08 -1.142354487694703639e+08
-2.551899003621606529e+08 -6.232866737555238418e+06
1.800142450265206769e+07 -1.184548360616857857e+08
7.351226308688025177e+07 2.910480841650037169e+08
7.809134740146660805e+08 -9.359210493025348186e+08
-1.327276425716696084e+08 2.019664856533173323e+08
-1.757117658284620047e+08 1.460050316354893446e+08
-1.563610076339778900e+08 -1.269169856717210561e+08
1.608734989729998112e+08 -1.158968270878083706e+08
-6.122935766290473193e+07 -1.321345975424282700e+08
8.362557662730872631e+07 1.144109060801374465e+08
-1.921459939960453808e+08 2.009215481584179997e+08
-2.277513043448126018e+08 -5.035954366314473748e+07
1.467548770904161632e+08 1.489901559333297014e+08
-5.990391702329433709e+07 -1.957711914725131094e+08
-8.910293601627619565e+07 6.769005514339800179e+07
1.236262301394929141e+08 -6.632999905485395342e+07
1.008436872166015208e+08 -2.043490206271274388e+08
-8.672384168809565902e+07 -1.596596287495745122e+08
-4.036732824057029933e+07 4.341092288196904212e+07
5.362356247039371729e+07 -2.099028852668625116e+08
-2.116095356654693782e+08 1.873839076271879971e+08
8.229091864712448418e+07 1.844961294049754143e+08
-1.283096386679713875e+08 -2.026360148748601675e+08
-2.687089143003982902e+08 2.527953204466970637e+07
7.992539363022708893e+07 -2.381233750441625118e+08
8.882687725833913684e+07 1.258311855129815638e+08
-1.151325317948387936e+07 1.263521044397971183e+08
-2.576041394172089398e+08 -7.236213023988236487e+07
-8.018683643131552637e+07 2.390476736857437342e+07
2.143465183518093228e+08 -5.349195042516619712e+07
7.514559049561870098e+07 -1.954585076668423414e+08
-1.325237586212352216e+08 -3.709819136259063333e+07
-2.456662215791447163e+08 5.654986729428258538e+07
-3.739142384987946600e+07 -5.338685792600060254e+07
-4.220638250930580497e+07 9.269979720456109941e+07
-1.056648457250870764e+08 1.858043357360556126e+08
-1.744128071590805352e+08 1.198186042954784483e+08
4.687142568608875573e+07 -2.231403624514195025e+08
1.573109533457552791e+08 -8.291142717313347757e+07
-1.612769313329136372e+08 -1.133142414024495333e+08
2.132195460979411751e+07 -4.260979723745545745e+07
-2.065864569890205264e+08 1.175592937169951051e+08
-9.408947944167619944e+07 -5.020478930304785818e+07
1.785781880135610998e+08 -4.687492320195355266e+07
1.313054550166251510e+08 1.524292794493712187e+08
1.754630495350901484e+08 -1.911753228626231253e+08
-3.680693974398541451e+07 1.026586373915304542e+08
1.303506665942906775e+07 -3.356462358047191799e+07
5.768677692247381806e+07 9.795430178876874968e+06
-7.072086949891731143e+07 -1.006317604661334455e+08
1.040145117106932253e+08 1.058820245384031832e+08
-5.433577405398007482e+07 -6.680272647188835591e+07
5.164940500282979012e+07 8.198917211387634277e+07
-1.064004408067305386e+08 -2.921686030795989186e+07
7.970842968636958301e+07 1.352291750788957775e+08
1.519330103639966249e+08 5.874961915322291851e+07
-6.741877194840383530e+07 -2.249155302721047103e+08
-3.848286737221800722e+05 7.902674250823462009e+07
-5.596467387611385435e+07 1.826691023334821463e+08
-9.720429542986395955e+07 1.501178036220239699e+08
2.255627396967304051e+08 5.012893516837675124e+07
8.010813590392103419e+06 5.015079682256859541e+07
-9.712320979698508978e+07 -1.249136231241044253e+08
1.175905525198427588e+08 1.910070412718674541e+08
6.957048789790776372e+07 2.149444796846919954e+08
2.804828607900239155e+07 -1.982668249664991722e+07
2.016512046006818712e+08 4.054581621341545880e+07
9.444342878345329314e+06 -2.740737306106513739e+08
1.894206663739064932e+08 -1.080420159179467894e+07
-2.227290258789398074e+08 1.141528269643718004e+08
2.015215147774286270e+08 -1.209687769809701592e+08
1.729179235785026550e+08 1.407086020726304352e+08
8.471032401074935496e+07 -2.513824487592240795e+07
-4.971925960520116985e+07 1.557327941261855066e+08
2.199428692784819007e+08 -4.004348186586564034e+07
-1.508767760093530118e+08 -1.405773163650680184e+08
-8.747654500866188109e+07 -5.969477493663085252e+07
2.636785184515638947e+08 -5.428644693402902037e+07
2.278861148672182485e+07 -1.068025206360389143e+08
-5.201823259749705344e+07 -8.759382651575919986e+07
7.358245226617480814e+07 -1.012554935804193616e+08
-1.595981935637104809e+08 9.124497476447206736e+07
2.835016967266208678e+07 -1.738624442764770389e+08
4.810665783146819472e+07 -2.458947317286341265e+07
-1.528286052625854909e+08 1.038696535723865926e+08
-7.671331609149592696e+05 -3.761184914563380182e+06
-3.201472518541900814e+07 2.055887895080297021e+06
-2.974120517230649292e+07 -3.022995569517597184e+07
2.229531419203330204e+07 -2.037545856158239621e+04
-1.331845629213256575e+07 2.657921373092508689e+07
-1.895254805924922824e+08 4.760802256216670573e+07
3.218217750467096642e+07 1.422561528406487703e+08
-1.044115682040053010e+08 5.153040401024297625e+07
1.618122196582334936e+08 2.001713696704399884e+08
1.492982715347975194e+08 3.191899957969827950e+07
-3.424533841824963689e+07 -7.434324749741284549e+07
-5.636280887184704840e+07 2.678572369614507258e+08
-1.240131470144846588e+08 -1.130951240723947249e+07
1.292109909171135910e+07 -1.302632884586502016e+08
2.179256386355948746e+08 6.468441035129692405e+07
-2.354290748409548700e+08 -3.486697720348192006e+07
2.189119964961981773e+08 1.314760426313795596e+08
1.574028301099740267e+08 1.058410163324631304e+08
2.737621640766925812e+08 4.669992796714726090e+07
-1.212473378322498798e+08 7.050320077278399467e+07
-2.604547500001505017e+08 -2.518518888331818208e+07
-8.599488624484267831e+07 1.251776175687245727e+08
-1.757991776292825639e+08 -2.628666332556602731e+07
-2.484144792719464898e+08 1.417413355283306539e+08
-2.532897071811638772e+08 3.572123285576950014e+07
5.576555940321736038e+07 -2.622140468251191676e+08
-6.377013036384931207e+07 6.519513199970833026e+06
-1.244535508321514279e+08 2.370888004861955717e+07
9.155973257215043902e+07 -1.551702717011126131e+07
3.602918412026289850e+07 -1.854144551620807350e+08
1.922412387547932267e+08 -4.368616965693768114e+07
1.864013553086184859e+08 1.656332592983271182e+08
-7.412899732950112224e+07 -1.979232324932027161e+08
3.720346240611273050e+07 1.009743819634216726e+08
5.747167664671722054e+07 1.928964018728559613e+08
-1.301863333961971253e+08 -8.746633147251355648e+07
-2.262912390243154466e+08 7.199517845479649305e+07
1.078652795680037975e+09 1.073703032628671288e+09
-6.731012196434059739e+07 -6.793943577092778683e+07
1.387347313288220167e+08 -4.580653954747334123e+07
5.801878059878430516e+07 9.195875814061954618e+07
-2.101903342386747301e+08 1.493723781500782073e+08
1.002951037070817873e+07 3.007589940036905184e+07
-2.591412693615097180e+07 7.663439698164311051e+07
4.303010996256650984e+07 -1.731080694995661676e+08
-1.760613953968462050e+08 1.191088462154063582e+07
-6.150085382169463485e+07 -2.494209683182671294e+07
1.277779488279615343e+08 2.452107501777008474e+08
-2.785789390331426263e+08 7.333305911445310712e+07
6.889483249183723330e+07 1.601727468744948506e+08
2.972649215455479547e+07 2.203211234951747358e+08
-6.013191626709800214e+07 1.808854552892712131e+07
2.518984332628882527e+08 -1.199002853054527044e+08
2.581272164650509953e+08 -1.032763032570138425e+08
-1.292076688804067224e+08 4.621511793513459712e+07
-1.652440582086882927e+07 -1.983308980139994025e+08
-4.084089867195081711e+07 2.615975510037241280e+08
1.948254364823664129e+08 1.903071393820717633e+08
1.667633470931552649e+08 1.168179638636053503e+08
8.711671533331197500e+08 3.062528562466133758e+07
6.846933233958089352e+07 1.475597939025499225e+08
3.543611159079585969e+07 -1.048355245763618350e+08
1.489759264662286043e+08 -2.303572694360075295e+08
4.573267951457451284e+07 9.097898993474505842e+06
-1.177940188091098517e+08 1.385058756476402879e+08
-7.051907126213723421e+07 -1.631793268846845999e+07
-1.118035028867797405e+08 -7.722874395707395859e+06
-2.839676101134883985e+07 4.534024769525469840e+07
2.501976963697825372e+07 -2.390034065544327497e+08
2.010653805546368062e+08 1.547310407212077081e+08
-1.304536948441037685e+08 -2.429928954505514205e+08
-2.343275658051760197e+08 -1.317133453612076193e+08
-7.188698860009966884e+05 -1.720555756954140365e+08
-1.328794738717879355e+08 3.345142268615886569e+07
-2.376329003525634706e+08 -1.009749320820692033e+08
-9.584494803581224382e+07 -2.160726480489168465e+08
-5.256700284990092367e+07 1.972138740264112651e+08
-8.398490717199566960e+07 -1.855364335995323062e+08
-1.669720074649747694e+06 -7.914507685289855301e+07
-9.983973347507210076e+07 -3.899813574350063689e+06
-9.226119182488222420e+07 5.454025074431013316e+07
2.197094723669838160e+07 2.319980461186079085e+08
2.174291765529828370e+08 -1.236775194709609300e+08
3.419964874968329072e+07 2.562194135680575371e+08
1.050384570268089920e+08 -1.876839228441128433e+08
2.426197310193813145e+08 -2.536699637654534727e+07
1.422645150865266025e+08 1.987525796374231279e+08
1.864871193752408624e+08 -5.747624887580554187e+07
-1.629447042134425640e+08 -1.511331426435104311e+08
-4.964397608766926825e+07 -1.088413016780550629e+08
5.149864786885507703e+08 2.032992632579101920e+08
1.270864981788749993e+08 2.015581102543991804e+08
-1.688806100343253016e+08 2.177537330049695373e+08
6.297062564634584635e+07 1.227216799834795892e+08
-1.964429504090114236e+08 -1.792313704451189637e+08
1.029015135064881146e+08 8.338906273264655471e+07
-2.377103126372322440e+07 5.638682209273160249e+07
8.589648749992042780e+07 2.235447246771896482e+08
4.823642374040436745e+09 -3.115783761683887482e+09
1.014626342259088457e+08 6.112687043624963611e+07
-4.617573432005340606e+07 1.426849961075317860e+08
-1.188556081051776886e+09 -1.482650486330688953e+09
2.822673769064229727e+08 9.933463259807343781e+07
-3.595580865629963577e+07 5.464025667103518546e+07
1.813478537168921828e+08 -2.120473345709553733e+07
-1.491213173098056912e+08 2.283831658659122884e+08
-2.058914175552300364e+07 3.931584382774873171e+06
2.364298007572470605e+08 -1.511789732974083126e+08
8.928704631864577532e+07 6.148156522895950079e+07
1.359006502972394228e+08 9.375369369044886529e+07
1.798230792270421237e+07 1.096445950932946205e+08
-8.912589811022235453e+07 -1.357244596070226133e+08
-3.654073265841247141e+07 -1.068528037339828461e+08
-2.376005505264591053e+07 1.314547785770329088e+08
-4.278097023039792664e+06 4.867946440506700426e+07
4.958777159217023104e+07 -1.607905794017238021e+08
-1.842806508534566164e+08 -1.331491524169922322e+08
1.194777541971394718e+08 2.148156240416457355e+08
4.496671761063722521e+07 1.987569994708386660e+08
-9.279177300976209342e+07 -1.732013502624734342e+08
2.551786909571683705e+08 -7.202537465788741410e+07
5.682082967269589007e+07 1.121297094479161203e+08
-1.537337611781483889e+08 -8.340579567938846350e+07
-1.682782907910366058e+08 -1.017379590092074275e+08
-1.663139300739469230e+08 -8.819142565222145617e+07
9.186787505933678150e+07 -7.357888419299945235e+07
7.205913760355100036e+07 -1.700459840744515657e+08
