3.690414982422557166e+00 2.673347864127505957e+01
3.836551691174548750e+00 2.666740580132303151e+01
1.286038175925470739e+01 -3.743830025241522974e-01
1.305948291183167242e+01 -9.860982047285650198e-01
1.326747252399249888e+01 -1.494901649444258185e+00
1.352898764340595505e+01 -2.032094262344025015e+00
1.371982990998011864e+01 -2.599138704525369103e+00
1.382634583594733257e+01 -3.193048252603624793e+00
1.372616068137381617e+01 -3.878161102399151350e+00
1.322500682163116004e+01 -4.610381068186769404e+00
1.259493128983238641e+01 -4.813986573699496674e+00
1.207498090930047496e+01 -4.957730594931814672e+00
4.105976808717882953e+00 2.647614686212271096e+01
1.151703176272960505e+01 -4.761473476306275820e+00
1.100368006888624528e+01 -4.473436026919276109e+00
1.039409647223041411e+01 -4.093015410383908481e+00
9.628733677475819874e+00 -3.496178045284058733e+00
8.957152578070578741e+00 -2.862971930575853641e+00
8.277146422207600551e+00 -2.264760244619027585e+00
7.649307169946823137e+00 -1.565041402182975494e+00
7.111074287130091598e+00 -1.026070779240774833e+00
6.585126207495729744e+00 -4.958517455703788102e-01
5.890266499536767064e+00 1.881558241732172315e-02
4.312495605652399533e+00 2.630605068703239269e+01
5.247695973801949521e+00 1.571968690599759300e-01
4.416211171418983561e+00 4.756465612799829490e-01
4.268818747448078987e+00 1.036303281743702787e+00
3.603221218204602838e+00 9.822917039052038168e-01
3.221288761937708855e+00 1.273188747266085885e+00
3.416693042288852844e+00 1.749319399579533307e+00
3.024338976990067707e+00 1.838021784919979584e+00
3.051695647727913130e+00 2.189214709232610634e+00
3.248289893720599064e+00 2.444753099163659460e+00
3.796023126224052024e+00 2.463174950627159632e+00
4.672496325228062908e+00 2.599501124630499760e+01
4.233611198958271871e+00 2.635173751989503099e+00
4.755358038506333429e+00 2.440985082227265845e+00
5.357076793572532303e+00 2.373721205066992468e+00
6.097844942182224948e+00 2.127321908993586419e+00
6.997635904151656483e+00 1.915621872099611656e+00
1.087766788918076699e+01 3.194611273061862683e-02
1.129310674001011705e+01 -7.926824981235428558e-01
1.184958522220050803e+01 -1.345489972587526228e+00
1.208961060041642810e+01 -1.946165542321751651e+00
1.260949077039558475e+01 -2.349590464510754817e+00
4.893466243323668863e+00 2.580076459246462051e+01
1.268123617676834236e+01 -2.844650978012386755e+00
1.310727419745317057e+01 -3.181093247421925785e+00
1.293911435519532738e+01 -3.641508503528350982e+00
1.313014448149712976e+01 -4.096932967415598092e+00
1.240915723831334638e+01 -4.139235195031142567e+00
1.210528010624636508e+01 -3.895665623227575480e+00
1.157101452648144679e+01 -3.774722450616102343e+00
1.112219011830915250e+01 -3.452089947619148003e+00
1.050737202283734817e+01 -3.011431037177707104e+00
9.979349714320939313e+00 -2.467247547805391239e+00
5.183596672418299356e+00 2.550635897208995573e+01
9.517224308012890432e+00 -1.869818508477282037e+00
9.005688433705989482e+00 -1.320442232267574401e+00
8.656178684342190621e+00 -7.730977125924907156e-01
8.499086595120228793e+00 -2.981758166565128265e-01
8.171834021737803155e+00 2.148714731736181272e-01
8.325806261850884127e+00 7.011743352996760992e-01
2.465424700745145081e+00 2.578798578295740995e+01
2.793718004259227783e+00 2.626707529132415786e+01
3.035248566452125818e+00 2.650867323663340613e+01
3.281660142677726988e+00 2.666248442065079161e+01
5.445288880773714979e+00 2.521776936306086725e+01
3.470146824338624647e+00 2.673871103001101446e+01
3.598025199536723839e+00 2.673681368400858460e+01
1.256454235423199961e+01 6.218496112628698613e-01
1.267499722243303140e+01 1.595433754123378456e-01
-9.652081381480645206e+00 -1.717169663899734644e+01
-9.814262596321730925e+00 -1.689460883791613810e+01
-1.039175957301516107e+01 -1.383961817039639897e+01
-1.017369608100687550e+01 -1.331578987546142834e+01
-9.855686838365487645e+00 -1.278976587710692669e+01
-9.467840623535876077e+00 -1.212188398848731019e+01
-8.997796248864153412e+00 -1.147503177189341805e+01
1.790522202869823332e+01 -8.147393932628768098e+00
1.740001249791948723e+01 -8.994445878284249574e+00
1.703457677471746123e+01 -9.335619245427199786e+00
1.671902696159002133e+01 -9.464529775629532793e+00
1.585975836770871794e+01 -9.546899958833924060e+00
-1.027636364984788919e+01 -1.677627082179557405e+01
1.503100060413219374e+01 -9.387002049624927125e+00
1.420401781225265658e+01 -9.422392518214364188e+00
1.349960625531395664e+01 -9.035095238839511822e+00
-5.201179753296705677e+00 -2.064912027468620792e+01
-5.950668603085813579e+00 -2.065261073123672020e+01
-6.387010927969018148e+00 -2.054052728806702532e+01
-6.941025216076726068e+00 -2.038322330867113052e+01
-7.386434300702000577e+00 -2.016339586856417654e+01
-7.962195547534417273e+00 -1.986647810524677382e+01
-8.287607102402608561e+00 -1.955651269015923432e+01
-1.041014978830535931e+01 -1.650678458602009968e+01
-8.739122273147438946e+00 -1.923899829717505128e+01
-9.103246662766594000e+00 -1.896720553705870316e+01
-9.191231956241450618e+00 -1.862113101708267138e+01
-9.121709914241918682e+00 -1.825768946136992454e+01
-9.382198465591427450e+00 -1.799806144828928822e+01
-9.002080798609320311e+00 -1.763173985844240477e+01
-8.788062663396036811e+00 -1.727486508627536210e+01
-8.742688852155477974e+00 -1.688611963424014561e+01
-9.032214858369856714e+00 -1.663223629719551511e+01
-9.052669855619328132e+00 -1.629391064500847364e+01
-1.064100130337680561e+01 -1.626331145573869108e+01
-9.498392133876931709e+00 -1.619380716270757148e+01
-9.820857545835526281e+00 -1.595637690162495836e+01
-9.656486947762147111e+00 -1.564502356150379292e+01
-9.654559376186043096e+00 -1.535608668175933111e+01
-9.586794892763155218e+00 -1.493305134640028520e+01
-9.484320919481948664e+00 -1.445687719271250060e+01
-9.281920849904304660e+00 -1.384225498300406798e+01
-8.995588711711192786e+00 -1.321697883212365987e+01
-8.598689174404787749e+00 -1.257524045131949819e+01
-8.102315401259538419e+00 -1.203868119902363354e+01
-1.081044342680115200e+01 -1.597583747921117237e+01
1.699441068907710317e+01 -7.585997983625323293e+00
1.703350317702461325e+01 -8.577023871785291576e+00
1.682513191808304143e+01 -8.936623444017200768e+00
1.657554638445937911e+01 -9.094638091672084812e+00
1.609240843356996464e+01 -9.213273946891071375e+00
1.550308673899758816e+01 -9.174645847517226116e+00
1.474950042030024555e+01 -8.705502491503420259e+00
1.398665623923848500e+01 -8.302974060261341549e+00
-5.129063985786005198e+00 -2.146105492416635840e+01
-5.896992864155421010e+00 -2.137593886063928750e+01
-1.084647575195051949e+01 -1.558355587231790551e+01
-6.660862366195139828e+00 -2.116697201836797504e+01
-7.077442204862618880e+00 -2.099274163808872018e+01
-7.758345214965619796e+00 -2.067444662782743237e+01
-8.235821082428337547e+00 -2.044181611584859581e+01
-8.773593670627203522e+00 -2.014130157237205765e+01
-9.231835476334794066e+00 -1.981908553506562143e+01
-9.553725616728213410e+00 -1.952474071828972768e+01
-9.803610900215772972e+00 -1.917087730726699846e+01
-9.973827326862755527e+00 -1.877031988546858798e+01
-1.009618951758036332e+01 -1.836460555900314517e+01
-1.060608113466794933e+01 -1.525425098704782023e+01
-1.004719148913360627e+01 -1.795569232556808359e+01
-1.011908467791022304e+01 -1.762696764928648108e+01
-1.063857926314991076e+01 -1.480687825270460856e+01
-1.051040674500463012e+01 -1.440304212496383052e+01
-2.447232887507081500e+01 -1.697053879470205473e+01
-2.427379468214911284e+01 -1.719411186496371613e+01
-2.267724455017611618e+01 -1.785116215039886356e+01
-2.233305643304936083e+01 -1.765211650194527238e+01
-2.191662344147932018e+01 -1.788977024405964400e+01
-2.147022048360036095e+01 -1.797484405526274642e+01
-2.139203228494675812e+01 -1.761885864168451832e+01
-2.111702351553145363e+01 -1.753955372043611760e+01
-2.149051204360744194e+01 -1.700906908070502510e+01
-2.143915725161262387e+01 -1.677242454924809323e+01
-2.098086004896298817e+01 -1.628044244589979783e+01
-2.079170023898498698e+01 -1.708066178542858538e+01
-2.407424959598500891e+01 -1.725053197617360468e+01
-2.110974569238800669e+01 -1.669137641783523307e+01
-2.016662869870662789e+01 -1.739290071122450243e+01
-2.077440180078457388e+01 -1.678787632048131329e+01
-2.036095848712148992e+01 -1.753735559262982946e+01
-2.031809297660518965e+01 -1.655125599235868705e+01
-2.018112623659244775e+01 -1.761145681741090385e+01
-2.005460909578518169e+01 -1.684044122076179306e+01
-1.971687720904553842e+01 -1.712396637908704733e+01
-1.942464639603687360e+01 -1.666404616619949763e+01
-1.953277630878326221e+01 -1.699896490118648629e+01
-2.377698289536122900e+01 -1.672671601491575544e+01
-1.956580693386721492e+01 -1.637789786953200988e+01
-1.898368380249835141e+01 -1.673618842809807816e+01
-1.885726704622987171e+01 -1.615358362613057963e+01
-1.858877278600377991e+01 -1.639753045470994053e+01
-1.826131873610240675e+01 -1.611609878916162941e+01
-1.837529941335852968e+01 -1.626528655527160794e+01
-1.864206791541897346e+01 -1.581574539923490796e+01
-1.794050449388361201e+01 -1.608955072330858016e+01
-1.831001808213155257e+01 -1.548282489706008391e+01
-1.771961403072846863e+01 -1.586574338891059632e+01
-2.355113469015427086e+01 -1.648088886621017579e+01
-1.776677408595177710e+01 -1.556271179453010944e+01
-1.841117080190344879e+01 -1.515560064691301179e+01
-1.721741592215033734e+01 -1.544502194653911964e+01
-1.741536379327757800e+01 -1.518334017986579276e+01
-1.793438760698682088e+01 -1.492172191912789359e+01
-1.741069913259390134e+01 -1.482011297614153378e+01
-1.777317436647375359e+01 -1.475311651100225951e+01
-1.698517571910607415e+01 -1.483447776669250828e+01
-1.718330728437472033e+01 -1.446230701812645947e+01
-1.748472047545128305e+01 -1.422199358087391552e+01
-2.346035441810089850e+01 -1.635042268512665586e+01
-1.772678318117201002e+01 -1.415335386213148183e+01
-1.809590394181275030e+01 -1.414862076740782726e+01
-1.841983777100563202e+01 -1.413430734450428616e+01
-1.805368208612364000e+01 -1.378366623019293336e+01
-1.867372422519653341e+01 -1.383317175194678050e+01
-1.910851947490526115e+01 -1.398046157972373926e+01
-1.955021924532781696e+01 -1.366332016645045577e+01
-1.969108408427863566e+01 -1.372909417675462151e+01
-2.024390263531041967e+01 -1.371871646737620054e+01
-2.051962185681650652e+01 -1.382895679388079202e+01
-2.326452802349675153e+01 -1.652831287021511386e+01
-2.083425417148562886e+01 -1.385179565124104961e+01
-2.119151948073478309e+01 -1.402431848140258097e+01
-2.159091339381396324e+01 -1.413838734016163912e+01
-2.207217287540201056e+01 -1.439946138626832273e+01
-2.261135486693560992e+01 -1.464105488122262066e+01
-2.335323638274724090e+01 -1.517604134781375613e+01
-2.358646272280079970e+01 -1.531953054149846416e+01
-2.377666722105080410e+01 -1.557601029952722271e+01
-2.420142612095024148e+01 -1.571113269013282654e+01
-2.441926313055862963e+01 -1.615660762806166062e+01
-2.326491885629758372e+01 -1.701534159106542887e+01
-2.454593404712500515e+01 -1.636690827245086055e+01
-2.452808595558903448e+01 -1.675762861372824375e+01
-2.315834701792134709e+01 -1.736464940194919038e+01
-2.301985040009126138e+01 -1.770343458339550580e+01
-1.072866511089630936e+00 1.975690771578940286e+01
-1.236592957535916470e+00 1.939246194388061895e+01
1.204199138828182081e+00 1.552138153404511556e+01
1.532196382267031254e+00 1.529542666147311891e+01
1.971212105943529469e+00 1.502360696907676996e+01
2.353648298934814420e+00 1.527013697371459244e+01
2.700078461611712388e+00 1.485055472509450070e+01
3.063804552120307889e+00 1.508246233409281345e+01
3.453492982897600427e+00 1.503859199718222683e+01
3.750264912582708110e+00 1.477956107352886583e+01
4.118766992630380486e+00 1.498193634195929569e+01
4.336908975486719164e+00 1.458611477842284998e+01
-1.316993422064340225e+00 1.906081217551937357e+01
4.636234225702366984e+00 1.472195348745519539e+01
4.944061684687919289e+00 1.452816277670357614e+01
5.169973130153742602e+00 1.492022184431730203e+01
5.422736578679709929e+00 1.494456286071827655e+01
5.592851466884709133e+00 1.529701837209716508e+01
6.094267681897313160e+00 1.590165701618286320e+01
6.642442145796835895e+00 1.655344026568178606e+01
7.029902413104870185e+00 1.699416362830866234e+01
7.298304538384329909e+00 1.728490798285668006e+01
7.547380510182022384e+00 1.764322850495237915e+01
-1.354924996802198134e+00 1.859196318860856678e+01
7.785724096460112875e+00 1.809154428488502475e+01
7.973771875161575373e+00 1.853112270250750981e+01
8.054173448487718545e+00 1.888457022860764667e+01
8.054605394703596488e+00 1.912223577093168458e+01
7.996827130694932784e+00 1.935908744127328518e+01
7.895352532879493346e+00 1.956395206114297736e+01
7.725505099580672663e+00 1.976428577669483744e+01
7.497334685985449276e+00 1.993879860203082544e+01
7.151560730148459832e+00 2.011527996661970974e+01
6.776851556647237373e+00 2.022409234718852744e+01
-1.292960931264242941e+00 1.812818450201091380e+01
6.407304444480001138e+00 2.026874415931577289e+01
6.000796256396041528e+00 2.026152130424698683e+01
5.538230269288958674e+00 2.018498235449509437e+01
5.059588898467350049e+00 2.002041500468745738e+01
4.565241569041504022e+00 1.976997971584944125e+01
4.138567806264580540e+00 1.947836025939493254e+01
3.820143754820239490e+00 1.901814724870950712e+01
3.444456358420051600e+00 1.841054738405116353e+01
3.152889688493077713e+00 1.770939330692603519e+01
3.040736058366956041e+00 1.711481014164994008e+01
-1.140645258791144867e+00 1.769819170069996517e+01
3.202718301499613229e+00 1.666106318024241517e+01
3.484251660589888999e+00 1.642231338969932253e+01
3.920148460752616693e+00 1.643376461239069997e+01
4.070223798777504065e+00 1.608338849963305250e+01
4.485753036437462704e+00 1.643507898485845686e+01
4.648814115577093453e+00 1.609846796715953232e+01
5.009246734048384830e+00 1.633475696623185769e+01
5.349986407471734040e+00 1.649329797753703986e+01
5.568662237896615963e+00 1.682692720027980116e+01
5.783740939604951947e+00 1.722169237335331360e+01
-8.561681173380005783e-01 1.717813580190133038e+01
5.371388723466319348e+00 1.739529112067578964e+01
5.031710272087376090e+00 1.761871229448940568e+01
4.558469624356150440e+00 1.774268083361565829e+01
1.952995335178256076e+00 1.905169745127080816e+01
1.486218956241571076e+00 1.949555012927527997e+01
1.053997682347031173e+00 1.979549301747999124e+01
7.012268010605634538e-01 1.998533711469685414e+01
3.558973181832397192e-01 2.010050192707493011e+01
2.020246872497057436e-02 2.015040770032117834e+01
-3.075410806406125297e-01 2.012819165506181918e+01
-5.239872694225977678e-01 1.673940474993858629e+01
-5.759476105894467679e-01 2.008265117442204328e+01
-8.624700047291165017e-01 1.996280857388502028e+01
-5.200038932356982474e-02 1.637502714184556751e+01
6.535082745621845213e-01 1.593081524458563969e+01
5.253130023934209802e+00 8.203778138123242414e+00
4.909375542975806361e+00 7.853409171823177104e+00
-2.246478799714854091e+01 -2.573318495016200913e+00
-2.308255603699750580e+01 -2.483620294042951038e+00
-2.385088664870108488e+01 -2.107628170088780006e+00
-2.457937349922014292e+01 -1.681920075966431227e+00
-2.530894565484999248e+01 -5.818165112447176712e-01
7.657816477166671021e+00 8.191852465620161894e+00
7.300867496957825331e+00 7.853483620855297609e+00
6.837192886545054193e+00 7.664386952530995778e+00
6.521433544199031651e+00 7.090793823311174471e+00
5.976474905069427912e+00 6.552785553268464902e+00
4.274768759307578492e+00 7.154656711169610439e+00
5.217334044026024742e+00 5.954493854635858341e+00
-1.796669706827555402e+01 -1.340594283129720843e+00
-1.888128112849163998e+01 -1.393082338267645159e+00
-1.978563177002983764e+01 -1.310100906208336191e+00
-2.040170867223360318e+01 -1.252530195596411655e+00
-2.090860809021597788e+01 -1.187157559640070748e+00
-2.122224685348056639e+01 -1.245356309457682942e+00
-2.149700814487307099e+01 -1.043649238600837137e+00
-2.191833392763031085e+01 -1.184578156579531916e+00
-2.240873699850802581e+01 -1.012926767282480212e+00
-1.731090701864356518e+01 -2.108255304306389633e+00
-2.311220296244623285e+01 -1.042370129221015462e+00
-2.377470330633765627e+01 -7.786183666984040075e-01
-2.449761037266991437e+01 5.691483972921632800e-02
7.182152004415591762e+00 9.323553494458911572e+00
6.600732394677193859e+00 8.838451330928839056e+00
6.041074547384110538e+00 8.368712573601200688e+00
5.645965620721359102e+00 7.930598556547754363e+00
5.191847574732964432e+00 7.415290536019468526e+00
4.634950207982013737e+00 6.677415399561779097e+00
-1.710398915447152390e+01 -1.591350544419143365e+00
-1.874555075529690740e+01 -2.157276838678814812e+00
-1.841159299114456971e+01 -2.317819193329547556e+00
-1.936604290181690402e+01 -2.475096081910736157e+00
-1.993526716463131265e+01 -2.609609734722725172e+00
-2.042536054991384731e+01 -2.689041225047132055e+00
-2.103909184605623039e+01 -2.696679601627121059e+00
-2.147251960307873730e+01 -2.689872308505607545e+00
-2.203674187963341069e+01 -2.606247520139945983e+00
-2.257801462000581338e+01 -2.450368453167893978e+00
-2.337178768298673504e+01 -2.057332709603632015e+00
-2.421920280404608050e+01 -1.613809683265138961e+00
-1.948777577240226577e+01 -2.332299716320914929e+00
-2.528706572817960208e+01 -1.073559664633132904e+00
7.880710634551406635e+00 8.768588871973173937e+00
7.264744925628165539e+00 8.374201085453941928e+00
6.631369350225486237e+00 8.025541753128628386e+00
6.270466878817249956e+00 7.594369927215905314e+00
5.915444470207734007e+00 7.372590533926300260e+00
5.408339507171312732e+00 6.705268929523156451e+00
-1.736730086602533518e+01 -8.568564535069062016e-01
-1.868990093164648414e+01 -1.609290555933226230e+00
-1.938558139804884561e+01 -1.623200215722337081e+00
-2.017156445159538691e+01 -2.519621929507343872e+00
-2.002953739180124515e+01 -1.809419539003597865e+00
-2.067052347219402009e+01 -1.804144437495497799e+00
-2.104779611899807890e+01 -1.792498222582585177e+00
-2.136891742901601177e+01 -1.788021890136086700e+00
-2.177827005367477753e+01 -1.799963025250644666e+00
-2.226533040951078490e+01 -1.657473792799784240e+00
-2.297013713222059295e+01 -1.397893522251688392e+00
-2.370224227433293862e+01 -1.035795476332376674e+00
-2.446501345093010471e+01 -5.116003782317785076e-01
6.575756434411883511e+00 9.443988984801997333e+00
-2.090248843319114158e+01 -2.535632331492336355e+00
6.025698867721982488e+00 8.970064137853938746e+00
5.692599700722244194e+00 8.735632944382983212e+00
-2.144814201690448030e+01 -2.625047226849038573e+00
-2.194074810160387656e+01 -2.643868067700722246e+00
-2.400001090418651284e+00 3.638624505557062072e+00
-2.096529742986300793e+00 4.260175791592312855e+00
-1.789390412586966628e+00 2.469156075979136222e+00
-2.352150902158736567e+00 2.330188561784807710e+00
-2.255635321830413709e+00 2.180543729394891717e+00
-2.438714728058276826e+00 1.995107998084771239e+00
-1.925064661062920734e+00 1.450205672734827145e+00
-1.769070872181129017e+00 1.301630825718485429e+00
-1.823411197340156775e+00 1.214063960369817563e+00
-1.794599252279364343e+00 8.534353437243251683e-01
-1.764806509947733026e+00 6.819003445494957738e-01
-1.637228432249225207e+00 4.984892940388988003e-01
-2.200312014314497855e+00 3.676705893057726549e+00
-2.365152649892633629e+00 5.153187326796452306e-01
-2.503070593845801994e+00 4.111616244821088562e-01
-2.338280421581720780e+00 -2.745821709700891223e-03
-2.871954872340316545e+00 8.901217219365256672e-02
-2.807184539758678543e+00 -3.285705216305633836e-01
-3.182030298838522508e+00 -4.920027723835502798e-01
-3.381561527983776738e+00 -4.630382008736392829e-01
-3.364613865830639039e+00 -8.756988649599379837e-01
-3.657995719780684496e+00 -7.387361857501217877e-01
-3.809595991927058112e+00 -1.142802301077511906e+00
-2.132091965015660673e+00 3.422775360702400516e+00
-3.786265376579845743e+00 -1.054123044153351563e+00
-4.072654309923932736e+00 -1.345890101128474736e+00
-4.267473899103007895e+00 -1.167604268160863157e+00
-4.461895180217516632e+00 -1.287832690511087952e+00
-4.692178487871003334e+00 -1.420178390060015117e+00
-4.869971379263446032e+00 -1.361614367631948541e+00
-5.048156676992238800e+00 -1.262925221336094639e+00
-5.102186115432011171e+00 -1.461148360731327145e+00
-5.380484068339741910e+00 -1.314569383589109020e+00
-5.556288792465466919e+00 -1.210487453298521032e+00
-1.766722003481809855e+00 3.473215656350574942e+00
-5.354447012276944307e+00 -5.988207313001000509e-01
-5.946836055816951294e+00 -9.017285950474643874e-01
-5.626338430706443461e+00 -3.095674635157285026e-01
-6.218447223364033327e+00 -5.236127032913781010e-01
-6.477309081747576691e+00 -3.288758272390525650e-01
-5.873341071722452789e+00 1.674905641988940208e-01
-6.206781630843612341e+00 1.932250656942828548e-01
-6.706228470902836136e+00 2.096014248055347862e-01
-6.752191963810552089e+00 4.707831044324473635e-01
-6.442548143109918080e+00 7.087192967447787373e-01
-1.646910709838340425e+00 3.241963332095052053e+00
-6.690753656166086749e+00 9.550836345832890428e-01
-6.044070411432792334e+00 1.084133462677062232e+00
-6.253195273513083130e+00 1.435477602437484679e+00
-5.800292180326605873e+00 1.546828165660949272e+00
-6.484526653639469451e+00 1.937792693641587238e+00
-5.914647704160635122e+00 2.137436107728578172e+00
-5.402593653470343149e+00 2.349921210623584500e+00
-4.579894827670418778e+00 2.989567658827131602e+00
-4.534188694479053261e+00 3.385623542207473413e+00
-4.221787239803589387e+00 3.117020489399845662e+00
-1.582384075070289331e+00 3.173766560331857889e+00
-3.944702915525232445e+00 3.788290225534308941e+00
-3.830424896004036128e+00 3.041206521408461594e+00
-3.627308401601191168e+00 4.516672023070920972e+00
-3.414032662005957341e+00 3.238379111744639438e+00
-3.355968111392668707e+00 3.908488866883405244e+00
-3.190202537972175456e+00 3.160173650557927871e+00
-3.114515062440711191e+00 4.118850256579987601e+00
-3.089411171341604145e+00 3.148972146854876808e+00
-2.924008953719910764e+00 4.135907659036491602e+00
-2.824553677274235230e+00 4.286311051967839347e+00
-1.650153726240937369e+00 3.956436480055491423e+00
-2.643120392293776266e+00 4.174111647639591638e+00
-2.306096494215109427e+00 4.502994505949055259e+00
-1.901886528628445205e+00 2.946146107496911082e+00
-2.089191681192693828e+00 2.878614595682817967e+00
2.663825031444957148e+01 -2.664517527737354285e+01
2.614670493036768306e+01 -2.650960864595737121e+01
2.595145877628246467e+01 -2.359211307129656277e+01
2.626169700867359680e+01 -2.349145317874958394e+01
2.652172898453754257e+01 -2.350141399190934877e+01
2.711088702615464996e+01 -2.375177353652882672e+01
2.722288400004150333e+01 -2.395248493322934635e+01
2.724166640548762786e+01 -2.459782273893306126e+01
2.687229481041459067e+01 -2.439360070657495427e+01
2.675592896875628313e+01 -2.446750330274401719e+01
2.808570261507436072e+01 -2.473632882669389588e+01
2.766984854923955695e+01 -2.427666079174993996e+01
2.585053998597683744e+01 -2.623740459954555959e+01
2.809094885936686126e+01 -2.447236444045547543e+01
2.756798268247566952e+01 -2.403185009896037272e+01
2.781729295011494685e+01 -2.397086765738949410e+01
2.783597728130880000e+01 -2.376696016794068100e+01
2.798347629303172113e+01 -2.367537785887363455e+01
2.779659535710846896e+01 -2.342231212316893973e+01
2.854196966297703852e+01 -2.378550968612289651e+01
2.825751776210207211e+01 -2.339676631047555944e+01
2.856935147581334533e+01 -2.333724154493440750e+01
2.882007842820945598e+01 -2.345849787200487668e+01
2.555359149746344727e+01 -2.598853001633532855e+01
2.913373413149655633e+01 -2.329182255828944648e+01
2.918263505545482062e+01 -2.320711031970844118e+01
2.922260726170747702e+01 -2.329420366219964933e+01
3.075952257060950146e+01 -2.260061100922500188e+01
2.990740118300677253e+01 -2.284532452420824811e+01
3.011708644272657764e+01 -2.275981161409054820e+01
3.142751099627034606e+01 -2.228355105193822538e+01
3.031418010914321215e+01 -2.247418595135983210e+01
3.123481366941516058e+01 -2.198465484151051186e+01
3.200038643938158600e+01 -2.157443155042022909e+01
2.531301014179443953e+01 -2.565260591502875087e+01
3.152331941044667118e+01 -2.182748219992515715e+01
3.195064197754217972e+01 -2.119918011763648380e+01
3.125155660836432858e+01 -2.158024420343855709e+01
3.169892935481555796e+01 -2.134665358522883594e+01
3.179905031260632953e+01 -2.088961222565152909e+01
3.078696628407226399e+01 -2.142007470194616303e+01
3.095787620659293893e+01 -2.127986472284186448e+01
3.101178565050138047e+01 -2.107421563629813832e+01
3.123642157183495627e+01 -2.078140977978450366e+01
3.122336918604750267e+01 -2.064734591751038906e+01
2.511172557883930523e+01 -2.533153762459972569e+01
3.133886841115853983e+01 -2.055238839450387189e+01
3.041826354478873995e+01 -2.089606336690527399e+01
3.051278477641669440e+01 -2.057579439717355996e+01
2.992889553943772185e+01 -2.095808430484565221e+01
3.009911877464394792e+01 -2.121507655541950399e+01
2.952369886717692538e+01 -2.088608811027939893e+01
2.959865142871860400e+01 -2.101155860990490964e+01
2.926372552329312526e+01 -2.119666857826832995e+01
2.884136259091205190e+01 -2.123515448734456612e+01
2.859776249969880979e+01 -2.140774925091012548e+01
2.519734789421204013e+01 -2.493645719162611485e+01
2.829610911708865828e+01 -2.157951131018956303e+01
2.808067401889590542e+01 -2.171668598181512877e+01
2.775179853251974649e+01 -2.232826726710550602e+01
2.951871394147210026e+01 -2.471108615098152939e+01
2.914686948684103740e+01 -2.521451113616140560e+01
2.903132358690112369e+01 -2.555308443970486110e+01
2.885125447328739057e+01 -2.596115786222214794e+01
2.862918972429013209e+01 -2.631929682775684043e+01
2.827163295369841123e+01 -2.654840599039956572e+01
2.801391172876321889e+01 -2.674292517282005122e+01
2.512857529001585988e+01 -2.456023165553956389e+01
2.757315397471732865e+01 -2.669109452539400706e+01
2.708563366745043766e+01 -2.668216088998795144e+01
2.542787491581605508e+01 -2.411640178802077017e+01
2.566238442959246413e+01 -2.382361275756490571e+01
1.688317985913419150e+01 2.926625455400927223e+01
1.693585115184841783e+01 2.987772227377313072e+01
1.856218584589994336e+01 3.107679221177261653e+01
1.896034283628033634e+01 3.150696057258944549e+01
1.936619007892752009e+01 3.147063905160246478e+01
1.956031348409465664e+01 3.190941922875426329e+01
1.895015476003541366e+01 3.171352388425406588e+01
1.945333689537872957e+01 3.197685247699211786e+01
1.865040656470192815e+01 3.200155455707825780e+01
1.988563352450130139e+01 3.307947759388613207e+01
1.875140282855766571e+01 3.249708402629737236e+01
1.912127838510057032e+01 3.276902531346455305e+01
1.669165288583749529e+01 2.986604561547085268e+01
1.899012771651614528e+01 3.273288620286631811e+01
1.905638274992916337e+01 3.316051079397573176e+01
1.931206641540703828e+01 3.396506816262143502e+01
1.953624821116243737e+01 3.434573879958109188e+01
1.913248793082764720e+01 3.422490108453078506e+01
1.957696038116159087e+01 3.463637724273339558e+01
1.946350728724526746e+01 3.475847404555311471e+01
1.941235187514032745e+01 3.500822901208899651e+01
1.913044482036525196e+01 3.497614899856022674e+01
1.836504064906641887e+01 3.484348987365074635e+01
1.706434833373466375e+01 2.977584578494573719e+01
1.866202641573852006e+01 3.497213437355710397e+01
1.811740536198956164e+01 3.490762035841473221e+01
1.787666481085406289e+01 3.496792376876139485e+01
1.733394262428650734e+01 3.531897093568762358e+01
1.654466709095013144e+01 3.582367529441814469e+01
1.598957210441179022e+01 3.619150292014300874e+01
1.560794890296941340e+01 3.586336625196438632e+01
1.615380580331050453e+01 3.474926550412962456e+01
1.543170908921471174e+01 3.545912678125370121e+01
1.598426402307286942e+01 3.583445825892925996e+01
1.810096439131800494e+01 2.985711999638299829e+01
1.555700952457899611e+01 3.434905711959434882e+01
1.501610195519418056e+01 3.502022087614690093e+01
1.502160238062943876e+01 3.494807876310256489e+01
1.457302792646257750e+01 3.457250739454948985e+01
1.508189266407526752e+01 3.407988588970187749e+01
1.690764407905885491e+01 3.467282313677991823e+01
1.571666231024414806e+01 3.507553261603442252e+01
1.668062297616075540e+01 3.455647243672933655e+01
1.622984725588812793e+01 3.428646607382407296e+01
1.589195709473821694e+01 3.415316968522113683e+01
1.747031362843234348e+01 2.976238776559599586e+01
1.654005801812929377e+01 3.414856969414846333e+01
1.561334990238306020e+01 3.366976871613795197e+01
1.512145160388411291e+01 3.339864965355074133e+01
1.534997340829118428e+01 3.324603828786538884e+01
1.521526903206784098e+01 3.301523622160173232e+01
1.480714765481880413e+01 3.263483531659623793e+01
1.621750531347921509e+01 3.334288888512892868e+01
1.516239932020013903e+01 3.218807506081421366e+01
1.563976604332747122e+01 3.137026212276414583e+01
1.531664314667046156e+01 3.203519158291599211e+01
1.778445945506338077e+01 3.027630072462999777e+01
1.593819685842715295e+01 3.260074738698056507e+01
1.650522353067124115e+01 3.275699135757219693e+01
1.617334638953360582e+01 3.235629150485011962e+01
1.638518884962724442e+01 3.246153283437418935e+01
1.655298182755847947e+01 3.225330708971074500e+01
1.691558951122437904e+01 3.239087340115479208e+01
1.622633241987109898e+01 3.106810091154735787e+01
1.644619385622871732e+01 3.065767260288629359e+01
1.617974363215422429e+01 3.099113473155613363e+01
1.641851850769399945e+01 3.068674208700994299e+01
1.786082396654026283e+01 3.057720036895103988e+01
1.699483058326736540e+01 3.050142193528277801e+01
1.677059947152911334e+01 2.931430857498458309e+01
1.828919888163568075e+01 3.061683219857795990e+01
1.848909201846601746e+01 3.066393302822863731e+01
-2.639683687388769329e+01 2.365978376969261987e+01
-2.608654313795171831e+01 2.378621916047206852e+01
-2.271219550653868779e+01 2.156817928277675733e+01
-2.185526287413084390e+01 2.119514938309669105e+01
-2.125790117036456550e+01 2.065727433025993065e+01
-2.102375626537848774e+01 2.002527408299532397e+01
-2.117977219536395594e+01 1.955553594003329110e+01
-2.123194504932554594e+01 1.916369670623228672e+01
-2.147981948907171201e+01 1.885939092081725832e+01
-2.167024655493220564e+01 1.853644374880436629e+01
-2.204306999630479424e+01 1.846368354794993039e+01
-2.232122414090424556e+01 1.836466511821518921e+01
-2.584118389814996419e+01 2.366221781766114063e+01
-2.262212909343448786e+01 1.819097108589923550e+01
-2.246315642586084849e+01 1.779056831843906750e+01
-2.288452059123751070e+01 1.758228747384972834e+01
-2.369423480599488485e+01 1.741920124626374999e+01
-2.427457635599257912e+01 1.778592185041082629e+01
-2.514640576311889930e+01 1.819515149773340568e+01
-2.580879919942054102e+01 1.847875229865761426e+01
-2.645807243945004217e+01 1.873860700266810042e+01
-2.693285420406020236e+01 1.896128013781596877e+01
-2.729330783453522713e+01 1.912928346851168016e+01
-2.555873608293165944e+01 2.351841618106329790e+01
-2.767033022587313340e+01 1.936057663948693275e+01
-2.797628682540124956e+01 1.953082310728414583e+01
-2.824694228635307525e+01 1.971886640407595337e+01
-2.845679102402478833e+01 2.001831173993417323e+01
-2.852597460949748509e+01 2.034824525361236169e+01
-2.849012434513076286e+01 2.061242741192921812e+01
-2.833010301696504740e+01 2.082614332766042864e+01
-2.816042476628419067e+01 2.092411979566037061e+01
-2.764937819459656154e+01 2.084735198051254201e+01
-2.747305714739407279e+01 2.075355686348830275e+01
-2.529665833189445578e+01 2.331614728615992860e+01
-2.702572285052723444e+01 2.047723134339415196e+01
-2.634362617540958595e+01 2.014596043502209000e+01
-2.605908331383403009e+01 2.008794318319162997e+01
-2.564466167000141184e+01 2.007203566702326469e+01
-2.485919329245356479e+01 1.994509349626661177e+01
-2.383599667320575222e+01 1.956909474919385161e+01
-2.294295097463787414e+01 1.886751467558320527e+01
-2.298914513667531878e+01 1.891332303114664626e+01
-2.320085527375623613e+01 1.906685258689775608e+01
-2.264426565593636909e+01 1.904486953053543985e+01
-2.503633815936332496e+01 2.304695457326561936e+01
-2.305929544576488510e+01 1.916313888025778667e+01
-2.242221551089253850e+01 1.920788294162992571e+01
-2.249394141113576495e+01 1.928924653197587702e+01
-2.293317369808580608e+01 1.948895978394050488e+01
-2.290092839762411359e+01 1.950994123997099194e+01
-2.237118640084702648e+01 1.948506797989715267e+01
-2.278561493425231887e+01 1.975737240416825458e+01
-2.233704814842633368e+01 1.972298005464255866e+01
-2.224472804028191675e+01 1.971472654225234322e+01
-2.247567038537572870e+01 1.994172898240634240e+01
-2.463704204431285305e+01 2.282970494397710937e+01
-2.271340792662890706e+01 1.997866859293571906e+01
-2.316096890683715159e+01 2.002945833572805157e+01
-2.400047301327153093e+01 2.051054615519603530e+01
-2.493419433768239912e+01 2.125707941715930360e+01
-2.532791058372778537e+01 2.178538739232280363e+01
-2.550194741070431803e+01 2.207392326233013335e+01
-2.568390791118875072e+01 2.215104679643134133e+01
-2.595168630160156553e+01 2.243398574182729277e+01
-2.629233383280860892e+01 2.264596296849181911e+01
-2.651935682622704959e+01 2.292540883732540991e+01
-2.433419111769989840e+01 2.252737888474578654e+01
-2.658368188285540512e+01 2.312070366685059497e+01
-2.646196454235585804e+01 2.335432849435312619e+01
-2.373850797700064774e+01 2.227726948860915712e+01
-2.320048888377943896e+01 2.199211759320823489e+01
-2.643700887098090035e+01 -3.733713682160554725e+01
-2.713111675551148494e+01 -3.718520668536697116e+01
-3.298547352601303118e+01 -3.275809936188478844e+01
-3.336891816150501455e+01 -3.226232580232797886e+01
-1.006006224258624471e+01 2.457920675560260193e+01
-1.094993146568745068e+01 2.376490645438267535e+01
-1.135255767054589171e+01 2.151211663212989933e+01
-1.160923803812084820e+01 2.014049639689338989e+01
-6.203942441519135542e+00 5.706759967298494551e+00
-5.490834236817262237e+00 6.081212490452940322e+00
-5.421916591345486758e+00 6.866084424848623691e+00
-6.300042375433032582e+00 8.282276429011160346e+00
-2.803714476427290592e+01 -3.691318768109113790e+01
-8.705689495412887169e+00 1.107189460742592502e+01
-1.186192561467326811e+01 1.347865072231361872e+01
-1.302298982831625374e+01 1.407927112751797516e+01
-1.334797094253782213e+01 1.434248865473380441e+01
-1.613739966425889349e+01 -3.678418993224111233e+01
-1.682390482918946972e+01 -3.705825015661319100e+01
-1.756816055074596505e+01 -3.728123506169104218e+01
-1.837573042396446610e+01 -3.752047547926375870e+01
-1.929679778789984113e+01 -3.768772390558038410e+01
-2.014218942767737630e+01 -3.780686029578065188e+01
-2.859827673270392623e+01 -3.662326777708948811e+01
-2.100906305650527983e+01 -3.789520289851429169e+01
-2.209475118879614541e+01 -3.800901645918023064e+01
-2.297390788722002952e+01 -3.801286049121702604e+01
-2.366101033851053970e+01 -3.797730572426915074e+01
-2.434225295792917265e+01 -3.787550752416152022e+01
-2.519187432472684662e+01 -3.772511992658715485e+01
-2.608826172471930960e+01 -3.757894928613544039e+01
-2.691704108657688721e+01 -3.739258688371444350e+01
-2.754242308068011269e+01 -3.717520980200041691e+01
-2.842561864759602841e+01 -3.676605649520163155e+01
-2.909040298166717875e+01 -3.618157237248745872e+01
-2.918804044004918197e+01 -3.646286275822939871e+01
-2.999967019303263527e+01 -3.594134201851758093e+01
-3.080101544266426217e+01 -3.527307376557376273e+01
-3.147202461705295207e+01 -3.461597879128316890e+01
-3.206988138022994406e+01 -3.391622342986440941e+01
-3.267518507175039133e+01 -3.313804839080889053e+01
-3.308375664282741724e+01 -3.257854516886538221e+01
-9.881589845642855252e+00 2.484150021502336614e+01
-1.043586648558392049e+01 2.448462820489640634e+01
-1.117707947631635257e+01 2.313740802452672440e+01
-2.993099532636687243e+01 -3.570591996777081079e+01
-1.144749701375489970e+01 2.105757782475775386e+01
-1.135563971462193855e+01 1.920349351146724004e+01
-6.056446946265321429e+00 5.640635823350344857e+00
2.020290241526041530e+00 7.592995884109867255e+00
1.860766676537229936e+00 7.626330453543650023e+00
-5.960949385735016648e+00 7.926106303424501398e+00
-7.079456799289488345e+00 9.198811630226892078e+00
-1.111185987707036382e+01 1.304761339221446015e+01
-1.257831423597126275e+01 1.372721649263567656e+01
-1.346085472266007166e+01 1.429417554023856063e+01
-3.065237390733457090e+01 -3.517991386800559894e+01
-1.593208386352921124e+01 -3.670045665680763847e+01
-1.672468677737727205e+01 -3.696181169187420323e+01
-1.745009112141303831e+01 -3.721795102701241120e+01
-1.833760607897996309e+01 -3.748765269214421636e+01
-1.930625341730213052e+01 -3.768086537279958748e+01
-2.028407134465471628e+01 -3.783483453801009233e+01
-2.128282378997407420e+01 -3.794259729023335836e+01
-2.227738902037170377e+01 -3.796609398980389471e+01
-2.322141557319329763e+01 -3.800799342281872839e+01
-2.389471147821890540e+01 -3.793316440191085093e+01
-3.129036269853365226e+01 -3.458204065196143517e+01
-2.482994396980739538e+01 -3.770929360356387150e+01
-2.558748439785423301e+01 -3.760470896614860692e+01
-3.192105575020289265e+01 -3.400385108834891668e+01
-3.248451262608967482e+01 -3.336968972546971202e+01
-2.646573139011059794e+01 7.634986368342244312e+00
-2.601538082642242600e+01 7.909895796845672677e+00
-2.402015818345328668e+01 5.417644593616908644e+00
-2.379602215148065980e+01 5.132224411802639885e+00
-2.358088704472701735e+01 4.879090331397440750e+00
-2.324520767486433570e+01 4.519112635838542502e+00
-2.300372632205743528e+01 4.279387332984632586e+00
-2.271170354514030620e+01 4.033018558418180355e+00
1.947194034956996589e+01 5.160317867700500827e+00
1.977122565609127847e+01 5.515115187140365194e+00
2.004281045171989106e+01 5.884699516445759393e+00
2.022027715210295895e+01 6.255109523665723259e+00
-2.586002500982762697e+01 7.677866955055888454e+00
2.045793093346239999e+01 6.720890653754534760e+00
2.071127896253745249e+01 7.279751706073552597e+00
2.090139321859343724e+01 7.681359267908261401e+00
2.116396087580967844e+01 8.229256914249329924e+00
2.137191588855587199e+01 8.672124974367489969e+00
2.153909210494484938e+01 9.033935092564751912e+00
2.167413895765583831e+01 9.318694822058979810e+00
2.174348467245709671e+01 9.458481130124166469e+00
2.178280177288484154e+01 9.617185025667271958e+00
2.182876388595785144e+01 1.006985607230792823e+01
-2.573836121509674513e+01 7.518860458865080254e+00
2.188463127589460200e+01 1.054897055402262929e+01
2.195322756793999375e+01 1.105524937708471533e+01
2.199406305627464064e+01 1.140584083322442943e+01
2.198071583807129414e+01 1.163567634179508659e+01
2.195852188107554426e+01 1.190022587992413250e+01
2.241681906913241207e+01 1.198972597762206505e+01
2.232678320587782750e+01 1.253756577317274612e+01
2.182986138653399166e+01 1.236345725912192250e+01
2.169098266030295008e+01 1.294224098414834145e+01
2.155353356341622018e+01 1.248462340788973002e+01
-2.556209825888816312e+01 7.277186285736060078e+00
2.102104168204352419e+01 1.284196650860073241e+01
2.099415768317818376e+01 1.243046144121084140e+01
2.070266123250252832e+01 1.235975296129033474e+01
2.031151953280323141e+01 1.224196663529584228e+01
1.974699568182536424e+01 1.207829752041711835e+01
1.916884315241706460e+01 1.187010225879215142e+01
1.873096603995153586e+01 1.168671279831398024e+01
1.822680004372909224e+01 1.144077949624336021e+01
1.770728302730045201e+01 1.117634342468389796e+01
1.726555314489815984e+01 1.093074681365243883e+01
-2.528418530814529674e+01 6.929841662304084160e+00
1.678856827014146091e+01 1.063738467892106598e+01
1.631641457615190305e+01 1.032225855295848049e+01
1.587525396777850695e+01 1.001409751812893134e+01
1.549609841726091730e+01 9.752600536243974716e+00
1.517979736931432555e+01 9.538571362888523808e+00
1.466488852231115914e+01 9.182732620197569418e+00
1.436072986436946408e+01 8.953032973333522548e+00
1.411405156449309928e+01 8.784269444991203102e+00
1.377338449123096709e+01 8.533482300009517019e+00
1.354713906745575080e+01 8.354663330632082108e+00
-2.495956332609254602e+01 6.515976755496590833e+00
1.332432374085737159e+01 8.178374954879812364e+00
-1.178381929465443179e+01 6.231554905593948979e-01
1.278384802629345351e+01 7.739552815571060229e+00
1.243019336259991370e+01 7.458489435464264794e+00
-2.739499378715201061e+01 8.649968829464551590e+00
-2.712782470130390422e+01 8.643370838155572500e+00
-2.694236125267939386e+01 8.632690921270830486e+00
-2.676977338678352680e+01 8.600368657395780048e+00
-2.664864159738941751e+01 8.569230563249231380e+00
-2.650350336833176002e+01 8.494948941088594552e+00
-2.449641827079133805e+01 5.951572457882633671e+00
-2.611908865239371025e+01 8.932250639881205601e+00
-2.574047408813384763e+01 8.522272518885758430e+00
-2.452046687913211898e+01 5.472461821375198987e+00
-2.380041821175454686e+01 5.861775826234769227e+00
4.643024319430700331e+01 3.230433978997525202e+01
4.635785663783589428e+01 3.201548994016737737e+01
4.442095829687898600e+01 3.077705883935957232e+01
4.455743899203354630e+01 3.072404096735277079e+01
4.461769816865862026e+01 3.067212194480143950e+01
4.427782743415408362e+01 3.031716942417059002e+01
4.395867743294312646e+01 2.995008982794569974e+01
4.385728921550366977e+01 2.974037475671138608e+01
4.388709781382526387e+01 2.974890876937944384e+01
4.350956189386014472e+01 2.919235433490477760e+01
4.343603061873947979e+01 2.902801670549828827e+01
4.334676669207901512e+01 2.880785351694543905e+01
4.623902606386834435e+01 3.194529844477680669e+01
4.360638224928952411e+01 2.859171206607780391e+01
4.315566056021769015e+01 2.834964410211133057e+01
4.316428222805500781e+01 2.816086393785299080e+01
4.392638194185225586e+01 2.809404452734359126e+01
4.370494388244468098e+01 2.770182547048753818e+01
4.320756397563884121e+01 2.749486814561567982e+01
4.392091672389569368e+01 2.748290148352397821e+01
4.340875214891103440e+01 2.722640206728698331e+01
4.357420326650652953e+01 2.684264737220932417e+01
4.385580148297380276e+01 2.676662221705845113e+01
4.576230472929308490e+01 3.199886041505632051e+01
4.404283493997166943e+01 2.654758127787452082e+01
4.415465850005441695e+01 2.644891204994542377e+01
4.451705813833352465e+01 2.692156676180914587e+01
4.472680158479148105e+01 2.649450581009181604e+01
4.492611108049960933e+01 2.705742009052217512e+01
4.491717155694075814e+01 2.647149583362751457e+01
4.540992299459155390e+01 2.658619595510325340e+01
4.569699635744763810e+01 2.666040754175057970e+01
4.597805450091627222e+01 2.681104242749671940e+01
4.547755477327457641e+01 2.728165212377115267e+01
4.561355744004487889e+01 3.184455964264887839e+01
4.633090455724583734e+01 2.695867132749763329e+01
4.582310795881101484e+01 2.762237528775546380e+01
4.615478173710911136e+01 2.735245271568789605e+01
4.606567186886803000e+01 2.783209549180363496e+01
4.670166135312020117e+01 2.766373084776538249e+01
4.678625067578573038e+01 2.784734300960019837e+01
4.677881744578362344e+01 2.787164675882729270e+01
4.698080138147403773e+01 2.826879532535710027e+01
4.704584897687564649e+01 2.845954522961789124e+01
4.700593502589770623e+01 2.846497363042008288e+01
4.543558844480853764e+01 3.169551596590886788e+01
4.717502822816576469e+01 2.894876345921466410e+01
4.736493808473495903e+01 2.934457855624878775e+01
4.741840059994657963e+01 2.955892750464850494e+01
4.747936325388604217e+01 2.980498516351995519e+01
4.732079207736164506e+01 2.990417788459519244e+01
4.739190434142008712e+01 3.032744294008572794e+01
4.761960982051078872e+01 3.057231673770115421e+01
4.749495346720908628e+01 3.067954202789557883e+01
4.757881264036313240e+01 3.097508761825063672e+01
4.778282678658447225e+01 3.120066028220381682e+01
4.501142501484727632e+01 3.139373234786325284e+01
4.786704919619759835e+01 3.126259163842465938e+01
4.793499613571867002e+01 3.146789375529175814e+01
4.784412639100011688e+01 3.188904509368253670e+01
4.797432115592542345e+01 3.214557460677406908e+01
4.803356656763215682e+01 3.251688290956553118e+01
4.774038970847828978e+01 3.272832198436410067e+01
4.751105698622109941e+01 3.287000442569213021e+01
4.711708061650377743e+01 3.252127362408776179e+01
4.696687604280819528e+01 3.298272515205335509e+01
4.668106685530378996e+01 3.308903127961375645e+01
4.487693062794247822e+01 3.127593165982992574e+01
4.614826622608582340e+01 3.287786368499737932e+01
4.634416155366047008e+01 3.276208828472450563e+01
4.472798553339175243e+01 3.111343800087241362e+01
4.456827164780522565e+01 3.094944116272617407e+01
-1.831902059920570025e+01 9.465218345746146511e+00
-1.838164075944221310e+01 9.494396400680741976e+00
-2.145241974912776683e+01 8.869887721226316302e+00
2.066389026501944315e+01 -1.665120928133231981e+00
2.068876534946445389e+01 -1.726690096155676590e+00
2.073073190939523514e+01 -1.828218977440324355e+00
2.727357751429545374e+01 -1.472454784887317025e+01
2.672353473280104552e+01 -1.522579360751857536e+01
2.580255088169882427e+01 -1.573416993504369188e+01
2.531901894755728577e+01 -1.634847406211997978e+01
2.527061877568559467e+01 -1.701060307218036982e+01
2.535278402399977438e+01 -1.805499146287331413e+01
-1.847431537568953885e+01 9.421598281918981854e+00
8.375424323912742608e+00 -1.819200515497390924e+01
7.710597829756291155e+00 -1.811543074413933496e+01
7.227715094468499579e+00 -1.809860847466771716e+01
6.822209463625925174e+00 -1.811517572396664733e+01
6.351425097906171047e+00 -1.809243335403402497e+01
5.329660320001412543e+00 -1.836237709172480237e+01
4.368442825534834206e+00 -1.867419076141827716e+01
3.773952515789828599e+00 -1.912938146976584264e+01
3.122504772016362562e+00 -1.943408170843023086e+01
3.005761612357058965e+00 -2.018400067031025458e+01
-1.880940343560723704e+01 9.460639585073220559e+00
2.348358427978514129e+00 -2.090319210812636186e+01
2.529727546469070720e+00 -2.176610848874123505e+01
1.731249910116063218e+00 -2.211415842913432783e+01
2.072906170085822009e+00 -2.261769558185919848e+01
2.037214028305431857e+00 -2.275711914273952985e+01
2.004081557818514714e+00 -2.290551548601010978e+01
1.943336329043043653e+00 -2.302319770325799198e+01
1.956574967849977309e+00 -2.312260919213057164e+01
2.082122089922376684e+00 -2.324285448724570813e+01
2.151080933900774372e+00 -2.333137416253400787e+01
-1.910186394594925474e+01 9.472827814593431484e+00
2.353923056403529834e+00 -2.347484863193538374e+01
2.732653260155390118e+00 -2.376950114288643690e+01
2.992196056277875549e+00 -2.397460782974854254e+01
3.468604860693627501e+00 -2.432613480594647370e+01
3.832656598510058910e+00 -2.455501891992140528e+01
4.272371865351481723e+00 -2.477946897356732947e+01
4.671234792141563119e+00 -2.492793459289006108e+01
4.935266707299265754e+00 -2.496786982167760627e+01
5.394602788518502834e+00 -2.494936881905804071e+01
6.202366722240681085e+00 -2.474665611792296716e+01
-1.960165348462774659e+01 9.492074604756140843e+00
7.067921527359186662e+00 -2.433127057365124912e+01
1.440964454131196959e+01 -1.393152608753553423e+01
2.002187606099066741e+01 -1.055139808350297592e+01
2.020799343678984528e+01 -1.035842390576723382e+01
2.030871306173492030e+01 -1.022841872879836167e+01
2.065158025571215816e+01 -9.645980457590924928e+00
-1.445841807167526127e+01 3.307643920508011703e+00
-1.487905454427078489e+01 4.003888040974839413e+00
-1.551224557941225690e+01 5.052395126001855807e+00
-1.573911721338657443e+01 5.453173812125226227e+00
-1.995654951993765636e+01 9.505040016013250437e+00
-1.589941210314903053e+01 5.712566809405748458e+00
-1.616012429372033310e+01 6.177658573489417826e+00
-1.645757827235131643e+01 6.709667461562470514e+00
-1.668193787640144521e+01 7.108861203478206825e+00
-1.687868471361843703e+01 7.455891678200129213e+00
-1.704235395063702896e+01 7.742359305103192035e+00
-1.719736325623275874e+01 8.104570352879537865e+00
-1.737768236802078547e+01 8.460850819820546320e+00
-1.766190769850927822e+01 8.793480102882409000e+00
-1.778055064188255940e+01 8.965854117987891669e+00
-2.037847064931075636e+01 9.517062327325039206e+00
-1.790947533637872269e+01 9.336687221330224773e+00
-1.808398213726713522e+01 9.465996860800528268e+00
-2.057609111136565971e+01 9.510967072115422027e+00
-2.100754219233704134e+01 9.654924507305528536e+00
-2.558288571780631671e+01 -3.660541784353836903e+01
-2.667445742717792356e+01 -3.636631134724194681e+01
-3.117001587028916276e+01 -3.320420785760552462e+01
-9.189803477653649466e+00 2.664386571935619585e+01
-9.432773362866175404e+00 2.639078244288485564e+01
-9.787625419827561402e+00 2.611495965027341626e+01
-1.063840180531831692e+01 2.581033824564607215e+01
-1.162421608577971810e+01 2.231225926041553720e+01
-7.540086046934757924e+00 1.561398948953696753e+01
-7.831923288207326195e+00 1.514021450250387879e+01
-7.963431519477770948e+00 1.502279610035172297e+01
-9.337131543566037806e+00 1.454992545135185900e+01
-2.723551143444944245e+01 -3.612627313213285163e+01
-9.693634222499998288e+00 1.442966893391117011e+01
-1.699993970914292163e+01 -3.350233794287373712e+01
-1.733463667459818680e+01 -3.411729922407349846e+01
-1.785681291490374534e+01 -3.444278638463221398e+01
-1.829925819003106113e+01 -3.468731106961917732e+01
-1.873851742147518706e+01 -3.488078974729891968e+01
-1.942215627599303218e+01 -3.516657569760662483e+01
-2.059229375895878533e+01 -3.523778698064553794e+01
-2.108969353959709636e+01 -3.534757351000324377e+01
-2.157705204676901189e+01 -3.538243517729160459e+01
-2.762243401420944267e+01 -3.593421267650336404e+01
-2.214148744558627513e+01 -3.552734025939223272e+01
-2.319925931786947615e+01 -3.566601968127560696e+01
-2.391204562420317714e+01 -3.557815232516828274e+01
-2.439111097267312545e+01 -3.558764118519605546e+01
-2.497889318397795932e+01 -3.556699069306951344e+01
-2.557337330486907234e+01 -3.553518054174119101e+01
-2.602445780831023825e+01 -3.528626569476936936e+01
-2.659270003884251565e+01 -3.501525904403965939e+01
-2.726433890380993574e+01 -3.473831664235284222e+01
-2.787601037726937392e+01 -3.434409341512563429e+01
-2.815983476499303251e+01 -3.565234208328035947e+01
-2.855463179178211064e+01 -3.395300064871267409e+01
-2.916100254241864320e+01 -3.354810477497066046e+01
-2.973193602135384239e+01 -3.312973947237966144e+01
-3.027399440117605423e+01 -3.251769433079508786e+01
-3.088333891795517872e+01 -3.200055377908248033e+01
-3.135694229121381582e+01 -3.171562252043954189e+01
-3.181857633608330715e+01 -3.125052990565486866e+01
-3.245323765912687719e+01 -3.066274753976754042e+01
-9.627102933996537715e+00 2.343078732375946771e+01
-9.912218918392158074e+00 2.256985582304760385e+01
-2.876380866848827722e+01 -3.526723644925875334e+01
-1.025708728713246742e+01 2.101775837854355089e+01
-1.025675932501876098e+01 1.932948309034258827e+01
-8.827563047581527655e+00 6.609626276691759728e+00
-8.800802879286264258e+00 6.842649580481211302e+00
-8.932245067838508135e+00 7.619016671643525918e+00
-9.051616251408459490e+00 8.160206452728841597e+00
-1.030015386591517768e+01 1.114031915725297850e+01
-1.099975396251024584e+01 1.196465658171965707e+01
-1.435932830903520063e+01 1.294525103841623448e+01
-1.574361969961944929e+01 -3.533365968472809726e+01
-2.915867510051568701e+01 -3.495197639964946745e+01
-1.621075139352367955e+01 -3.557549071070460656e+01
-1.686261154252036931e+01 -3.578176643412399471e+01
-1.761351683344765817e+01 -3.604297167138569336e+01
-1.857793305557632380e+01 -3.631520808184555449e+01
-1.941878076476258386e+01 -3.654749881776638887e+01
-2.030380385353215189e+01 -3.673235983885337674e+01
-2.122109591694167818e+01 -3.691523306114760317e+01
-2.212553163871053385e+01 -3.688384658943513728e+01
-2.287069875622122339e+01 -3.686837732228358533e+01
-2.383019696314880775e+01 -3.679250470324686972e+01
-2.959076264246165522e+01 -3.463015977795692635e+01
-2.453191776947130620e+01 -3.673824394678422323e+01
-2.502432105427896403e+01 -3.666593998303301305e+01
-3.011285318252403798e+01 -3.422314462315467409e+01
-3.073427991487741551e+01 -3.371000390867035890e+01
-2.440558026703350425e+00 -1.128528317230313682e+01
-2.527703578743158985e+00 -1.109144433419649367e+01
2.268386502524435855e+01 -9.004519042719755006e+00
2.273319292912490397e+01 -9.753532387113978075e+00
2.340460569431456861e+01 -9.597541314697318526e+00
2.339530274514185137e+01 -1.031922728731644590e+01
2.397410292100503781e+01 -1.009076152821836736e+01
2.420171934299073158e+01 -1.066924008148699343e+01
2.470187093479030338e+01 -1.043687126753365568e+01
2.496970840370319777e+01 -1.095958383705129080e+01
2.540003220951237140e+01 -1.066317934790727229e+01
2.578390353407005620e+01 -1.110023049997539601e+01
-2.612225061724948283e+00 -1.074617831542411750e+01
2.612470344675212885e+01 -1.063268852387927055e+01
2.663440575997291759e+01 -1.092255287110796935e+01
2.705941499997927124e+01 -1.076344189628346371e+01
2.717445555821994319e+01 -1.026271828134627739e+01
2.773269015656987335e+01 -9.963585841711845248e+00
2.788119262195779768e+01 -9.550222810508897098e+00
2.798350653949264100e+01 -9.100552078794143185e+00
2.812038876999332615e+01 -8.767034820754082247e+00
2.813935694304446145e+01 -8.356018029921067125e+00
2.810746914862416190e+01 -8.068331232489873273e+00
2.067585144819780396e+01 -6.103807692379101368e+00
2.804395318805618587e+01 -7.803779134535546724e+00
2.793549241978983844e+01 -7.524738757347415152e+00
2.793242804352249564e+01 -7.205418542774051360e+00
2.785028042067166965e+01 -7.083696101625813313e+00
2.774203477620750036e+01 -6.802456166428506812e+00
2.761234723531278945e+01 -6.757840692779712555e+00
2.741386220464624657e+01 -6.647983128018989163e+00
2.716745094272340211e+01 -6.763842222781724978e+00
2.688728609693018257e+01 -6.993292485585584473e+00
2.665021777959989535e+01 -6.780008564947127780e+00
2.091202761687456402e+01 -6.357861222757349218e+00
2.639157224927740941e+01 -7.185172438447619214e+00
2.590490994773910671e+01 -7.058575889999253228e+00
2.560209306270593999e+01 -7.602119281485803626e+00
1.876013787735583449e+01 -1.977452046825641574e+01
1.809811603331161578e+01 -2.023440081756041664e+01
1.762646713654532959e+01 -1.971008623059126563e+01
1.726134347404597946e+01 -2.044078468667411741e+01
1.684491672303826348e+01 -2.005972615687123195e+01
1.648885904787541179e+01 -2.049890259034792095e+01
1.614726177419260722e+01 -2.012886795111647231e+01
2.112453983946235780e+01 -6.688699388446185168e+00
1.579591942277058614e+01 -2.036885045995305532e+01
1.567830973025114005e+01 -1.985578575197779827e+01
1.520882795251805497e+01 -2.016258694305585308e+01
1.516934012512773933e+01 -1.963156605793849252e+01
1.477080284950885591e+01 -1.986898562523904488e+01
1.458303531617224102e+01 -1.965494573307312720e+01
1.454472498528368440e+01 -1.922113573427447619e+01
1.414359501043556477e+01 -1.928620759108031990e+01
1.423694041966931145e+01 -1.880230287391497157e+01
1.383657508189064522e+01 -1.863994018486782522e+01
2.152105385198304077e+01 -7.089990243457338082e+00
1.331771345643545068e+01 -1.804148084694814713e+01
1.290498318413103007e+01 -1.769179281711640428e+01
1.257255128009458822e+01 -1.751505145074676051e+01
1.214458871876187018e+01 -1.725406103814290759e+01
1.173268456330093201e+01 -1.708392009576396831e+01
1.146279319966933841e+01 -1.700768348011362008e+01
-1.591019963477726673e+00 -1.239435722982228683e+01
-1.808543867300432595e+00 -1.216748320990622823e+01
-1.986570491225229107e+00 -1.198962447654838570e+01
-2.108922445799089385e+00 -1.181925217455192723e+01
2.171374090239369536e+01 -7.579679063343679246e+00
-2.228978505023309520e+00 -1.164966340577752923e+01
-2.340568098270383590e+00 -1.148001939958358975e+01
2.226100113113158230e+01 -7.949249123615017787e+00
2.214152273049566588e+01 -8.602704999011049125e+00
-1.505324453573203947e+01 3.170966310475224148e+01
-1.459732102685463850e+01 3.123862543216898402e+01
-1.319313966039940844e+01 2.526882594260781545e+01
-1.321068558400352977e+01 2.377688489722237719e+01
-1.322775514790993867e+01 2.233272407858654063e+01
-1.312885759745780589e+01 2.087459886064795000e+01
-1.289403716042371784e+01 1.903699329816005914e+01
1.950365539308842822e+00 -4.598364764886768263e+00
2.223915247132322470e+00 -5.067042909939624806e+00
2.793088994434103078e+00 -6.804564251820977461e+00
2.612722994848645452e+00 -6.938577352003978405e+00
2.034435421804489330e+00 -6.761252169921783128e+00
-1.413745864991251189e+01 3.077335152470756086e+01
-7.163845602906246945e+00 1.059832035764067903e+01
-7.351618174603855138e+00 1.120469880240658078e+01
-2.369727498432284207e+01 3.177123881288192919e+01
-2.245265846929277131e+01 3.152650239950187938e+01
-2.159321593257382332e+01 3.176990632780144352e+01
-2.097846798618308739e+01 3.182872863855888212e+01
-2.033321711289805478e+01 3.183909906502641718e+01
-1.970925315710636383e+01 3.179445196910095461e+01
-1.919815240701510106e+01 3.170885379704027329e+01
-1.864222002087651475e+01 3.157772309903321073e+01
-1.396677706727201596e+01 3.030662901143642074e+01
-1.819073731543226913e+01 3.146484763153835118e+01
-1.784407949967527074e+01 3.135633945871730432e+01
-1.749704290253557915e+01 3.121610213690444269e+01
-1.704786604092938873e+01 3.094465924256868661e+01
-1.671046049744846940e+01 3.072843976333605198e+01
-1.648403586635710383e+01 3.056080651883398858e+01
-1.623381197055764602e+01 3.043507286234613929e+01
-1.584619333518827844e+01 3.019929398084966721e+01
-1.541350229647966152e+01 2.989751234418705295e+01
-1.506302143008233685e+01 2.961945416714411650e+01
-1.386354900072663909e+01 3.007325871520841432e+01
-1.486450900600116043e+01 2.939422102870070930e+01
-1.468135536205786273e+01 2.911782847884440173e+01
-1.449057493933590557e+01 2.876735693513642644e+01
-1.422823232081738531e+01 2.829544198232505536e+01
-1.401124098423523279e+01 2.778664859119209041e+01
-1.381653170695553712e+01 2.721898291879064757e+01
-1.358849399583969308e+01 2.603872598872574784e+01
-1.293165148820338572e+01 2.442385317526832722e+01
-1.302049553749306909e+01 2.280136218631928102e+01
-1.294431042798241727e+01 2.144815860582117750e+01
-1.362620798195799310e+01 2.979718087924093339e+01
-1.256972978663850604e+01 1.979200727997579179e+01
1.386811946861995937e+00 -3.295234673781465951e+00
1.701410206752220322e+00 -8.339345394464105610e+00
2.067835856387461479e+00 -8.506958672355526829e+00
2.168627335920488619e+00 -8.489359898688585204e+00
-5.157936357966894647e+00 8.924695884742000374e+00
-5.951242432516758996e+00 1.009171709410749429e+01
-6.973755598390623867e+00 1.203486153396531222e+01
-2.289864435261522146e+01 3.224864796619539220e+01
-2.199014971062423029e+01 3.220110352273521670e+01
-1.335614448390766285e+01 2.916643311674401673e+01
-2.139380325201542021e+01 3.224651648818317540e+01
-2.075738760291648788e+01 3.235065128817636548e+01
-2.007871276354845591e+01 3.246411606990412935e+01
-1.944229998631844936e+01 3.257696352926925698e+01
-1.887301036058518733e+01 3.265582744089125811e+01
-1.838829054476434521e+01 3.269817221493708104e+01
-1.799672580966762325e+01 3.270127950214990165e+01
-1.761800280514439976e+01 3.275814811627704159e+01
-1.701561487610389278e+01 3.269025864522281211e+01
-1.649264728315313988e+01 3.240753310133240461e+01
-1.315427611190875012e+01 2.841159035578449021e+01
-1.590430010784337433e+01 3.215815809467893871e+01
-1.541830020103855325e+01 3.198748490955025403e+01
-1.309487779823036746e+01 2.760740709290896788e+01
-1.317303178504803540e+01 2.668255264132892179e+01
-2.637659999754502849e+01 -3.855634215425853029e+01
-2.799399225955533765e+01 -3.813314046109537969e+01
-3.360531536085694881e+01 -3.362721610665301597e+01
-3.408922943783327497e+01 -3.308441431227244323e+01
-8.534505331277772555e+00 2.426454223534617682e+01
-8.789004611161750802e+00 2.309211145699483936e+01
-9.037220877324713797e+00 2.170195717735334284e+01
-9.036312148410372558e+00 2.005861139046776387e+01
-8.911022230767237318e+00 1.898705930233592909e+01
-1.137816832182276094e+01 6.891703099237068919e+00
-1.138975114538760458e+01 6.908163369917384777e+00
-1.120787851037420957e+01 9.392725535661394787e+00
-2.874797449081464151e+01 -3.780614121058069088e+01
-1.187897882990964504e+01 1.064110451520708445e+01
-1.256911738230394349e+01 1.138562435894734826e+01
-1.341054409013481319e+01 -3.760832951663506662e+01
-1.459184445860967472e+01 -3.815678509470350832e+01
-1.561598341892793762e+01 -3.826747613715422602e+01
-1.626105999505738353e+01 -3.844178645310189779e+01
-1.720317609497414679e+01 -3.872848191952417096e+01
-1.814217331397332700e+01 -3.896065539981157855e+01
-1.909592289949452493e+01 -3.914936113059177103e+01
-1.984712431411413291e+01 -3.927717253280878396e+01
-2.944246067208781170e+01 -3.742729950102129521e+01
-2.067928551982197405e+01 -3.939077349433391362e+01
-2.151299575640068795e+01 -3.949426570543474924e+01
-2.229862485849371012e+01 -3.957005585967447558e+01
-2.324716423443198821e+01 -3.965155836110838550e+01
-2.429322101784902088e+01 -3.959582770376260186e+01
-2.524137476118446699e+01 -3.946806149328348567e+01
-2.620457320707318871e+01 -3.925122937182818816e+01
-2.708832823059682582e+01 -3.888656910834563973e+01
-2.795755072906305472e+01 -3.869380797822587681e+01
-2.913048763617964099e+01 -3.823572707007159721e+01
-3.011177416515612393e+01 -3.698443525168367074e+01
-3.014446532630565301e+01 -3.775299507759250872e+01
-3.094090712332143411e+01 -3.722787308705781584e+01
-3.165492302702926963e+01 -3.662669500253912958e+01
-3.231664310668374895e+01 -3.597048632238914934e+01
-3.288713895828596634e+01 -3.532933850913444473e+01
-3.335194781672657882e+01 -3.476927100447800711e+01
-7.186787148348598997e+00 2.429146096652295483e+01
-7.533614125355416746e+00 2.410570312677723237e+01
-8.046443654323883976e+00 2.361085328764499636e+01
-8.678380811405707718e+00 2.247649040636092721e+01
-3.072203813079383394e+01 -3.652951849261326345e+01
-9.328278212132126157e+00 2.117056376322465283e+01
-9.573333123813840828e+00 2.012879076311959992e+01
-1.032052682346175310e+01 6.076790944832112018e+00
-1.085194872348811046e+01 4.401291868515546213e+00
-1.027735685495770568e+01 4.249366218390187910e+00
-1.054968072206251151e+01 8.910125287439122133e+00
-1.109443375493959394e+01 1.027230761792383262e+01
-1.203012382989607865e+01 1.152020003973064455e+01
-1.304497375422124783e+01 1.219997410929666337e+01
-1.461259835753079450e+01 -3.762069433895299397e+01
-3.133665446805343535e+01 -3.605470597121711762e+01
-1.530507807345549587e+01 -3.776064098375921674e+01
-1.627812053490154653e+01 -3.806959955175592825e+01
-1.707987803674300409e+01 -3.832888068982344976e+01
-1.794410551079597838e+01 -3.855359671392777443e+01
-1.892111785999086848e+01 -3.872667166544290751e+01
-1.993991806971778047e+01 -3.880773543423043037e+01
-2.093555813083923667e+01 -3.887230821723153440e+01
-2.186890371283532986e+01 -3.888806277680681944e+01
-2.283129358258115360e+01 -3.895728342386211551e+01
-2.397237156769033817e+01 -3.891320149000465989e+01
-3.196937208028793265e+01 -3.550836774139295926e+01
-2.505745131296519546e+01 -3.881223557010669367e+01
-2.566498681328791420e+01 -3.874604702095054165e+01
-3.245345128560581571e+01 -3.498306095372565494e+01
-3.305352112178184854e+01 -3.427949889288915841e+01
5.707335938411022269e+00 -7.851729513453652665e+00
6.350020218368615410e+00 -8.269089438661060498e+00
9.198862269185857699e+00 -1.286413098246715059e+01
8.749075819281616262e+00 -1.308305906462262236e+01
8.348548289487748519e+00 -1.322281432074002794e+01
7.919671937833681952e+00 -1.339726443168799186e+01
7.342706956566375176e+00 -1.349331834616332415e+01
6.729919466203448941e+00 -1.359275085323093535e+01
6.192317025647280815e+00 -1.364607050603476424e+01
5.869917437753682243e+00 -1.368697072362819434e+01
5.255396588137086766e+00 -1.378674480920179590e+01
4.901942955521561451e+00 -1.367426536014103533e+01
7.141597852890108733e+00 -8.633396262548291844e+00
4.519146036480377937e+00 -1.365395293317270031e+01
4.146140792091419058e+00 -1.359758188843859728e+01
3.722580628787623080e+00 -1.356688279779223372e+01
3.408699605680946210e+00 -1.324176180016460513e+01
2.904093332974562180e+00 -1.363691339239987421e+01
2.823456216336016844e+00 -1.313563156913727603e+01
2.331371845401356335e+00 -1.325416722363143762e+01
2.284215194313039543e+00 -1.277300372818194063e+01
2.286940846387990334e+00 -1.227807915334083333e+01
2.922313011275545325e+00 -1.228453480635538853e+01
1.042824709737679179e+01 -9.990703023351768408e+00
2.771396703716312970e+00 -1.161466878220705468e+01
3.436918934290269512e+00 -1.182219309623977210e+01
4.070792399054347754e+00 -1.168087926093775231e+01
3.678416594429724018e+00 -1.075735724913089975e+01
4.237853014644858085e+00 -1.058133811487327947e+01
4.841747720178898540e+00 -1.099720745416635026e+01
4.832968402215037429e+00 -1.018917258365230261e+01
5.258633670022682338e+00 -1.053618069312191707e+01
5.877796456071984643e+00 -1.085378772638833667e+01
6.317936673828630667e+00 -1.077781165571578548e+01
1.046783974908324133e+01 -1.065725523121512452e+01
6.807528262812254205e+00 -1.071099365517200042e+01
7.428099895955376120e+00 -1.069041744375551950e+01
8.074648972709494998e+00 -1.046595664968524986e+01
8.598480554475234072e+00 -1.011089324012203328e+01
8.989544416864426069e+00 -9.492333159018834010e+00
9.449526010643914731e+00 -8.959970107207334777e+00
9.202238304476827224e+00 -8.369395194388040693e+00
9.231125260978018332e+00 -7.788334286751560143e+00
8.657600503714645512e+00 -7.365581241364721699e+00
8.276796673886478217e+00 -6.818402537055670010e+00
9.921831387474673747e+00 -1.093716155830163395e+01
7.733596645347962983e+00 -6.433037764361558608e+00
7.181840015599159521e+00 -6.190383454313924894e+00
7.041686202031010033e+00 -5.843210669598720486e+00
6.466200371353361120e+00 -5.893818021136302931e+00
6.106870242045083330e+00 -6.427942374178924112e+00
5.607547369218789157e+00 -6.149477142833950083e+00
5.488471881863220325e+00 -5.818742620729992154e+00
5.707384779428775090e+00 -5.381079035875551142e+00
5.504690735030693283e+00 -5.113045175892669825e+00
5.764923916657736847e+00 -4.660352502739384839e+00
1.013234695315782474e+01 -1.153804273354325716e+01
5.498114016601510556e+00 -4.376093086476418037e+00
5.204828656960377664e+00 -4.223225622934275059e+00
4.900139000653897625e+00 -4.148131742154293811e+00
4.575462950005634966e+00 -4.259297180180150022e+00
4.368266362747882603e+00 -4.488953573053128032e+00
4.475722114698893250e+00 -4.872908827415365351e+00
4.249555328243455499e+00 -5.106043709297725997e+00
4.296992488849443959e+00 -5.459723184749945446e+00
4.391953787438443335e+00 -5.936665961559326021e+00
4.485279092886434782e+00 -6.452560546191812740e+00
9.543686177952871219e+00 -1.172837435787476856e+01
4.822438968803536063e+00 -6.907476063288639168e+00
5.221571146352199655e+00 -7.370157190966908800e+00
9.768219281996527670e+00 -1.225891199958488720e+01
9.348169206031004208e+00 -1.245772567006738640e+01
1.781831493091538476e+01 -1.511491775563841955e+01
1.772336193124257520e+01 -1.542025050932705632e+01
2.070578800059796976e+01 -1.454939650551339980e+01
2.129312645888900235e+01 -1.446278517313914236e+01
2.203054661663557212e+01 -1.461169907771926901e+01
2.277330245302375999e+01 -1.493299461793866989e+01
2.324528976071025355e+01 -1.520609002021804557e+01
2.364909331076126264e+01 -1.552397408201640694e+01
2.403363707226349888e+01 -1.596201929283595788e+01
2.405012663076757917e+01 -1.651328220714617245e+01
2.414052467838135385e+01 -1.666841254109098713e+01
2.347201826221412801e+01 -1.711760228113538673e+01
1.769732088064530728e+01 -1.584572741241880856e+01
2.291147061129122875e+01 -1.739672611181500272e+01
2.217229179187798849e+01 -1.756944126671049489e+01
2.161194025622974380e+01 -1.759729542409783676e+01
2.097775151885953804e+01 -1.754782452304089801e+01
2.053401731711674572e+01 -1.746156539599957114e+01
2.007522305586883249e+01 -1.742624510814349392e+01
1.989170898838677104e+01 -1.723418417837052630e+01
1.962218484292785092e+01 -1.715288511730306809e+01
1.945876527845010173e+01 -1.698733843057104309e+01
1.844634908170241161e+01 -1.398005496451940743e+01
1.786547898671558698e+01 -1.627549547993452705e+01
1.813464604467348806e+01 -1.375403486785441487e+01
1.798078751211439297e+01 -1.348688311134761619e+01
1.775027212042392932e+01 -1.318548308175848405e+01
1.776740575117343823e+01 -1.283070487755855993e+01
1.782279810812796228e+01 -1.258205741259660826e+01
1.799621717026801448e+01 -1.240621867708727777e+01
1.813462794742947537e+01 -1.231642468067088103e+01
1.840456335238655328e+01 -1.222173807944058765e+01
1.878832774041943310e+01 -1.219513091406080285e+01
1.930598160321288148e+01 -1.223440096015103329e+01
1.816911831086219564e+01 -1.634949709125146100e+01
1.982158389355529593e+01 -1.230725940689288223e+01
2.009039610509047336e+01 -1.237986059598361877e+01
2.042979740387240639e+01 -1.248860136488694117e+01
2.079047939385761978e+01 -1.258268480281371104e+01
2.107929573509983712e+01 -1.270402611480819033e+01
2.142009388550444271e+01 -1.286891042613293124e+01
2.178822250909619029e+01 -1.304387347207991077e+01
2.225690321194776899e+01 -1.331162400117028710e+01
2.277673440768274915e+01 -1.364638488454663445e+01
2.319005179653153093e+01 -1.390462629606496137e+01
1.858530899333555197e+01 -1.622611511918773886e+01
2.364314770917405184e+01 -1.431814277541006319e+01
2.396918994495769795e+01 -1.465841001963497447e+01
2.422346247537729624e+01 -1.506450868505590712e+01
2.441579505501029601e+01 -1.550592491407245710e+01
2.438364241318642200e+01 -1.592418219317914208e+01
2.401005270477560316e+01 -1.627408048626867654e+01
2.355632207101591291e+01 -1.646335361061666447e+01
2.280052558481436620e+01 -1.672006460393796345e+01
2.197537213424926250e+01 -1.669860178333426148e+01
2.129581315619912374e+01 -1.664464409909312792e+01
1.901678247509156350e+01 -1.608122054571040138e+01
2.075434162231391255e+01 -1.638780548868301068e+01
2.024316573558224874e+01 -1.615063617032421206e+01
2.001607267145250901e+01 -1.603334805857184264e+01
1.994083696018862994e+01 -1.569233841032297327e+01
1.987866827421711236e+01 -1.541826681520537079e+01
1.983099043115711524e+01 -1.508075873144744250e+01
1.980410307818094751e+01 -1.490497699367565865e+01
1.972183882560131707e+01 -1.461945433971765240e+01
1.979224868975326856e+01 -1.422754139140149299e+01
1.931290053691982322e+01 -1.427783412497425708e+01
1.937421865998644677e+01 -1.559860338979740391e+01
1.853364042100757914e+01 -1.484278625103175209e+01
1.809300016074013939e+01 -1.504317912500382270e+01
2.038674911640763199e+01 -1.511418609098064003e+01
2.032734980347906273e+01 -1.492884759006839701e+01
-1.872924279328994146e+01 2.656935337477280967e+01
-1.809391033817118810e+01 2.650913278014878216e+01
-1.522409746988601142e+01 2.201933093077519388e+01
-1.503028042765661887e+01 2.105654080778016279e+01
-1.481018705214669851e+01 2.002346654910197898e+01
-1.450137285885547378e+01 1.889078213770064352e+01
-1.418455157933237665e+01 1.803014838607568038e+01
-4.946694421469925995e-01 -3.817832069238035864e+00
-2.980976385293884756e-01 -5.291531173133183330e+00
-7.064893926333076779e-02 -6.354341554537409564e+00
4.874202791579594629e-02 -7.054240233822056894e+00
-2.868715303997575905e+00 9.010416757564179591e+00
-1.737718587987868091e+01 2.638728553416565958e+01
-3.285800417382556571e+00 9.534452833356118262e+00
-4.315579139102084127e+00 1.104659062828899074e+01
-4.745866811816236819e+00 1.178137454985828647e+01
-5.043894967940750540e+00 1.226563803564866717e+01
-2.423225890146924755e+01 2.959198499816655570e+01
-2.374258548289244786e+01 2.926172445502886177e+01
-2.312908000937565234e+01 2.888056768097543525e+01
-2.256028392282635053e+01 2.849330669864161081e+01
-2.207964350628340711e+01 2.813344666062517874e+01
-2.159394830216925953e+01 2.787128212125267623e+01
-1.687373062066019003e+01 2.617470023829171311e+01
-2.121219622736326116e+01 2.757119373263168782e+01
-2.110264468557689455e+01 2.712481405685971225e+01
-2.076046494273637677e+01 2.680838209664890570e+01
-2.032682856372365876e+01 2.640814201543264517e+01
-1.984835635515681318e+01 2.605911342464635183e+01
-1.957768319608289076e+01 2.589634651911312702e+01
-1.928753937915908878e+01 2.584085253234168889e+01
-1.868114341880077589e+01 2.569478020903154913e+01
-1.802889240886839772e+01 2.561241006579756885e+01
-1.755996926306556816e+01 2.563469607254349114e+01
-1.647927193283652159e+01 2.585990277512639679e+01
-1.719275000842459633e+01 2.538327175198088170e+01
-1.689786312528865508e+01 2.496224623723743008e+01
-1.676646411992872032e+01 2.445290736802440534e+01
-1.661420252760156657e+01 2.393235578394825680e+01
-1.634177818246959646e+01 2.338614318849289830e+01
-1.605138725615334039e+01 2.263156470614362448e+01
-1.573699741213056846e+01 2.190731152146533844e+01
-1.534618159403537696e+01 2.100364551043997707e+01
-1.499328097256923087e+01 1.996405414186096294e+01
-1.472855021533382214e+01 1.923346239385126566e+01
-1.612654216675248975e+01 2.545510463547627822e+01
-1.447605582402578683e+01 1.827375994429661787e+01
3.298121578813540539e-02 -3.536332379743133636e+00
6.468894291880951386e-02 -4.746500383872573892e+00
-4.667445277537688453e-01 -6.327580766352778774e+00
-6.477909292801019570e-01 -6.721494800897767519e+00
-2.537103063253049573e+00 8.649238174001871116e+00
-3.451305851879360898e+00 1.009786950561067975e+01
-4.050038900311642820e+00 1.090068356650634307e+01
-4.598359149682379687e+00 1.160519313631836447e+01
-5.109085198271925421e+00 1.225599910942230863e+01
-1.595919731927342688e+01 2.495701887656168694e+01
-2.399651100858620012e+01 2.990109404769158985e+01
-2.339698967888930525e+01 2.971252963460916874e+01
-2.268754839089698194e+01 2.948490727316690752e+01
-2.201622619817102233e+01 2.925068145204532399e+01
-2.143518658302686575e+01 2.898604849430985553e+01
-2.097950147416986511e+01 2.858455342862395909e+01
-2.044892630887618168e+01 2.847210720715575860e+01
-2.026025690159889336e+01 2.803218668617185472e+01
-1.971410241715934220e+01 2.798341397426186106e+01
-1.967375785508412278e+01 2.738245017202055465e+01
-1.576789870899649237e+01 2.437132015270305629e+01
-1.927487152681290894e+01 2.691619927645911048e+01
-1.900739017370423412e+01 2.663698204626749444e+01
-1.558355667831543201e+01 2.373505049996273897e+01
-1.542420605245280818e+01 2.293493165585899263e+01
