-1.187572098158505440e+01 -8.964210632453324834e+00
-1.171309865618454360e+01 -8.883225425249383633e+00
-7.797259065053680160e+00 -1.051170096370255891e+01
-7.134022990607109094e+00 -1.094354261350239810e+01
-6.626960745950283282e+00 -1.134761477500750182e+01
-6.084488029151129851e+00 -1.176181051186497939e+01
-5.662302488892687613e+00 -1.229047908490945140e+01
-5.347755638392469812e+00 -1.286516967141897716e+01
-5.191531675941387647e+00 -1.359080298042554880e+01
-5.297865421027748489e+00 -1.448328784843912231e+01
-5.727520025157792460e+00 -1.500144997285242177e+01
-6.092478266494174122e+00 -1.545121957882767028e+01
-1.135462906788609239e+01 -8.838953137860700693e+00
-6.701265565398135671e+00 -1.554836098458281057e+01
-7.315273561385889245e+00 -1.556939208312948786e+01
-8.021895782892851656e+00 -1.550771710072735132e+01
-8.954431701960132273e+00 -1.537639477745057803e+01
-9.845122751456397481e+00 -1.512948075792932023e+01
-1.072295584954679271e+01 -1.485054013788446703e+01
-1.158923492238424835e+01 -1.436455042325870401e+01
-1.226164992913262530e+01 -1.386117716393609456e+01
-1.291363647337939469e+01 -1.330961427440323774e+01
-1.353833354993414240e+01 -1.252631285641432335e+01
-1.106426565375615212e+01 -8.855227168847012109e+00
-1.409306936651220177e+01 -1.199460162314586142e+01
-1.434228016751355206e+01 -1.039789544798142984e+01
-1.459785619184678040e+01 -9.775432668249683488e+00
-1.477614755674906633e+01 -9.185708796915518448e+00
-1.509067454512861239e+01 -8.679803084458756146e+00
-1.557746939736517433e+01 -9.086954788406883310e+00
-1.575184258661931658e+01 -8.584302850642448135e+00
-1.614530836604456709e+01 -8.775480409210281607e+00
-1.633908777068359086e+01 -9.162005868112487406e+00
-1.612358446372947185e+01 -9.734365863448159573e+00
-1.054360136498411826e+01 -8.991244710879632507e+00
-1.601472151136207245e+01 -1.027330449613081420e+01
-1.559671346006717663e+01 -1.071781724674659131e+01
-1.493647170959300396e+01 -1.113555710407017152e+01
-1.347522625854366929e+01 -1.101016409001792873e+01
-1.026597923747302055e+01 -1.131411435433164669e+01
-9.258274196430772207e+00 -1.153292638787593738e+01
-8.557755399644415562e+00 -1.187809961725232455e+01
-7.780439503169989557e+00 -1.185574989782340793e+01
-7.431558524102924501e+00 -1.243081527711410850e+01
-6.670642383104641304e+00 -1.240646609774016618e+01
-1.021739095794494823e+01 -9.106710271542759472e+00
-6.650584891776409435e+00 -1.301635606532333789e+01
-6.000641665251013279e+00 -1.311045147936167865e+01
-6.161494934496287712e+00 -1.366511229280727058e+01
-5.685931536036008538e+00 -1.401428024896307889e+01
-6.241836698470992317e+00 -1.449968448972432888e+01
-6.719358206468349692e+00 -1.429932841520398590e+01
-7.169368245012240237e+00 -1.465296007211351537e+01
-7.733107885148587712e+00 -1.443687620292197948e+01
-8.445559956829406190e+00 -1.441814527421270675e+01
-9.137539234502758845e+00 -1.426826324062568041e+01
-9.764587209706833804e+00 -9.331292568070093552e+00
-9.765758292381567784e+00 -1.392774516262837103e+01
-1.049026235012179420e+01 -1.371547715529836786e+01
-1.102767635350309483e+01 -1.324802514397054232e+01
-1.140857748491286650e+01 -1.277026053328405197e+01
-1.181441211574471062e+01 -1.215065367789684814e+01
-1.192848520544652402e+01 -1.158645006126957178e+01
-1.199230558127482738e+01 -1.094747761271678144e+01
-1.201031290557830467e+01 -1.026609479174236483e+01
-1.205895406298089156e+01 -9.845445692700216966e+00
-1.206679694158210836e+01 -9.484812308333371078e+00
-9.370076144636820814e+00 -9.562301877254052229e+00
-1.202923289052949407e+01 -9.210294959944031135e+00
-1.194816078273865756e+01 -9.067149565022431190e+00
-8.815220546565395665e+00 -9.863242773360862969e+00
-8.398199440511715963e+00 -1.017158753878284472e+01
-1.654959794834693199e+01 -2.285941407471136344e+01
-1.659745283087066881e+01 -2.218662677187399623e+01
-1.300840768335976705e+01 -2.032592336948712486e+01
-1.230525429198260667e+01 -2.026335086445089217e+01
-1.145417289157709284e+01 -2.024892713305183634e+01
-1.023608547705935834e+01 -2.017294657436476157e+01
-8.762809636903355681e+00 -2.005900702360073495e+01
-5.646522930605636148e+00 -1.991639262685142597e+01
-4.338233278519385117e+00 -2.042422025411122632e+01
-3.865781503044948053e+00 -2.085052827982545054e+01
-3.748625185379355518e+00 -2.122665696578464534e+01
-4.152294820916043072e+00 -2.215863077864247188e+01
-1.631956372964258861e+01 -2.174942517064944525e+01
-4.910585513841889238e+00 -2.273226774882246914e+01
-6.064429802752566268e+00 -2.311666879849449430e+01
-7.393358468623424606e+00 -2.359431385659744507e+01
-8.777870977414574227e+00 -2.413236874427976986e+01
-9.820215650043580879e+00 -2.453264771355661011e+01
-1.044873587789748193e+01 -2.462574400450542456e+01
-1.119513034123831829e+01 -2.475092738581655638e+01
-1.183037916603406892e+01 -2.474013235073310213e+01
-1.263338530282842420e+01 -2.469824212809072961e+01
-1.317817288161059786e+01 -2.454433438032735992e+01
-1.615882799309241591e+01 -2.133971722173028951e+01
-1.382070554368327819e+01 -2.439789492415887295e+01
-1.432745747244479873e+01 -2.428088652929742963e+01
-1.466585456470752646e+01 -2.404657592405782651e+01
-1.491513784405814746e+01 -2.374939795633241602e+01
-1.552545655048298912e+01 -2.376818915577079139e+01
-1.519517130899760460e+01 -2.318993247072112496e+01
-1.564516926752274273e+01 -2.299870259424623242e+01
-1.622187028752001936e+01 -2.272327710910144205e+01
-1.583473711534741923e+01 -2.238120140360956256e+01
-1.560811839334995987e+01 -2.208605676195364254e+01
-1.578704270328747583e+01 -2.108012904030356438e+01
-1.520913275947797061e+01 -2.200604256190820607e+01
-1.502938349984265365e+01 -2.165575454312804737e+01
-1.457440756396657555e+01 -2.185880042182847660e+01
-1.432414143900423831e+01 -2.160840467032598866e+01
-1.380520247118296773e+01 -2.153535287172484303e+01
-1.321440882053865629e+01 -2.137479524787380214e+01
-1.233301724791451548e+01 -2.123372623438448059e+01
-1.124255366336689832e+01 -2.105865014651712031e+01
-9.821011450683890587e+00 -2.086328331052837015e+01
-8.249373578071770297e+00 -2.068091429296249117e+01
-1.550113525061806641e+01 -2.078693556446548385e+01
-6.407797911410181513e+00 -2.054566065875605574e+01
-4.838395351446425963e+00 -2.076607869388496042e+01
-4.286413912253577152e+00 -2.105879075058980732e+01
-4.035400809192204008e+00 -2.136926516833741374e+01
-4.052475833123533988e+00 -2.191766118907902694e+01
-4.428452431986958260e+00 -2.250029994092206564e+01
-5.258362758873103893e+00 -2.335017229032451169e+01
-6.739685505519982911e+00 -2.406516168755846152e+01
-8.150354452049443310e+00 -2.462986610179729396e+01
-9.243632614541322567e+00 -2.501172145450303219e+01
-1.507930309170991734e+01 -2.059509137372472409e+01
-1.035146637811371306e+01 -2.531464841608821104e+01
-1.097606113781912640e+01 -2.536258547806963293e+01
-1.192516902440087101e+01 -2.538092653289764300e+01
-1.258548760622425355e+01 -2.536626597136283223e+01
-1.331946753179950527e+01 -2.530798749942653103e+01
-1.395168080896974772e+01 -2.519709654917748409e+01
-1.442812444995889187e+01 -2.508397954402740382e+01
-1.486664711138778117e+01 -2.488306874390076828e+01
-1.528314215224420103e+01 -2.462588547845021480e+01
-1.567093645853792161e+01 -2.431402871509679997e+01
-1.463923831064229653e+01 -2.068080056937404620e+01
-1.602416096743419160e+01 -2.388764209956578455e+01
-1.636072229929281718e+01 -2.349746779083490011e+01
-1.416563495941425899e+01 -2.048302578256740958e+01
-1.367751119515093627e+01 -2.044315721040423384e+01
-1.688247984109140631e+01 -3.547791467590319314e+01
-1.683255620991170787e+01 -3.513982916926263300e+01
-1.599054956683249706e+01 -3.356896368336775538e+01
-1.549083476089769107e+01 -3.358724624902306743e+01
-1.537412691271538279e+01 -3.302241504443616549e+01
-1.502437072085965220e+01 -3.263960526715023747e+01
-1.471860742711825942e+01 -3.297682748826893118e+01
-1.442342637361192104e+01 -3.282468487804874258e+01
-1.440076343787309909e+01 -3.354756736430740460e+01
-1.418017591308008640e+01 -3.374925935992085613e+01
-1.342338434456205931e+01 -3.387597997249414306e+01
-1.385139606225968123e+01 -3.300361393377350794e+01
-1.663368600106354123e+01 -3.498705168454031877e+01
-1.382160397135014662e+01 -3.361710310530856560e+01
-1.351209267884237342e+01 -3.236921263051698361e+01
-1.360962665363113544e+01 -3.327483242175104294e+01
-1.381099562118205348e+01 -3.230578666884833439e+01
-1.306121679207412001e+01 -3.319608204805000184e+01
-1.369629343307527414e+01 -3.209801513166920728e+01
-1.303948631635399735e+01 -3.276212327356124376e+01
-1.296555166438539430e+01 -3.221665833646101618e+01
-1.238689673734610253e+01 -3.250328786723493835e+01
-1.271872051055461306e+01 -3.219885188650383867e+01
-1.604354856655088568e+01 -3.529792302909588386e+01
-1.231273278319079800e+01 -3.286315291421916385e+01
-1.207935314878582922e+01 -3.205670130220457281e+01
-1.157710932707691320e+01 -3.259233262308688950e+01
-1.152209600609763207e+01 -3.209066895060171021e+01
-1.104476749104519584e+01 -3.219906005368609669e+01
-1.124616784152771842e+01 -3.202150648832102320e+01
-1.117285965528536451e+01 -3.271667902181884102e+01
-1.074973680573178569e+01 -3.189196279283568103e+01
-1.065049481233252138e+01 -3.272751639708388183e+01
-1.040080816516415574e+01 -3.193566973394300490e+01
-1.569499403085200839e+01 -3.536584201095493540e+01
-1.024558331697873470e+01 -3.227946413925563718e+01
-1.053196793760511341e+01 -3.309491421341768103e+01
-9.694166901880294063e+00 -3.194339979626477799e+01
-9.685476345726725000e+00 -3.232629879733419642e+01
-9.969480168063734382e+00 -3.294114800204405213e+01
-9.420181081129134881e+00 -3.264735011273632637e+01
-9.709653502853962337e+00 -3.296790663867123783e+01
-9.077442626088087607e+00 -3.229446338534508243e+01
-8.975163938624870497e+00 -3.277855693168204709e+01
-9.055614349220448389e+00 -3.321908859624835486e+01
-1.549426839746687712e+01 -3.541472343407808410e+01
-9.230553580723439566e+00 -3.345100599865072866e+01
-9.599801437306830110e+00 -3.369882147765604685e+01
-9.912790630678697923e+00 -3.391040099997167800e+01
-9.266313029223931963e+00 -3.399101353316898866e+01
-9.806588417644652722e+00 -3.439151464855886786e+01
-1.038870807114908068e+01 -3.448451741042710950e+01
-1.045787168131872313e+01 -3.512129314599562946e+01
-1.068199073616840700e+01 -3.511864375222337742e+01
-1.112140934014952087e+01 -3.552507952801805402e+01
-1.145368195995609994e+01 -3.558931115019296954e+01
-1.544376961293538564e+01 -3.510593245687748265e+01
-1.174058405963591944e+01 -3.580057922123599212e+01
-1.217086054940914508e+01 -3.587618450083074606e+01
-1.258714389150371815e+01 -3.604561845894475880e+01
-1.315418079654456029e+01 -3.613037464575492663e+01
-1.373535352589563985e+01 -3.627219620403739242e+01
-1.464522592933847100e+01 -3.630721876187919861e+01
-1.494740828527741883e+01 -3.636076468900201775e+01
-1.530053051085742943e+01 -3.627655340929390348e+01
-1.580223778891991060e+01 -3.645182926233535170e+01
-1.626500929153890240e+01 -3.615730404163899436e+01
-1.581656653873380414e+01 -3.471538061585739143e+01
-1.653352062797825184e+01 -3.605853866186934908e+01
-1.677966411050352846e+01 -3.569984732560512697e+01
-1.599830895843578560e+01 -3.435259284320880369e+01
-1.616986444319735838e+01 -3.395405511841379820e+01
-2.164521700734501053e+01 -1.141149316716486339e+01
-2.129222325707427643e+01 -1.169542255405257158e+01
-1.988200782502430997e+01 -1.705858713235298296e+01
-2.026384937010597298e+01 -1.738754265779396846e+01
-2.087204523593193883e+01 -1.763474553019943158e+01
-2.118572809539728041e+01 -1.719442148487761202e+01
-2.167613528259630584e+01 -1.723469337861138229e+01
-2.181467203771552121e+01 -1.667273724756242714e+01
-2.230492947562807871e+01 -1.659342429625823101e+01
-2.227663629226688968e+01 -1.607612632276822140e+01
-2.279617171139276977e+01 -1.601649772581292552e+01
-2.251042178708525299e+01 -1.547747312220911553e+01
-2.100819294863288533e+01 -1.196607968769854580e+01
-2.288940264807438751e+01 -1.538267026335550192e+01
-2.285384112259931655e+01 -1.491988853648052604e+01
-2.341666324671733790e+01 -1.516074868166543332e+01
-2.351703395810849884e+01 -1.480232117032953276e+01
-2.395007865999639307e+01 -1.498193763362933950e+01
-2.466836650473291925e+01 -1.533991808448173444e+01
-2.589147752590920959e+01 -1.638268269495210561e+01
-2.649312629028773713e+01 -1.641016564667374666e+01
-2.687858934226677121e+01 -1.658225516988656878e+01
-2.720454242824855484e+01 -1.688826620270389967e+01
-2.067232557442024188e+01 -1.235402443543235762e+01
-2.752857867773949252e+01 -1.729357445243741509e+01
-2.779404685040791989e+01 -1.770700223897161862e+01
-2.793845708756952106e+01 -1.807082626628487532e+01
-2.797926865548570419e+01 -1.833279686603346192e+01
-2.795954790161784231e+01 -1.859325667356829115e+01
-2.788079789678478804e+01 -1.883219904590733407e+01
-2.773487001272811980e+01 -1.908098778189851430e+01
-2.751931678608216103e+01 -1.930960454655139102e+01
-2.719532233865539439e+01 -1.955434882730118318e+01
-2.683692054646250824e+01 -1.974388785548923408e+01
-2.037620584858568051e+01 -1.278150580675636938e+01
-2.645942836450990399e+01 -1.987746501102624563e+01
-2.605287129552168324e+01 -1.995727929309500226e+01
-2.557127184538352793e+01 -1.999516341135471009e+01
-2.504225467269559147e+01 -1.996965568075819064e+01
-2.447733919435759731e+01 -1.988595165941093157e+01
-2.395745523058822712e+01 -1.979630576122552554e+01
-2.359689724664394817e+01 -1.947164787952711507e+01
-2.318332919783117418e+01 -1.914393048061257829e+01
-2.290974745250521849e+01 -1.862854300093954052e+01
-2.289997762554340710e+01 -1.805920647665388401e+01
-2.012769243572052247e+01 -1.324002960707194099e+01
-2.316295217560036335e+01 -1.757966661990971247e+01
-2.329910081170161718e+01 -1.715987148373435289e+01
-2.381509640747205125e+01 -1.703144510069660100e+01
-2.366459791728914297e+01 -1.652706604272663427e+01
-2.447164618156942950e+01 -1.692147709474003392e+01
-2.412821406688071235e+01 -1.623011411688488081e+01
-2.463356850798631825e+01 -1.628898467642094161e+01
-2.497535014182530944e+01 -1.602958600276597423e+01
-2.536112323908464816e+01 -1.561576828366629677e+01
-2.588094219062431733e+01 -1.526849701708336404e+01
-1.985527102038792080e+01 -1.388379365187374859e+01
-2.556640151640502623e+01 -1.476704156567623194e+01
-2.543285324113367096e+01 -1.422899797204554240e+01
-2.495152072753067074e+01 -1.371064572968032103e+01
-2.454401030399765915e+01 -1.303809187679863868e+01
-2.423958907284562869e+01 -1.249162530056609377e+01
-2.390891535614007068e+01 -1.203908972136876443e+01
-2.361223543492575061e+01 -1.172766108887865144e+01
-2.329135403786419189e+01 -1.150423075073177337e+01
-2.295448894998213163e+01 -1.134913828632864785e+01
-2.260435318332104515e+01 -1.128405658317700500e+01
-1.963644661278206272e+01 -1.454088844903331967e+01
-2.230288276791823776e+01 -1.125230852791660574e+01
-2.194902983278410602e+01 -1.128146135093056479e+01
-1.956255366266763218e+01 -1.526054974389934316e+01
-1.961906361696574663e+01 -1.627010953319396336e+01
-1.777184821311820428e+01 1.019731728552144290e+01
-1.733647746760531660e+01 1.099637533943184131e+01
-2.247219922714659290e+01 1.638785033731294050e+01
-2.289778129754400382e+01 1.560471980242592061e+01
-2.302344954735914939e+01 1.437394873845476795e+01
-2.267518579370732468e+01 1.308180631978790309e+01
-2.168589603849321890e+01 1.163337059370918958e+01
-2.063341960201048408e+01 1.031416804525649589e+01
-1.999138406428888359e+01 1.002053844225058477e+01
-1.927950527773243294e+01 1.034002206176723426e+01
-1.870801198607960103e+01 1.131542368750711525e+01
-1.837329165448725732e+01 1.207910961227088364e+01
-1.700822903248682394e+01 1.245189649876344440e+01
-1.819074503010678967e+01 1.296595666425940152e+01
-1.808845361908336002e+01 1.458670567928923845e+01
-1.865865956811819615e+01 1.544882677442399732e+01
-1.940014061763820763e+01 1.583217671133144933e+01
-1.995887286260411031e+01 1.594650425900495350e+01
-2.043806208745959907e+01 1.594520414777409201e+01
-2.075779822379631767e+01 1.597073822772410523e+01
-2.092638961933153041e+01 1.565900200773357653e+01
-2.132595910881630275e+01 1.555224038095450645e+01
-2.149471724007072382e+01 1.506651620534211133e+01
-1.729162248254926837e+01 1.427684341932037348e+01
-2.184089087163961196e+01 1.449548626953715136e+01
-2.176636091125668315e+01 1.366392677895820995e+01
-2.094925236411914327e+01 1.236704589470652138e+01
-2.021530390459766480e+01 1.161102511837898632e+01
-1.960070472350607318e+01 1.111304421915498430e+01
-1.888880190290906924e+01 1.078017393410359581e+01
-1.824981209166357843e+01 1.092413670793215630e+01
-1.770025717853013703e+01 1.140725619893150977e+01
-1.748455927966518431e+01 1.271737235917754205e+01
-1.744674162451670796e+01 1.388822145394851226e+01
-1.823837110022884644e+01 1.621293649770336742e+01
-1.780167476070530341e+01 1.586525523307604502e+01
-1.880486361400386386e+01 1.693496884510022937e+01
-1.945344889377817310e+01 1.728764408465785962e+01
-2.009770265803271627e+01 1.744066885537920086e+01
-2.092422971505074614e+01 1.740557169437013840e+01
-2.147781189417146663e+01 1.719582591800649851e+01
-2.205476061862823300e+01 1.674639840052258677e+01
-2.250650684450018346e+01 1.613539441780754302e+01
-2.280227801986058722e+01 1.501013673710069263e+01
-2.271547473203429490e+01 1.357059245817383264e+01
-1.894766969783174204e+01 1.681404779860035603e+01
-2.201821113545025099e+01 1.194674513194912890e+01
-2.108770409611179275e+01 1.083339140493816721e+01
-2.018559817035001913e+01 1.047276841535403236e+01
-1.921977922811926121e+01 1.020058904426189272e+01
-1.843367337750569135e+01 1.023530167816507053e+01
-1.785711088699235560e+01 1.046310571260041655e+01
-1.767400798797119421e+01 1.200092373684762137e+01
-1.808434085814973713e+01 1.374978633708307285e+01
-1.837219509163959685e+01 1.560638505214811111e+01
-1.894284101929395447e+01 1.610732250551637179e+01
-1.974619548264670854e+01 1.722797623022238156e+01
-1.958188837031399032e+01 1.654580509849889935e+01
-2.029124596990676821e+01 1.662886255038525718e+01
-2.072098328064662098e+01 1.659269206507417138e+01
-2.110023003209515480e+01 1.648950405668199437e+01
-2.150940130151870378e+01 1.621843081605815229e+01
-2.183287409423878955e+01 1.574243519462344842e+01
-2.206886195140926787e+01 1.486394379994752590e+01
-2.200136223726583751e+01 1.389817647112708876e+01
-2.148232290824445556e+01 1.265373943180844662e+01
-2.034875831893322840e+01 1.129924026344903787e+01
-2.067869428770516649e+01 1.727852268283134052e+01
-1.926378241991056584e+01 9.599380879618749418e+00
-1.862628751724422571e+01 9.651560832197558781e+00
-2.141967649426136688e+01 1.714795165941135124e+01
-2.198626141195580885e+01 1.689114264621947115e+01
-1.585353475443094595e+01 4.482397104740455385e-01
-1.504040891798506863e+01 7.328235767015774949e-01
-1.690455291110617964e+01 1.474222004236873440e+00
-1.719198932056421114e+01 8.035662881785792244e-01
-1.731915150384510582e+01 9.935659974313477694e-01
-1.757958086328595826e+01 7.468337061103899055e-01
-1.795746305360099271e+01 1.649755060943084439e+00
-1.811230480096150686e+01 1.811798019567570028e+00
-1.827507404865624707e+01 1.508932896884216612e+00
-1.862338321095134930e+01 1.851534902550445061e+00
-1.881939582063666094e+01 1.930703723127723537e+00
-1.900581410845850172e+01 2.125201131300582080e+00
-1.569783662762003829e+01 6.984099794428808572e-01
-1.906825913143457640e+01 1.223011197395286409e+00
-1.922884512072963759e+01 1.134413475375039448e+00
-1.969577749631270080e+01 1.516532158537539754e+00
-1.962370071400865967e+01 7.799184300610657594e-01
-2.007547901562868020e+01 1.021829128398059616e+00
-2.020979462237766811e+01 5.053808897596490102e-01
-2.066400736620286693e+01 8.406076520011340758e-01
-2.076919914131994460e+01 5.529494959902039319e-01
-2.060494850456672467e+01 1.435819904370843059e-01
-2.128920841570687017e+01 2.618994276664995402e-01
-1.600815129704758277e+01 7.953989265550380772e-01
-2.096819808982084155e+01 8.666625057684484990e-02
-2.149094737817732792e+01 -3.101728078949890846e-02
-2.108052861906838871e+01 -4.124057430657690482e-01
-2.157130198413739919e+01 -4.435249892737261335e-01
-2.167130487128390470e+01 -7.054232241733430220e-01
-2.173184770890608419e+01 -9.118659289136685775e-01
-2.163940049417928790e+01 -1.149207794519380599e+00
-2.134562968474788391e+01 -1.145591005614259084e+00
-2.169727020592187827e+01 -1.501053692401713047e+00
-2.157857506063099606e+01 -1.714855225297093222e+00
-1.580379636242926367e+01 1.245213587370598951e+00
-2.082545120107934622e+01 -1.598786349372217641e+00
-2.135282710922867366e+01 -2.219869166882607381e+00
-2.058163618045303522e+01 -1.950091504021007838e+00
-2.095639150409991203e+01 -2.555541505874440400e+00
-2.083083330684115708e+01 -2.902964177266833090e+00
-2.009823698948602910e+01 -2.280621057362647530e+00
-2.017763716873594859e+01 -2.680956229223375509e+00
-2.030657005268245641e+01 -3.270912353032155995e+00
-2.001744808959368171e+01 -3.392853255198240436e+00
-1.967035183911535512e+01 -2.996732064943488982e+00
-1.604737740946216817e+01 1.454456823321280901e+00
-1.949681714509485531e+01 -3.461014384666045718e+00
-1.918549150258545311e+01 -2.687001181342790535e+00
-1.887523053413120167e+01 -3.165100513131423376e+00
-1.864487254037982922e+01 -2.596932651288996752e+00
-1.838222216998638459e+01 -3.491390547567788438e+00
-1.802467038579800374e+01 -2.943819973954086677e+00
-1.769737613645718355e+01 -2.410772030989613235e+00
-1.681830491832573315e+01 -1.770241499072882085e+00
-1.634346932009605879e+01 -1.805909042109238971e+00
-1.665290627194607964e+01 -1.379874170359844721e+00
-1.610917776396653878e+01 1.545882670259327352e+00
-1.585392447247405023e+01 -1.234598503046821394e+00
-1.674145335824947267e+01 -9.239332710062074794e-01
-1.500908743003316559e+01 -1.030973294276585683e+00
-1.640438289228998059e+01 -5.297450617640250270e-01
-1.567148889115091315e+01 -6.118853703416361478e-01
-1.649034701426512228e+01 -2.472216737374913487e-01
-1.539694414951339319e+01 -3.886656849689447135e-01
-1.648359296412175112e+01 -1.274808589874332210e-01
-1.535523758517448911e+01 -1.687172372663290898e-01
-1.510302545108853600e+01 -9.955149462345079525e-02
-1.527709698014789730e+01 1.236270103997169523e+00
-1.524874867094987607e+01 1.470703320170908823e-01
-1.480522733442077765e+01 4.501742378456536353e-01
-1.643635481923517361e+01 1.193289459634595762e+00
-1.654455281523677357e+01 9.265853928521269323e-01
1.454759618376164099e+01 -1.855157951201289990e+01
1.466862011699063117e+01 -1.908977355239503026e+01
1.773265452301153644e+01 -1.918243356557819013e+01
1.772079537762358115e+01 -1.883896463476066430e+01
1.745933277605742617e+01 -1.860329571214545652e+01
1.704192904477881854e+01 -1.787063212444656202e+01
1.685896322338590281e+01 -1.768390433266288397e+01
1.634518351104796352e+01 -1.758309591413186723e+01
1.667206767242673138e+01 -1.821760572430533287e+01
1.664650425617428553e+01 -1.837742744432274833e+01
1.660736936159984722e+01 -1.658431963179802082e+01
1.688215626071916731e+01 -1.720356779238040801e+01
1.499684778960361697e+01 -1.940343644351477792e+01
1.691013738133900546e+01 -1.664779809598372395e+01
1.706550557775262078e+01 -1.732039904795268015e+01
1.739159484550900103e+01 -1.732195756774459028e+01
1.735733204541085684e+01 -1.694393792080466810e+01
1.769041559204501368e+01 -1.725121566986447164e+01
1.789903165761451120e+01 -1.763015642181964182e+01
1.788595499485091977e+01 -1.665901694923385534e+01
1.820386869435675337e+01 -1.743309516057480835e+01
1.822424298849501056e+01 -1.679472729597196690e+01
1.848275367636495403e+01 -1.694847831513188297e+01
1.525168577734244124e+01 -1.973779445068933214e+01
1.870530825844310030e+01 -1.659244453021111809e+01
1.891730710101877833e+01 -1.683218971968605615e+01
1.904721983322123435e+01 -1.726311597631634598e+01
2.023111718978657336e+01 -1.581497127587602591e+01
1.947705026665505201e+01 -1.625502327221220966e+01
1.973780505408038621e+01 -1.622664269105023038e+01
2.106511276240255270e+01 -1.564046681168535358e+01
1.988910189779138449e+01 -1.586938445909711071e+01
2.081280523145632344e+01 -1.531687207855634192e+01
2.171828858588303035e+01 -1.490656210172476648e+01
1.561248465423931364e+01 -2.000539609314876088e+01
2.118879065091875802e+01 -1.516514596250743985e+01
2.167956784555196137e+01 -1.445201523187670922e+01
2.086696658402512128e+01 -1.486142189742432151e+01
2.137693213237957934e+01 -1.464706882471819860e+01
2.153592459174780416e+01 -1.409738666181636368e+01
2.033948333432029898e+01 -1.467459052410836939e+01
2.053492806799051351e+01 -1.454941318334111422e+01
2.062748996556564762e+01 -1.429196985911315565e+01
2.093453113790310027e+01 -1.402974872575325094e+01
2.087046388837637778e+01 -1.380770479602415790e+01
1.597371164432865953e+01 -2.019135427789055015e+01
2.100021866686109462e+01 -1.369720234912995593e+01
2.000119745345071109e+01 -1.400042262154343220e+01
2.010428116851822011e+01 -1.368528509272145222e+01
1.947706296182501262e+01 -1.416983790248975161e+01
1.963488469123993241e+01 -1.450182418499237258e+01
1.903280038759931259e+01 -1.396478972470486468e+01
1.909778124585286818e+01 -1.414078810303339750e+01
1.875218019030890204e+01 -1.438637321780922562e+01
1.829736462272206765e+01 -1.434959337630811227e+01
1.804915181803858104e+01 -1.454197753147750660e+01
1.638942630253458788e+01 -2.007684444918125521e+01
1.768617850956166748e+01 -1.467273937266229922e+01
1.737485509435641617e+01 -1.477172080505946816e+01
1.703471466668985457e+01 -1.541263850085060483e+01
1.666185926758320690e+01 -1.508305585483384448e+01
1.604672585401751661e+01 -1.560534998728026146e+01
1.566136340943964989e+01 -1.580372949618361389e+01
1.521960915244657109e+01 -1.607719929071301834e+01
1.485053236496234597e+01 -1.635738710388938699e+01
1.462587605342465658e+01 -1.676388964692991124e+01
1.443068825014824874e+01 -1.705837964472366863e+01
1.681642511220371716e+01 -2.019840356950559013e+01
1.448530953255085407e+01 -1.753763701957038990e+01
1.449097218450361346e+01 -1.806221120824212889e+01
1.719591645204275565e+01 -1.977733864751604997e+01
1.750636815933759394e+01 -1.952087786534953651e+01
2.991903443140443386e+01 -3.512893081371768034e+01
2.922851627374383199e+01 -3.514279667102146476e+01
2.781210526429317653e+01 -3.352434733925763766e+01
2.741765233945001512e+01 -3.300563692838576202e+01
2.740321900811316169e+01 -3.257642959809185612e+01
2.687344381202671428e+01 -3.241024951162201972e+01
2.716251356509190273e+01 -3.311384328401179289e+01
2.681503072048692360e+01 -3.258080137937319876e+01
2.689301214143945629e+01 -3.348894362263119007e+01
2.566147659389948288e+01 -3.222725683707235333e+01
2.635487592973915838e+01 -3.346599390703011068e+01
2.601494045099236985e+01 -3.304464259648004543e+01
2.929490275829419588e+01 -3.546721653820229392e+01
2.605714225619663083e+01 -3.322253593339045352e+01
2.560517460165339898e+01 -3.317630926413185222e+01
2.476998591310791653e+01 -3.290621064329042866e+01
2.434520492456968910e+01 -3.265780602917278941e+01
2.450590418555546179e+01 -3.316735723674159431e+01
2.400144084665639710e+01 -3.263972578909012157e+01
2.386942128656943041e+01 -3.280475735632332146e+01
2.357939599043042023e+01 -3.290138593802883094e+01
2.365972007702904989e+01 -3.322347670697545396e+01
2.395948978219042758e+01 -3.402639767111909208e+01
2.933080870707109966e+01 -3.497913157578067000e+01
2.371419080936300716e+01 -3.372279963315669704e+01
2.391877765203837569e+01 -3.429927427236071935e+01
2.388172695571667248e+01 -3.456325369132240866e+01
2.355592988375803642e+01 -3.514895340627974463e+01
2.318931120677950730e+01 -3.599204081384220189e+01
2.287380124820631622e+01 -3.659914733274783316e+01
2.325897911040354060e+01 -3.706114226682869628e+01
2.427286578551284890e+01 -3.631692598507853376e+01
2.372114715328538992e+01 -3.720302182775317590e+01
2.321587012372279446e+01 -3.661763358572436999e+01
2.917453208079111704e+01 -3.386545607709609840e+01
2.476983355049368996e+01 -3.694627254087796331e+01
2.415972761201139463e+01 -3.766537268319849829e+01
2.429576897554755277e+01 -3.762264767642629693e+01
2.473197337742058366e+01 -3.810695604527255398e+01
2.511935528187614253e+01 -3.748889684167047420e+01
2.430645649546556086e+01 -3.549355091504985182e+01
2.405294858945208603e+01 -3.684900017930647209e+01
2.444164893234591673e+01 -3.574102172336382210e+01
2.479403429162271166e+01 -3.621193557982331868e+01
2.497519259290342930e+01 -3.657255405685652505e+01
2.932232029888258396e+01 -3.452111609640733292e+01
2.491979054220362855e+01 -3.584386120488211702e+01
2.549228776806460317e+01 -3.685993611013692828e+01
2.582335629017535794e+01 -3.741301346662869065e+01
2.596946228037454318e+01 -3.710568013256121134e+01
2.623958532003750577e+01 -3.728685094915805109e+01
2.665543121021339701e+01 -3.771788487893800834e+01
2.577389792936308766e+01 -3.616218285388254827e+01
2.709892575081573085e+01 -3.728128691201330724e+01
2.751263450315292047e+01 -3.645486782869888032e+01
2.725728147360262810e+01 -3.708261951994334993e+01
2.871556382047127443e+01 -3.427673405098492054e+01
2.655438586496459052e+01 -3.642208155719401930e+01
2.630953089284291480e+01 -3.575826663505453951e+01
2.678290614450594376e+01 -3.612904269251989575e+01
2.665185986505609961e+01 -3.587379050358908472e+01
2.685044391873130110e+01 -3.566851409276952722e+01
2.665590876680164456e+01 -3.525349866600133453e+01
2.807462081713786972e+01 -3.600800538294558351e+01
2.840040113272929645e+01 -3.568566372607642734e+01
2.825730902999693228e+01 -3.621131469118898139e+01
2.859108225565287142e+01 -3.593673251694436743e+01
2.834668554740996527e+01 -3.424159187956910699e+01
2.852308033444789004e+01 -3.512121692244222260e+01
2.987985793368504872e+01 -3.529189327603435800e+01
2.837236296087154130e+01 -3.371964947550761593e+01
2.832881041393148891e+01 -3.345733273951248776e+01
1.457334140665963140e+01 2.855178672699656417e+01
1.439478910051359684e+01 2.893838885649380543e+01
1.027676215604292231e+01 2.887289696825633811e+01
9.190664534685190290e+00 2.689393557045576699e+01
8.394410239181945954e+00 2.657202402859991608e+01
7.701488959971729997e+00 2.666056499029902938e+01
7.399970239216978385e+00 2.710076703225126948e+01
7.090299017512901258e+00 2.737104682724493898e+01
7.045533759508284533e+00 2.774127424740341752e+01
6.966365794149539603e+00 2.825800865337501833e+01
7.191362048667141238e+00 2.881066539242176106e+01
7.394265912037219834e+00 2.924568828288366262e+01
1.407587834223970802e+01 2.906988333974568306e+01
7.204858772466178785e+00 2.927423439885484768e+01
6.526863745015662133e+00 2.880261928446510211e+01
6.240114437903765854e+00 2.818196904717856910e+01
6.695899266563798413e+00 2.634164162678877830e+01
8.137972053607875011e+00 2.573651443571085196e+01
9.517100701451086664e+00 2.549136802026988136e+01
1.030328318420731293e+01 2.525808142358234321e+01
1.108602999501172093e+01 2.503730049742343411e+01
1.167947399733526659e+01 2.489117533759585044e+01
1.212743163840607075e+01 2.479112526326127508e+01
1.374269364612252886e+01 2.916819559189338662e+01
1.262184790350394081e+01 2.472151338226394657e+01
1.301068098872636014e+01 2.463898861382417138e+01
1.339051062172237749e+01 2.458330573844110134e+01
1.378419362763272282e+01 2.467449151169243038e+01
1.409921844044774275e+01 2.489158382769954159e+01
1.428398856254380789e+01 2.514008069129015510e+01
1.428673954092782949e+01 2.545747281259328076e+01
1.418501254726773020e+01 2.565068230412217787e+01
1.362234048869206582e+01 2.586430662354934285e+01
1.338920298298447165e+01 2.587473070750602488e+01
1.337114681123708770e+01 2.920068172408896245e+01
1.279463653604911144e+01 2.594215720398606706e+01
1.196066376528427888e+01 2.615041736181504817e+01
1.160576271749240185e+01 2.633170480240630340e+01
1.125236162401470885e+01 2.658570627963003119e+01
1.055338837780079686e+01 2.701726850035318606e+01
9.365072205635428304e+00 2.764896415319507383e+01
7.760451941654038066e+00 2.823913430805679781e+01
7.888404651288946745e+00 2.802624345069732215e+01
8.269206131268653337e+00 2.778787031084786818e+01
7.922590875234820196e+00 2.826579346557789307e+01
1.296588254585555333e+01 2.916186058886221488e+01
8.240692219774016891e+00 2.790082845873111594e+01
7.997886829495963745e+00 2.871412287718682421e+01
8.117994930379705210e+00 2.870408193523906704e+01
8.452906031076780735e+00 2.841770027260753295e+01
8.542903172895371711e+00 2.808523743620383684e+01
8.581254523225577913e+00 2.804845011317965842e+01
8.696024564722273809e+00 2.853498410113685679e+01
8.421723770171263723e+00 2.900829987570813628e+01
8.352501784714732480e+00 2.907453084874242677e+01
8.579689447333610275e+00 2.911031475429568260e+01
1.246609560032556452e+01 2.927886087880735744e+01
8.868497544209864358e+00 2.866958313432211014e+01
9.167297702088443856e+00 2.851755261111404138e+01
1.019647301769199288e+01 2.801752524259836008e+01
1.149415101362749247e+01 2.789781027646795053e+01
1.217567579568452096e+01 2.800981729080150728e+01
1.251576974037418388e+01 2.810756803170520257e+01
1.276593654431759539e+01 2.799225754670633393e+01
1.317338809735145588e+01 2.802923671019573248e+01
1.358100876249588218e+01 2.796733495494858701e+01
1.398091956937534519e+01 2.792979447866297349e+01
1.200528726597471163e+01 2.918409726788117808e+01
1.425195520903728408e+01 2.802384312797135379e+01
1.425608151610192564e+01 2.833338805168889252e+01
1.135723917923085935e+01 2.920234889673032441e+01
1.079505139825615601e+01 2.911544058243276822e+01
2.245319557739087912e+01 1.435863591185427346e+01
2.270844545714077256e+01 1.511323607341699038e+01
1.734540539749826848e+01 2.037570127834935718e+01
1.632703974143562320e+01 2.025063191773846683e+01
1.533882579382024680e+01 1.999504961615337706e+01
1.244662943564458679e+01 1.855694654422876155e+01
1.016673093443717057e+01 1.637809611850146396e+01
7.385164110708571705e+00 1.383181025209155735e+01
-5.942498884857530861e+00 6.597809986101410118e+00
-7.157585920873782648e+00 6.774519170505684862e+00
-6.914627697020170771e+00 7.414237696703173341e+00
-5.546556018701386037e+00 8.157886187950253998e+00
2.284308987438731364e+01 1.616554172299574432e+01
7.169706784730117688e-01 9.467907210902600568e+00
6.208891746791399768e+00 1.081961595121521036e+01
8.881839955365167683e+00 1.060684007386448791e+01
1.001055672416530840e+01 1.034257173759194259e+01
1.165440284497560874e+01 9.956605631731608952e+00
1.294121054630964451e+01 9.772207603347119687e+00
1.406354140953566123e+01 9.737608989887180044e+00
1.511570602554231613e+01 9.754931076695784853e+00
1.620542023201438653e+01 9.909666696562236865e+00
1.715985080096092119e+01 1.011046908164249380e+01
2.271689043472111891e+01 1.683776373551605587e+01
1.811115419946312599e+01 1.038580296878784459e+01
1.927644498421793884e+01 1.079570682997041686e+01
2.014096394638961129e+01 1.126599855224479008e+01
2.075576565719613242e+01 1.171263275682576932e+01
2.127464880596651042e+01 1.226239461963630717e+01
2.185709105341810243e+01 1.303603176451150603e+01
2.235309878230658498e+01 1.391021200143927672e+01
2.274376403553245041e+01 1.478877434568186189e+01
2.285312859917828376e+01 1.552632778738143315e+01
2.279934992902677848e+01 1.660355409874456001e+01
2.236719348934623852e+01 1.749054667992507106e+01
2.262470943297215697e+01 1.754196391802286570e+01
2.207644500060348847e+01 1.849937461620639922e+01
2.121568159365057937e+01 1.938376577260055456e+01
2.027382870458741237e+01 1.990247899366002216e+01
1.923701328912459374e+01 2.019513439486147632e+01
1.798975593801435835e+01 2.034285154317677780e+01
1.693234355954495740e+01 2.029777616764014070e+01
1.590909009909703187e+01 2.013969028660421046e+01
1.451908896151372552e+01 1.972430157231778480e+01
1.152657828279947694e+01 1.775696919879804270e+01
2.184763674544985790e+01 1.847255148997963659e+01
9.587973864618756892e+00 1.572915390554714854e+01
6.336537706611310661e+00 1.250665190603610455e+01
-6.810360881744697004e+00 6.587909317353137340e+00
-7.846015240204955887e+00 7.298322300141575347e+00
-7.865950005018010671e+00 7.453297494890494868e+00
-6.541791534970643696e+00 8.102006361627115183e+00
-4.673505219468088612e+00 8.680178132614145170e+00
4.762787923216488473e+00 1.021798320263860838e+01
7.954181514450630708e+00 1.055419302859115582e+01
9.580423429762738863e+00 1.043314914792413184e+01
2.113886654427498257e+01 1.921512344452104770e+01
1.117658764648671443e+01 1.001204093282268914e+01
1.273819001250240568e+01 9.824966929541586680e+00
1.385933240878442874e+01 9.743588878190244884e+00
1.504247464941069801e+01 9.762728448476213572e+00
1.621501544691153285e+01 9.913332579499719799e+00
1.733846398420143231e+01 1.013084256010002093e+01
1.843565308809145264e+01 1.045753691985081346e+01
1.942216510609486591e+01 1.092913523973345313e+01
2.038661189673051055e+01 1.141339903103831332e+01
2.093362732183327068e+01 1.189948744983529672e+01
2.026314543595386652e+01 1.973010470393743176e+01
2.157152539994828544e+01 1.273646698492143692e+01
2.207623682609016669e+01 1.345211477225712571e+01
1.941443709943365548e+01 2.012698879348677394e+01
1.843200513063023394e+01 2.035212394083873377e+01
-7.797656093784180342e+00 1.903733957546351974e+01
-8.292331408814639815e+00 1.879561245486175380e+01
-8.474631215447612220e+00 1.546377020021689042e+01
-8.521348058846379914e+00 1.505742508151784342e+01
-8.566613018752587294e+00 1.468395657373681829e+01
-8.608833948927705038e+00 1.409828073481557986e+01
-8.592328931835208294e+00 1.365392664016036584e+01
-8.594654418521232131e+00 1.315463017595665463e+01
-8.528616517674203479e+00 1.258188127277676038e+01
-8.568227486941783155e+00 1.201231536417683010e+01
-8.608963286671485804e+00 1.146330670895253867e+01
-8.863809700271588099e+00 1.112282516030111701e+01
-8.191649560092109539e+00 1.849076151763647502e+01
-9.151649615311946206e+00 1.072291498290057632e+01
-9.507861933060249626e+00 1.032601338901809918e+01
-9.751296749643282524e+00 1.005019045623229523e+01
-1.006061947567643600e+01 9.649119124272479198e+00
-1.030249944788405614e+01 9.303274782497215512e+00
-1.050360945916155586e+01 8.992868687769670188e+00
-1.065697057116047652e+01 8.721807077052744717e+00
-1.072932680942835759e+01 8.580695461731634666e+00
-1.082174323246494296e+01 8.461624262900253157e+00
-1.112421630369090408e+01 8.150626445244908425e+00
-8.144475158812847226e+00 1.826330137606226245e+01
-1.142948534049309117e+01 7.837687251201695737e+00
-1.176090508461086159e+01 7.491359531704343766e+00
-1.201458556556718626e+01 7.245082431439637816e+00
-1.221918265201866127e+01 7.133116731776796726e+00
-1.246215554394022540e+01 7.006321546432143776e+00
-1.215552601781400455e+01 6.428444684136112031e+00
-1.273264405662578014e+01 6.262073651212660685e+00
-1.293469743725690968e+01 6.885584554541651414e+00
-1.348944920847505458e+01 6.655461966539129470e+00
-1.319527081951461689e+01 7.127044272142993186e+00
-8.116853497572540377e+00 1.794531180936567694e+01
-1.379469036114776515e+01 7.373168593506772339e+00
-1.340998304399189678e+01 7.714861665480043484e+00
-1.347157378108162717e+01 8.034657785426640331e+00
-1.350979710735852102e+01 8.469447748099566908e+00
-1.355279053617423202e+01 9.057336259733762773e+00
-1.355874891265209214e+01 9.653084068080701741e+00
-1.355876391900228661e+01 1.012605038496835874e+01
-1.355865278000597129e+01 1.068545653341635315e+01
-1.356699469915719369e+01 1.126658270223637182e+01
-1.356578439797278612e+01 1.178623576134398121e+01
-8.136657565356172128e+00 1.746720891080505922e+01
-1.353028613000762626e+01 1.237016870169922989e+01
-1.344988049416421916e+01 1.297103802570723019e+01
-1.334374889672839437e+01 1.355090863677961366e+01
-1.320149181461280818e+01 1.406641934643770675e+01
-1.305514386622123446e+01 1.448014341205314715e+01
-1.279780000615589586e+01 1.511771295565596951e+01
-1.260832680998856503e+01 1.552223749878693582e+01
-1.243458124916726426e+01 1.584669362197127818e+01
-1.215068049802453487e+01 1.631229029056056135e+01
-1.195031240672434691e+01 1.661615158909161849e+01
-8.186105704522596227e+00 1.694415559889854705e+01
-1.175678633098873149e+01 1.688728690594734871e+01
-1.157884030688563648e+01 1.711168749624831520e+01
-1.124648910134937552e+01 1.749235003866098381e+01
-1.061394556863209715e+01 1.819061883499388443e+01
-1.016596635290198236e+01 1.865349382283458013e+01
-9.803366445576859434e+00 1.899634515141002566e+01
-9.541362365663305312e+00 1.920822016158859924e+01
-9.301135915085167127e+00 1.933209496242934833e+01
-9.129616633673125037e+00 1.938363660225167706e+01
-8.921368204383520961e+00 1.937914663311856600e+01
-8.295963244569335870e+00 1.622702936667053564e+01
-8.699414222162827670e+00 1.986109273430002631e+01
-8.167541862572827327e+00 1.950235643941315544e+01
-7.958775542939668490e+00 1.575941555017480411e+01
-8.899453757291476919e+00 1.571217832219888244e+01
-7.267883905021570001e+00 5.075187064115142022e+01
-7.438496645653825290e+00 5.109085573769114319e+01
-6.253839588630827784e+00 5.333918763074222369e+01
-6.571095838305432757e+00 5.330992205474923651e+01
-6.702716774425800494e+00 5.331752720905856791e+01
-6.502540841717298292e+00 5.383080388397911520e+01
-6.371888113645489682e+00 5.432904524732323637e+01
-6.425453251150023526e+00 5.457736581246748386e+01
-6.473907735160095989e+00 5.455397928231015925e+01
-6.410697594196436810e+00 5.526412213306211640e+01
-6.439738183566790397e+00 5.546048022424959356e+01
-6.490612205195896323e+00 5.571399542636109459e+01
-7.387783775970871325e+00 5.124893618075234514e+01
-6.962155649483655395e+00 5.571298992669289163e+01
-6.551947014410672843e+00 5.627370064589919707e+01
-6.693904462682820800e+00 5.642837853096894207e+01
-7.485679986312619327e+00 5.597800990950910460e+01
-7.458125258684061620e+00 5.651378299462498944e+01
-7.107142231203734895e+00 5.701554745129764257e+01
-7.823110359420250681e+00 5.653220647806373478e+01
-7.459225777341024433e+00 5.714355184433610191e+01
-7.836733549988290193e+00 5.742914732834363889e+01
-8.156702604000470203e+00 5.717787467182816386e+01
-6.849756442913307097e+00 5.144769490539064805e+01
-8.457344394482507965e+00 5.743714707853165180e+01
-8.622579776252832673e+00 5.742359457030313052e+01
-8.653810663273819870e+00 5.670513310204519541e+01
-9.158712514386170511e+00 5.710176439131026882e+01
-8.940070858398568632e+00 5.635096278994893737e+01
-9.280513122259803183e+00 5.690006415497351355e+01
-9.717547873808349834e+00 5.657916265548119839e+01
-9.938329807001053950e+00 5.632954130009937188e+01
-1.007558953027293214e+01 5.599685720809449663e+01
-9.346197201436146074e+00 5.587992390461501913e+01
-6.825030334102732077e+00 5.168792747794197595e+01
-1.034086111070275749e+01 5.570021737837974030e+01
-9.424956200204050560e+00 5.532849791473365997e+01
-9.415186370334806654e+00 5.522112520125338619e+01
-1.002376116787219651e+01 5.523005301691346602e+01
-1.028772230997874892e+01 5.482995901272686723e+01
-1.023174153968532885e+01 5.460152461386946499e+01
-1.014652567976368225e+01 5.457404985153381460e+01
-1.018179000935249334e+01 5.409612283615483364e+01
-1.011235060216918313e+01 5.388453459615677588e+01
-9.976540576807861882e+00 5.391633987496039282e+01
-6.759536951381800662e+00 5.192604841967917650e+01
-9.898106557573408182e+00 5.338810455960875601e+01
-9.878766873772736545e+00 5.292588575698373887e+01
-9.803219640977838267e+00 5.269931980955827555e+01
-9.726398106830174584e+00 5.242951057446081364e+01
-9.411251687219934325e+00 5.248716080498116554e+01
-9.244993939144450223e+00 5.205741154881101806e+01
-9.419959677075096849e+00 5.166691211661096617e+01
-9.135905318251976936e+00 5.166951485511625464e+01
-9.041231556615478837e+00 5.134635508341206389e+01
-9.143983651770890120e+00 5.101086381020801497e+01
-6.517668514840989857e+00 5.241691204649123392e+01
-9.243627020499486591e+00 5.088170993933132991e+01
-9.192286341252888349e+00 5.064021103655112199e+01
-8.749920578817940608e+00 5.036087430177365576e+01
-8.833717795306332832e+00 4.998523402410914684e+01
-8.655898876757831317e+00 4.960706527453349679e+01
-8.230015510096444942e+00 4.959695365537426426e+01
-7.924420859830922481e+00 4.959194809147699345e+01
-7.808862141631244924e+00 5.022161825912486677e+01
-7.376709309902754086e+00 4.982038280611274672e+01
-7.020786254394407955e+00 4.987311393401640203e+01
-6.455453025475530460e+00 5.260045889127666641e+01
-6.639756667242414423e+00 5.044369361848118416e+01
-6.928334213868750702e+00 5.039409256413314608e+01
-6.383741899434726363e+00 5.283492700834518985e+01
-6.292700748247079368e+00 5.308759508660615722e+01
9.679547599713600903e+00 8.761061714644207132e-01
9.582767622440478306e+00 8.773675587998478465e-01
7.245971925912295220e+00 -3.057837540730858006e+00
7.229033610841200108e+00 -3.748472069866793710e+00
7.201453543983381778e+00 -4.181889554177279145e+00
7.204072371213690928e+00 -4.757678752904167752e+00
7.287948581879536647e+00 -5.750050498242782027e+00
9.327271558016020592e+00 -1.880646660392880776e+01
9.001471207179342571e+00 -2.043680935830480649e+01
9.122147864306107579e+00 -2.129718616230938011e+01
9.529097877462321620e+00 -2.150153593857319478e+01
1.020376949590900395e+01 -2.072440013187717867e+01
9.549411050702088843e+00 6.872297115161011272e-01
3.733851976843979070e+00 -1.082708503273778433e+01
3.058612195834099268e+00 -1.015714085130182909e+01
2.655244395975111527e+00 -9.763364505503796309e+00
2.347143095373199095e+00 -9.505383514168258330e+00
1.983543040416874348e+00 -9.196486120222179039e+00
8.950534779851547773e-01 -8.825119744846885439e+00
-6.114294469873157389e+00 1.732902714235666775e-01
-6.481822090755851917e+00 9.036637684028082651e-01
-7.079186744597814496e+00 1.162936096910759387e+00
-7.641018307205166060e+00 1.662140534156049343e+00
9.215915649739617521e+00 4.929424363086751804e-01
-8.542718424946755817e+00 1.488694736715228117e+00
-8.584111192202477980e+00 5.343806832852876498e-01
-9.582476679514025264e+00 9.510781146166334965e-01
-9.466103762883166794e+00 2.597966832354272060e-01
-9.585538519515512945e+00 1.577463161497495714e-01
-9.721507752433716121e+00 4.531109767320626314e-02
-9.860375534781923079e+00 -2.344678621664036955e-02
-9.915233243505896965e+00 -1.242983233461804615e-01
-9.882266716840671705e+00 -3.322309476538585771e-01
-9.885370472378289364e+00 -4.604111727174098889e-01
8.969038399067009948e+00 2.581333551764573020e-01
-9.845774312855457566e+00 -7.256837610150076445e-01
-9.824425194983044562e+00 -1.226670683935597639e+00
-9.829678645416349170e+00 -1.570239272387021323e+00
-9.828811346563567142e+00 -2.145428311756000461e+00
-9.812225273277414672e+00 -2.559415445383917298e+00
-9.768398566941987937e+00 -3.035574005830751876e+00
-9.698502671754683391e+00 -3.461068620475616697e+00
-9.617460647411984809e+00 -3.725569317122745083e+00
-9.409241500197021324e+00 -4.182801100759706792e+00
-8.892960991678412697e+00 -4.991818430609513690e+00
8.579242415253617082e+00 -1.630869080049296149e-01
-7.849307957597124741e+00 -6.239866072278831055e+00
-2.644639698240098813e+00 -1.175792931995718149e+01
1.664154799191554179e+00 -1.829012018376588955e+01
1.920275235051291718e+00 -1.812137901328303613e+01
2.000296372063864681e+00 -1.793529975311365376e+01
2.660356753352547621e+00 -1.541661961465038289e+01
2.821264592584865394e+00 -1.486290619668679547e+01
1.022629185509133976e+01 -4.683557332775126980e+00
1.099136835847268401e+01 -3.567079108783292707e+00
1.122074783776185747e+01 -3.166438199988423019e+00
8.308322450402096493e+00 -4.865649973151020546e-01
1.133876953061317572e+01 -2.868974454934590579e+00
1.146019543460469947e+01 -2.389469542811256453e+00
1.153854323206643251e+01 -1.827243024242664493e+00
1.154038942479765062e+01 -1.380774483552885679e+00
1.149177126856179143e+01 -9.648849580210011601e-01
1.139227593686413265e+01 -6.200582662711743298e-01
1.128451003178008527e+01 -1.738789304875150987e-01
1.107053998895798053e+01 2.314133314861445689e-01
1.064994229980297824e+01 4.702724531920250972e-01
1.048491110732947895e+01 6.485248765310880348e-01
8.003806831051385018e+00 -9.020712344930106319e-01
1.018754691269062285e+01 1.002374614111792850e+00
9.916852527292290276e+00 1.056035324245539808e+00
7.879887006627085633e+00 -1.140539274385840018e+00
7.492905375298017923e+00 -1.729448671129193427e+00
2.132337914011944591e+01 1.403479800861973281e+01
2.174552814953625202e+01 1.500102707396854740e+01
1.808072885553498566e+01 1.921585725271340550e+01
1.730355599160797908e+01 1.917535071045993789e+01
1.662436815366602616e+01 1.899078259277253267e+01
1.585717605170603406e+01 1.856461916344007435e+01
1.444953288534878766e+01 1.744422887073593387e+01
1.218333847785070567e+01 1.522766181661315166e+01
4.595321061392443340e+00 5.633290583079978653e+00
4.975210769102408115e+00 5.891348235923275389e+00
5.092973894901686727e+00 5.983152734429276087e+00
6.544014564542485424e+00 7.298995321350556509e+00
2.183305295459702933e+01 1.561583777059537503e+01
7.150862838330448668e+00 7.833906988335662902e+00
1.090075195849108169e+01 1.176747530172741385e+01
1.223855514036742065e+01 1.204153046659231130e+01
1.314478719886313485e+01 1.208665196706288114e+01
1.379240613221432810e+01 1.210758685356349318e+01
1.436734252572947668e+01 1.212457582483672347e+01
1.518378610672556484e+01 1.213999343759994787e+01
1.630618458759603584e+01 1.244512590984361111e+01
1.685340578745659101e+01 1.252670291114922918e+01
1.733848008542172181e+01 1.270451390658242374e+01
2.182253457625601101e+01 1.605303852332002279e+01
1.791645839558752584e+01 1.279976413853269968e+01
1.879364221110238020e+01 1.317435965326483505e+01
1.928870827010540623e+01 1.360058081544438835e+01
1.962952943355204738e+01 1.385789168346021505e+01
2.002133256959780638e+01 1.421645197069810429e+01
2.040733989882593136e+01 1.462393391879463422e+01
2.046547871175404865e+01 1.505105762563395366e+01
2.051280611742008020e+01 1.555244619039171461e+01
2.061811415295631988e+01 1.611948506463411235e+01
2.039822307146431157e+01 1.662636413649146760e+01
2.170317578028780403e+01 1.671401328282289356e+01
2.019763567375791524e+01 1.715768359747618632e+01
1.985621941182490602e+01 1.757540809743507992e+01
1.944074194302308101e+01 1.790474663918394782e+01
1.882088152891916266e+01 1.794511469036095619e+01
1.822318256431048056e+01 1.805188966438600673e+01
1.772929061426551200e+01 1.821078561230377701e+01
1.690987864225533244e+01 1.823024265674378341e+01
1.548457518170067182e+01 1.883699607808367205e+01
1.441931551697808800e+01 1.861976405247750677e+01
1.330472275492573964e+01 1.776666002745240291e+01
2.143857076223534364e+01 1.741973386843554295e+01
1.091079748824625106e+01 1.563877546143191744e+01
8.349372436252293639e+00 1.335870528839014781e+01
2.078733475717686741e+00 7.029029864578883569e+00
1.650346873199430853e+00 6.870097922699743620e+00
1.041969119185516046e+00 7.239338240321126605e+00
1.051104983076908805e+00 7.635292159485775443e+00
3.453717131056898371e+00 9.360153725821120929e+00
6.081164195675776263e+00 9.954271785784738924e+00
1.045574723306414811e+01 1.103075518079530504e+01
1.139645070222445788e+01 1.086680179290125103e+01
2.112445551581360803e+01 1.787305889586507490e+01
1.224687662523854925e+01 1.076434040179366924e+01
1.311452803584164961e+01 1.074511758181903076e+01
1.397475132779423745e+01 1.074696192679184925e+01
1.499920178325507969e+01 1.084530213841707713e+01
1.593112790354797603e+01 1.093221596001666818e+01
1.689874800072337280e+01 1.109690421007534411e+01
1.786559013881915803e+01 1.129388386068879946e+01
1.867160683659854925e+01 1.173685161703486557e+01
1.936942470115642934e+01 1.209859203377145498e+01
2.013708571988907892e+01 1.269138603291940903e+01
2.071658480516710199e+01 1.829121657943486312e+01
2.068205965787367262e+01 1.319119094141368542e+01
2.098386247408348027e+01 1.357056978893565002e+01
2.009313193081962723e+01 1.870827792189017913e+01
1.912539753380220731e+01 1.909259560014453072e+01
-1.294287246666192548e+00 -1.402918371006513532e+01
-1.135405685243501495e+00 -1.376121984308915458e+01
3.695326644466644606e+00 -1.361114755385034947e+01
4.207725476834133005e+00 -1.294483549920157728e+01
4.674850348526867982e+00 -1.371347045417137878e+01
5.034759725157779364e+00 -1.300699226459411761e+01
5.559407918981917440e+00 -1.301362560240457711e+01
5.773505213389676705e+00 -1.376370411675129546e+01
6.341777382939617347e+00 -1.338795238302990320e+01
6.565927297363376880e+00 -1.402929047922394545e+01
7.078068551668565078e+00 -1.393588866520649461e+01
7.500009665935098546e+00 -1.431349381421750522e+01
-7.627562648273935597e-01 -1.337749463359394575e+01
8.103962417873191271e+00 -1.441756776785350169e+01
8.710055434909405037e+00 -1.453348516533710644e+01
9.179134584046304113e+00 -1.458143550715490200e+01
9.703172520204830676e+00 -1.465761928251845170e+01
1.016659091643354174e+01 -1.418600363965352251e+01
1.050489479500128986e+01 -1.384935516973954250e+01
1.050355537513848425e+01 -1.333835903476576945e+01
1.075470580545031574e+01 -1.298196587303065463e+01
1.065119837478925824e+01 -1.256358321910604481e+01
1.077124902168228182e+01 -1.218496088197603022e+01
-2.883170781757461998e-01 -1.306618919336742835e+01
1.040184427571685255e+01 -1.202594161862866251e+01
1.050755519180461839e+01 -1.161755954996518447e+01
1.034097095261884824e+01 -1.134298647320169273e+01
1.024643918330739467e+01 -1.120523293904941653e+01
1.007837930472012822e+01 -1.089405804521764765e+01
9.893171757319255022e+00 -1.088799346758882614e+01
9.625104938207918792e+00 -1.079546556270948976e+01
9.388938636253469028e+00 -1.102895268517334770e+01
9.188153329918749890e+00 -1.138709123874802032e+01
8.819460462941453471e+00 -1.118278826380674218e+01
2.064406800094798211e-01 -1.288295076421511887e+01
8.743207717973344728e+00 -1.176137354063019380e+01
8.188275643501123469e+00 -1.184755215688309349e+01
8.194359244105029916e+00 -1.252574975951469405e+01
8.134949887008776415e+00 -1.332122518715084780e+01
7.786831060626402845e+00 -1.586911740906646351e+01
8.071242195618381743e+00 -1.649823212745426915e+01
7.646067625890113462e+00 -1.703897874029061654e+01
7.103715930573367032e+00 -1.674009424013475922e+01
6.830077179873514481e+00 -1.723057014941857901e+01
6.398834608373412891e+00 -1.678879580169680352e+01
7.288626684633071617e-01 -1.283767081764122331e+01
6.101833955867221881e+00 -1.717730042864638662e+01
5.829057132114675355e+00 -1.664352124098989094e+01
5.458395155102666152e+00 -1.709717505896725243e+01
5.218181632023234151e+00 -1.653403645387010812e+01
4.917345455525315323e+00 -1.704087121597191867e+01
4.680218724108287986e+00 -1.668213469437050378e+01
4.345418573293162723e+00 -1.650533605633536283e+01
4.045939151660201460e+00 -1.693281149508527150e+01
3.729758888609052914e+00 -1.662197754489911006e+01
3.228181186364973421e+00 -1.664583835974829640e+01
1.384244885836718675e+00 -1.284488331666121930e+01
2.043202435754904123e+00 -1.642635200608996016e+01
1.262662634597384148e+00 -1.628606926518691722e+01
7.553621214714417720e-01 -1.625533260518464829e+01
1.503010205253674791e-01 -1.617616696740718751e+01
-3.648383559610614557e-01 -1.601518629201926558e+01
-6.974529903663969632e-01 -1.583650319076042123e+01
-9.231507731778830772e-01 -1.564792141792440106e+01
-1.121017002056200917e+00 -1.537929741565105068e+01
-1.279657671363995330e+00 -1.507194394685640937e+01
-1.354732156488247963e+00 -1.480332246705270016e+01
1.913586087583613704e+00 -1.315060501268620285e+01
-1.378087321937675025e+00 -1.454649596278124690e+01
-1.360840982298519908e+00 -1.428573519330764086e+01
2.602051941554192727e+00 -1.285531658741973970e+01
3.021685151375289813e+00 -1.336252041753522768e+01
6.087808778751291783e+00 2.175350527774036280e+01
6.711372824595279951e+00 2.207287821462251998e+01
1.039846893441335851e+01 1.896866712338914240e+01
9.656699669935171926e+00 1.787778458527320780e+01
8.790518262953671780e+00 1.676814089358675730e+01
7.780246351044327824e+00 1.529257967416585018e+01
3.863150536257311973e+00 1.150957532797837146e+01
1.205866165069269913e+00 4.262997646736681467e+00
9.617829312759481608e-01 3.626893992625309870e+00
2.639947379971430697e-01 2.460385929474710576e+00
4.040673568388664094e-03 2.442234371772630475e+00
-4.361935267344456690e-01 2.762057056663716370e+00
7.349055145670801537e+00 2.235125122612848259e+01
-6.975055217597915247e-01 9.241882676235007921e+00
-1.474512232080492924e-01 1.032661940118257071e+01
1.596778290814803603e+00 1.214427980730551226e+01
4.620822686215154462e+00 1.327364851794106926e+01
5.257375106895291417e+00 1.407644452048867834e+01
5.548407877424351931e+00 1.471163762255970298e+01
5.788655863401861446e+00 1.544515104250531934e+01
5.989253503474838425e+00 1.615784328232429345e+01
6.122836133141543513e+00 1.675027223105421115e+01
6.279908514908652428e+00 1.736942181060787860e+01
7.870393056003889498e+00 2.222560891792150883e+01
6.380718923128022801e+00 1.787090073439721039e+01
6.448290748511636750e+00 1.826653037286623871e+01
6.512854740736111481e+00 1.865799183335354527e+01
6.647494458646599824e+00 1.916408859433710887e+01
6.744628307667960065e+00 1.954776355256248976e+01
6.811900669977218215e+00 1.981639277316357095e+01
6.946149309260801097e+00 2.005215349186483564e+01
7.233770697466900046e+00 2.036207188201449370e+01
7.579492103241435963e+00 2.069124117894152803e+01
7.922362376432356079e+00 2.093038043304082407e+01
8.136367822785674164e+00 2.220403620720271221e+01
8.194976678049169294e+00 2.101079351683712559e+01
8.509121342867111082e+00 2.102167175695516121e+01
8.847583543078661350e+00 2.092913136351165093e+01
9.254095860210185265e+00 2.077554210374558608e+01
9.595845068900636932e+00 2.052737087724760912e+01
9.836423411966089603e+00 2.016871994029803972e+01
9.943290145000323932e+00 1.948303149195169937e+01
9.718939551252843145e+00 1.847715688008662482e+01
8.911916123908479648e+00 1.731377704092250980e+01
8.206256856785028475e+00 1.596380693284232954e+01
8.565846003279197873e+00 2.233827994546282980e+01
5.150962917770719685e+00 1.210848720866303019e+01
2.421389975699189123e-01 5.136998930893539317e+00
-3.142691721789800940e-01 4.259951757012787610e+00
-9.108375924050264860e-01 3.476551108494251530e+00
-1.054788796021177921e+00 3.404865438373865683e+00
-2.645015707900886248e+00 6.157494698367052877e+00
-1.776557180421088233e+00 8.891014359652892551e+00
2.770068186514050845e-01 1.131413030305627565e+01
3.535382005335494959e+00 1.297631679371017910e+01
4.506166162450516488e+00 1.397897781644135407e+01
9.275101507701696946e+00 2.212537301426987568e+01
4.883259853139157336e+00 1.451990418608987099e+01
5.116002765628643090e+00 1.515945581304059075e+01
5.221692820304065563e+00 1.587737126704160495e+01
5.250090889010179396e+00 1.653992325507873673e+01
5.248646520927247039e+00 1.713565569784642406e+01
5.249406560878554728e+00 1.765405376359686329e+01
5.261915316388989794e+00 1.808393860728890346e+01
5.220680401559530281e+00 1.858307506494270100e+01
5.288234536435119537e+00 1.925870671065941409e+01
5.415177083045222162e+00 1.996684973856583767e+01
1.000143629546036728e+01 2.172063517469726790e+01
5.602601809497823382e+00 2.073147732345590555e+01
5.822304077365177299e+00 2.130198514548542121e+01
1.051570096087636763e+01 2.110356080282608460e+01
1.071435648087796011e+01 2.020755468686367706e+01
2.326885823988101620e+01 1.354024595461407010e+01
2.386238398377586023e+01 1.550815365436097615e+01
1.796909443059233524e+01 2.128999100775243036e+01
1.690730782378559383e+01 2.131718608852402141e+01
1.573365380153415138e+01 2.133040029041087848e+01
1.356090377598486718e+01 1.982957883252121078e+01
1.225714914720943050e+01 1.703891520932779358e+01
1.035081621302187749e+01 1.460348617652499392e+01
9.312395992491852681e+00 1.352375044158515749e+01
-4.282297426575449428e+00 5.629358495102727566e+00
-4.284322998576956643e+00 5.626237891724344742e+00
3.447233007468472721e+00 8.081111788660958695e+00
2.388894129975721015e+01 1.649610237424932180e+01
4.951089939001203533e+00 8.652055713488536526e+00
7.012604383871411606e+00 9.136475404885981533e+00
8.519199860705374050e+00 9.042542129849197252e+00
1.093351750070750583e+01 8.457657664411408760e+00
1.230820806787228250e+01 8.351958629101774889e+00
1.313194280845718076e+01 8.285052499799526515e+00
1.430934594107527147e+01 8.245933466578868831e+00
1.544977596298341460e+01 8.297021613750402480e+00
1.658796605150367043e+01 8.440077201201985346e+00
1.747123509254865326e+01 8.610819598970868682e+00
2.365122278814354573e+01 1.756739263453790301e+01
1.843316911931025714e+01 8.875187502940363515e+00
1.938830301341090845e+01 9.205800453513109716e+00
2.027190040748730837e+01 9.601803220519693483e+00
2.131102612139756403e+01 1.016231162020937617e+01
2.230643340411116071e+01 1.100209274106952329e+01
2.302897627694136773e+01 1.187351886052610084e+01
2.364972371089831071e+01 1.296355857973188819e+01
2.394348629315027210e+01 1.412969289160327158e+01
2.424249773627853344e+01 1.523781005116508425e+01
2.416663769678244833e+01 1.693391713613625882e+01
2.317868835110158798e+01 1.850857417997306698e+01
2.381396742825483770e+01 1.830648000768314176e+01
2.321582790982581201e+01 1.935066759683884641e+01
2.238281220144362749e+01 2.022053249777395578e+01
2.133190202891636744e+01 2.094183137112723259e+01
2.007292922575550875e+01 2.143334286404936506e+01
1.878657663395042121e+01 2.167175236612183298e+01
1.774974090599245358e+01 2.171104508396827626e+01
1.681538889175163476e+01 2.161481671363188184e+01
1.489556651791722608e+01 2.102185723532667438e+01
1.313205873630668208e+01 1.904844944270092455e+01
2.260008765922104246e+01 1.930992965609131318e+01
1.151103936902715041e+01 1.647337743737377025e+01
9.664087843345935624e+00 1.440972490190488564e+01
7.898501417017231852e+00 1.253653552024589146e+01
-6.805745316290384928e+00 4.466228220446640584e+00
-6.054761063458617976e+00 4.550703505494284151e+00
2.727161261554017280e+00 8.181067271659486551e+00
4.027345161327609446e+00 8.593492857575764532e+00
5.854295629219780750e+00 9.059964715460163021e+00
9.256559361292740817e+00 8.916767151331734809e+00
1.040117774459062439e+01 8.850751287315778981e+00
2.190465469000963949e+01 2.001987862103529991e+01
1.165828016398629963e+01 8.757775645077959581e+00
1.299611994192238562e+01 8.679407976732701258e+00
1.400717536312719780e+01 8.625548456460302660e+00
1.506466735187110118e+01 8.647741200764007985e+00
1.622516640118890052e+01 8.794189223676639244e+00
1.738177824862085075e+01 9.080808200414724141e+00
1.850074924673432264e+01 9.439443485987007776e+00
1.949834414006654981e+01 9.888149560339714483e+00
2.054680383122580167e+01 1.038846203986109806e+01
2.167050276835026779e+01 1.127190006495370511e+01
2.105611863742383605e+01 2.061908011754238146e+01
2.255405004990547013e+01 1.224250989569845061e+01
2.295764026777384004e+01 1.280203730851209087e+01
2.028127156030246425e+01 2.096963565313080835e+01
1.915322678511105536e+01 2.121008676528162695e+01
1.017697399474734254e+00 -1.858443395698810230e+00
1.243183367579461018e+00 -2.742579457434354051e+00
-6.711106980776284647e-01 -7.049984629774158407e+00
-1.193433543485700410e+00 -7.119471696821781492e+00
-1.601607719086221460e+00 -6.874696666949891011e+00
-2.109535662816305113e+00 -6.804378215563141374e+00
-2.512667081615159947e+00 -6.383538255675366813e+00
-2.800287811172889718e+00 -5.837633449032701982e+00
-3.231808907059639857e+00 -5.480995188547027830e+00
-3.009927499677160778e+00 -4.956526132162433207e+00
-3.680797726171132656e+00 -4.705681068636034858e+00
-3.801943944765886485e+00 -4.319696141809827417e+00
1.514031726629312402e+00 -3.586879471404892605e+00
-4.154442575288367578e+00 -4.072639488297046029e+00
-4.337234172048898273e+00 -3.711417135131640510e+00
-4.828155224214753183e+00 -3.513114204818919450e+00
-4.677107776510537995e+00 -2.954927175323224908e+00
-5.364712119973033211e+00 -2.879051124822070928e+00
-5.284652126328277966e+00 -2.449996588394067309e+00
-5.410237678777175319e+00 -1.956668056441420278e+00
-4.792987002958627230e+00 -2.001708042243354413e+00
-4.876649939831703584e+00 -1.363016435187294428e+00
-4.375353643528399950e+00 -1.344366861058405194e+00
1.667376263471102904e+00 -4.470541317819567873e+00
-3.909906079904380771e+00 -2.209869517005375705e+00
-3.703014675396533395e+00 -1.645207313058391296e+00
-3.081104949914092117e+00 -2.326640268874339057e+00
-2.960673262579325726e+00 -1.116503344692530764e+00
-2.369678096992836824e+00 -8.979336891088172123e-01
-2.144544634273653383e+00 -1.624559101267695871e+00
-1.595923576686216094e+00 -1.140707875602799515e+00
-1.540534792857746416e+00 -1.826104524486787506e+00
-1.572222347604732784e+00 -2.566926474500262234e+00
-1.257962592876185726e+00 -2.905511941098049888e+00
2.156355448349994930e+00 -6.300658178353976346e+00
-9.323985179538184509e-01 -3.244425733545210022e+00
-8.615459638351591343e-01 -3.915148858434655210e+00
-2.625613179223174054e-01 -4.357063802199713010e+00
1.711230913192344494e-01 -4.919777374675105008e+00
1.043926318190366631e+00 -5.149933564500112304e+00
2.086414452251410978e+00 -5.290517102779702441e+00
2.878034529402919262e+00 -5.243566956580080429e+00
3.296689001731930357e+00 -4.733416277412853646e+00
3.163143963075689680e+00 -3.991029321475868308e+00
3.507802241454032188e+00 -3.366412292894610747e+00
1.538656389516920742e+00 -6.511176259988515014e+00
3.119949683123004469e+00 -2.766002247795981361e+00
3.194598937731358834e+00 -2.144206931869229393e+00
3.371101201007164150e+00 -1.818863672769878814e+00
2.863720734562511083e+00 -1.401466778464884211e+00
2.212802139078231534e+00 -1.361306005233314131e+00
2.123644577981567583e+00 -7.127592251731417194e-01
2.328772851071872374e+00 -3.783708087728696046e-01
2.945332318848325137e+00 -4.588350168088164982e-01
3.004067302822182484e+00 -4.147527917802973363e-02
3.683184292319354292e+00 -2.046573841328898358e-01
9.643133227025247889e-01 -6.474804881365013642e+00
3.822556196758699620e+00 1.890263976242655131e-01
3.930794799998656774e+00 5.673349835026023635e-01
3.824107511628214606e+00 1.011822746977797172e+00
3.379284871539280477e+00 9.577807977616862312e-01
3.251605909289682739e+00 1.381786702162058678e+00
2.806519196179930731e+00 1.313479158620741050e+00
2.560199080119372805e+00 9.008393558194841555e-01
2.141321215707142400e+00 1.046072755370704543e+00
1.760939191414510496e+00 6.164671396964213068e-01
1.270621621808880830e+00 3.196843179679871305e-01
6.224723088403324445e-01 -6.975609529970917322e+00
1.081571462841784292e+00 -2.970954469385242436e-01
9.691517858375168215e-01 -1.012113052073689845e+00
1.092435687799768740e-01 -6.630633747232240083e+00
-2.145167033193393358e-01 -7.106103472599959225e+00
2.916002831078042146e+00 -2.120165863907877934e+01
2.562600959367524744e+00 -2.139187326981199178e+01
4.653601312530214251e+00 -2.205962502301444417e+01
5.071388027001796139e+00 -2.165620226995950048e+01
5.628077019615298049e+00 -2.153066176090764827e+01
6.298918489900295903e+00 -2.158343718494407071e+01
6.836274583275494088e+00 -2.166085404866348796e+01
7.350132945760034175e+00 -2.180157998125400454e+01
7.979299196719654930e+00 -2.199553035837728032e+01
8.287528063722366056e+00 -2.253698598863228852e+01
8.462891701987631521e+00 -2.259215515872171665e+01
7.924154396631312380e+00 -2.344053537859205250e+01
2.239460420561768306e+00 -2.164254003330686871e+01
7.419393255213944549e+00 -2.397320486622581015e+01
6.681138815437652312e+00 -2.448361699102079569e+01
6.040677486228720028e+00 -2.479180350744600503e+01
5.228748570049608801e+00 -2.505149069328951228e+01
4.585980934022818367e+00 -2.514472873139812492e+01
3.945142471179994281e+00 -2.522573678087155002e+01
3.600187502012563989e+00 -2.506921410368616421e+01
3.182494978455685075e+00 -2.500247738455095003e+01
2.835450813584319274e+00 -2.483346577308945058e+01
2.411888984634707356e+00 -2.458176124296958776e+01
2.131390660301505591e+00 -2.204549754809814388e+01
1.967945998461687163e+00 -2.440629736963434482e+01
1.518168755873025466e+00 -2.405788662975955816e+01
1.068118775520176644e+00 -2.379597246732347671e+01
7.047340546392026894e-01 -2.345167601502678778e+01
4.706784913407188742e-01 -2.317785542316561376e+01
3.587896317012814751e-01 -2.284211484549603810e+01
3.228570978679034531e-01 -2.261085325839398763e+01
3.283730649703932580e-01 -2.223706634902291412e+01
4.266124471193250001e-01 -2.176722144251271729e+01
6.596585636849136014e-01 -2.116671627393127153e+01
2.315717172857254980e+00 -2.232205213144791855e+01
1.015607127358355122e+00 -2.064599430945387226e+01
1.318049056644094996e+00 -2.042233631452905129e+01
1.785178429611858020e+00 -2.018616381085950096e+01
2.376763457705847404e+00 -1.996894700161785252e+01
2.970777145697901744e+00 -1.985856250642390108e+01
3.622299596055694515e+00 -1.985066986361038133e+01
4.279521764584416132e+00 -1.993106687938236377e+01
4.985073810869221411e+00 -2.008770267976820278e+01
5.678939303962531326e+00 -2.025598586420963443e+01
6.191699753045170063e+00 -2.036777095586561614e+01
2.559308532908385114e+00 -2.263441790255633634e+01
6.780153725595328140e+00 -2.058915454888144936e+01
7.222640919550273431e+00 -2.077870645794472892e+01
7.637731014063970925e+00 -2.105654209992147585e+01
8.014668806126524103e+00 -2.139305762251134269e+01
8.204796404309838920e+00 -2.187691368533606351e+01
7.949146945087028904e+00 -2.246559226760275152e+01
7.677676044508418229e+00 -2.279309646089998154e+01
7.031138105384714621e+00 -2.335926001358142656e+01
6.200730701681615997e+00 -2.372072016220015556e+01
5.487177285655339354e+00 -2.403804761711386107e+01
2.815958555938012253e+00 -2.309776104081807446e+01
4.877774810480868695e+00 -2.400577654510704662e+01
4.263887857794027347e+00 -2.394570256645063111e+01
3.920918561080130260e+00 -2.389598033331093774e+01
3.817136940261924405e+00 -2.359006828734674244e+01
3.796038927797848572e+00 -2.332911461830305555e+01
3.822862300182146456e+00 -2.297497167942926666e+01
3.859387857751968465e+00 -2.270814154907787241e+01
3.907390217456859105e+00 -2.222437818226622852e+01
4.076443758686787433e+00 -2.170710659163482603e+01
3.990362007594804972e+00 -2.136463879550046840e+01
3.259819015704865208e+00 -2.277152405475433383e+01
3.345729477557088938e+00 -2.140008068025401400e+01
3.032377808097339145e+00 -2.128753685131828277e+01
4.240624984842075840e+00 -2.273882223465725616e+01
4.259924838820126958e+00 -2.260042504561272736e+01
-5.111119197757461041e-01 2.246057958433488366e+01
2.950721457698581851e-01 2.296067354023694307e+01
3.070982565402961662e+00 1.780036707457050937e+01
2.882474157831243389e+00 1.642371992954349835e+01
2.589084826211450086e+00 1.493233335037200860e+01
2.192028787061988560e+00 1.307441469593816130e+01
1.860062387772407400e+00 1.100055785092390437e+01
-1.242674770022311526e+00 5.930217831009684026e+00
-2.511704046164224380e+00 3.321238806391113574e+00
-2.817931426491514291e+00 2.382464261235994751e+00
-3.430892368344687249e+00 2.953447601725485150e+00
-3.195559707721554066e+00 7.559932390375008637e+00
1.317915192172174343e+00 2.336354309165576382e+01
-3.059434851023140833e+00 8.499117194907217510e+00
-2.474609212100451927e+00 1.072471583704621523e+01
-2.023484042993185295e+00 1.178156665031773365e+01
-1.589584273545005866e+00 1.261622163721648704e+01
-1.117187053369388394e+00 1.377200177468511733e+01
-8.155509564393348398e-01 1.480847398728115216e+01
-5.566859580652213646e-01 1.578914866557556351e+01
2.254018090777814287e-01 1.673237852894013500e+01
1.724070578509310225e-01 1.758411079748633199e+01
1.281228414520044767e-01 1.827166826197075622e+01
2.111721506193638742e+00 2.332543953724255914e+01
7.798177164118062776e-02 1.885395650828507641e+01
2.219382021222883195e-01 1.935140055381646107e+01
1.451659687655185715e-01 1.988928621008631126e+01
-1.612991010628481506e-02 2.051980401170272117e+01
-8.773126368770595152e-02 2.112504855643933155e+01
-3.027369871767117138e-01 2.152739324773214236e+01
-8.049510769462965565e-02 2.177998710466495069e+01
4.559916235655389616e-01 2.215860519797787020e+01
1.055605753441991146e+00 2.257777378931134749e+01
1.585235310464969682e+00 2.265396349257235187e+01
2.719002992217233405e+00 2.302506736400600218e+01
2.072370575984762375e+00 2.240122464827508608e+01
2.464648687996521925e+00 2.197980370971696118e+01
2.594224160691385173e+00 2.139940925167342911e+01
2.617657842721815342e+00 2.077441029822701779e+01
2.672510793077737645e+00 2.005020718351136466e+01
2.695518847259071649e+00 1.903117006906437680e+01
2.725103919073913694e+00 1.801998683826547776e+01
2.676758639122366557e+00 1.659994559322254304e+01
2.432316184287167449e+00 1.493164858557162056e+01
2.269027797170459770e+00 1.378066085431725618e+01
3.222518820310407150e+00 2.253807116008494660e+01
2.130935598908514361e+00 1.160323370548744926e+01
-6.140410741346974399e-01 6.691892609527832825e+00
-2.264699295429310144e+00 4.253564357818480524e+00
-3.120460765931196701e+00 2.066370667613776302e+00
-3.687082685616865252e+00 2.422444477704456034e+00
-3.567151497542557781e+00 7.326685596509753040e+00
-3.205678502148849418e+00 9.555640047462130582e+00
-2.768139347395722982e+00 1.058058782727112934e+01
-2.218759667619719433e+00 1.152455086836367570e+01
-1.501313599830236267e+00 1.265997009650172345e+01
3.418644107975341129e+00 2.189645175151651912e+01
-7.534951442709514335e-01 1.378586435751980233e+01
-2.882865509899826262e-01 1.472417734731713068e+01
7.878112876648499241e-02 1.572200978420323914e+01
-3.881934424743923029e-01 1.670496743961343000e+01
-6.826457357707228502e-01 1.746946997385985156e+01
-8.904267161446735024e-01 1.819860872380126793e+01
-9.131646455159811993e-01 1.881414786835069819e+01
-1.107282847016324068e+00 1.933411614310113080e+01
-1.026111261283589426e+00 1.988715755636185278e+01
-1.121965662311210199e+00 2.057004114628928804e+01
3.472101851060111599e+00 2.108354663803082829e+01
-1.030849763406457287e+00 2.148545909239140528e+01
-8.287228063006853995e-01 2.212918948203829572e+01
3.402655444970651644e+00 2.021141184390671341e+01
3.247072119184286620e+00 1.916190174793906209e+01
