1.384984730419942345e+01 6.040608067393688430e+01
1.384967473077052169e+01 6.040578236948913116e+01
-2.692520771290722337e+01 4.261143571491685655e+00
-2.677487130298228379e+01 4.871802861200148271e+00
-2.667513000824222047e+01 5.374763928413324621e+00
-2.661026607201554839e+01 5.914788751757179774e+00
-2.649346912654006303e+01 6.446639582454334771e+00
-2.628924079256893620e+01 6.961064038761874961e+00
-2.586846851517536194e+01 7.446584524662996252e+00
-2.522123668541676977e+01 7.766238411619491799e+00
-2.464413838751903540e+01 7.710033531728849532e+00
-2.417839275629097173e+01 7.684220947820938008e+00
-3.093418231011789743e+01 -2.506546676307359434e+01
-2.375361258140672049e+01 7.408136893322080141e+00
-2.338428279464741877e+01 7.073606470936865342e+00
-2.292717144961571663e+01 6.691271476606013735e+00
-2.241227292269106997e+01 6.119264346376580122e+00
-2.202114271675228352e+01 5.559167166964894768e+00
-2.154921594641983873e+01 5.144454395103408295e+00
-2.140697844640554237e+01 4.473226923506931740e+00
-2.091921792980523165e+01 4.245796538585246083e+00
-2.066307484924875837e+01 3.623175617343690647e+00
-1.051914441515797982e+01 -3.090937838909389335e+00
-3.074925954185789223e+01 -2.497183894561066708e+01
-9.844302803023230908e+00 -2.937097942349183199e+00
-9.296327643781724603e+00 -3.425600100320922436e+00
-9.617666465218542626e+00 -3.971921215478887657e+00
-8.983179984628602455e+00 -4.043284053141155354e+00
-8.752056898109835004e+00 -4.343389035922000652e+00
-8.972242602061376360e+00 -4.713471348427168195e+00
-8.737420461126260918e+00 -4.844661956339881392e+00
-8.776130966450111259e+00 -5.101609879954486892e+00
-8.927172351533968708e+00 -5.285605013352682846e+00
-9.413591184087398034e+00 -5.292410958284641254e+00
-3.044496271544432631e+01 -2.481748161410454401e+01
-9.695766116421140168e+00 -5.609746304620442103e+00
-1.018873148174122001e+01 -5.331376878420227783e+00
-1.054795005836674271e+01 -5.722063423671802873e+00
-1.120812897535079955e+01 -5.373271075707489075e+00
-2.552931082881456604e+01 2.829235695342910972e+00
-2.553859746979043877e+01 3.620030405028733966e+00
-2.536034256245625684e+01 4.213386249060258493e+00
-2.568228221120323340e+01 4.763864792438146090e+00
-2.548960839512448473e+01 5.266988715424180789e+00
-2.576123510554647567e+01 5.795902544536660095e+00
-3.024963874506908823e+01 -2.471672909486411385e+01
-2.555754672476544442e+01 6.179028685631053008e+00
-2.574086159120512463e+01 6.643365126718836500e+00
-2.537076408151746421e+01 6.885520252997522128e+00
-2.522550693756398488e+01 7.177038702717945640e+00
-2.469047874099792494e+01 6.964409737334323225e+00
-2.451341776780501647e+01 6.721605756992803826e+00
-2.408030950951923899e+01 6.482286899902955923e+00
-2.376751814342336999e+01 6.138060508728386822e+00
-2.335230622408609236e+01 5.649349411106687313e+00
-2.302376910203443217e+01 5.121481810060614315e+00
-2.755549899449038520e+01 2.677347062041743442e+00
-2.277624280564694814e+01 4.550779738303011079e+00
-2.244247493797052684e+01 3.983867256563444759e+00
-2.221389745491812207e+01 3.420943953063804610e+00
-2.211466180191517594e+01 2.959097040089048836e+00
-2.193439373927494884e+01 2.416735897518352161e+00
-2.192787672009522737e+01 2.019520297394471697e+00
-2.186805214921663421e+01 1.574758860094007451e+00
-3.208265731844473123e+01 -2.527836240621553898e+01
-3.182377391785807319e+01 -2.533706777374350239e+01
-3.165318159620483840e+01 -2.533456692034183888e+01
-2.741523600352272538e+01 2.978504922128540233e+00
-3.153451198301330649e+01 -2.532599397709438094e+01
-3.142842445104707139e+01 -2.529883810802306243e+01
-2.723595764402604047e+01 3.403851739897215900e+00
-2.707825191729654790e+01 3.751069930861107071e+00
-1.395452314411547512e+01 5.719611161740613170e+01
-2.515908418068057983e+01 -1.378816278731926381e+01
-2.808438756715765194e+01 -1.499517786553714238e+01
-2.855742448749378326e+01 -1.507321467213795074e+01
-2.906721808400716611e+01 -1.509969164280052389e+01
-2.972054672836932809e+01 -1.523125346747987230e+01
-2.893118434590048338e+01 1.213146841041150914e+01
-3.000992119736126540e+01 1.247604049704257712e+01
-3.108253862003095946e+01 1.225417870886867888e+01
-3.157002516676275405e+01 1.205174349434749459e+01
-3.183606343812640560e+01 1.182878349808782659e+01
-3.232339977714378421e+01 1.113861436772830160e+01
-2.548688983554906073e+01 -1.404131824049642852e+01
-3.264440588127959586e+01 1.019768165153775819e+01
-3.303199178865352792e+01 9.263598362597594615e+00
-3.305117395575030059e+01 8.482812780835446986e+00
-3.311073841855683497e+01 7.680195544652153039e+00
-2.528580115870300560e+01 -7.872621680308665937e+00
-2.530141812615704922e+01 -8.281617010739914519e+00
-2.535236567906496674e+01 -8.789503160557627481e+00
-2.535199398258950509e+01 -9.243752800834569072e+00
-2.538767946608122728e+01 -9.848214181774700648e+00
-2.537968840700570539e+01 -1.029076354033953677e+01
-2.565551574390238443e+01 -1.429278520515948614e+01
-2.540762521512159466e+01 -1.088943936963544346e+01
-1.486103824622210290e+01 5.900632774840511985e+01
-1.448979794577611102e+01 5.881730393611651664e+01
-1.434212727229249928e+01 5.837289554711302486e+01
-2.523625617498468543e+01 -1.221634602965463756e+01
-2.513618974538055539e+01 -1.256094784130269382e+01
-2.500509481942735590e+01 -1.297413532875332187e+01
-2.508045428848266312e+01 -1.329658854756603326e+01
-2.557392554602376578e+01 -1.342542083643680328e+01
-2.593439360240228098e+01 -1.354389792399732251e+01
-2.598044709032603805e+01 -1.442970453832738364e+01
-2.624289497316657105e+01 -1.363769035925917272e+01
-2.653906975461715589e+01 -1.371829590195765824e+01
-1.523377614395293911e+01 5.647075076085549483e+01
-2.702602216470423357e+01 -1.382166083826139591e+01
-2.743446511160968271e+01 -1.391519682650477208e+01
-2.790653382359617041e+01 -1.404399447384358979e+01
-2.851800095565056381e+01 -1.414999934533176251e+01
-2.915954454288372233e+01 -1.425071405945016423e+01
-2.989599713507248069e+01 -1.436922810839153186e+01
-2.917488803705079903e+01 1.131379658788752884e+01
-2.620637412433361035e+01 -1.463774677265146273e+01
-2.996453280134721808e+01 1.157642323512859051e+01
-3.095337923245357814e+01 1.186547469438162139e+01
-3.142590969543821089e+01 1.178115070444593826e+01
-3.171109648871001596e+01 1.161206390864976790e+01
-3.206290715484016829e+01 1.122610905770076428e+01
-3.236659452784045499e+01 1.061654570128821895e+01
-3.238220290583677752e+01 9.625299317393732679e+00
-3.232112096504312859e+01 8.636341243317328775e+00
-3.238932296541292999e+01 7.825142399969147178e+00
-2.587597241890633271e+01 -7.550117484868353657e+00
-2.653331482349672044e+01 -1.475235414300041192e+01
-2.587415587325560651e+01 -8.261709813637279964e+00
-2.585528917186668352e+01 -8.630877317086783407e+00
-2.585809687651878974e+01 -9.271486095880039358e+00
-2.590490989018180557e+01 -9.708033622398303919e+00
-2.598110725267808974e+01 -1.022865792640046223e+01
-2.604119553359361205e+01 -1.071762195978005749e+01
-2.607656004650356252e+01 -1.108499885473259816e+01
-1.532185136661505176e+01 5.846826612775448240e+01
-2.602633573457768179e+01 -1.173155761801358388e+01
-2.614944956429565437e+01 -1.209326831176463379e+01
-2.686271643024880618e+01 -1.464424799507864350e+01
-2.592662509497286294e+01 -1.240366522023445306e+01
-2.576544280880491300e+01 -1.268726611750573241e+01
-2.723767632562351082e+01 -1.479887133626406914e+01
-2.758667731548777269e+01 -1.488814179903893731e+01
3.728486333372542649e+00 5.985672106949784421e+01
-4.026267457012886553e+01 -1.869141598716074881e+01
1.287236226334771629e+02 -7.160885285929593636e+01
-4.082923825245851646e+01 -1.653901907463665921e+01
-4.063161078290253414e+01 -1.618843528952369226e+01
-4.052940743784886024e+01 -1.580914116272789549e+01
-4.015828538682028181e+01 -1.602389898707636107e+01
-4.001374381217757303e+01 -1.582490522975706249e+01
-3.973021908754447651e+01 -1.629594867184478346e+01
-3.957279038821970829e+01 -1.629212017886203157e+01
-1.459611396239298697e-01 5.841831233330228201e+01
-3.940707568245009185e+01 -1.575406278732318555e+01
-4.018174942381232739e+01 -1.851131522495492021e+01
-3.927183220142802611e+01 -1.609839200643497392e+01
-3.968408539556045866e+01 -1.503788212127633273e+01
-3.916876238195811766e+01 -1.582458334968496416e+01
-3.960761107688317395e+01 -1.528366940858416534e+01
-3.896716461299696022e+01 -1.539306000378086381e+01
-3.977710414903118163e+01 -1.505337953861158518e+01
-1.053670919894981184e+00 5.811768858386040648e+01
-3.921622835151340780e+01 -1.484637245365132330e+01
-3.891523979583136850e+01 -1.454802219285023490e+01
-3.912210357530255322e+01 -1.467925743354052237e+01
-4.021235144241783388e+01 -1.831379605959829604e+01
-3.868878260454562934e+01 -1.470988606772077745e+01
-3.883498404925951775e+01 -1.420299823803856576e+01
1.513786868016085236e+02 3.677442658335544223e+01
-3.848440089102159334e+01 -1.389283234188862437e+01
-3.841060209963907823e+01 -1.342507013941643912e+01
-3.837956677051118248e+01 -1.371935777426777570e+01
-1.319337918577483615e+00 5.631886587382062004e+01
-3.824070976786956777e+01 -1.330675628197367999e+01
1.505769606899571045e+02 3.649011019285888580e+01
-3.779541159198729616e+01 -1.353920731232646801e+01
-4.036463238582826563e+01 -1.817072632913443897e+01
-3.790796131867041652e+01 -1.299201497112346715e+01
-9.906474767956483518e-01 5.568219238873793842e+01
-1.555520887723276013e+00 5.500089976925605839e+01
-3.755074288929341009e+01 -1.270591106776160473e+01
-3.730758624456746020e+01 -1.319399311334416147e+01
-3.721274878836877775e+01 -1.267849415594158557e+01
-3.716908740064327077e+01 -1.301023092415208282e+01
-3.717024835947965045e+01 -1.239590521304101856e+01
-3.683612778158791912e+01 -1.259972928687268734e+01
-3.662332271966138819e+01 -1.279314862765801486e+01
-4.070185014571452342e+01 -1.802752898416543204e+01
-3.658385161219487003e+01 -1.301730353669999296e+01
-3.659676683401281849e+01 -1.334463026931590868e+01
-3.659910946900819795e+01 -1.363100005402458947e+01
-3.634322476255571388e+01 -1.340533394058636851e+01
2.853585453327620591e-01 5.536817483185567568e+01
-3.646592797397129715e+01 -1.420535944989162047e+01
-3.613325422285475241e+01 -1.451508703766331188e+01
-3.618001670308759543e+01 -1.462050782587234643e+01
1.262220008953395478e+00 5.637692312629427960e+01
1.351468365855422515e+00 5.651378464421809866e+01
-4.084480052109432791e+01 -1.782533589236970784e+01
1.453545716320676862e+00 5.664712701833800423e+01
-3.733672430506685203e+01 -1.713913585808664664e+01
1.720768152335155454e+00 5.706156276110609582e+01
-3.810384203786835400e+01 -1.791047369667874634e+01
-3.839087103168762383e+01 -1.817426636602627354e+01
-3.900363424663364498e+01 -1.841895317021447198e+01
6.504390172431685357e+01 3.595289846683460411e+01
2.611730002091957381e+00 6.029931916799786507e+01
9.003372125941510262e+01 1.373424833293427696e+02
3.120961667557091701e+00 6.029330704463762913e+01
-4.108970986402995607e+01 -1.763310988153093817e+01
-4.149533702399497770e+01 -1.845507732468307083e+01
6.735095204554460224e+01 -1.390118862258159993e+02
-4.112017504675132784e+01 -1.736136663288406723e+01
-4.114165559349599022e+01 -1.705134711340653197e+01
-1.845355184791642955e+01 -2.278353205313317531e+01
-1.864325758557134094e+01 -2.307016284030326148e+01
-1.487047794703168080e+01 -1.428209661302301647e+01
-1.513256297354775626e+01 -1.452630164155717019e+01
-1.536432876206211340e+01 -1.490465809463237967e+01
-1.549747143215894951e+01 -1.521950224330566925e+01
-1.562526958717744918e+01 -1.554600367067764921e+01
-1.569682623548334810e+01 -1.588077758184506294e+01
-1.573195438931143819e+01 -1.623326050141330867e+01
-1.585138674104714163e+01 -1.651125963848485512e+01
-1.594112165565207384e+01 -1.679952141525181020e+01
-1.628299336413261145e+01 -1.688671865451343734e+01
-1.881118753469556282e+01 -2.331886566031806751e+01
-1.638138193003685927e+01 -1.710861593679670278e+01
-1.660023273677696309e+01 -1.728911914571056840e+01
-1.639997007672955576e+01 -1.759790033962895706e+01
-1.645735480358958114e+01 -1.778992091093336114e+01
-1.624716573037908418e+01 -1.803657528120485409e+01
-1.577232240669861341e+01 -1.836648991782618623e+01
-1.413734781348305702e+01 -1.922020407156804112e+01
-1.395845504569818907e+01 -1.965118874472885935e+01
-1.373993446286230657e+01 -1.990582621754552761e+01
-1.341555025789238087e+01 -2.013575554015458025e+01
-1.902883673710589818e+01 -2.362913365895292728e+01
-1.296629333240692361e+01 -2.037119398817782923e+01
-1.250751731752362339e+01 -2.053573811082132750e+01
-1.216016699450599248e+01 -2.058413620700262925e+01
-1.194182695148997553e+01 -2.055947337768233751e+01
-1.174220188937153786e+01 -2.048748382510100541e+01
-1.157708004082840070e+01 -2.037103200543017678e+01
-1.141719488542389627e+01 -2.019317518750836982e+01
-1.129029130438569162e+01 -1.995048992873140392e+01
-1.117992466283921438e+01 -1.958801228095125424e+01
-1.113781850241509019e+01 -1.918405123200235707e+01
-1.922078381653196999e+01 -2.389528851264395115e+01
-1.115881576666581942e+01 -1.876088069767316213e+01
-1.124970773306911198e+01 -1.830002034925922061e+01
-1.143403128495275567e+01 -1.772194050809989818e+01
-1.171213461201014816e+01 -1.710820603558984487e+01
-1.201236988245717008e+01 -1.659693767658048102e+01
-1.227302461463570893e+01 -1.622954205988588683e+01
-1.266190324851429416e+01 -1.607301206331455390e+01
-1.307060086150140776e+01 -1.592766650742374424e+01
-1.356920009410825578e+01 -1.597551226057149343e+01
-1.403633131964357617e+01 -1.615367915454888958e+01
-1.938398196354776104e+01 -2.411478760088993312e+01
-1.438799023831201573e+01 -1.643267094032226083e+01
-1.459110590148393705e+01 -1.672367414006229325e+01
-1.470179924228002832e+01 -1.710218330806299747e+01
-1.498818273037703008e+01 -1.723525591296781201e+01
-1.447796544568541144e+01 -1.767527233618931248e+01
-1.501096914696201523e+01 -1.769538126420718527e+01
-1.487512962857697119e+01 -1.805293819180413450e+01
-1.480060220376129898e+01 -1.836796983746607737e+01
-1.485122208231737240e+01 -1.869539033945185125e+01
-1.493780846678640728e+01 -1.910931193335847311e+01
-1.335901827146128085e+01 -1.307532953980823365e+01
-1.533626931017125727e+01 -1.923116437145608515e+01
-1.573275615455628795e+01 -1.942284915328175643e+01
-1.624479690688912470e+01 -1.957506908549085622e+01
-1.671731308739305888e+01 -2.001274208013022715e+01
-1.706092789578695701e+01 -2.049315736145609179e+01
-1.735165394594046617e+01 -2.094625900718968126e+01
-1.755699721932696988e+01 -2.128081832508266658e+01
-1.773386854520443734e+01 -2.158156319274396040e+01
-1.789967966023009538e+01 -2.186201339064460925e+01
-1.804967030538519523e+01 -2.212246119808969169e+01
-1.349594437780140410e+01 -1.322657398546775731e+01
-1.817185414403881438e+01 -2.232907391481884929e+01
-1.831574263383238232e+01 -2.256424511823746926e+01
-1.378799236956210628e+01 -1.352015122910855816e+01
-1.433944107477120156e+01 -1.394222673510645372e+01
6.479543069789303722e+00 1.139850693320255992e+01
5.829141349009630879e+00 1.150887027750033731e+01
8.396885394780202461e+00 1.839766968190916074e+01
8.192617394241988649e+00 1.784900288014525316e+01
8.099115615750285713e+00 1.701031548688412443e+01
8.081581948338882881e+00 1.597858845212095069e+01
7.617719414702267322e+00 1.457141267424123043e+01
7.341595043609106419e+00 1.332916013131992905e+01
7.149384960802889211e+00 1.287129191632525860e+01
6.858810355770912359e+00 1.249364799927955261e+01
6.261083176623244206e+00 1.259853915981161521e+01
5.664503457178883927e+00 1.280947179814708292e+01
4.848332090002489103e+00 1.193379955913984780e+01
5.061120264043327488e+00 1.317620720753709840e+01
4.242661105817212785e+00 1.339232130683178923e+01
1.023709975830673891e+01 2.098074372313988434e+01
1.015974200488557244e+01 2.028508162896324052e+01
1.008835894693787871e+01 1.975222386511191885e+01
1.003208229021933384e+01 1.929992011419675535e+01
9.902871580826705156e+00 1.904224141280747773e+01
1.000230469693198643e+01 1.873081091603861381e+01
4.158842691531748348e-01 -3.679703915977614059e+01
9.498218123935695090e+00 1.775801681582956704e+01
4.069961343212269433e+00 1.254782185699020935e+01
9.070785451755169149e+00 1.712288455862821124e+01
8.817224026331089703e+00 1.630300864745002798e+01
8.370009980148127582e+00 1.431570076542385372e+01
8.138808357532353099e+00 1.327862509863084561e+01
7.776774647975551957e+00 1.236273451278207602e+01
7.074398356064200755e+00 1.177118533223368324e+01
6.427413003824063331e+00 1.167887741295040982e+01
5.749364875904605654e+00 1.184315133913580453e+01
4.904464654279550473e+00 1.235219997807040926e+01
4.230622810556595503e+00 1.293452488365922726e+01
9.576566920398907001e+00 2.134478687325119495e+01
9.419101527393944906e+00 2.162127786340322544e+01
9.278578191296221078e+00 2.089802029622606838e+01
9.075663612632196120e+00 2.047649189280946658e+01
8.909801078815116071e+00 2.009198486576327980e+01
8.770704007718418183e+00 1.958655586925485181e+01
8.648886582137418344e+00 1.923805724301675113e+01
8.526769305404018340e+00 1.878459408106350992e+01
8.428747122880643872e+00 1.829002541166531159e+01
8.341350665107801987e+00 1.743430296368181942e+01
8.021270327172326020e+00 1.637358030780028528e+01
9.342225457491020180e+00 2.075009425692181608e+01
7.691554981875638575e+00 1.497050564048524279e+01
7.441811626045795158e+00 1.379337154914719754e+01
7.164623820956941280e+00 1.317691049452363394e+01
7.009354170923664640e+00 1.239769286595741171e+01
6.550690077008930245e+00 1.215495697445940237e+01
3.019884584987805098e+00 2.572811682210783957e+01
5.415608983210226768e+00 1.249247906001163955e+01
4.661270463382218843e+00 1.356788823836501123e+01
1.004105375481962703e+01 2.131671368136517231e+01
9.270300687011419427e+01 -1.061709993356675596e+02
9.064064773724766155e+00 2.025410433218100081e+01
9.700144235368986401e+00 2.018478097169419527e+01
9.594282341686561466e+00 1.960459507574513438e+01
9.527341569303573010e+00 1.926822755454822556e+01
9.457217970266492912e+00 1.896624411219186612e+01
9.302181470914266725e+00 1.861615096879318898e+01
9.237515130290809395e+00 1.821166198192495500e+01
9.017397493324992297e+00 1.746058367699391667e+01
8.816952277283295558e+00 1.659035194205247521e+01
8.314766105487242598e+00 1.481344313306944116e+01
8.107538482409507807e+00 1.289847972135468446e+01
8.905133731245649997e+00 1.965051680416467761e+01
7.648493197926368836e+00 1.188495115741872254e+01
7.289531211765560847e+00 1.158256662432857453e+01
8.689539510448112125e+00 1.922879065088944728e+01
8.550699589539506817e+00 1.885282447351486468e+01
-1.933643146608334806e+00 -2.104968422396235272e+00
-2.001700833965208037e+00 -1.553779745089034714e+00
-9.415117097446894512e-01 -2.753483049620464307e+00
-1.250451641306934425e+00 -3.093759017307285752e+00
-1.117277094964364892e+00 -3.174526128931332458e+00
-9.421511706385657936e-01 -3.280442256247002142e+00
-4.444779419239998641e-01 -3.578177658120880178e+00
7.550425276728010715e+01 -1.180058004829644034e+02
-2.050471574776028816e-01 -3.665163210343793221e+00
1.335772514149350873e-02 -3.913610731946865151e+00
1.175763925844767466e-01 -4.022338871054082610e+00
-3.191028301722974359e+00 3.160800011280065291e+01
-1.793964181728491258e+00 -2.013338583338750709e+00
-5.160178580007177690e-02 -4.458249082733920510e+00
-1.350614048417360102e-01 -4.637736677299506560e+00
1.164912898406112590e-01 -4.876008916472279964e+00
-1.716676473380093770e-01 -5.102185987562101843e+00
-1.529375501156894288e-02 -5.354203551559495011e+00
-1.883346849398011003e-01 -5.702883195250871395e+00
-2.193614389878434101e-01 -5.848534433955053125e+00
-1.802529813608668430e-01 -6.070677203159307922e+00
-3.162733609791733569e-01 -6.179564148082293151e+00
-3.326583811864504137e-01 -6.523727506327038128e+00
-1.620229596977493580e+00 -2.151850170767596993e+00
-3.330658603944390839e-01 -6.454853955440349011e+00
-4.365461370421760412e-01 -6.790594218810062976e+00
-5.960224166395745593e-01 -6.820453459626624415e+00
-7.063081538640163526e-01 -6.997258424987391479e+00
-8.495074613490197768e-01 -7.170360357142745222e+00
-9.819853277564150051e-01 -7.255105478986362044e+00
-1.146619651843578946e+00 -7.298160523854770432e+00
-1.139954372063042065e+00 -7.350275449935581129e+00
-1.377007648469418033e+00 -7.459601018600932498e+00
-1.562885156936452580e+00 -7.483306545112358599e+00
-1.410875093724394125e+00 -2.010290356291904779e+00
-1.760034136691964068e+00 -6.986868536202686109e+00
-2.021194408283800481e+00 -7.381568281095364448e+00
-2.147141153438375749e+00 -6.885034952154049925e+00
-2.444057381216796276e+00 -7.261954090458441868e+00
-2.739182562645477326e+00 -7.268621928495166529e+00
-2.632012802954571740e+00 -6.681857368888587168e+00
-2.880396170463658478e+00 -6.820679007260724624e+00
-3.205532043706615930e+00 -7.001295440453001007e+00
-3.379042621682119663e+00 -6.861481638029920838e+00
-3.337222115277916235e+00 -6.570549221331970280e+00
-1.226799601359763958e+00 -2.096170840580483752e+00
-3.591518285475619798e+00 -6.504084109386711887e+00
-3.373710850976614051e+00 -6.110213993414586930e+00
-3.621169907622590056e+00 -5.926351750171474642e+00
-3.449330137699535559e+00 -5.616373360631847333e+00
-4.029751886891631329e+00 -5.666904580503636879e+00
-3.775090722045070901e+00 -5.213792128037962215e+00
-3.628704066966868425e+00 -4.749265294804241755e+00
-3.341481327512072941e+00 -3.643162370752793588e+00
-3.504788837842313765e+00 -3.313141565634309949e+00
-3.126784775142570805e+00 -3.364382594781575531e+00
-1.133488768996468110e+00 -2.102471905296311228e+00
-3.226571211074474643e+00 -2.716961359347046301e+00
-2.799121341497465831e+00 -3.219766550671537164e+00
-3.336355924453367372e+00 -2.007187518554723660e+00
-2.544569818183573862e+00 -2.896089533115950410e+00
-2.818097929651991240e+00 -2.338644454679022378e+00
-2.341105511549341323e+00 -2.849641590486130749e+00
-2.724731748496497463e+00 -2.064055215649223562e+00
-2.258718249785427901e+00 -2.812062698670205307e+00
-2.583016284913695060e+00 -1.979907229857911233e+00
-2.562356923819031351e+00 -1.855601786567318889e+00
-1.480174919900914876e+00 -1.541221378201901526e+00
-2.386608716316839018e+00 -1.846556269545451379e+00
-2.266323649692089326e+00 -1.467410324117005116e+00
-1.219256192552993001e+00 -2.394070395704546605e+00
-1.200390430753934146e+00 -2.486556531856377372e+00
-6.386804107163448663e+01 -6.058022276412440021e+01
-4.420538039166620337e+01 2.981365591114607838e+01
-4.155122163330963048e+01 2.950317039050136714e+01
1.261057069130897617e+02 -5.603271132171238733e+00
-6.129192351121312043e+01 -5.876151481563313439e+01
-1.097749530058314349e+01 -8.006321152815819175e+01
-6.213908636458445756e+01 -5.842323347456084548e+01
-1.086749602336203857e+01 -7.946042196864702589e+01
1.260416562883594622e+02 -6.544738519044816627e+00
-6.193065735758738555e+01 -5.910894624355145766e+01
-6.318730312117331493e+01 -5.832636830874390910e+01
1.253642245096571770e+02 -6.998985128448324211e+00
-6.330605254099216239e+01 -6.079928207893534164e+01
-4.234755146043929130e+01 3.115197743838968947e+01
1.253105251648447336e+02 -6.899051388710074839e+00
-4.192904141197139012e+01 3.092964397427249068e+01
-6.246363204595758134e+01 -5.790878358321749175e+01
1.248964201634342430e+02 -6.694098873626669999e+00
-4.146594574357549590e+01 3.093336631280215698e+01
-4.157803734620569713e+01 3.154338714777653507e+01
-4.125815425516616841e+01 3.121773000201383397e+01
-6.186148896045831691e+01 -5.741378350395461183e+01
-4.108115081860044171e+01 3.156427687677338767e+01
-6.306366720573574014e+01 -6.092655639940938528e+01
-1.166724171687691580e+01 -8.153361440564829365e+01
-4.068304425353732512e+01 3.165363423647158925e+01
-4.062218970695938935e+01 3.140402406767308108e+01
1.221902336072193123e+02 -8.166589988643234932e+00
-4.006143974936350105e+01 3.201405110703291967e+01
1.224925533381169203e+02 -8.855476102073319922e+00
-3.853847956790894358e+01 3.241638226239828668e+01
-3.960546660224564874e+01 3.224466232609992034e+01
-3.867469976251466335e+01 3.268536198613445976e+01
1.210017487546717234e+02 -8.833821223920352850e+00
-8.623397536439723510e+00 -8.165666821849222856e+01
-6.643618014024859519e+01 -5.599558924225106438e+01
-3.803779920749020960e+01 3.332181459939616275e+01
-3.864940184484549235e+01 3.304855076089619814e+01
-3.821953318379425468e+01 3.307492289756979886e+01
-3.821093018896802107e+01 3.364724552021634452e+01
-3.903345815198101576e+01 3.321786568691596386e+01
-3.883027316464209378e+01 3.343130682291928935e+01
1.211126467995651552e+02 -8.116308803027784791e+00
-3.862036615534368877e+01 3.377161411760199883e+01
1.205705551913114277e+02 -7.877765624503837216e+00
-4.256003623704567218e+01 2.854518997943921121e+01
1.205048131240581739e+02 -8.313002169579601031e+00
1.211724500416991219e+02 -7.421523236415847435e+00
-3.917864278663887490e+01 3.393076759573556700e+01
-3.976860125803055013e+01 3.357177392426088147e+01
-3.965246720434009120e+01 3.346076625980964536e+01
-4.004895789075946055e+01 3.379354745973736129e+01
-3.994638796156510097e+01 3.387897101325285121e+01
-4.025018757158780858e+01 3.375433773248895619e+01
-4.055236335870044684e+01 3.386822452960527841e+01
1.229374250977027430e+02 -6.334857697432096479e+00
-6.203579020426936097e+01 -6.080279225221633510e+01
-6.335513555621432147e+01 -5.644809779934075777e+01
1.231763543337699360e+02 -6.121873458724853556e+00
-4.229182134956074890e+01 3.265677315629934441e+01
-4.254466248422469477e+01 3.298348487286225605e+01
-4.297697965960374944e+01 3.242850454997974907e+01
1.243687181521347327e+02 -4.949416923840749050e+00
-4.373766978157801333e+01 3.212192181575310457e+01
-4.405276049453428300e+01 3.188489904184944024e+01
-4.427728840972247326e+01 3.161016365326214128e+01
-4.440497189012689461e+01 3.141247276424081392e+01
-4.227876367585528783e+01 2.886349004097371562e+01
-4.440740536020315687e+01 3.108268876294276239e+01
-4.439384853229929462e+01 3.064917845199379443e+01
-4.192230502076102994e+01 2.909441168675161649e+01
-9.530363999912362161e+00 -8.031733259733671559e+01
5.113836382821020266e+01 4.698309598956513611e+01
-9.689306320169929165e+01 1.106486620027810517e+02
5.776853004141241144e+01 1.532894066592961622e+02
-1.114552419826561334e+02 -4.819104830279331253e+01
2.526288758912696153e+01 -1.020093716702894255e+02
9.776450805895557039e+01 4.775383839240672756e+01
9.822044840508834795e+01 4.789419814333138703e+01
2.585954500580562154e+01 -1.014935448373314131e+02
1.643310002636593481e+02 -1.618754750136801368e+00
-1.112495147293918478e+02 -4.679352323744989661e+01
1.637015883604941280e+02 -1.911147121827518891e+00
-1.117383620060677316e+02 -4.741514173393453291e+01
-3.628348317474524265e+01 -7.299138572774704414e+01
9.772840057733557728e+01 4.680422653100811914e+01
9.770780392417610472e+01 4.656654302855053373e+01
2.692496432210265667e+01 -1.028583277095835911e+02
9.774249928302251078e+01 4.539179714644438235e+01
4.528159988947003001e+01 4.610641692953693394e+01
9.766396337662737892e+01 4.511609028771573549e+01
-1.872491468583633889e+01 -5.748254048612148637e+01
-1.872506212232221046e+01 -5.748275000569366711e+01
-1.099676673125383672e+02 -4.562312436167085394e+01
4.548013081111098899e+01 4.675347300918809168e+01
9.883415718751129475e+01 5.026033197768509808e+01
-1.037412059965857054e+02 1.018701882485260342e+02
-1.090972624236186306e+02 -4.597178639707360759e+01
2.759131156024496789e+01 -1.043426000779313227e+02
2.763168974114827137e+01 -1.045588057888885487e+02
4.794145806251220421e+01 4.643974993902298820e+01
4.830202018076406745e+01 4.645559861001739677e+01
4.850131832649372399e+01 4.646194698355900954e+01
-1.074628572210504274e+02 -4.703712955595469936e+01
2.746157634715135742e+01 -1.060768613416088897e+02
4.819320895261737547e+01 4.599044936307180365e+01
2.361681632424066279e+01 -1.020811212892101167e+02
-1.073794592188487513e+02 -4.733773129974112237e+01
-1.064942847479140084e+02 -4.712226316045933316e+01
2.694305298625254963e+01 -1.065272208938778391e+02
-1.064099112401238045e+02 -4.761188778276365241e+01
-1.072395054478100462e+02 -4.769603581945966653e+01
1.019512026528717001e+02 4.632584511566335550e+01
-1.069224129045454958e+02 -4.666562321598867413e+01
-1.079549537702239093e+02 -4.663051632422109805e+01
1.022281440282626477e+02 4.707517806538816529e+01
1.022048633206359085e+02 4.729427837736707829e+01
5.081386740959681703e+01 4.733095158802179725e+01
-1.081913201720026052e+02 -4.698580732084683831e+01
1.644547094955910040e+02 -5.134414025859657116e+00
-1.076786932973522113e+02 -4.827403033573941116e+01
1.017886055177636422e+02 4.813768126452810492e+01
1.016833506418889073e+02 4.853857783106877122e+01
6.176293549114251391e+01 1.528542593469632322e+02
2.569126569913261449e+01 -1.052817170416860932e+02
1.011508377866660737e+02 4.922110021631688426e+01
4.950403508314524714e+01 4.601353948354095280e+01
1.010250766087252430e+02 4.915807912896850240e+01
9.834626261036667927e+01 4.963107720498483388e+01
-1.086113771162614654e+02 -4.875690472107920925e+01
1.007558247706684540e+02 4.790865897518690986e+01
1.007244122348718491e+02 4.836743525050036396e+01
2.453461633287385979e+01 -1.049505466518282049e+02
-1.091778152076809931e+02 -4.900267792515873566e+01
1.003079758264944132e+02 4.802618616567136201e+01
-1.094688982991578854e+02 -5.005917031490818658e+01
9.960470381725542666e+01 4.972153634322602755e+01
1.000758563541444346e+02 4.949267157225181535e+01
-1.093021440669907633e+02 -5.057602949743622389e+01
1.115415141470442109e+02 -9.796953698921356590e+01
9.916036260921994483e+01 4.968216153707969340e+01
-1.095229375664756333e+02 -5.193138049855129168e+01
9.811821009753894884e+01 4.903470757607790631e+01
2.440654077018575308e+01 -1.019209430488098178e+02
5.304004285857354972e+01 -3.179655270331194572e+01
7.377603802677522538e+01 8.802894151903736031e+01
4.934643485194540347e+01 -3.106948593389469693e+01
4.860929447723585639e+01 -3.075951230910262169e+01
4.792238385301105552e+01 -3.064617199089696342e+01
4.735385477384706121e+01 -3.084938337244911111e+01
4.709483003727104489e+01 -3.123735727426848641e+01
4.686169409390658558e+01 -3.152277969903255794e+01
4.678088372702353581e+01 -3.189210978054881807e+01
4.670956347212021598e+01 -3.224185522690622463e+01
4.688104299416647791e+01 -3.256136948073433501e+01
4.703529942909560191e+01 -3.282182840793319656e+01
5.274071863269223570e+01 -3.152304339455559656e+01
4.714798649048047707e+01 -3.315924615115842755e+01
4.676575108192677988e+01 -3.328585402282705275e+01
4.674108189915207845e+01 -3.358832046037159103e+01
-9.827964113631978194e+01 5.231484454105086002e+00
4.801091745533695132e+01 -3.444098783826785137e+01
4.890312224507659522e+01 -3.476469789601701166e+01
4.951957998465703525e+01 -3.499454592243601780e+01
5.007898040925799421e+01 -3.523418265117234682e+01
5.049813142930440080e+01 -3.543191253198667567e+01
5.084801019100550690e+01 -3.558557732604853641e+01
-1.136861456413685900e+01 9.680009744469727195e+01
-7.963204712162904819e+00 -1.271252883758061358e+02
5.159255818106400682e+01 -3.580507384075378496e+01
-8.295657678850799854e+00 -1.275295386638840256e+02
5.221892826306313395e+01 -3.577865638298383999e+01
5.246703852937020685e+01 -3.560902920237958824e+01
5.259012601192016234e+01 -3.545328070124942599e+01
6.846060468132147037e+01 8.606164462139278726e+01
-1.227103677751512478e+01 1.109882378579797830e+02
5.224513158409737201e+01 -3.478685638017901738e+01
-1.302902252200445616e+02 -4.077219671021696357e+00
5.220341925778354408e+01 -3.144712911444511860e+01
5.165041844451017994e+01 -3.462033675932972443e+01
5.106114072648027502e+01 -3.439290097615909048e+01
5.101993304814924812e+01 -3.436378842179680504e+01
2.063635855020562460e+00 1.078027980950489990e+02
4.963857818826060253e+01 -3.315534642877041449e+01
-1.084022320352537960e+01 9.260659405322942916e+01
4.774607821605923874e+01 -3.279810785077061297e+01
4.778268730708821010e+01 -3.279732526457709696e+01
4.800702503281124933e+01 -3.282658388824727780e+01
4.765057031678348665e+01 -3.251207624226626791e+01
5.184710809486718830e+01 -3.149282603904461197e+01
4.800321481596732553e+01 -3.267538295280986915e+01
4.764068657659844064e+01 -3.231803387890423096e+01
4.778035505477016187e+01 -3.230822210045100462e+01
4.814189128652436267e+01 -3.238118162166816916e+01
4.813980795505219845e+01 -3.234237368998362427e+01
4.777499961714962495e+01 -3.210027647059759914e+01
-1.177575288215798466e+01 9.229833440965212787e+01
4.793005102685786767e+01 -3.199011659143435793e+01
4.780471805348594216e+01 -3.193240270004639569e+01
4.813392323637601322e+01 -3.198604768342842064e+01
5.142423788707613141e+01 -3.144015728137114607e+01
-1.211726937038491947e+01 9.268438318753689487e+01
-1.175734687354541919e+01 9.301624545479259609e+01
-1.149649713949027863e+01 9.358507505361650658e+01
5.094427803184623116e+01 -3.275347633175962869e+01
5.143189934933886320e+01 -3.260745492319775707e+01
5.170925147819991707e+01 -3.250093251343202638e+01
-1.156713243513425482e+01 9.556709069575441617e+01
5.214361268559680695e+01 -3.247707604802232595e+01
5.253298738155844205e+01 -3.248166167547744720e+01
5.283868399139836924e+01 -3.238701050719223673e+01
5.105511349262541643e+01 -3.143494795325757352e+01
7.653286697248482540e+01 1.003305926739542002e+02
5.297765970419468573e+01 -3.206823200815517794e+01
5.052153471658596118e+01 -3.128543782374724458e+01
5.003833645210094971e+01 -3.112671473906205577e+01
6.786563148860768990e+01 9.413315038123269574e+01
6.506579063263244223e+01 -4.941887104256165486e+01
-1.215385228549665726e+02 -3.454441396342664561e+00
4.479008692225145438e+01 -1.668948433108622353e+01
-3.036965079891578512e+01 -1.460238176141799897e+02
4.154242607467378434e+01 -1.725491231331100295e+01
4.039737629140007869e+01 -1.761751303695234583e+01
3.924957225748919853e+01 -1.770263561715688283e+01
-3.334453366215828218e+00 2.151758306862563863e+00
-2.191407726542044188e+00 1.118660624357622035e+00
-1.781111808346341085e+00 9.054109989172158812e-01
6.341640083189573396e+00 1.216436801548709035e+00
-1.612782864086070234e+01 -1.317018299610515157e+02
7.722372097215508546e+00 6.718155615873817599e-01
4.117407339666299748e+01 -3.673709092089210770e+01
4.075990222494659321e+01 -3.812224131245988445e+01
4.052750028806802618e+01 -3.890771290035444707e+01
4.030508177521558366e+01 -3.960876065037338378e+01
3.998952564879338922e+01 -4.006336974104076631e+01
-1.566909956365976875e+01 -1.204627958087125847e+02
-2.289344613843692144e+01 1.112545816316375209e+02
-2.265885794804086473e+01 1.116668406455964515e+02
-1.538903471914493970e+01 -1.226306051735031133e+02
6.604587788705764240e+01 -4.954079999945957979e+01
5.814789981955422604e+01 -4.631898100531922324e+01
5.904241088316926778e+01 -4.653442412886194290e+01
7.164661152869408056e+01 9.453099485590972506e+01
-1.724026168725502117e+01 1.174102318351925760e+02
7.090848175671636966e+01 9.460067385864007861e+01
6.263756418939804860e+01 -4.869447198484587602e+01
-1.596486424950216865e+01 -1.301893753206845190e+02
-1.488633210623397076e+02 -1.973021307440492222e+01
6.702821801396507340e+01 9.367306247839034938e+01
-1.504812908624572287e+01 1.224875147201885568e+02
-1.476885382131397648e+02 -1.746708975389156038e+01
-1.479852148164846959e+01 1.227686373674591067e+02
6.347286075661709503e+01 9.197362695913263053e+01
6.292335773639788243e+01 9.171003372169326440e+01
6.242944484487679802e+01 9.151604470069680985e+01
-1.178032367186492735e+01 1.260804248187778143e+02
-1.215885921353509929e+02 -3.533258730671140047e+00
-1.215648006002364383e+02 -3.479420997968564411e+00
4.459167106813573866e+01 -1.676666617595932252e+01
4.376615310249786717e+01 -1.713261881444820034e+01
4.112549423750284205e+01 -1.762843342182009820e+01
-1.411837946910717676e+02 8.592883963831448924e+00
4.015212913844545994e+01 -1.765144353656630827e+01
-4.424836878748442892e+00 3.313056629108688700e+00
-3.118986918149300180e+00 1.936906890851120444e+00
6.937574760345459168e+00 9.376241563130927048e+00
6.929790315776076071e+00 9.371639893348243433e+00
5.985822844317697289e+00 1.430776408256486443e+00
6.857490439124158677e+00 1.043181871073667555e+00
4.162993834502722734e+01 -3.631401649262229370e+01
4.109145046277032520e+01 -3.757799506394272271e+01
4.070948332566271688e+01 -3.857709328992304876e+01
6.989312748703304123e+01 -5.044282890111774975e+01
4.034793549550236236e+01 -3.942476012839012611e+01
4.006996982650033345e+01 -3.998664113855702595e+01
-1.573223861065280360e+01 -1.204085957360538259e+02
5.496465689788902154e+01 -4.616336661174221945e+01
-1.496375798223580489e+02 -6.210787414844435972e+01
-1.593638632436902824e+01 -1.224819117261036183e+02
5.842687541676982477e+01 -4.646829504604383487e+01
7.218620575803302586e+01 9.439734199035493134e+01
7.167289918279068672e+01 9.453424596465654872e+01
-1.499979465401559935e+02 -2.220033539960003921e+01
7.057245921507977471e+01 -5.054502470607068432e+01
-1.461328355707167361e+02 1.222839520663632662e+01
-1.570626634092070084e+01 1.184858434437394550e+02
7.112851306031041076e+01 -5.055773765279032972e+01
6.114784078218792018e+01 9.067111925716081089e+01
2.427536476824089107e+01 7.125984241948740916e+00
2.411696957264240737e+01 6.669923930534282341e+00
1.990198161478242511e+01 1.023601518980108871e+01
-5.245998632861603994e+01 6.503972587845312603e+01
1.949874108416732099e+01 1.064288323432256078e+01
-6.429366775269249601e-01 1.593879296317620664e+01
-5.574756287326297910e-01 1.614769836403605296e+01
-4.184332846239508519e-01 1.641766922011278140e+01
-2.434624758053200444e-01 1.678959815771573005e+01
1.089057861558009876e-03 1.721530165411992641e+01
2.395650955254219061e-01 1.762840338398382656e+01
4.457754867863788495e-01 1.792430290023461836e+01
1.463434335980485734e+01 -6.627675158629486418e+01
6.877823770959744509e-01 1.827141793585428786e+01
9.249610067052989049e-01 1.860899572161586590e+01
1.059918160912656671e+00 1.880092977369272944e+01
1.236773677939289495e+00 1.908419601257669029e+01
1.450633091944815156e+01 2.768442455676325409e+01
2.697736620002944896e+00 -4.814889072716827911e+01
1.483461164577994040e+01 2.777819766606922869e+01
2.700600669834019474e+00 -4.815426899894302437e+01
-8.379592174366032964e+01 -1.378283523199378635e+01
1.527870474110990884e+01 2.784812240539877237e+01
2.439609890990769259e+01 6.692138100469165352e+00
7.748901021444889636e+01 3.520729809881710537e+01
-9.361146004107432361e+01 -6.791988901233231957e+01
-8.393694123897289217e+01 -1.210938755336320583e+01
-8.394146148402759877e+01 -1.205830969282372500e+01
6.585710313217451706e+00 -4.567199109250237399e+01
1.153731529601514438e+01 4.269632321903922723e+00
1.174706640148342096e+01 3.195855282823793608e+00
6.495357310032981779e+00 -4.558793741160420865e+01
1.283886630147286390e+01 3.234669951342222127e+00
1.892080204869088433e+01 2.803129130297612548e+01
1.453464351115642650e+01 -6.641300813153270610e+01
1.278844340880436725e+01 4.363161873798640400e+00
5.707744610469535296e+00 -4.532270804449900226e+01
1.846679027764666614e+01 2.754866360859325169e+01
5.283246160431317229e+00 -4.519997634130557884e+01
5.056730955628970570e+00 -4.513154403393512126e+01
1.734057140238666861e+01 2.631746795607522316e+01
1.728106809206177275e+01 2.624474988465807712e+01
1.166997044537076178e+01 1.244678876613776630e+01
1.191834791657635861e+01 1.251162030169417427e+01
1.216910151394600348e+01 1.255289421062182065e+01
-8.667938802812030019e+01 -3.173383696349305438e+01
1.254009844538324714e+01 1.258973450483969891e+01
1.299059540308237359e+01 1.260551484899994001e+01
1.348322125258891191e+01 1.259095102815427225e+01
1.396239573175408388e+01 1.252874853197983995e+01
1.436793411735585302e+01 1.244843039091759884e+01
1.514875174063438124e+01 1.225485816298355957e+01
1.558368422333374959e+01 1.212970563803817647e+01
1.591159575306570773e+01 1.202945442070755533e+01
1.635251579999906824e+01 1.188751167336442904e+01
1.660516853202358689e+01 1.180339118781020424e+01
2.060048907462737233e+01 9.763447913712623105e+00
1.681600798729353841e+01 1.173192693500097583e+01
1.698739123413817964e+01 1.167142633152030129e+01
2.187725681333429861e+01 8.030562061149639774e+00
2.235428644550098909e+01 7.670740657595098710e+00
2.268108901011170175e+01 7.417484652888728824e+00
2.295181147324669979e+01 7.202478952040448412e+00
2.313269474464097186e+01 7.053184036530929291e+00
2.328615962623221947e+01 6.928644250071093857e+00
2.339871080527765912e+01 6.841697032212356255e+00
1.516983267967752269e+01 -6.553898617065907217e+01
2.025020840356343044e+01 1.001660284971590364e+01
2.330858592287538400e+01 6.275854864001594535e+00
2.396398167460475648e+01 6.228397398633275905e+00
2.024142528992089396e+01 1.031489870880609061e+01
1.969823982672223650e+01 9.929428205389930540e+00
-1.065588831035021542e+02 3.790246936620466300e+01
2.862517872632445304e+01 1.197979347924123630e+02
6.910709025937043748e+01 1.730973979835534804e+00
-1.087682723691559374e+02 3.848973363304421724e+01
2.872594290765858460e+01 1.178618208622447838e+02
2.883593318662176230e+01 1.175250540579163356e+02
-1.095326987253624225e+02 3.876869604080594911e+01
-1.096972936450861908e+02 3.881325198038394575e+01
6.703511470159558883e+01 -3.286377471801797512e+00
-5.010307554669379471e+01 -1.041596686591415590e+02
-1.103577184707291536e+02 3.901372392281822243e+01
6.765398118716397846e+01 -3.989744993541287865e+00
-5.526263626304564980e+01 -1.072050651523611577e+02
2.978043838570619428e+01 1.155027575263910506e+02
-4.978443423169644433e+01 -1.047312502747807201e+02
-4.937659603456564383e+01 -1.043321209224709492e+02
3.053120589122279682e+01 1.153594398154583160e+02
6.869365099715842859e+01 -3.985220833345768821e+00
-4.888996869820805102e+01 -1.047282574972689702e+02
-7.257607385123120025e+01 9.778700883064752247e+01
6.566371408513707308e+01 -9.107271662365494080e+01
3.126774895036165702e+01 1.147699903059285589e+02
-1.124291275577921283e+02 3.795559161741967102e+01
6.522593984674257683e+01 -3.134277222238396332e-01
6.969319717738206066e+01 -3.646541337837081453e+00
-4.846772856337690172e+01 -1.055422191686160431e+02
-1.124615494626180237e+02 3.720349799982616190e+01
-4.893360698018169330e+01 -1.060329316131022921e+02
3.215089980729143804e+01 1.154196752254131439e+02
6.485629448684582599e+01 -9.187672986459848801e+01
3.204267363979877814e+01 1.160865289112676493e+02
-1.116490266603127282e+02 3.645434053262012242e+01
3.259426738799763257e+01 1.162236673643754159e+02
6.980962409430502191e+01 -2.350529726530638186e+00
-1.075056647940869681e+02 3.806098440393778048e+01
-4.934583360401677510e+01 -1.070711508176861884e+02
6.978339912716400306e+01 -1.632513474924726982e+00
6.911751532802178133e+01 -2.028208464746549922e+00
6.920899266406730987e+01 -1.480328063882436318e+00
-4.921925178951584456e+01 -1.078244165704594337e+02
3.233300443117866507e+01 1.173454184252318839e+02
6.300825945039611042e+01 -9.226272746458698748e+01
6.866542808870050862e+01 -8.706296797656239983e-01
-1.099819610527461577e+02 3.552108749967792534e+01
-1.099994399904455236e+02 3.554145964384844802e+01
2.850714856130981545e+01 1.188411481706651642e+02
-1.096587153786965558e+02 3.557704073501680142e+01
6.779532668149086305e+01 -1.821318244002818054e-01
3.103749541250818922e+01 1.193972322257012166e+02
3.093695745449327106e+01 1.195098897495471704e+02
6.743694720823030764e+01 6.686406634428851414e-02
6.717702807880505134e+01 2.565471529054902944e-01
6.696180621854725246e+01 4.319035976958899292e-01
-1.079471152001038092e+02 3.598161822039052282e+01
6.672989827216036929e+01 5.630066984306002498e-01
3.013331001058864089e+01 1.204979106251034295e+02
-1.081099393328728979e+02 3.829857078698339734e+01
3.013279392859300287e+01 1.204795770657457297e+02
-1.070199491644377758e+02 3.580710056866947610e+01
6.626884135208756277e+01 1.427384500024696301e+00
-6.732898351318873154e+01 1.026761453911089461e+02
6.573817460700455229e+01 1.402285643020306116e+00
-1.061443432209944433e+02 3.673601023110651909e+01
6.524635775862438436e+01 1.380870083134785542e+00
-1.067974529948474611e+02 3.694314410892591383e+01
-5.518794563142543552e+01 -1.082875128742958708e+02
5.913253141556300108e+01 -8.631585831593000080e+01
2.848681647287977015e+01 1.183037472860121682e+02
-5.449851789189509077e+01 -1.078702773957438836e+02
6.507055812013889806e+01 4.567500814240674778e-01
-1.084280347593893765e+02 3.840836603841989927e+01
6.609965854407604979e+01 -2.087951709904308117e+00
3.071135590500715651e+01 -9.814137445225798118e+00
3.065675324277573921e+01 -9.839928760336487557e+00
-1.102953424451340503e+01 5.157903235379398765e+00
-2.345383622397075385e+01 3.570303773200989639e+01
-2.358253226333405905e+01 3.555991617196534804e+01
-2.371630179085760304e+01 3.541232979361589628e+01
-2.401535263196665326e+01 3.508644863021201132e+01
-6.350509062851015329e+01 -5.097446591026286455e+01
4.377749773402950240e+01 -1.444491768465654786e+02
-6.557087200272309246e+01 -6.901894559691952225e+01
1.233981440966540788e+02 1.920036761837838002e+00
-4.231457506807189617e+01 2.251964537287850376e+01
3.058829458410258084e+01 -9.816735890959709110e+00
-4.331378508748527878e+01 2.276854825729070697e+01
-4.396084742310146254e+01 2.284995142876050522e+01
-4.427022823081301084e+01 2.286991696292663079e+01
-4.452554622520658967e+01 2.288220664563099760e+01
-1.604121043423355530e+01 4.375489373640666813e+00
-1.579621920287023862e+01 3.599883223321826975e+00
5.626847614634952199e-01 8.758485819393923677e+00
6.659521740490613739e-01 8.225039890344852722e+00
1.082932451054135603e+00 7.909235318042981966e+00
-5.965809380406644991e+00 2.323318181754676814e+01
3.030345843454217558e+01 -9.917495370240859032e+00
-6.262069234231391057e+00 2.242669419575227963e+01
-7.131412869503546581e+00 2.299564071845012947e+01
-7.252118209436898333e+00 2.192337606321604682e+01
-8.778006347675682264e+01 -7.626359298483582450e+01
4.691783221535757775e+01 1.006442727554442484e+01
-8.502938634553112252e+01 -2.591154737020393561e+00
4.692035845954725204e+01 1.004664476765365322e+01
1.992962622730731681e+01 -2.971437095236393233e+01
-8.750849004486720162e+01 -7.645253662987572341e+01
4.692599624529957225e+01 1.002604562710081382e+01
3.003867493969861258e+01 -9.990242184230908151e+00
1.917488014627084780e+01 -2.952932641370953348e+01
1.876776555808255154e+01 -2.942921439851125953e+01
1.852914504258069783e+01 -2.937140927651419631e+01
1.815049513177694607e+01 -2.928002632131268257e+01
1.787016773006720172e+01 -2.921329809766693941e+01
1.754332524641625213e+01 -2.913510284603356837e+01
1.719909132849118905e+01 -2.905287224266101731e+01
-7.565258429078497215e+00 -4.226083393580271519e+01
-1.482364999843552589e+01 -1.208763271418794805e+00
-1.485562298528209801e+01 -1.187281886103715545e+00
2.956895487897874730e+01 -1.011688015463749224e+01
-2.469110026681951098e+01 1.327979849505315713e+01
-2.521897456242071200e+01 1.353851778867891653e+01
-3.012818163211182920e+01 1.625149224967955064e+01
-3.005697111919771203e+01 1.633258917559241397e+01
1.211263159251336958e+02 1.055853410458906083e+01
-2.792354598645858132e+01 1.710159844412642727e+01
-2.774282756697508390e+01 1.699145050216016983e+01
-3.149247405767822272e+01 -2.121485906850272940e+00
-2.009247948456733468e+01 -3.241620630552105808e+00
3.282233598697319366e+01 -6.056411785035715312e+00
2.924109376039634967e+01 -1.021157266606513758e+01
3.273562190451948339e+01 -6.267630657813483275e+00
3.257568789289518207e+01 -6.650982067901022532e+00
3.234513952208597232e+01 -7.195443126409263535e+00
3.215410556766650529e+01 -7.627630488983554891e+00
3.199088157201287075e+01 -7.978821096635396515e+00
3.184674844921309145e+01 -8.263197631508395702e+00
3.171540028395022404e+01 -8.567123764999575286e+00
3.153503059861827751e+01 -8.892532595407638851e+00
3.127940005262931322e+01 -9.212546957302878425e+00
3.116862219157120251e+01 -9.365361041741085302e+00
2.883244993829656977e+01 -1.033440072082927408e+01
3.102712449183280086e+01 -9.634410047303427760e+00
3.088514971777786045e+01 -9.745469084791093195e+00
2.864045405254825738e+01 -1.039364307753835881e+01
-1.111252636091589707e+01 4.207885065171411476e+00
-1.445050481077011106e+01 -1.299496796111940853e+02
6.450741247613669316e+01 -4.827101444802696051e+01
7.131851544993956793e+01 -4.914917714635652146e+01
5.943525747478386734e+01 8.882980573224486420e+01
4.575596398284148592e+01 -1.607901098176776600e+01
5.879320911747403500e+01 8.830828733531107844e+01
4.277483829161609208e+01 -1.809014134004501173e+01
4.230225827802971139e+01 -1.846931700898525719e+01
-7.595744729071547852e+00 -1.176112736809561099e+01
1.178020150376659192e+00 3.361204198510685970e+00
1.188883091767840794e+00 3.366857117299403068e+00
4.583206384907934705e+01 -3.919557991379900841e+01
6.472626357455631307e+01 -4.831515744188702399e+01
4.554200071071916511e+01 -3.939059864496982044e+01
4.456519081787178038e+01 -4.009331808675008091e+01
4.411740841399487323e+01 -4.043198817333946238e+01
8.202887370716874216e+01 9.707446087672748547e+01
5.545686921738834485e+01 -4.773028436471538072e+01
-1.416779447764408850e+01 -1.205651671742130304e+02
5.635307939686804701e+01 -4.750164222920920309e+01
5.702214628109280170e+01 -4.775829691454098480e+01
5.732150944863634123e+01 -4.780075451242547047e+01
5.759878722133658613e+01 -4.788901979900135331e+01
6.595327297303605008e+01 9.230718003427040230e+01
5.794009350265393721e+01 -4.795972696064708174e+01
7.060323248795593543e+01 9.294619648319635985e+01
-1.796650810237561302e+01 1.190835547805773302e+02
-1.790199493610946746e+01 1.191309183241561698e+02
6.912161023677633409e+01 9.317264065098198955e+01
6.338851019009102572e+01 -4.965630050934191786e+01
-1.681210185904071963e+01 1.201735152551973869e+02
6.796247579440860420e+01 9.261728399227082775e+01
-1.444280732746792495e+01 -1.324128163061909049e+02
6.742847995949712470e+01 -5.016117263032226248e+01
6.575205739014901951e+01 9.221899081177048174e+01
6.789455809141735187e+01 -5.016205466952668957e+01
6.380362421626383451e+01 9.040562351657125362e+01
-1.377519253548092593e+01 1.258663968205105874e+02
-1.352716258967446983e+01 -1.360224631092976892e+02
-1.213124002985434373e+02 -5.302897524520798989e+00
-1.213204494330514507e+02 -5.182111992145956414e+00
-1.632603275948223143e+01 1.058079484559398651e+02
4.397060401071592395e+01 -1.566369210405971835e+01
4.316215162591466026e+01 -1.602442648521119395e+01
4.230205843855830494e+01 -1.634271015384964088e+01
6.525524434315875055e+01 9.196293322236984125e+01
3.979546464760526447e+01 -1.637242533941527967e+01
3.842832738229813572e+01 -1.611006610609711487e+01
-1.907504375026130905e+00 4.067467431993102345e+00
-1.778699279050169002e+00 4.081385547915288292e+00
4.421600120301961034e+00 3.223967470215669540e+00
4.618625751056653961e+00 3.108862135065008303e+00
8.822374598813667035e+00 1.680467689184690139e+00
4.420825899617970833e+01 -3.757685195636848619e+01
4.276878612776658883e+01 -3.972274301182262235e+01
4.236489007933540307e+01 -4.014218813997072033e+01
-1.571463847873859798e+01 -1.344065823442071235e+02
4.206514927604637677e+01 -4.044794820903147325e+01
-1.033457371661994131e+02 -4.768202737995562934e+00
5.565083395427869561e+01 -4.483879375820078650e+01
5.594177508152171185e+01 -4.500852298362431014e+01
5.625582474027697799e+01 -4.516511883167519414e+01
5.665082591573187187e+01 -4.531655906914037502e+01
-1.535611085533646758e+01 -1.243829150655646885e+02
-1.522566676686548170e+01 -1.248185013835779529e+02
6.029048354515271768e+01 -4.748831771000736524e+01
6.099197478583617027e+01 -4.780828651600782564e+01
-7.360137682618470478e+01 -1.226826679208538309e+02
6.973425362500016433e+01 9.495058826961525256e+01
6.174238563512469824e+01 -4.829451661357343539e+01
6.462606267259585024e+01 9.118351581389373450e+01
7.110092824594541128e+01 -4.925957192497327952e+01
-2.255916200751741840e+01 1.910220841767376143e+01
-2.283270631701741138e+01 1.910494238206437601e+01
-2.778151503601031536e+01 1.950781574521578676e+01
-2.840684497942578091e+01 1.957675147332994214e+01
-2.836124242889108160e+01 2.022472151522920925e+01
-2.894200870328715425e+01 2.009239407837790736e+01
-2.909646189569457064e+01 2.047868211347971723e+01
-2.901303437097219273e+01 2.095734081028944473e+01
-2.946443948523365819e+01 2.112695054184700183e+01
-2.946730575064920998e+01 2.149448506299765072e+01
-2.948198153798396248e+01 2.184862749833233408e+01
-2.994692480328022555e+01 2.205817193197494674e+01
-2.333219760468004011e+01 1.911254158962729122e+01
-2.963755617424170552e+01 2.245993439194120711e+01
-2.996584482744743738e+01 2.281437391302395667e+01
-2.985880258776467144e+01 2.315557885187232046e+01
-2.961631115213786458e+01 2.346689934325288363e+01
-2.935862796802355135e+01 2.391939152770701327e+01
-2.914582758188313250e+01 2.422809620960025967e+01
-2.904388909858253953e+01 2.462028336414899243e+01
-2.903198936622497683e+01 2.492400845523395603e+01
-2.903805068673213441e+01 2.528122439251191622e+01
-2.907361999575143230e+01 2.552145798096623253e+01
-2.393951699664562582e+01 1.913500557769815913e+01
-2.913946548768905487e+01 2.574372770937431554e+01
-2.924091998507802970e+01 2.598906881762360399e+01
-2.932688205629247236e+01 2.623869504426562571e+01
-2.939966775425440559e+01 2.633989467836840959e+01
-2.952999450339844145e+01 2.653547402633617125e+01
-2.962718546450021861e+01 2.655787204142275471e+01
-2.978617334547577755e+01 2.661505022753782868e+01
-2.999433536784892951e+01 2.651930939969752643e+01
-3.024340610931434625e+01 2.638889922775457819e+01
-3.044541632605753989e+01 2.631588871892022041e+01
-2.451820134628538028e+01 1.916758407361250960e+01
-3.073918379263926326e+01 2.610294556038761371e+01
-3.903373308096025340e+01 1.232904771678152400e+01
-3.153994368565185269e+01 2.554436902239142881e+01
-3.234745059310432680e+01 2.504483923122050015e+01
-3.322559645195001110e+01 2.489247351806884012e+01
-3.368981856826363241e+01 2.459975250413636871e+01
-3.414498124128930812e+01 2.500129251550484355e+01
-3.455142478555203667e+01 2.477848713197219155e+01
-3.480296569190919342e+01 2.513607048887998729e+01
-3.517369060221393795e+01 2.498376038277704936e+01
-2.505096885185046318e+01 1.920127357344875918e+01
-3.540364513725022988e+01 2.521217536159857175e+01
-3.567307124774777805e+01 2.504820610465598207e+01
-1.685299344266826438e+01 2.119168762203626954e+01
-1.688521252552873619e+01 2.071928881746887896e+01
-3.635365513405727711e+01 2.513183703505056243e+01
-3.657579848761416486e+01 2.509362081707200431e+01
-3.682652904497705038e+01 2.492741896813813085e+01
-3.702650841254622804e+01 2.482125866117661062e+01
-1.776892989549007851e+01 2.004382631160463291e+01
-1.815701880079648234e+01 1.981284310677733629e+01
-2.566980553285104349e+01 1.927804561500990488e+01
-1.883841614652459739e+01 1.950830712164822245e+01
-1.925402129716764676e+01 1.933765085731293354e+01
-1.961211857745265874e+01 1.928433217518237441e+01
-2.007197108976557942e+01 1.919837803892565731e+01
-2.051005872065420732e+01 1.914754674016197811e+01
-2.080796150946524392e+01 1.913833939323237843e+01
-2.105274043715826338e+01 1.912374444342313495e+01
-2.134461236069669354e+01 1.911608610223590787e+01
-2.164394525182204632e+01 1.910918453238351944e+01
-2.188383083910248672e+01 1.910450515172889752e+01
-2.617930233412405272e+01 1.939628580456725260e+01
-2.210274802021312013e+01 1.910141052120691185e+01
-2.232739454182070205e+01 1.910375229332041513e+01
-2.677377830136540737e+01 1.933126469342981579e+01
-2.716396024603436032e+01 1.974557470580776197e+01
-1.493353220925621905e+01 -1.106642464739897065e+02
-1.015815931391611038e+01 1.029293007226888932e+02
4.210369493525866602e+01 -2.101559886875529060e+01
4.114788429419630944e+01 -2.043271829952162122e+01
4.027314697331735971e+01 -1.993043281061806127e+01
3.945983159049693256e+01 -1.942292159548704333e+01
-6.003801399653139192e+00 2.828097171938920962e+00
-6.613718266090463871e+00 5.322271161478886015e+00
-6.540202268461463575e+00 5.694457107712764810e+00
-6.479974484032064552e+00 1.065273968378001079e+01
-6.264808126964201307e+00 1.090945533039672100e+01
-5.011306699199630010e+00 1.227428760805536889e+01
-1.092285397987062545e+01 1.031189841406636702e+02
7.705534696606886946e+00 -4.826910266704567687e-01
8.229699665495582295e+00 -6.822822398747485639e-01
4.057487311802521646e+01 -3.524604919119934721e+01
4.009088968410689802e+01 -3.531329966220552308e+01
-1.882126483877675227e+00 9.740149423574135312e+01
-1.962217445153539241e+00 9.745510288699091461e+01
-1.568477245879072868e+01 9.874446354119825742e+01
-1.612031937581981822e+01 -1.158795590252360199e+02
3.663460490991614904e+01 -3.687203783202608065e+01
5.060001999233127634e+01 -2.441250803092957966e+01
4.630104652407644039e+01 -2.234081514992221429e+01
-6.954019097340077948e+00 1.014997062651846136e+02
-6.996686683801216944e+00 1.015152442301939715e+02
-1.099100631428707260e+02 5.883263047741884577e+00
-1.587701313013367788e+01 -1.126838580285238862e+02
4.642718396232437783e+01 -2.455136770217439235e+01
-1.009088537537348031e+02 -1.010820453077478049e+02
4.627047399682826523e+01 -2.429727782912822676e+01
4.617486233770027582e+01 -2.403151419907582920e+01
-1.049890158379579930e+01 1.044264578403699062e+02
4.594102667543379681e+01 -2.341171284725428237e+01
-1.465985546616631474e+01 -1.088601608917916650e+02
4.581784686088315794e+01 -2.326387386444507399e+01
-1.083730150460426245e+01 1.050768695846827114e+02
-1.091974589324691713e+01 1.052644786079791146e+02
4.481240818822445249e+01 -2.276839541489460927e+01
-1.112959338049310176e+01 1.057488255755416873e+02
-9.520929332980544757e+01 7.476891620245240233e+01
4.246978395241436033e+01 -2.038476631929662730e+01
4.166096896296252794e+01 -1.995959146059384537e+01
4.077398348553315799e+01 -1.949977482640964865e+01
4.008969911800045338e+01 -1.910755657275838715e+01
4.593208432857179702e+01 -2.210762334890529957e+01
-5.512525396773387598e+00 3.535236055166007585e+00
-5.358616389615129982e+00 4.609679834363945794e+00
-5.287039175441147876e+00 5.102844709955832947e+00
-3.075303473945763422e+00 7.785504259712977770e+00
-2.990826722341711541e+00 7.859068215168345972e+00
5.491716523088993718e+00 -7.062562520608257552e-03
6.636541787891934163e+00 -6.153995091382110649e-01
8.970959705095802761e+00 -1.289961346992564373e+00
3.989056035932173927e+01 -3.599164878196835105e+01
3.948342696270814400e+01 -3.619533944568712514e+01
4.521524070897897474e+01 -2.191070672995192581e+01
3.915434414248957040e+01 -3.645931295147956774e+01
-2.467726525499485124e+00 9.778203046801253606e+01
3.800285098284765439e+01 -3.690858746098579957e+01
-1.079059610726316549e+02 5.557924424130125551e+00
-4.171513322929632750e+01 -1.311588624240219758e+02
4.959024831719166571e+01 -2.480929012659263933e+01
-1.087835582169527413e+02 5.711226576629991669e+00
4.905825508307527372e+01 -2.517025018662189595e+01
-8.696707638681861141e+00 1.016431599531052541e+02
4.812513049524439879e+01 -2.500138194439355033e+01
4.452106524578324098e+01 -2.186667440841046428e+01
4.751930886290170264e+01 -2.530900730629308626e+01
-1.465498174235164619e+01 -1.112071305484477932e+02
4.389286434623110011e+01 -2.175294242729889760e+01
4.314868774216085257e+01 -2.142625822997659668e+01
6.358459993794907206e+01 -4.753965276086528036e+01
-1.431289390873692469e+02 1.107770843900285129e+01
7.309582143656093933e+01 -5.088498706879727962e+01
7.353042364829505573e+01 -5.096023810586616776e+01
4.328556463345416461e+01 -1.482232284189801241e+01
4.215800953331554268e+01 -1.537346612153845271e+01
4.092691402947290413e+01 -1.557929074807654501e+01
3.943293308137785402e+01 -1.504638744690266705e+01
3.821123663641734680e+01 -1.451338278642344015e+01
1.550577376514468142e+01 -1.026193712900748123e+00
6.645725749499841406e+00 5.015184652293620537e+00
6.952546430928945753e+00 3.425857696218452819e+00
6.561542155154997147e+01 9.365056189546376686e+01
4.355462276161563295e+01 -3.611392547633541739e+01
4.317253938455617401e+01 -3.685174974274317350e+01
4.261909333730975646e+01 -3.794810488152300110e+01
4.210477961676831171e+01 -3.879041230790057426e+01
-5.162847787238648323e+01 -1.358526444332880487e+02
4.033470524687280090e+01 -4.148734974503678075e+01
-2.438362609850994644e+01 1.109445845747401478e+02
-4.989808920600458997e+00 1.128630546994262573e+02
7.608636804673625420e+01 9.453521115282188703e+01
5.805553943443601383e+01 -4.488856701963393192e+01
6.659253437336556658e+01 -4.797031579658177236e+01
5.835181284976094673e+01 -4.504040311511393924e+01
-1.242769433474773564e+02 7.557928697045932154e+01
-1.912471710643843892e+01 1.161749273519956347e+02
6.093577190675546262e+01 -4.601240741992737782e+01
-1.513256580495065862e+02 -2.280280284238957123e+01
6.223572603852023377e+01 -4.661542299851706872e+01
-1.504887426229124792e+01 -1.288400920952079503e+02
6.656903576301746739e+01 9.507766592819031359e+01
-1.422628746786238807e+01 1.208641712990081345e+02
6.542252846961254420e+01 9.450432909737058651e+01
-1.475269246564437822e+02 -1.586159201244961636e+01
6.755040699217521194e+01 -4.847063495188116633e+01
-1.291057827215694154e+01 1.236351182532503401e+02
6.329613894184483058e+01 9.337875100780706816e+01
-1.223148424776209531e+01 1.244842450178916948e+02
-1.197602525594414047e+01 1.246908345934465814e+02
7.236902578369495131e+01 -5.135308359542074186e+01
-1.205108637549969757e+02 -2.981855067690868388e+00
-8.324313757527473712e+00 1.284472620779763190e+02
4.236172880978366351e+01 -1.472378000535649001e+01
4.151135245817131647e+01 -1.529786684264410113e+01
-1.393654599691972962e+01 1.240340213450630813e+02
4.034520874334971552e+01 -1.553979014920160040e+01
3.904551572522354519e+01 -1.528207268459380330e+01
3.736285402058177851e+01 -1.455321998019255325e+01
5.260662218040298654e+00 6.504263649210994203e+00
5.726467612086056036e+00 6.258318445228775673e+00
6.245775758627186036e+00 3.489454163086074256e+00
4.007682341634064471e+01 1.223053748235960025e+00
4.291299579749247783e+01 -3.649700140627976452e+01
4.262529125188755330e+01 -3.739275867868069270e+01
3.210254561586723732e+00 9.651110244357455770e+01
6.250571307045913727e+01 9.285850582556143706e+01
4.096211388201786718e+01 -4.087956548939691714e+01
4.072022067593159989e+01 -4.114160720369626034e+01
-1.495377604814034669e+02 -6.414417650422724648e+01
5.434479212581573648e+01 -4.488504624020118428e+01
-2.382760278505229934e+01 1.120479234531387362e+02
7.507393990697673303e+01 9.452605697818947306e+01
5.905505273091063145e+01 -4.541243564212422967e+01
-1.458065163657317100e+02 1.549371572766559524e+01
-1.587016273534361765e+01 -1.263198022417726492e+02
-1.570951820175708136e+01 -1.268201206299329300e+02
6.223697511669952576e+01 9.284229047125062095e+01
6.285010597814863331e+01 -4.731519152146505292e+01
6.821123965678044954e+01 9.568087229924013570e+01
-1.466528939093402784e+01 -1.378643438636986502e+02
7.268276470716385518e+01 -5.077552505403640737e+01
-8.213543370396816812e+00 1.197159909189039517e+01
-8.398373953145053861e+00 1.265259694444987737e+01
-1.511294901588531658e+01 1.439907560250040497e+01
-1.550040110100755975e+01 1.411688108970608901e+01
-1.581909577832729319e+01 1.382254718824464312e+01
-1.613733149414009205e+01 1.344925395827483072e+01
-1.652366827640727465e+01 1.293884742741067484e+01
-1.685904116577810896e+01 1.237306280107888234e+01
-1.709212085964189143e+01 1.190386030656320138e+01
-1.720696121212637308e+01 1.163571963857364899e+01
-1.744566297798893828e+01 1.108854543399400683e+01
-1.747596935335504398e+01 1.074424438959281858e+01
-8.818552918965073317e+00 1.331508607514402520e+01
-1.752380033204916288e+01 1.039519277016265342e+01
-1.754927059612161244e+01 1.004166867270715890e+01
-1.756964284048834912e+01 9.647847785779042340e+00
-1.752204989170467897e+01 9.257355357980175725e+00
-1.778735072242742632e+01 8.909221966912994617e+00
-1.750268393088752816e+01 8.689554796581166585e+00
-1.762218792657019861e+01 8.324190720511179364e+00
-1.728294832828360938e+01 8.152610948471279428e+00
-1.684626071814009407e+01 8.049824475516576427e+00
-1.668850063739249734e+01 8.506915149337633153e+00
-1.204808862075949882e+01 1.543041189959637371e+01
-1.615175233669274846e+01 8.480094433957978239e+00
-1.625628056135917276e+01 9.087211547498970532e+00
-1.560498130697704333e+01 9.255720615042545063e+00
-1.565779421076087452e+01 9.889490600855081581e+00
-1.507700247801327720e+01 1.010736386983820623e+01
-1.545309797070527935e+01 1.065382068478516686e+01
-1.541018412240619462e+01 1.103366936648473917e+01
-1.509211426422759850e+01 1.106174921302181779e+01
-1.445464438440106925e+01 1.111901869392109354e+01
-1.424569587404194770e+01 1.148333784159328808e+01
-1.272012140088403953e+01 1.528020865586426957e+01
-1.382023873625668919e+01 1.176771887602206412e+01
-1.361858446152124458e+01 1.228525840207976749e+01
-1.326006304455431639e+01 1.273957670461800618e+01
-1.299124785930134252e+01 1.321526979092821641e+01
-1.240951217496619563e+01 1.345178492027154071e+01
-1.189020397639603033e+01 1.361578147529677629e+01
-1.135715093898372352e+01 1.347375957496533516e+01
-1.107341007672440725e+01 1.306211197757184905e+01
-1.092125762530431743e+01 1.248533257281477837e+01
-1.074061105285927731e+01 1.193730486166653648e+01
-1.316925326871675139e+01 1.499598082425067602e+01
-1.060048801020696274e+01 1.134755012444158595e+01
-1.019297414249152922e+01 1.097326015494168594e+01
-1.024138189942119403e+01 1.063668812881804904e+01
-9.682533898816403806e+00 1.058105298505916103e+01
-9.185009199955500137e+00 1.078648909397876920e+01
-8.983872269578542458e+00 1.034096899755696342e+01
-9.093988705265726225e+00 1.003740078002750202e+01
-9.359242267045889463e+00 9.754010631112084440e+00
-9.517825504114975743e+00 9.483745973633917359e+00
-9.825803001277716220e+00 9.210408247969802176e+00
-1.361444771483730598e+01 1.481468944660238130e+01
-9.799532789085981577e+00 8.876974653511867430e+00
-9.630780498172372361e+00 8.638055559243944970e+00
-9.407256787943323317e+00 8.487639808478371961e+00
-9.134758741782118108e+00 8.466012273715890046e+00
-8.895413938927347886e+00 8.526832656202765648e+00
-8.680630404160430302e+00 8.724362419564879900e+00
-8.483116536771586169e+00 8.926760154985698748e+00
-8.310600537943582111e+00 9.202879505414063743e+00
-8.130028395708158939e+00 9.644311142537276282e+00
-7.983991349701022422e+00 1.015554303637743416e+01
-1.404674026206343918e+01 1.472455395629626018e+01
-8.050983459856359659e+00 1.071123989833485268e+01
-8.139455669120104986e+00 1.129865161808545615e+01
-1.441202885188861060e+01 1.471755846934938461e+01
-1.476465186411790853e+01 1.456823113064753095e+01
-2.016567382201477798e+01 -7.749126157239008705e+01
-3.456775473238074881e+01 2.048699379545914212e+01
-3.454302695637912279e+01 1.822815504386134933e+01
-3.506827642603489181e+01 1.818665638297578369e+01
-3.559800309073376212e+01 1.814933510074719436e+01
-2.263992295932872523e+01 -7.718532625240530365e+01
-6.053807698084001743e+01 -4.849457272249014039e+01
-3.877652061082991253e+01 1.814734029706882623e+01
-3.924210599086929108e+01 1.840363076703924605e+01
-3.928547834568146868e+01 1.871894931019229702e+01
-3.937947201959642740e+01 1.878460408580041019e+01
1.212965430097399491e+02 2.386471386968002317e+00
-3.427332498971557584e+01 2.076804704024888792e+01
-3.842339105565888246e+01 1.985342579854070166e+01
-3.787713284819040638e+01 2.022650296264698255e+01
-3.748146816053913000e+01 2.040126716488275704e+01
1.181915777663870131e+02 1.867088860449293231e+00
-3.669900700958202577e+01 2.084292424633845187e+01
1.174785090943912422e+02 1.873268497502384111e+00
-3.207921057972502865e+01 1.849774968524986463e+01
-3.210998441648981583e+01 1.825925324070006539e+01
-3.220055578968729293e+01 1.802474584786156342e+01
-3.232060320592472635e+01 1.772575466685704981e+01
-5.687967318699423913e+01 -5.090693326085185788e+01
-3.230232723940775941e+01 1.744782344020399734e+01
-3.235772355037050829e+01 1.710130512136320746e+01
-3.227274052657977421e+01 1.672812876552696437e+01
-5.607442207607329721e+01 -4.527687130628461887e+01
-3.234410448281570893e+01 1.604156741345402537e+01
-3.248984942441345680e+01 1.582993745280626641e+01
-3.260196432558907986e+01 1.572000369272211273e+01
-3.282687401389641479e+01 1.560047736910908789e+01
-3.317867594020437849e+01 1.552613217519554034e+01
-3.367531716109699147e+01 1.550596097012350150e+01
-3.367970574185819288e+01 2.076340346725521968e+01
-3.415550237631071440e+01 1.556808084786203850e+01
-3.435478736603661076e+01 1.570344659005052179e+01
-3.458489383509514425e+01 1.589712152485692620e+01
-3.481337076981199630e+01 1.610625198391741719e+01
-3.496922956254692139e+01 1.629942327530625334e+01
-3.521712085609040344e+01 1.648020537791892437e+01
-5.894766926827696096e+01 -4.675473145624325610e+01
-5.910748057465279715e+01 -4.684541885127652705e+01
-3.713120862107526676e+01 1.689667671274252925e+01
1.228164579516332964e+02 6.084846109528827540e+00
-3.340340135880880723e+01 2.047980389897077558e+01
-3.852003725190338201e+01 1.711438109263773910e+01
-3.883345273128058750e+01 1.728126385932841558e+01
-3.904427472270280219e+01 1.751800858888672252e+01
-3.924309514241598151e+01 1.778475801898029118e+01
-3.939242340538503129e+01 1.809482844267261825e+01
1.216287574817674795e+02 1.821877974367555719e+00
-3.875947941568836086e+01 1.890539354556412377e+01
1.208046331552162087e+02 1.835830267007741767e+00
-5.967460178512807545e+01 -5.043326642831750917e+01
-3.659785978302971188e+01 1.985895648798194557e+01
-3.313017733323329850e+01 2.011289749549884576e+01
-3.292503829428118678e+01 1.920930413251079827e+01
-3.304019808453006135e+01 1.900273517081180685e+01
-3.303850620729620857e+01 1.890287142820822552e+01
-3.326014228730886657e+01 1.876303433799633424e+01
-3.343976657187629797e+01 1.870069266575745814e+01
-3.367491542604041399e+01 1.866408946739023733e+01
-3.383858049344259911e+01 1.872215162812903344e+01
-3.417042994099193010e+01 1.885079125526198496e+01
-3.459873879211644976e+01 1.894403147784064601e+01
-3.485930994529099536e+01 1.920124851025103752e+01
-5.724849987968757858e+01 -4.943665146582638670e+01
-3.468727440718392785e+01 1.976528583890082658e+01
-3.471634207776247649e+01 2.008976827689597400e+01
-3.393767773418886691e+01 1.809253565581849088e+01
-3.403267524219422313e+01 1.832143639345546049e+01
4.063675469855229494e+01 -2.700376154086196934e+01
4.097828002757990618e+01 -2.647942100329742487e+01
3.945345843266529329e+01 -2.181830863699750367e+01
3.877415266962520946e+01 -2.139291161201541769e+01
3.810956605722846291e+01 -2.104835016168074802e+01
-7.321998690020303791e+00 2.170595137336978731e+00
-7.281255805596848596e+00 2.844408112385802934e+00
-7.434198133906608774e+00 4.068429002195373734e+00
-5.464337343903357791e+00 7.821494587048131386e+00
-4.964083488967657942e+00 8.796806096606481162e+00
-4.578146398989143329e+00 9.596439952046777577e+00
-3.485191550453873965e+00 1.122615709407880225e+01
4.139309129472032822e+01 -2.585440787157369513e+01
6.308741446843225020e+00 -2.437669662846389862e+00
7.481924715563073924e+00 -2.737415118243870182e+00
8.319339216747742682e+00 -2.926554034887611788e+00
8.844090819892493016e+00 -3.040260359604456397e+00
3.947908689810341087e+01 -3.298407247296393052e+01
3.960361032100291112e+01 -3.249641830600823056e+01
3.970861073430928201e+01 -3.183837142326457581e+01
3.978217032352895899e+01 -3.116256569423988410e+01
3.983277527153826014e+01 -3.055957785585626496e+01
3.990690824089550404e+01 -3.001912128146342695e+01
4.159857430945100276e+01 -2.535460555763362933e+01
3.992303857512826681e+01 -2.955934009030066889e+01
3.987336123649289732e+01 -2.916824479748479604e+01
3.975792238453077232e+01 -2.873098292897609340e+01
3.969788385402763708e+01 -2.814468713440357917e+01
3.970429033717017120e+01 -2.755368327305667009e+01
3.973334109975285600e+01 -2.725776042699645174e+01
3.986262730498815898e+01 -2.701077765084597715e+01
4.015117213600072432e+01 -2.644698643302469776e+01
4.053864463123058215e+01 -2.588261480791339864e+01
4.081512640232558908e+01 -2.552667187291648787e+01
4.165894615243689714e+01 -2.488076615330972885e+01
4.090743121153894180e+01 -2.511200507517396829e+01
4.084531529691037122e+01 -2.462538711427553295e+01
4.061244459035439291e+01 -2.418991079031615143e+01
4.031349291748795594e+01 -2.378192058341303294e+01
4.003876797014979871e+01 -2.329785143815989201e+01
3.960760756975518859e+01 -2.272207388702065245e+01
3.919499475743741357e+01 -2.220481319558014732e+01
3.865195675911427031e+01 -2.164494312598331405e+01
3.799691760956125108e+01 -2.123614524419143379e+01
-7.587494120518326390e+00 2.080536695750703213e+00
4.161344323648372523e+01 -2.437137897348469195e+01
-7.525570813462043596e+00 2.742895475677934236e+00
-7.627981647688418576e+00 3.700817746078175485e+00
-5.778683568754435562e+00 7.173578869062396279e+00
-4.883211461596934200e+00 8.765497271937221058e+00
-4.565732018635068279e+00 9.184144428116116643e+00
3.838397289263162371e+00 -2.547269304603358098e+00
6.187977859085512122e+00 -2.829543573247374599e+00
7.284301432644546992e+00 -2.885508088171803820e+00
8.133895728027034977e+00 -2.922821628921826065e+00
8.839918659834353321e+00 -3.002147568661303279e+00
4.138825296157364875e+01 -2.392825393445558646e+01
3.983573811190098724e+01 -3.305239997177776701e+01
4.008627635302880066e+01 -3.257882628550325421e+01
4.037195753545939425e+01 -3.194686128508850231e+01
4.059355492273134303e+01 -3.128762924917341692e+01
4.074813764390608384e+01 -3.067294332645339949e+01
4.076375457641713496e+01 -3.006897706413782601e+01
4.092912218303624883e+01 -2.959369852073495011e+01
4.096032561369576541e+01 -2.916839334212319201e+01
4.102082485971022408e+01 -2.872131008367449923e+01
4.076140724944030325e+01 -2.823695119660348141e+01
4.105189620769592551e+01 -2.341339935951743811e+01
4.059740874065816740e+01 -2.762115369949396282e+01
4.053413820791156752e+01 -2.725724731965175707e+01
4.066327479211897611e+01 -2.289843229082686449e+01
4.011006424358699718e+01 -2.235619080872896802e+01
