5.768930058397050864e+00 9.335072982957377974e+00
5.712238500032494670e+00 9.176590937852864727e+00
9.604185275272832945e-01 7.355268586091876948e+00
1.706109498882247555e-01 7.417696012475757605e+00
-3.972218535050253685e-01 7.519378720684450457e+00
-9.177854158303648813e-01 7.684642005754184879e+00
-1.377625878918820490e+00 7.904437464333890162e+00
-1.749062703022780552e+00 8.121045754743235534e+00
-2.177082695020913228e+00 8.345900047957425016e+00
-2.510832257592338301e+00 8.740100542917687676e+00
-2.340823569132840287e+00 9.119821639917251588e+00
-2.373066876623064037e+00 9.578851222701393553e+00
5.494243404627988880e+00 8.887088151938046465e+00
-1.813180265526436408e+00 9.543551342824770245e+00
-1.453828972256370866e+00 9.712762061796540891e+00
-9.427664644825022311e-01 9.481664193399836904e+00
-2.743618348858353206e-01 9.433943993927265126e+00
3.390715647868373650e-01 9.310154476020143122e+00
9.097759824099842518e-01 9.055985356087941085e+00
1.565938673903437772e+00 8.917584795251812579e+00
2.051847293687656837e+00 8.644855609015920095e+00
2.523586889594793714e+00 8.202189300965118335e+00
3.170073081519416469e+00 6.994873916379831691e+00
5.275457103893313793e+00 8.689322299270047623e+00
3.629282435403503371e+00 6.696636730597685272e+00
4.390719808558609216e+00 6.321714834725135290e+00
4.298634545741648161e+00 5.839925154446608424e+00
4.878924678627116762e+00 5.620975980965819296e+00
5.062979220241955680e+00 5.232138775511892881e+00
4.763545805507035880e+00 4.884207125035905150e+00
4.988135176750512656e+00 4.649189805201384473e+00
4.763697224390416984e+00 4.391195926025694085e+00
4.450017504970759319e+00 4.261716535442223730e+00
4.009902274733843086e+00 4.520410606945618248e+00
4.787922173640174250e+00 8.403901028398157891e+00
3.568281557261537618e+00 4.602405934608265525e+00
3.219503133187857191e+00 4.941609494718239404e+00
2.769041738729489222e+00 5.242581112505754426e+00
2.228425161731732995e+00 5.606545669835025336e+00
1.606851003969704150e+00 5.819696111824287144e+00
8.833760044447739324e-01 6.097985368428481934e+00
1.840237258437309453e-01 6.185683556666674576e+00
-4.280127146120131787e-01 6.495321613687386808e+00
-1.088963938305214318e+00 6.665187755641476031e+00
-1.572372799197883975e+00 7.070609746723519606e+00
4.442484168802805833e+00 8.255253074122071766e+00
-2.078374340967842571e+00 7.373792415005613776e+00
-2.436757456653027454e+00 7.678414292408833219e+00
-2.888278131033599205e+00 8.093554532947621283e+00
-3.137995962462632793e+00 8.497967525013390144e+00
-3.202005640236552431e+00 9.141634410612525130e+00
-3.032811438810254501e+00 9.586796571540130429e+00
-2.464272253483620112e+00 1.019604936677482243e+01
-1.760697358793849920e+00 1.043690339903996467e+01
-8.848635786492891064e-01 1.050420288227200771e+01
-1.431162534449694490e-01 1.047587162587826271e+01
3.896586268566838651e+00 8.080140826574437440e+00
5.827226499917014246e-01 1.041092900439939228e+01
1.320126516495593316e+00 1.026835075013222820e+01
2.009939533771512021e+00 1.017646485133971801e+01
2.571567634296152427e+00 1.008660292250310420e+01
3.259105614806158346e+00 1.002085624653182094e+01
3.756154300288081949e+00 1.003344273086700333e+01
4.294613441633519102e+00 1.002784394142676661e+01
4.903509060694521082e+00 9.972166686811613445e+00
5.283014760820422318e+00 9.879700574933188761e+00
5.566097010525781208e+00 9.714611036958014978e+00
3.353266118469839796e+00 7.912448216245755894e+00
5.718819733114844261e+00 9.553070735636680411e+00
5.751246477837232973e+00 9.425532236184318791e+00
2.401044980526995332e+00 7.516778863216568851e+00
1.725208593153515935e+00 7.364684433193740887e+00
-2.185581260362780043e+01 5.900273603947956857e+00
-2.173687681208413025e+01 5.621370002728863113e+00
-1.987576791834843348e+01 3.010954918616712384e+00
-1.927283564706116081e+01 2.861798472786292180e+00
-1.855521056432248272e+01 2.808454482830596621e+00
-1.760430705844694899e+01 2.875432523257827722e+00
-1.663061647086209405e+01 3.256476319564341360e+00
-1.561262575002470676e+01 4.365578221630607381e+00
-1.553463509661863640e+01 5.478763712130624519e+00
-1.551443000357775226e+01 5.988986309603212987e+00
-1.556618277011563656e+01 6.325516444621680279e+00
-1.585243131628304880e+01 7.155246960004131296e+00
-2.205444440042872856e+01 5.234266473078267090e+00
-1.617529761554368761e+01 7.853719564110138940e+00
-1.641264182586660070e+01 8.763832110300318945e+00
-1.702081742824334754e+01 9.559658989663020634e+00
-1.800404282871801342e+01 1.001792341202143000e+01
-1.892207615597234849e+01 1.009969123036420235e+01
-1.947650681933376049e+01 1.007518066644701271e+01
-2.012591649392803816e+01 9.893546109304699243e+00
-2.064186581023847467e+01 9.645526490762556193e+00
-2.114688925176901080e+01 9.024747677141904845e+00
-2.136339044893429673e+01 8.569045127227653325e+00
-2.199439804400594767e+01 4.925209991178161495e+00
-2.175535034416597213e+01 8.153376175789761149e+00
-2.208325531450159218e+01 7.796556852735387011e+00
-2.206893255124673558e+01 7.430259823669375763e+00
-2.185683930850331080e+01 7.118215315880846106e+00
-2.202259485538546002e+01 6.754877437833255449e+00
-2.142837229915980046e+01 6.650093194173806843e+00
-2.108130096952478638e+01 6.459958606060069997e+00
-2.085651383214095844e+01 6.176257486514050044e+00
-2.096574472356960683e+01 5.826695112761242967e+00
-2.087204940991465563e+01 5.543987690639518462e+00
-2.198979363393906539e+01 4.578214557207575197e+00
-2.124834227560601363e+01 5.173404146847851770e+00
-2.099195768473347812e+01 4.936074633113322285e+00
-2.102913875699740132e+01 4.617532395617497620e+00
-2.069978786174323560e+01 4.471185366555757490e+00
-2.026263417187580984e+01 4.309336338170713709e+00
-1.982186819799321853e+01 4.041377071495634077e+00
-1.914666822631197363e+01 3.798452021738774498e+00
-1.839904285720630028e+01 3.615105988132608861e+00
-1.757564526656935300e+01 3.646370903978826128e+00
-1.691050932984822808e+01 3.988495047677288685e+00
-2.187721698606669918e+01 4.246861540553001468e+00
-1.631782785997984320e+01 4.661925168924260454e+00
-1.598224601582124116e+01 5.512421791204733523e+00
-1.584167061013839728e+01 6.004108073040243632e+00
-1.581417875493051461e+01 6.333377370212033064e+00
-1.589960917852358158e+01 6.876823896094440336e+00
-1.609281130004320914e+01 7.445880820239617393e+00
-1.647127169950411840e+01 8.230829603192063360e+00
-1.719494053277713164e+01 8.864076934579966149e+00
-1.790474719968347728e+01 9.266624285539128536e+00
-1.859405513381869923e+01 9.449625210361293881e+00
-2.163414968860167775e+01 3.909645693973594405e+00
-1.939689557956173260e+01 9.456578840290848831e+00
-1.983282695754488500e+01 9.426459661980072013e+00
-2.059905674934740816e+01 9.297099869310210707e+00
-2.126514287925364499e+01 9.328630525951055574e+00
-2.185814446323263027e+01 8.969826833769966257e+00
-2.229388635209006964e+01 8.544049470273218816e+00
-2.256212012144047563e+01 8.166296306749126543e+00
-2.271345946050701414e+01 7.718850479377561413e+00
-2.275910182607098520e+01 7.249063604667408178e+00
-2.269146063479647424e+01 6.792240714517298272e+00
-2.126445625688263519e+01 3.761402565685438848e+00
-2.252534822586956054e+01 6.404648939560837029e+00
-2.241892183224138790e+01 6.066545560789608160e+00
-2.085692249807042487e+01 3.481212567905481947e+00
-2.047416266165204490e+01 3.271036357737043598e+00
7.955059084257863233e+00 -2.226428724763024292e+01
7.725797878317276712e+00 -2.213235875624900828e+01
6.483405974589998344e+00 -2.114725528801405474e+01
6.477865148960602504e+00 -2.078100166001902593e+01
6.101651624918181582e+00 -2.049175362595402916e+01
5.851720798794920242e+00 -2.013224254318278028e+01
6.060138279380916870e+00 -1.991898034832411923e+01
6.061946044688330204e+00 -1.963803856066815001e+01
6.673988034563989480e+00 -1.972979465976093749e+01
6.858442015852713070e+00 -1.957631231130879712e+01
7.119831200399643123e+00 -1.897995352098005384e+01
6.307571479255791758e+00 -1.915576621170350791e+01
7.687671094795727633e+00 -2.188919629872025041e+01
6.817486142345126510e+00 -1.925458057528839717e+01
5.752173082408865490e+00 -1.873081703095949635e+01
6.608679784079786401e+00 -1.899837658128757667e+01
5.715401325716674030e+00 -1.894928527662624163e+01
6.595337357254087429e+00 -1.850885315771947859e+01
5.619673519295535158e+00 -1.882864117581705798e+01
6.230355132064143042e+00 -1.838433012162981584e+01
5.819660236872942427e+00 -1.820438749955781788e+01
6.125648632653505565e+00 -1.775045208941568831e+01
5.860878317882925792e+00 -1.798444170015177335e+01
8.060242301590031744e+00 -2.142867779534886807e+01
6.441505778141982219e+00 -1.775644512135034603e+01
5.864605064529260225e+00 -1.738360829534861551e+01
6.342734401764815289e+00 -1.702481938998991495e+01
6.003997082051473200e+00 -1.688224708503533478e+01
6.107120893886161639e+00 -1.647180254815493683e+01
6.022989633475191340e+00 -1.663361602040012954e+01
6.554093679094047609e+00 -1.668793624652171914e+01
5.992011840036510328e+00 -1.616315443879582148e+01
6.714437020329331318e+00 -1.624483163071422709e+01
6.148973976480934134e+00 -1.589150000860279022e+01
8.140491193032243444e+00 -2.117372118342153087e+01
6.356422179202535716e+00 -1.576759278356423266e+01
7.032378661721252477e+00 -1.618827418867387635e+01
6.265628385313352311e+00 -1.524898589899237145e+01
6.568347215014519236e+00 -1.530385346201990160e+01
7.034955178043634128e+00 -1.567552186281382554e+01
6.887728803979435988e+00 -1.513767844577636268e+01
7.106661086714646913e+00 -1.544003159013546522e+01
6.710746274900263764e+00 -1.479043454272872893e+01
7.108591027079916636e+00 -1.481671224366374418e+01
7.463319436037439303e+00 -1.497960640338013327e+01
8.196221458201049970e+00 -2.106314757103946533e+01
7.634365540031541109e+00 -1.517159313443393387e+01
7.801077820219162184e+00 -1.548774037640178136e+01
7.942568522183769630e+00 -1.577306134409515970e+01
8.074943414636768679e+00 -1.531242347832096229e+01
8.308325632530316085e+00 -1.587652603152743147e+01
8.377720873117780798e+00 -1.632882283173001881e+01
8.856108674331304442e+00 -1.660912605924536223e+01
8.856912002538322781e+00 -1.676445016658021814e+01
9.120768546272596922e+00 -1.726208686771869338e+01
9.140253970142598661e+00 -1.755062974964885214e+01
7.922848186161741246e+00 -2.099779574720266595e+01
9.255530555106146195e+00 -1.784640099136003144e+01
9.255586846977278626e+00 -1.823774478078414418e+01
9.322996704418581970e+00 -1.864796045037385497e+01
9.293917836612473948e+00 -1.915447453114991561e+01
9.309154051303051958e+00 -1.969008022365758137e+01
9.172046978352435431e+00 -2.050488496376877379e+01
9.159237546393628193e+00 -2.077497315578666459e+01
9.016072846129809193e+00 -2.107199097389111131e+01
9.022041160437268559e+00 -2.155993843982174241e+01
8.645776088648592150e+00 -2.190635777725195510e+01
7.510574622455290950e+00 -2.126501738576024891e+01
8.494563235187817085e+00 -2.211216972778559153e+01
8.130190210493328351e+00 -2.223565653238166817e+01
7.153865382701035003e+00 -2.134631182015779061e+01
6.784165641727215146e+00 -2.138177732380831841e+01
-5.333989393995731687e-01 1.993462157877457841e+01
-8.291320608984071860e-01 1.969419322150502083e+01
-1.558330821133971089e-01 1.552539430021426980e+01
2.583645197922957992e-01 1.532778894484796339e+01
7.910064929969776726e-01 1.540300990774324674e+01
1.174587036682254615e+00 1.551381936406156292e+01
1.557694241384690592e+00 1.524944519876171611e+01
1.941114294872788637e+00 1.525078974251678865e+01
2.334963076463448139e+00 1.520652919281105397e+01
2.645308666536120068e+00 1.498572077333713182e+01
3.009203929428854174e+00 1.512927119161323120e+01
3.250351740305929660e+00 1.481883078375966534e+01
-1.038567586507302298e+00 1.945146539712984435e+01
3.543017818766116989e+00 1.490088286001014062e+01
3.856796070040085844e+00 1.475194509952686772e+01
4.105761049478600100e+00 1.509201608408630690e+01
4.296409734753616760e+00 1.519110649785460510e+01
4.378705679805743323e+00 1.555870636912993987e+01
4.869770889196554542e+00 1.610959925937861925e+01
5.405566379162936919e+00 1.666545358856923897e+01
5.829360266794397560e+00 1.701933894399622815e+01
6.153880737319650684e+00 1.724818168948226926e+01
6.475870902739290891e+00 1.752581789503087251e+01
-1.257263424391257711e+00 1.909560091300710383e+01
6.804928766887421432e+00 1.789126459344114295e+01
7.074616391558513406e+00 1.826316586898838068e+01
7.226653964743128711e+00 1.859235883551373902e+01
7.273379516275309875e+00 1.881998096716755953e+01
7.265830783109107571e+00 1.905077386752375546e+01
7.205612589130548251e+00 1.926191795689895159e+01
7.083653058185449325e+00 1.948249786429055064e+01
6.893159259864427568e+00 1.968504073077485828e+01
6.598341561739515804e+00 1.989305795169627800e+01
6.268385967161901995e+00 2.003980113953893039e+01
-1.400479731055401134e+00 1.871440014331298940e+01
5.920183509949687561e+00 2.012730393500907411e+01
5.555807867862526450e+00 2.014874764466283352e+01
5.125270126052871689e+00 2.011587368007270626e+01
4.655938837849315171e+00 2.000450874616911534e+01
4.170207538192862273e+00 1.982439746907305889e+01
3.736372010716456415e+00 1.962127822587753556e+01
3.420315421366605158e+00 1.923060015030069891e+01
3.039114196887152897e+00 1.874083252317578641e+01
2.447213816341468284e+00 1.783787206406479697e+01
2.138593063994792765e+00 1.723914130950756274e+01
-1.482870886031340874e+00 1.831387059927039118e+01
2.203370353367699153e+00 1.676153142933211626e+01
2.456995586851268953e+00 1.651378461112975415e+01
2.874900795232595563e+00 1.646767841177888414e+01
3.035716281841856379e+00 1.623081328605703888e+01
3.465667433980549994e+00 1.654354541242958376e+01
3.609485330198742403e+00 1.626222780213574381e+01
3.919273865435928261e+00 1.655877529316137498e+01
4.245993586467377234e+00 1.672988298116307604e+01
4.421212194115791583e+00 1.709489871610293221e+01
4.593526891280761859e+00 1.749050035947481163e+01
-1.512970780211879918e+00 1.777595351319944328e+01
4.112619353764020325e+00 1.765180096056738179e+01
3.699640022347678858e+00 1.784126385965684136e+01
3.027621213357903240e+00 1.807514257086143772e+01
2.137211140180509616e+00 1.862660165286146352e+01
1.737356224617728317e+00 1.905343338876141956e+01
1.407269997779355020e+00 1.942090850731712237e+01
1.135803182828005076e+00 1.968200774436522238e+01
8.582242545966718428e-01 1.987509667265436875e+01
5.707560461929289675e-01 2.000529513752614719e+01
2.645230669307547799e-01 2.007915406334020147e+01
-1.479523135022985159e+00 1.724965985047462169e+01
1.027497717357818766e-02 2.009782639168578910e+01
-2.862747582486811493e-01 2.004555127259704861e+01
-1.242932143170592418e+00 1.672164956938494740e+01
-7.324996077298236985e-01 1.601433435178297060e+01
-9.309258831779638754e+00 -1.265358433104201907e+01
-1.019464303440040887e+01 -1.244687479923582529e+01
-1.406854371843239448e+01 -1.834035420458335253e+01
-1.326981452724310984e+01 -1.854511626880842456e+01
-1.218339478061980863e+01 -1.833199780249362121e+01
-1.120535024282012770e+01 -1.768628919002425093e+01
-1.025038827880349679e+01 -1.641343571175206151e+01
-9.316906919711714252e+00 -1.518080899992604138e+01
-9.116021975498613372e+00 -1.457395017286634875e+01
-9.429630872120002394e+00 -1.396849005010790101e+01
-1.019420451974344743e+01 -1.360207124508326437e+01
-1.096144653596672214e+01 -1.350979483474915810e+01
-1.163503021283253247e+01 -1.261611052235472208e+01
-1.183526125588413436e+01 -1.363569817287229569e+01
-1.327761223655506484e+01 -1.410055152816660851e+01
-1.395957460613339585e+01 -1.479794067261918400e+01
-1.419070899813444164e+01 -1.554492485203308405e+01
-1.420224461736449939e+01 -1.607792777398349315e+01
-1.412104817813455249e+01 -1.653347062566727388e+01
-1.408649651054105334e+01 -1.679313410437623943e+01
-1.380617783267138421e+01 -1.688835052904111933e+01
-1.361157406475590470e+01 -1.719905613655554077e+01
-1.314572952731366939e+01 -1.723804789780163560e+01
-1.312252302875784871e+01 -1.336501097012649630e+01
-1.255393228866427791e+01 -1.737522523654853757e+01
-1.187173675324013367e+01 -1.705506760819257295e+01
-1.094367310335852927e+01 -1.593924051973576894e+01
-1.032754634869674781e+01 -1.505321843937968396e+01
-9.941496809418206126e+00 -1.437256546199331630e+01
-9.655050538713956243e+00 -1.362883128710613789e+01
-9.911078742667568164e+00 -1.310155394365570380e+01
-1.051410204240710478e+01 -1.277734613364105343e+01
-1.172490146106220266e+01 -1.303554560490281133e+01
-1.284409522066486709e+01 -1.341291706364045844e+01
-1.464536564840116561e+01 -1.458762232695718986e+01
-1.445536743501026145e+01 -1.417511203079402016e+01
-1.521210398473653669e+01 -1.524246724385083240e+01
-1.542375017503623269e+01 -1.587933861351677933e+01
-1.544629816333126548e+01 -1.646814236501295881e+01
-1.526103848554270570e+01 -1.720722883083247012e+01
-1.497083934848505038e+01 -1.764806323174592961e+01
-1.446911703017800122e+01 -1.806554420193090138e+01
-1.384236960581107212e+01 -1.832864165991428607e+01
-1.277931815350067168e+01 -1.831927613323790638e+01
-1.153915400110922285e+01 -1.779142219180199547e+01
-1.510919814850612752e+01 -1.533977032584734168e+01
-1.037533015808156556e+01 -1.672133826330468409e+01
-9.623356532992332291e+00 -1.566411258077060076e+01
-9.325578477575835024e+00 -1.482419514806768923e+01
-9.125918802057876533e+00 -1.388963359642697704e+01
-9.282511305468968743e+00 -1.316249104713469542e+01
-9.648433848867885132e+00 -1.266753811883995695e+01
-1.104229147476019612e+01 -1.291288697522931450e+01
-1.251614311524542522e+01 -1.381870047460073003e+01
-1.412378061139722796e+01 -1.459703376742136705e+01
-1.449030346021158699e+01 -1.518894522470457353e+01
-1.534386672282450981e+01 -1.611919252090866195e+01
-1.477423718806551456e+01 -1.584218652105847092e+01
-1.472468039602777168e+01 -1.651366408829930421e+01
-1.462348543527381928e+01 -1.687920458098336596e+01
-1.446308609371440212e+01 -1.719330721538559459e+01
-1.413013061070352983e+01 -1.747688836758182163e+01
-1.364069455014408128e+01 -1.764856048326522497e+01
-1.280717895005330575e+01 -1.762218935462958314e+01
-1.201294169614122254e+01 -1.727808514907655635e+01
-1.110799439557431434e+01 -1.648332065060579410e+01
-1.015115400891618869e+01 -1.505884714124767676e+01
-1.521399196794033237e+01 -1.697132773279870932e+01
-8.767318766670681995e+00 -1.393941407713050928e+01
-8.795249558558118963e+00 -1.335267038531775086e+01
-1.495198213311277868e+01 -1.759025341731339509e+01
-1.461136262783697148e+01 -1.803524993213612859e+01
2.112140477962506369e-01 -7.797742888090087199e+00
8.451324546203948795e-01 -7.547212103037198361e+00
-8.699629105921898031e-02 -8.971015414515159492e+00
-5.480692895214301918e-01 -8.722777553043959742e+00
-6.198093079430805341e-01 -8.827705013011996726e+00
-8.499478064578699366e-01 -8.814640238787465165e+00
-7.732653283458694737e-01 -9.643056279258896524e+00
-8.232068044816882590e-01 -9.814998428306314082e+00
-9.708174264931832553e-01 -9.769642997308499943e+00
-1.180749874874439165e+00 -1.006865271096859082e+01
-1.283450077323400551e+00 -1.019964469128387563e+01
-1.329009055020755170e+00 -1.040802117433022644e+01
4.362250573727316505e-01 -7.887284371671788641e+00
-1.808180351273047881e+00 -9.795229920186690364e+00
-1.968900635390141041e+00 -9.799229136138531970e+00
-2.155365664273996007e+00 -1.022512837983435752e+01
-2.434532679248063491e+00 -9.706597716855497993e+00
-2.671410713041901364e+00 -9.976946696639226175e+00
-3.023068486306763170e+00 -9.790384738108453888e+00
-3.182328998160608435e+00 -1.015346024790385648e+01
-3.398777560401418096e+00 -9.995707939067035142e+00
-3.504349570700899807e+00 -9.738592252231391910e+00
-3.916834037744810093e+00 -1.003589409708889413e+01
3.445007606619631124e-01 -8.129701315912504000e+00
-3.808934359124782620e+00 -9.887667807444012524e+00
-4.217943325805225463e+00 -9.951124702792286669e+00
-4.183004232725386906e+00 -9.599022172006595355e+00
-4.471559596395998426e+00 -9.680390837162109463e+00
-4.679028603216674576e+00 -9.558939698793494699e+00
-4.764923435428460863e+00 -9.406035106049367656e+00
-4.815393702050876357e+00 -9.210851515189220962e+00
-4.950479364506097824e+00 -9.277038405368395857e+00
-5.061417100282231907e+00 -9.007573382698826236e+00
-5.100646509965606867e+00 -8.806774168755708843e+00
6.470663906130976750e-01 -8.342506451413676416e+00
-4.561030747270375052e+00 -8.523431159964049542e+00
-5.160099845448360867e+00 -8.315949446409829804e+00
-4.516518052999799693e+00 -8.150332126495005269e+00
-5.081475580377560419e+00 -7.877311534915543589e+00
-5.108246118492813181e+00 -7.578130364173220279e+00
-4.362115747418818579e+00 -7.663073812371882454e+00
-4.522246354396039614e+00 -7.426346598360347606e+00
-4.902857365542988788e+00 -7.057379551748301338e+00
-4.779287854954245240e+00 -6.843061140749479243e+00
-4.475041371253352551e+00 -6.831496402008688129e+00
5.678555450848778996e-01 -8.589819796711518407e+00
-4.409795090849292443e+00 -6.561124652405188939e+00
-3.876366859842493628e+00 -6.898650762364606948e+00
-3.813166785350341925e+00 -6.477685740239877532e+00
-3.424912612816932267e+00 -6.783762055675414793e+00
-3.570454094445191462e+00 -6.068902998177736485e+00
-3.097600189709555085e+00 -6.341823558912247805e+00
-2.621462933669848727e+00 -6.564026469583951418e+00
-1.673401621067593492e+00 -6.661557924384215568e+00
-1.399867233433605973e+00 -6.442635844178264293e+00
-1.383999836173740450e+00 -6.867768803984269255e+00
5.669069429093654966e-01 -8.667540673459779299e+00
-7.517146598053804363e-01 -6.607146336706046341e+00
-1.202452957942263811e+00 -7.222952046307562490e+00
-1.053011141585504101e-01 -6.331208129260733841e+00
-7.769365407398081125e-01 -7.384543021630263659e+00
-2.782994243397525769e-01 -6.943030038753906119e+00
-6.702506626585529315e-01 -7.591707270975311950e+00
2.894370904300093764e-02 -6.975454959018200896e+00
-5.973518782937931038e-01 -7.667972633677480943e+00
1.744985259194956062e-01 -7.089837420645092259e+00
3.385195411807260801e-01 -7.045095915477655346e+00
9.511090874532862616e-01 -8.021049092044313156e+00
4.061179738677501705e-01 -7.241397209968098103e+00
8.297084886597657638e-01 -7.258528503608135729e+00
2.301639534551523092e-01 -8.636356641122537425e+00
2.382128741341910799e-02 -8.480518216949786137e+00
-4.928541857355152267e+00 -2.022906710656510043e+01
-5.403747458157923234e+00 -2.006302076395050094e+01
-5.449262560893691543e+00 -1.716865340187389677e+01
-5.150845895168300714e+00 -1.712619391722714113e+01
-4.924595626208913224e+00 -1.729146961775466096e+01
-4.269197828071169987e+00 -1.778752023757184020e+01
-4.136480558365041027e+00 -1.789611615378152365e+01
-4.077612994765314802e+00 -1.836186202671365209e+01
-4.594406472262218877e+00 -1.800539286049961163e+01
-4.716021636472071066e+00 -1.804922299491441251e+01
-3.207471181646279312e+00 -1.820413922906336879e+01
-3.740739531533475493e+00 -1.789855092222339294e+01
-5.665497850339499486e+00 -1.979773821049741045e+01
-3.254343917446070211e+00 -1.793992605464754675e+01
-3.824684604614968286e+00 -1.777070603794268777e+01
-3.811530655226911701e+00 -1.747912555074158547e+01
-3.503098880800758153e+00 -1.753726552324778609e+01
-3.727935234739852444e+00 -1.720412689300380649e+01
-4.024147813698965237e+00 -1.699136624224188807e+01
-3.202456928420438054e+00 -1.702275753679391812e+01
-3.814009678143488458e+00 -1.673107083524640259e+01
-3.277568359562454958e+00 -1.671942346504306798e+01
-3.329763698097167435e+00 -1.649571027812730861e+01
-5.904060310662045730e+00 -1.951310921430463807e+01
-3.078215190777328747e+00 -1.629093681127607240e+01
-3.212740212835929920e+00 -1.612979627863329668e+01
-3.569244815751034139e+00 -1.596455398613627175e+01
-2.032471852173090898e+00 -1.531149115656881499e+01
-2.658742901504403289e+00 -1.566858247759053135e+01
-2.573245307110990865e+00 -1.544664728485120975e+01
-1.772550994513300671e+00 -1.447366475849624479e+01
-2.318734718626227043e+00 -1.529478623105656254e+01
-1.566860156401231885e+00 -1.465418828130960804e+01
-1.015954766536499410e+00 -1.401020407925611444e+01
-6.125299792750726446e+00 -1.919979244239723215e+01
-1.377516325992482527e+00 -1.439270530547809024e+01
-6.605667798478819241e-01 -1.410050152642982901e+01
-1.162087157689015937e+00 -1.468228473740260220e+01
-9.317797349070349178e-01 -1.424956909314168740e+01
-3.928748157119869577e-01 -1.428090361726362900e+01
-1.051407628464391175e+00 -1.514683463752344927e+01
-9.099407419006964037e-01 -1.499954029652913334e+01
-7.051442847040235717e-01 -1.498085192305817159e+01
-3.570798109883737692e-01 -1.481704803209990295e+01
-2.664043729321323717e-01 -1.482337376832295917e+01
-6.278328777022900375e+00 -1.884945472163704494e+01
-1.545998329258741755e-01 -1.475758979689259398e+01
-5.487064001078628683e-01 -1.557823794227234515e+01
-2.878350812977603645e-01 -1.552714487475131833e+01
-8.382147157757612321e-01 -1.601427027057863484e+01
-9.885691747729609125e-01 -1.583316388297875221e+01
-7.178752903499601157e-01 -1.643627578767958397e+01
-7.609288721274883871e-01 -1.636891311035365959e+01
-1.006322311219102650e+00 -1.663494064343310086e+01
-1.071802868921621243e+00 -1.703517476746378989e+01
-1.253438147756673393e+00 -1.724127910752923398e+01
-6.199952261321585389e+00 -1.847809085175084576e+01
-1.417051214698516803e+00 -1.754571966986722487e+01
-1.522921315547826060e+00 -1.779390366475567120e+01
-2.140259563851710567e+00 -1.803038494445149098e+01
-1.890043950148893037e+00 -1.843194886076668482e+01
-2.428545570661312603e+00 -1.889883300985519199e+01
-2.595208619998018218e+00 -1.921862679431918153e+01
-2.815879589644024072e+00 -1.960374872348121755e+01
-3.050623879893016088e+00 -1.994520762348910026e+01
-3.386956914096816540e+00 -2.015617842620818578e+01
-3.635075272506159472e+00 -2.033086985494351495e+01
-6.258961407237594088e+00 -1.811147257398108223e+01
-4.047305483984116492e+00 -2.029040256707616052e+01
-4.505056790723173776e+00 -2.027068327464972342e+01
-5.960636753352796191e+00 -1.768271034829824018e+01
-5.739539384643073561e+00 -1.738857610095969264e+01
5.236339107580931795e+00 3.164546469496814041e+01
4.690895360222164356e+00 3.180018693690532672e+01
3.046867724217172668e+00 3.067515056663234674e+01
2.519633862433765081e+00 3.043411177897020181e+01
2.392898959579393470e+00 3.006159667905714983e+01
1.942281984567785669e+00 3.002014019994611971e+01
2.374753907251111684e+00 3.046294128959701553e+01
1.948940849892283556e+00 3.014313201257753150e+01
2.202376599091529830e+00 3.087756358541876267e+01
8.304132140525886108e-01 3.017775587862951525e+01
1.734336925147577979e+00 3.101137708637281420e+01
1.341371652539944836e+00 3.076029327732636176e+01
4.789801861321043575e+00 3.203429927659498588e+01
1.421256779777241519e+00 3.089342814575392637e+01
1.021056462800426168e+00 3.095801972399936020e+01
1.872663050272290464e-01 3.094450109869410070e+01
-2.427832582644172121e-01 3.086783067606187814e+01
1.698436294208882300e-02 3.120075882787766375e+01
-5.296657972880031151e-01 3.094011032480906209e+01
-5.990877267041080367e-01 3.109711160542423869e+01
-7.958696704493114504e-01 3.124711992147654982e+01
-6.635935593559140200e-01 3.149447994008113838e+01
-2.202836298561811346e-01 3.213268263227340071e+01
4.717110366016277645e+00 3.166844427591474798e+01
-4.786382265050078133e-01 3.192637519632082288e+01
-1.684038993522191108e-01 3.237338575587366307e+01
-1.105031799871767639e-01 3.260695970468478322e+01
-1.887607512430606871e-01 3.317665900663764234e+01
-2.193567410931773209e-01 3.398984106097827151e+01
-2.732963510119169048e-01 3.452019574707603056e+01
1.268418112655133045e-01 3.481873989932544333e+01
7.285214076492406710e-01 3.398914805498758085e+01
5.730436046496273361e-01 3.487836869616601376e+01
-6.356683339781252218e-02 3.458607412782787804e+01
4.271750179011045923e+00 3.077100870364485274e+01
1.308458344703279153e+00 3.444056676886952317e+01
1.011400494876153244e+00 3.521974465374345442e+01
1.131002116892019460e+00 3.514612902647942150e+01
1.577656559901173816e+00 3.546772026804494971e+01
1.744926206733852458e+00 3.485584387343343593e+01
5.560136288501675850e-01 3.329182262745440113e+01
7.288398038701076054e-01 3.455195876329562310e+01
7.355124585277299509e-01 3.347405132133462757e+01
1.152447362262153163e+00 3.380946739225324649e+01
1.410466693204990074e+00 3.408668700978739707e+01
4.560554981830254206e+00 3.128951863063411665e+01
1.156484798048369012e+00 3.347590336305569281e+01
1.928564577057234386e+00 3.424909632566973272e+01
2.347232076788257960e+00 3.461519994506927134e+01
2.415528324597262966e+00 3.438353702034251569e+01
2.681570157260858345e+00 3.445099050270631125e+01
3.146517571791215939e+00 3.468781250134762928e+01
2.004897978573978889e+00 3.356388204377118711e+01
3.419464414537368047e+00 3.421666415704751785e+01
3.355448285797538510e+00 3.339293221876402384e+01
3.518682106245920593e+00 3.399701140936152655e+01
3.984080081372066484e+00 3.120342649991964734e+01
2.736354041285768979e+00 3.358026980972593378e+01
2.377198066335813653e+00 3.306806873424723392e+01
2.848189821219571094e+00 3.326613942810602254e+01
2.677460238595240849e+00 3.307966876649402366e+01
2.774727064757135153e+00 3.286837510199362100e+01
2.520441614699555188e+00 3.256505299754434901e+01
3.955816858035167360e+00 3.289805512077672489e+01
4.110102960476411660e+00 3.252407597839533082e+01
4.117814429216826611e+00 3.298548341161195907e+01
4.296471110601844501e+00 3.264675798856107036e+01
3.694120531163226140e+00 3.121288787745358562e+01
4.075803580053753095e+00 3.198648022863896401e+01
5.242367953420015603e+00 3.177008148312370750e+01
3.573426342762196395e+00 3.076811732365351304e+01
3.419194762623364525e+00 3.066885449114754536e+01
2.807548042305825930e+01 -2.547906830381702736e+00
2.821438874006749131e+01 -2.841769830789373952e+00
2.605439111502751715e+01 -6.130418526848848693e+00
2.570838304445269884e+01 -7.002540557166563318e+00
2.513834090396348131e+01 -7.732823609058536718e+00
2.445097715857006193e+01 -8.005994634813744071e+00
2.405144026127672419e+01 -7.843790173585447612e+00
2.367292050604716280e+01 -7.756000271255916623e+00
2.344415208179685095e+01 -7.491898922455438203e+00
2.319403642708070379e+01 -7.329766185031634684e+00
2.316353412088063735e+01 -6.979715111438953734e+00
2.305821314039876668e+01 -6.719401520925610605e+00
2.815608749356861296e+01 -3.136298930471972835e+00
2.291300054221176552e+01 -6.457684563549024759e+00
2.255520715216664840e+01 -6.532422542468897753e+00
2.243738438044469419e+01 -6.039840209841595531e+00
2.240566725704062279e+01 -5.188062020756832204e+00
2.277463345502805581e+01 -4.614079668773220178e+00
2.311209715753892979e+01 -3.782857230535714876e+00
2.333262464820525750e+01 -3.155740040789406731e+00
2.363119882244237857e+01 -2.526668245293303805e+00
2.391069711595195102e+01 -2.064306898845596816e+00
2.413844547312586997e+01 -1.722408914803985169e+00
2.802809268338153359e+01 -3.419684551146898954e+00
2.441797638274272231e+01 -1.355764966431190821e+00
2.462453854007527454e+01 -1.059388271419051675e+00
2.483703930966890994e+01 -7.897495936584216780e-01
2.514480794672432040e+01 -5.882021012004811089e-01
2.548254733218027468e+01 -5.249807070756239424e-01
2.573226347013862281e+01 -5.823788691370723747e-01
2.590382940532636269e+01 -7.662796267881047951e-01
2.594709945566582121e+01 -9.395801037541674505e-01
2.574635133653710639e+01 -1.451614394879110259e+00
2.561513479183660280e+01 -1.606068750917757360e+00
2.783279602263278463e+01 -3.701715658020579891e+00
2.528240567668767369e+01 -2.043259703884090062e+00
2.490157344310874876e+01 -2.727607601956571592e+00
2.481625382991663642e+01 -3.073691722182714248e+00
2.476075905652165687e+01 -3.443199435101683026e+00
2.460823411965370866e+01 -4.147084976862803529e+00
2.425975774814780195e+01 -5.206467200965848363e+00
2.358610244598132866e+01 -6.094125314015731654e+00
2.362826840026095709e+01 -6.046306903230992624e+00
2.377878365319962128e+01 -5.850341990480218080e+00
2.374098752054473493e+01 -6.350239646257632486e+00
2.758087006193246182e+01 -3.974090040101877719e+00
2.385220172942892347e+01 -5.990098097890276918e+00
2.391817693328957262e+01 -6.634647353747795684e+00
2.400301599248427209e+01 -6.562248547068226578e+00
2.419194951744493594e+01 -6.113609233585385994e+00
2.420113921700900761e+01 -6.143070835597968404e+00
2.420060205807207154e+01 -6.610017956792628269e+00
2.445964688952658861e+01 -6.288494164993050362e+00
2.439871623365217701e+01 -6.731749250568451082e+00
2.437315331795233675e+01 -6.826234353981369019e+00
2.458694683077331078e+01 -6.618189696332883010e+00
2.732178737557436321e+01 -4.378601685830562751e+00
2.463068155612074150e+01 -6.323102794350637268e+00
2.465147873774429144e+01 -5.863102884070611864e+00
2.512827374397574687e+01 -5.012204802222265165e+00
2.581683391624955348e+01 -4.180040533162991956e+00
2.630823218059857638e+01 -3.810834243298701463e+00
2.657055128860514870e+01 -3.645347190094628598e+00
2.666074690928062907e+01 -3.416133475291796895e+00
2.690700348385508889e+01 -3.155704623009599086e+00
2.712827465646452652e+01 -2.836865258936115186e+00
2.735718037153710469e+01 -2.558702825714572082e+00
2.701309008479540807e+01 -4.671810126548789910e+00
2.756162032474605184e+01 -2.474395114358814318e+00
2.777047432210394717e+01 -2.548286276906333470e+00
2.668270155139524746e+01 -5.203456021320773672e+00
2.640444502687649830e+01 -5.718963294123292407e+00
2.209096357173194392e+01 9.611596072814926117e+00
2.141324280258521640e+01 9.946019966210013052e+00
1.459046282421844154e+01 6.849324142590641706e+00
1.405789208570413784e+01 6.064405460782666069e+00
1.355781584014943952e+01 5.209243105949862063e+00
1.245593626197029025e+01 3.030352581699264469e+00
1.018480423099238585e+01 9.471678401575099882e-01
8.472258676398782384e+00 -4.840600630953716954e-01
3.199631517347830467e+00 -3.635978821533951244e+00
2.099110775970887577e+00 -4.711614862535986603e+00
2.393367424677186328e+00 -4.865308414415436822e+00
3.959822297399541835e+00 -4.204414079938461057e+00
2.048120350160965941e+01 1.022758468782719099e+01
8.924284298051581743e+00 -2.730342306258661811e+00
1.515086734733089813e+01 -9.941758999253728080e-01
1.744461025881177108e+01 -3.070432919315659870e-01
1.845646871322868421e+01 -1.705017210319626636e-02
1.955739367249707428e+01 7.071497115808678124e-01
2.045365573756005162e+01 1.397059680812388072e+00
2.125540956123678527e+01 2.016396624434152240e+00
2.202992593002040778e+01 2.620208412557334832e+00
2.286181675429619631e+01 3.225237267035124145e+00
2.340495736784762926e+01 3.978964374389503345e+00
1.987175481753485329e+01 1.021788571409066115e+01
2.374539960208065992e+01 4.905706116760704560e+00
2.398911426923617185e+01 6.118631763955500347e+00
2.404993428474662309e+01 6.990186859963732680e+00
2.390876233029318954e+01 7.640989962852891892e+00
2.359605417954629303e+01 8.213173683294703764e+00
2.306345613432725727e+01 8.880269668398600658e+00
2.241077101114100145e+01 9.460602671252535956e+00
2.168529302338879106e+01 9.903305379114431872e+00
2.104705422312303753e+01 1.012122297180671282e+01
2.008998820273942343e+01 1.024721988673914375e+01
1.922123824717011686e+01 1.003512206571396526e+01
1.922790498400896197e+01 1.023611007101582437e+01
1.825905702196497771e+01 9.944308724995469362e+00
1.728371574386003218e+01 9.468536277741327112e+00
1.649060290473262214e+01 8.875771954420205390e+00
1.577148732783428997e+01 8.183345898382819783e+00
1.498785702355498550e+01 7.300123220411617986e+00
1.440731529824889989e+01 6.520430294216952305e+00
1.386191021009504531e+01 5.693220878223680614e+00
1.332680996192683232e+01 4.336727853672085686e+00
1.154085054682698086e+01 2.241383908690856686e+00
1.825852508794783802e+01 9.788671149328958876e+00
9.658214383766571487e+00 5.956096296752547703e-01
6.534394516646293560e+00 -1.293232918831886957e+00
2.282744206928345232e+00 -4.226519536418603451e+00
1.428715414645788773e+00 -5.128703828349603810e+00
1.430736649324363396e+00 -5.194754751587209007e+00
2.830534056920343655e+00 -4.722143096802065898e+00
5.412928062373498328e+00 -3.625448713087455310e+00
1.347012098467687125e+01 -1.122828991500769202e+00
1.650054707296150980e+01 -3.738509930483416288e-01
1.806300081927804868e+01 -8.204913660639810702e-02
1.740743458061543691e+01 9.392014248404151999e+00
1.929282357613681853e+01 5.077976016251708469e-01
2.032759176470774776e+01 1.301866794104336034e+00
2.112698404459328572e+01 1.898014839571503520e+00
2.201791994596442947e+01 2.537585174354427764e+00
2.288884273234893385e+01 3.205011694371550313e+00
2.359371820591004010e+01 4.023332839393283678e+00
2.403630987221460913e+01 5.180455372748724585e+00
2.411805337240917169e+01 6.215410513815720073e+00
2.403382529062301032e+01 7.238834448641522812e+00
2.382574143600247751e+01 7.833253716030366576e+00
1.663221846360615075e+01 8.830589199091868124e+00
2.328098377300418065e+01 8.578375098484375627e+00
2.280528359484991796e+01 9.151949659318580288e+00
1.591853136634529342e+01 8.290364389005008050e+00
1.522397781612435530e+01 7.628950677515930145e+00
-8.604133399058005338e+00 -4.946045831857972530e+00
-8.971026560335216615e+00 -5.289370656072055255e+00
-9.661816688569553335e+00 -7.899805367103773790e+00
-1.000661899397084653e+01 -7.846917523028555053e+00
-1.032478280452406061e+01 -7.769157043434691268e+00
-1.083902548515644604e+01 -7.535360644900512384e+00
-1.129798736247211366e+01 -7.254759182994568789e+00
-1.186865358461085407e+01 -6.948708892496575196e+00
-1.241228460336932571e+01 -6.661440029800435703e+00
-1.296865547313665523e+01 -6.497896294838151121e+00
-1.348872566871011180e+01 -6.408937147535673340e+00
-1.391567636111472517e+01 -6.438861897812513391e+00
-8.862942804768751515e+00 -5.538257084194418312e+00
-1.441590312716761879e+01 -6.483115318141557282e+00
-1.496593428299182627e+01 -6.555244066797524916e+00
-1.534435708454426361e+01 -6.608709608309308869e+00
-1.586939002924709996e+01 -6.664007495566326433e+00
-1.630015027591180754e+01 -6.706308582452807698e+00
-1.666713550991863002e+01 -6.739166782731417449e+00
-1.696512725148296141e+01 -6.758792429835065896e+00
-1.711528187410756630e+01 -6.768395228105337225e+00
-1.724757428944107218e+01 -6.797762726402677202e+00
-1.763175461048056647e+01 -6.940109686511779508e+00
-8.819440369736103236e+00 -5.726174811324260538e+00
-1.802029893522223247e+01 -7.087741585035554515e+00
-1.844538936843367338e+01 -7.243395368750318752e+00
-1.874663282879716064e+01 -7.362227348431344076e+00
-1.892512434718866743e+01 -7.477780803989019454e+00
-1.913511091385278462e+01 -7.620507193851508987e+00
-1.939028844238344007e+01 -7.194496863622379834e+00
-1.973161220221019718e+01 -7.482553788881856960e+00
-1.945359980604281347e+01 -7.942232072821108879e+00
-1.982955726613423764e+01 -8.250873601910281963e+00
-1.943217568212807933e+01 -8.247946457092808714e+00
-8.808895134846345343e+00 -5.998097710491880896e+00
-1.945659368524972876e+01 -8.811647164043709068e+00
-1.912673919058399719e+01 -8.725443097282516547e+00
-1.892516406491671077e+01 -8.927626264958350433e+00
-1.862261462213642105e+01 -9.174461339873246857e+00
-1.819909214940748399e+01 -9.468225771101529631e+00
-1.774639067779374102e+01 -9.716426594640259040e+00
-1.737767178614972252e+01 -9.887334987706285716e+00
-1.692859487227166326e+01 -1.007017557637980865e+01
-1.645986469109181627e+01 -1.023213626040939950e+01
-1.604724303548940512e+01 -1.033914750190789356e+01
-8.861797960234264693e+00 -6.410732440721081282e+00
-1.558001821001313125e+01 -1.039020057961343646e+01
-1.509945285908288248e+01 -1.036822322006878139e+01
-1.463538331514812008e+01 -1.029363243174348241e+01
-1.423491613230634023e+01 -1.015742360830173041e+01
-1.390821034501006714e+01 -1.000986284512897484e+01
-1.339593995578467833e+01 -9.724882708296188838e+00
-1.307456601110010119e+01 -9.533600511469042971e+00
-1.283761883101753831e+01 -9.345039660586024866e+00
-1.247850882534077144e+01 -9.024185090328643355e+00
-1.226460524230208371e+01 -8.801561237052894171e+00
-8.991865090605482891e+00 -6.845489190591079520e+00
-1.207303265409742998e+01 -8.564263021192653369e+00
-1.192569431171749095e+01 -8.344258233605097885e+00
-1.165998949941191576e+01 -7.862099357722989623e+00
-1.095655311570432922e+01 -6.502865453226938541e+00
-1.060257519568670759e+01 -5.891444149913659167e+00
-1.032787363911339540e+01 -5.474253280864045834e+00
-1.013245538884658892e+01 -5.222845145973860959e+00
-9.944499620468924661e+00 -5.056571223731887166e+00
-9.811619688406942430e+00 -4.972116416975004505e+00
-9.638379988690013889e+00 -4.922627010682848692e+00
-9.220052324694036017e+00 -7.435837355373636548e+00
-9.436276200365636413e+00 -4.472134975134012258e+00
-8.968776512094553510e+00 -4.614600395948026623e+00
-9.060480926572854088e+00 -7.925495872034004741e+00
-9.312478481544665954e+00 -8.202420770876983624e+00
-3.399808695292232841e+01 -1.862282363155757281e+01
-3.385415342684487428e+01 -1.890039872432673462e+01
-3.463586871188382332e+01 -2.104074741460187425e+01
-3.448956797708588340e+01 -2.100003772863200524e+01
-3.439558492679856272e+01 -2.100190305129840240e+01
-3.445572362696520941e+01 -2.147978512021217767e+01
-3.446558311734742119e+01 -2.195522291430347295e+01
-3.441220544205457799e+01 -2.216769698445301628e+01
-3.439625095796615284e+01 -2.214879454327651231e+01
-3.433790015333946144e+01 -2.279050958060012277e+01
-3.428996023609297339e+01 -2.295884419259702369e+01
-3.422329195773684773e+01 -2.317256003408681764e+01
-3.389446205473810636e+01 -1.902579223694349864e+01
-3.390663399265475419e+01 -2.322067044476397868e+01
-3.408912410616238020e+01 -2.366976627133428579e+01
-3.397920214009431561e+01 -2.380256598294793591e+01
-3.332549486162354668e+01 -2.338571109954517269e+01
-3.326898256749020533e+01 -2.384321361704538234e+01
-3.351318176304836527e+01 -2.429816807852663985e+01
-3.295904954070974213e+01 -2.385374038580026124e+01
-3.319574482218580158e+01 -2.437029153309814689e+01
-3.283304098648729052e+01 -2.455486070451721048e+01
-3.257914265669866438e+01 -2.449208082384971874e+01
-3.429522286142251630e+01 -1.929319895892827930e+01
-3.230479924719528384e+01 -2.451763206764104908e+01
-3.217908998799988751e+01 -2.450584683511183570e+01
-3.215697927268024614e+01 -2.394854400031740838e+01
-3.173240727612743584e+01 -2.416936072179165151e+01
-3.192665206340787876e+01 -2.358942909431274160e+01
-3.160181897426850739e+01 -2.402242874813257600e+01
-3.125433680029994576e+01 -2.365868011122810088e+01
-3.108011970971049465e+01 -2.342765700565828624e+01
-3.095202318419676502e+01 -2.312349955241840505e+01
-3.164148555081291292e+01 -2.307211363990334618e+01
-3.431068100997077153e+01 -1.950645663932225560e+01
-3.079163541311741525e+01 -2.281716225987016244e+01
-3.157273731117901505e+01 -2.259763851592806105e+01
-3.116247596384805618e+01 -2.262184571270760003e+01
-3.151433568756168668e+01 -2.231057921768370989e+01
-3.091584368019698559e+01 -2.203466179795361413e+01
-3.096328474158259070e+01 -2.184392517388851829e+01
-3.098084920310276758e+01 -2.182574771200832942e+01
-3.106277534757149184e+01 -2.140321060122055741e+01
-3.112812665079230712e+01 -2.121642127555038826e+01
-3.116361215044476296e+01 -2.123739799996121036e+01
-3.436324331917001729e+01 -1.972503433368101611e+01
-3.133705166279581888e+01 -2.076239324283728749e+01
-3.143285161518601356e+01 -2.035069859781667390e+01
-3.152447854299679975e+01 -2.015771900619567347e+01
-3.162456015811996224e+01 -1.993679134301133615e+01
-3.180991715684062271e+01 -1.995767312092340973e+01
-3.202240509514798106e+01 -1.959371669816710337e+01
-3.199346307852941251e+01 -1.926809314250021643e+01
-3.215585284822896739e+01 -1.925578108309088776e+01
-3.226679217114813270e+01 -1.897521539939401691e+01
-3.224796824668641193e+01 -1.868137152702221826e+01
-3.452874543861202028e+01 -2.020800534980739727e+01
-3.220860259115993074e+01 -1.857898704873214868e+01
-3.228518763826936322e+01 -1.837882143100305044e+01
-3.259657085996055059e+01 -1.807016967007550434e+01
-3.268634128802278127e+01 -1.782379879780712884e+01
-3.284174801211299410e+01 -1.749426261431680629e+01
-3.319311301245096502e+01 -1.750761742171151525e+01
-3.345049645049122944e+01 -1.753083447059257338e+01
-3.354741994886039436e+01 -1.806954501729286378e+01
-3.393542046527257128e+01 -1.777524971158584677e+01
-3.422649181617199332e+01 -1.785267629574250847e+01
-3.456808345155207718e+01 -2.038147241744387372e+01
-3.447658325062601392e+01 -1.835930486205107925e+01
-3.430425852173777912e+01 -1.829416900624089237e+01
-3.459452976241926336e+01 -2.059495960997173469e+01
-3.462314245464013140e+01 -2.082061849582668245e+01
-5.024764375102845904e+00 3.477291476699202022e+00
-5.064576117479807849e+00 3.432619468552642328e+00
-7.504825863013309117e+00 1.235727244746265496e+00
-7.909021815868595873e+00 1.283372526325713636e+00
-8.154925846417054203e+00 1.302616265840657261e+00
-8.469160967778590177e+00 1.431147803277645902e+00
-8.941875248127578502e+00 1.793853606407481260e+00
-9.764879476590476060e+00 2.561271137771279793e+00
-1.078040621450977810e+01 3.392842303909535673e+00
-1.129328193732640884e+01 3.624177278536078184e+00
-1.145255709604004579e+01 3.332079616081820905e+00
-1.129790048541711656e+01 2.356444983198872301e+00
-5.138617823242226379e+00 3.428650222239407519e+00
-1.081659977195282529e+01 1.403888176194060033e+00
-1.078147857745356042e+01 8.742713397733498093e-01
-1.091213725373268417e+01 5.951585038111965043e-01
-1.108822153393891519e+01 3.934304753466952298e-01
-1.125854541161750788e+01 9.563250419863321417e-02
-1.211492259255212289e+01 7.846401799290925183e-02
-1.291249344953721234e+01 1.052014008480359891e-01
-1.354269804757837292e+01 1.966182239461828907e-01
-1.406293763182450363e+01 8.888966258544455474e-05
-1.469445158206645807e+01 -3.286306345193345385e-02
-5.444414034143788328e+00 3.260385411563341940e+00
-1.515954914630350636e+01 -6.554390691114099221e-01
-1.565838666283867653e+01 -1.115167529704268246e+00
-1.617003796448246433e+01 -1.589560456237659514e+00
-1.580797395994852472e+01 -1.960688647272096352e+00
-1.581107675963428605e+01 -2.107093646371840823e+00
-1.579659571198381940e+01 -2.256757517117497169e+00
-1.580825211858843460e+01 -2.386756592017245993e+00
-1.574998632149005573e+01 -2.460819015970566070e+00
-1.556422508625123413e+01 -2.499930109706871129e+00
-1.545364688889958771e+01 -2.534971900235666986e+00
-5.684702454505736746e+00 3.106303028486415485e+00
-1.518871127066263860e+01 -2.541507683618040137e+00
-1.470148100186051998e+01 -2.566030177796347456e+00
-1.438195747752128106e+01 -2.582812235980408655e+00
-1.386055319073412839e+01 -2.594524788416757044e+00
-1.349086075970682330e+01 -2.579668242247650678e+00
-1.306041575328271165e+01 -2.538271446043317781e+00
-1.266144879957719027e+01 -2.484112690084010033e+00
-1.241156814205560721e+01 -2.422815939719489720e+00
-1.193514795492835212e+01 -2.285558111686079918e+00
-1.107990019954558392e+01 -1.906732331980390382e+00
-6.056666761651976039e+00 2.819978189716560113e+00
-9.922500365825628776e+00 -8.980286350671633500e-01
-8.731326313063489053e+00 3.712690167921855799e+00
-8.227936433851779086e+00 8.023823519781323910e+00
-8.040681300139322474e+00 8.455264769938699132e+00
-7.891555786543960060e+00 8.510219620077366542e+00
-7.036522746188890842e+00 8.442660891696002423e+00
-6.567928157667538791e+00 8.088119259167212860e+00
-5.885799638268481182e+00 7.266518461602099244e+00
-5.408286446406527226e+00 6.734749937592464875e+00
-5.220971703698417343e+00 6.535045710908594430e+00
-6.298158355548540754e+00 2.600751822917362066e+00
-5.083490915676610378e+00 6.385227123285988959e+00
-4.865764573549593131e+00 6.130899719170414208e+00
-4.618450592726182968e+00 5.819434442612363867e+00
-4.438372102107440043e+00 5.553559586303144613e+00
-4.291875249724226293e+00 5.283850279739517042e+00
-4.209280301211603792e+00 5.033495953440414894e+00
-4.016971111966848973e+00 4.712182597779541737e+00
-4.044665905799241123e+00 4.356350281740030361e+00
-4.348599562649040351e+00 4.053070499325666098e+00
-4.426393393963528489e+00 3.876830620761584800e+00
-6.573646829680274806e+00 2.328176580681258656e+00
-4.596002478947808001e+00 3.607868346480103572e+00
-4.757688623041044451e+00 3.494697516391717329e+00
-6.712177898880423044e+00 2.185732518864722973e+00
-6.965130628586059025e+00 1.779428783431443506e+00
2.201754014148977490e+01 8.668788914189599737e+00
2.129291391984829218e+01 9.128248926098461169e+00
1.588320942225267096e+01 6.716772619672550348e+00
1.546413941219476840e+01 6.065358254589471976e+00
1.516365431677096787e+01 5.436851916288521380e+00
1.479806076505832202e+01 4.683902541131779174e+00
1.411127400402974352e+01 3.399249030970229679e+00
1.269926521736285174e+01 1.914578804260734124e+00
1.118983278321391595e+01 1.101527696703339609e+00
1.164051532859391358e+01 9.829590233828081614e-01
1.180109121101160952e+01 9.578387093980067490e-01
1.440904745295443057e+01 1.061718364419999672e+00
2.078459161242346198e+01 9.269979052707428835e+00
1.551109256304231288e+01 9.182330475723105012e-01
1.844135569323761814e+01 3.849316519876159748e-01
2.035424938877641665e+01 3.692937013943231039e-01
2.130493334802309846e+01 6.839147739944289039e-01
2.189297544059819955e+01 1.006320015890195041e+00
2.240893477255913879e+01 1.365681335716877554e+00
2.305038332900823406e+01 1.978841197148483166e+00
2.417997767597034198e+01 2.933433543871025062e+00
2.451789304158087646e+01 3.460926636074296514e+00
2.472995321829139925e+01 3.965804320413806483e+00
2.040947467142653338e+01 9.310611661846511566e+00
2.473556110415431064e+01 4.647228266274694874e+00
2.292617299091977756e+01 6.331618197381610358e+00
2.227293886886715413e+01 6.870835087156388354e+00
2.201128071053437552e+01 7.180210135929342208e+00
2.168923747642147148e+01 7.546329822979500612e+00
2.134483597196134852e+01 7.921993919743812285e+00
2.096262620871262428e+01 8.001318453822628740e+00
2.050122894195292034e+01 8.096934042184653180e+00
1.997319736462982931e+01 8.229671009117625502e+00
1.942511171413148219e+01 8.100745361976315451e+00
1.981643485306644692e+01 9.290375430224687037e+00
1.882800581919608263e+01 7.996999841571938994e+00
1.828821762111140714e+01 7.808205321415688793e+00
1.778499295486419740e+01 7.559382378056876739e+00
1.737376296561839695e+01 7.067345913337786278e+00
1.690587889291226986e+01 6.645787168758189978e+00
1.645062085560951459e+01 6.341858069436156597e+00
1.588005751056197390e+01 5.739547837119856055e+00
1.441348879280055506e+01 5.093449377085370600e+00
1.297296576205902774e+01 4.429261042764252920e+00
1.188996763290755077e+01 3.636989048563724847e+00
1.915949188582329654e+01 9.132156280585851604e+00
1.004823907114309023e+01 2.150170786787235055e+00
8.472069202732084747e+00 1.171971565506432444e+00
7.346498807546413268e+00 5.221968682646213056e-01
7.104603660764232664e+00 1.898059488004199269e-01
7.265084426759202962e+00 -3.983419701493423060e-01
7.715156337251712237e+00 -6.434627863262406544e-01
1.197764473836469179e+01 -7.582826026153474119e-01
1.456713289884981855e+01 -3.198015371603641355e-01
1.783112149325082996e+01 1.020361786385063807e+00
1.864604912184460161e+01 1.399464657904473830e+00
1.868693489890264914e+01 8.933526897985393234e+00
1.931035588268582615e+01 1.762263978282799126e+00
1.991751003838921008e+01 2.214153179044125341e+00
2.046343704409029129e+01 2.782158985142035412e+00
2.093015821018963152e+01 3.761627303601163153e+00
2.144128294463254036e+01 4.411328161402257919e+00
2.193483470357026377e+01 4.978825889904686441e+00
2.247698097275738860e+01 5.457794591184702782e+00
2.264017227002674559e+01 6.037313300100941582e+00
2.300930177279360578e+01 6.724235694650640305e+00
2.284690820790047994e+01 7.493897971661690249e+00
1.815727585045472736e+01 8.703068713109679777e+00
2.256116639004970992e+01 8.023907534446648171e+00
2.232999565312254830e+01 8.326517108650433485e+00
1.748502612976503912e+01 8.298818440008767894e+00
1.660356416413860359e+01 7.578177071382142138e+00
-1.429522908157547789e+01 1.671817010740158338e+01
-1.407091778667748194e+01 1.689010391326148408e+01
-1.071424561929638841e+01 1.382672112230208583e+01
-1.037546827751210010e+01 1.332489834704331066e+01
-1.002441392514468177e+01 1.292463440815476261e+01
-9.683424346774653912e+00 1.314534648902433744e+01
-9.250275095964678229e+00 1.322421391192440865e+01
-9.229651467435674661e+00 1.372555883583073566e+01
-8.676735648543509427e+00 1.370148760219859696e+01
-8.489431450563266424e+00 1.401831990746671686e+01
-8.761016028812690593e+00 1.445160312252652446e+01
-8.264388658538432963e+00 1.467617816210222514e+01
-1.358073501656797255e+01 1.703131987464212571e+01
-8.826534123260795894e+00 1.504658714120374086e+01
-8.529944191161888511e+00 1.544688979838703347e+01
-9.043360543052564537e+00 1.574270151096485293e+01
-8.850593948614134732e+00 1.613089702478831811e+01
-9.004651013709203511e+00 1.671596911005352482e+01
-8.972396124087616442e+00 1.712758550178305583e+01
-8.780516127377856250e+00 1.755214318053739220e+01
-8.537998222316897312e+00 1.781047945269691368e+01
-8.223672818179400323e+00 1.806439674921113081e+01
-7.966399377241832447e+00 1.818015694659660753e+01
-1.302279449462109717e+01 1.702218382849673617e+01
-7.699160726165338531e+00 1.823037862658146580e+01
-7.399916551350716354e+00 1.822622891335755568e+01
-7.101499436869412207e+00 1.828599289621079649e+01
-6.959216877068370444e+00 1.823892400210749187e+01
-6.670946810886687395e+00 1.818739544091403459e+01
-6.591237902042334618e+00 1.807099587377930661e+01
-6.451310942096311507e+00 1.789405816826527129e+01
-6.478286649883675530e+00 1.762119166730949971e+01
-6.572880661878767405e+00 1.728744641593582188e+01
-6.461430559874584922e+00 1.706964467091858140e+01
-1.253018223722397195e+01 1.687093147201357723e+01
-6.459293289393379212e+00 1.669384568139172487e+01
-6.433172452830194565e+00 1.619504706366399205e+01
-6.372231109322762599e+00 1.560159671198585407e+01
-6.296990988369401521e+00 1.473047982390306743e+01
-6.097239408716172981e+00 1.382239009509450511e+01
-6.243568207372066858e+00 1.336425154588674147e+01
-5.868415576528121846e+00 1.285199306531735708e+01
-5.949766708031883233e+00 1.245019132779181525e+01
-5.940082066544261963e+00 1.205307503529173552e+01
-6.268470050344564726e+00 1.184008416105760553e+01
-1.209041705444937698e+01 1.655274826727015736e+01
-6.371618743110766481e+00 1.153624953048059609e+01
-6.770881456862395176e+00 1.170430829451037802e+01
-6.907310020812453821e+00 1.124005369586623004e+01
-7.226178237812923122e+00 1.131816659883719822e+01
-7.465122364026059110e+00 1.129181387955717319e+01
-7.717371357023752765e+00 1.145377073993283545e+01
-8.027364214080193960e+00 1.156760755735223789e+01
-8.292589895286260671e+00 1.156222374764648997e+01
-8.596284010040006862e+00 1.167401176222393744e+01
-9.120369900111024108e+00 1.186552427537035115e+01
-1.165989726705883278e+01 1.605937487998076563e+01
-1.127900085962852295e+01 1.290399810051575891e+01
-1.216266760694548488e+01 1.350035690544606481e+01
-1.268167863205741597e+01 1.385246274036347280e+01
-1.326633051006300512e+01 1.426645905715396445e+01
-1.372758471376481104e+01 1.465479288705964045e+01
-1.400342983732878466e+01 1.494537991062173354e+01
-1.418057374573732510e+01 1.518053711538031436e+01
-1.435040941564831662e+01 1.548201127670583865e+01
-1.446484893307254005e+01 1.580012138794710630e+01
-1.450110422708262803e+01 1.606075714274530242e+01
-1.138805851474810993e+01 1.554285352636715878e+01
-1.448118251844148219e+01 1.629571774103489545e+01
-1.441754410406382014e+01 1.652508980587877829e+01
-1.110371135851919178e+01 1.495050802308501758e+01
-1.096473261382726427e+01 1.439922860999209320e+01
1.848832464768404904e+01 -6.965399474002462732e+00
1.780751088462131548e+01 -6.782929552707016363e+00
1.296530171285304078e+01 -3.209389714336607025e+00
1.204139639954664354e+01 -2.607640008502312590e+00
1.094002607876195654e+01 -2.249266244653538305e+00
9.621523554511679066e+00 -2.074409860598507294e+00
7.228746725455343025e+00 -2.335907367582243044e+00
4.460239449210599005e+00 -2.152007148055495644e+00
3.829227477950146952e+00 -2.099575071537819415e+00
2.896045429634994228e+00 -2.158021953680165250e+00
2.981916349706611680e+00 -2.269831355387325722e+00
3.727318679384294953e+00 -2.829568180618157403e+00
1.714267545312196361e+01 -6.496485375433189269e+00
7.900939999207226450e+00 -3.326918319935964430e+00
9.859153020166102621e+00 -3.367645503926700812e+00
1.367821181839585343e+01 -2.301348029577152232e+00
1.590342381331349308e+01 -2.070578238693634887e+00
1.692876742433513115e+01 -2.078721630835626222e+00
1.750970628435377563e+01 -2.246864295524405808e+00
1.804817061968357450e+01 -2.547914799881604075e+00
1.841745806498504123e+01 -2.937449332437331417e+00
1.858809303100773391e+01 -3.339450154287306738e+00
1.871848751931369392e+01 -3.776394600916221922e+00
1.665452883956983499e+01 -6.152346887033922407e+00
1.878677361233286192e+01 -4.145556840096574547e+00
1.879523270856402917e+01 -4.435908377834283378e+00
1.874400816838286232e+01 -4.722001300982437755e+00
1.853602265747937849e+01 -5.072984121216577158e+00
1.833222822327356738e+01 -5.306497522316963256e+00
1.816121612822421127e+01 -5.457298858237511929e+00
1.796432560980582949e+01 -5.484918820778475812e+00
1.761452660159349648e+01 -5.393466864795108506e+00
1.720687282640826155e+01 -5.236456221111963849e+00
1.684873873498425212e+01 -5.076683828818937982e+00
1.644022228542416642e+01 -5.990317672070387900e+00
1.660950852558280744e+01 -4.936665288824170439e+00
1.635421483749993499e+01 -4.753987954125601156e+00
1.604113397897985038e+01 -4.532324159596238466e+00
1.561012557694842329e+01 -4.260388949953529902e+00
1.518191203971264613e+01 -3.971324132765519543e+00
1.473082789383374269e+01 -3.670110579992940991e+00
1.397128210619865207e+01 -3.134014733642904282e+00
1.270396698725697604e+01 -2.270999893964676719e+00
1.140159016344694898e+01 -1.917931508378772687e+00
1.019743874518982807e+01 -1.739756261493266010e+00
1.612034036869837550e+01 -5.807081034410411569e+00
7.985760972645813638e+00 -1.731124392651307797e+00
5.167707830555825055e+00 -1.164881584820908422e+00
4.252740168826398381e+00 -1.100128078440581803e+00
3.491404224180772786e+00 -1.118888187106233723e+00
3.417819264436591453e+00 -1.241768310624312477e+00
4.790178385718102838e+00 -2.993926890593997303e+00
6.790423750300607075e+00 -3.628457967294991704e+00
1.121182377676741559e+01 -3.582663599627875506e+00
1.496330323087925862e+01 -2.351538898860160209e+00
1.645519560593457342e+01 -2.204130857181466840e+00
1.555491588751284127e+01 -5.362504285786724445e+00
1.716190731524765667e+01 -2.176184131387337573e+00
1.788013946065131421e+01 -2.238660260832505244e+00
1.856671812449392434e+01 -2.498643891150444940e+00
1.909056430788367464e+01 -2.866094511146797252e+00
1.944438324323677136e+01 -3.284349506390779272e+00
1.967759545344322092e+01 -3.698706667426602479e+00
1.979927445027626121e+01 -4.068808095509943712e+00
2.002679915993503457e+01 -4.443786238705887293e+00
1.993893249346624685e+01 -5.131887540720943441e+00
1.966932367777211255e+01 -5.799190565491387339e+00
1.498275044222403807e+01 -4.853292477420239059e+00
1.929492514724506691e+01 -6.448065167028317113e+00
1.893421760423386857e+01 -6.847346330401957282e+00
1.444869887054066915e+01 -4.362651522513560032e+00
1.385832445675568714e+01 -3.826986908198925175e+00
2.287800478170020924e+01 1.022272065766732752e+01
2.147932978889644318e+01 1.097611292584214659e+01
1.422916282312321457e+01 7.828630290286042737e+00
1.360738135319282627e+01 7.146732053487856895e+00
1.289387975135818110e+01 6.380943178061263765e+00
1.179480731285084794e+01 5.028380470640162692e+00
1.052263294217746648e+01 3.822257885074003880e+00
9.117266599894032097e+00 3.023769945564713346e+00
8.166361311577064797e+00 2.568991177359148725e+00
6.244331270659070121e+00 1.334961412718377538e+00
6.253959419807639364e+00 1.321303443492198193e+00
1.032407025431683678e+01 -4.564652650931930178e-01
2.047647587847426109e+01 1.120333279743166699e+01
1.275546887094516002e+01 -1.566374008042694665e-01
1.483069430986939352e+01 3.824233562600257152e-01
1.637449550810030630e+01 1.068690907826237879e+00
1.796661518938646296e+01 2.246788396632846574e+00
1.898908915890282501e+01 2.715577368849837026e+00
1.959834584695313353e+01 2.996161931693327674e+00
2.050416876260944576e+01 3.322753310219256573e+00
2.147048240482855164e+01 3.561703483596654785e+00
2.234340669479499297e+01 3.964176436239137402e+00
2.301140156807285564e+01 4.399929401860568134e+00
1.951537115740239159e+01 1.121033408407286913e+01
2.413508551666264523e+01 4.894440522071938027e+00
2.492684317422243012e+01 5.624342982197798158e+00
2.522021169277160979e+01 6.428463253472228800e+00
2.527835455410896870e+01 7.499711128992480269e+00
2.489543186252180007e+01 8.659049465346351226e+00
2.429831868896527070e+01 9.546603678224965250e+00
2.347542859520057590e+01 1.033673706205875042e+01
2.249609727162181017e+01 1.085823987646991640e+01
2.144504766886977976e+01 1.131817409548750852e+01
2.012959842403234845e+01 1.148362150817697724e+01
1.860557099733936681e+01 1.101825208718300431e+01
1.890450296894692883e+01 1.146129076077719056e+01
1.788497853230081347e+01 1.119866668266888432e+01
1.694288445309520341e+01 1.075480878462678369e+01
1.601952896334395504e+01 1.016748561367935366e+01
1.515380046200184339e+01 9.435536339277076578e+00
1.437122164280927805e+01 8.619706928095579812e+00
1.376573425961587560e+01 7.920124167173320018e+00
1.324635986305688107e+01 7.255144403284974786e+00
1.240716844984926759e+01 6.073693745482779960e+00
1.132994358700799076e+01 4.536024807918373369e+00
1.777911136543110260e+01 1.071689785045777654e+01
1.018630720354005526e+01 3.246184791584051155e+00
9.017693168913091029e+00 2.397246352745515896e+00
7.700602970397490310e+00 1.872134227112333793e+00
4.561434999655463507e+00 1.015795846889863574e+00
4.794094615719448171e+00 5.438013238726332466e-01
9.418598385253455163e+00 -5.916007121611708275e-01
1.143316527631583313e+01 -4.924406437664732294e-01
1.382713833576409002e+01 2.814708585729958773e-02
1.674886966014366507e+01 1.291317856183099799e+00
1.768597778819604116e+01 1.805146413923949256e+00
1.697367328152258992e+01 1.033719982663475001e+01
1.859989676698778993e+01 2.225169298058185863e+00
1.961694741367344008e+01 2.654332136340233905e+00
2.045146987282696571e+01 2.991957083406388218e+00
2.128321821561963745e+01 3.333223928349813736e+00
2.209215576951150339e+01 3.911147018937645381e+00
2.284643481841258605e+01 4.558941364983299493e+00
2.361965084049744235e+01 5.295956747430972555e+00
2.453628792293256566e+01 6.072631631570417632e+00
2.476736854873069404e+01 7.095082781587097820e+00
2.444531262805664440e+01 8.333402453667901000e+00
1.618122456792117703e+01 9.847110151726417016e+00
2.387376905427601770e+01 9.338247278097384196e+00
2.346822489692317859e+01 9.811711139655496794e+00
1.558447149902853468e+01 9.355833882045997640e+00
1.489498381416855999e+01 8.621087471267603775e+00
-2.153844892168508718e+00 -3.280748643321387714e+00
-2.978284447735627616e+00 -3.329608541172107028e+00
-5.321538507341196933e+00 2.524354442300376089e-01
-4.903755050620038247e+00 6.368936771172037936e-01
-4.487515552296475363e+00 9.420738716229344334e-01
-4.021574850818170788e+00 1.247633222961982868e+00
-3.418507261701619893e+00 1.613971530775340391e+00
-2.803823125162093977e+00 1.960746188068269946e+00
-2.292850197991774142e+00 2.233205674615887038e+00
-1.990139066107190935e+00 2.385735837588907504e+00
-1.412189191970284474e+00 2.658917022442432998e+00
-1.029476907980961364e+00 2.743207635891273810e+00
-3.891995988196929268e+00 -3.285429569194326049e+00
-6.227323073750554716e-01 2.815806705804779764e+00
-2.066278669758272180e-01 2.851088607402420649e+00
2.614802824066518872e-01 2.852056866433095195e+00
7.161210490137579487e-01 2.775969143703000519e+00
1.132339443490347097e+00 2.953595263066518761e+00
1.418698279560965281e+00 2.745044995516955133e+00
1.806244196663968848e+00 2.724217577434216331e+00
2.069254854244929387e+00 2.471828806254289912e+00
2.191667344231126080e+00 1.992338327033768230e+00
1.762826373384571932e+00 1.820543809483045283e+00
-4.807361133879652471e+00 -3.030293518102638917e+00
1.472980833957774127e+00 1.451496085243948908e+00
9.888459159962343925e-01 1.570099851027474180e+00
4.135706316293858986e-01 1.404272597345122442e+00
1.470287854227649571e-01 9.625026444027710015e-01
-4.855855602954162187e-01 1.041486398893834764e+00
-8.751566054668863393e-01 9.520307649019541518e-01
-9.047810632891308824e-01 4.350608928014604304e-01
-1.352315244317296772e+00 5.995390772986980421e-01
-1.970445444296551551e+00 3.984443833865311535e-01
-2.390387745201850489e+00 2.820437678827081851e-01
-5.499580124542866599e+00 -2.544209378175525504e+00
-2.823188116558188465e+00 1.180499772247040891e-01
-3.401891501604028534e+00 -1.293605698070872112e-01
-4.039296376825077139e+00 -4.644146870504025082e-01
-4.515852430592178557e+00 -7.815913708809238969e-01
-4.739919271378176369e+00 -1.340831343812929566e+00
-4.468297928750740056e+00 -1.722949753699539288e+00
-3.923043439489851458e+00 -1.746407802600275172e+00
-3.500321798028801279e+00 -1.822036713813749653e+00
-2.995422249787593305e+00 -1.567175602396851497e+00
-2.519136670683694401e+00 -1.535184079218062214e+00
-5.857628266098952707e+00 -1.955474774560923112e+00
-2.058651002859682055e+00 -1.281299113154686031e+00
-1.617090462170951426e+00 -1.473839453558503765e+00
-1.334590306440658125e+00 -1.181457659370449109e+00
-9.520287815470052095e-01 -1.322705214867493151e+00
-1.075058073877708686e+00 -2.049391614100774639e+00
-5.841200335823267809e-01 -2.059750417540819445e+00
-2.924108114288572202e-01 -1.840542311556739197e+00
-1.281862040521715151e-01 -1.444747010378586438e+00
9.963850644721053418e-02 -1.218472837734399405e+00
3.724910225764884175e-01 -9.766117915092841217e-01
-6.006747194254537625e+00 -1.388484322964653961e+00
7.423542181668099094e-01 -9.359377016530946447e-01
1.021793897223151726e+00 -1.069774866807408298e+00
1.138962210338232639e+00 -1.338193078792216273e+00
1.111259723565271029e+00 -1.659616133153758888e+00
1.022417907189947961e+00 -1.914681388210601520e+00
8.461884897998718236e-01 -2.152824530101322686e+00
6.743542444486730902e-01 -2.379065107738363771e+00
4.705382842018417389e-01 -2.591545630497944508e+00
8.849504581965966787e-02 -2.801340886994830193e+00
-3.111740420303570342e-01 -3.068068483979499828e+00
-5.935427338730219660e+00 -8.765281371669342292e-01
-8.125442464631779105e-01 -3.086251707591669113e+00
-1.423664349560997300e+00 -3.169144849922800322e+00
-5.824262731262008330e+00 -4.865119538663218446e-01
-5.590156800452190211e+00 -1.044044806687412646e-01
-1.255820676208288766e+01 1.008658988054813221e+01
-1.281291862594201802e+01 9.927380315728481008e+00
-1.185590562606854981e+01 7.913478536115126083e+00
-1.207839064631265025e+01 7.420569794585201606e+00
-1.214280448718794858e+01 6.853700453276340809e+00
-1.207490491011041911e+01 6.235178421238619428e+00
-1.199849887431659035e+01 5.730944044255224412e+00
-1.184129727864299575e+01 5.285798884616331073e+00
-1.158854047632841677e+01 4.816455149512100853e+00
-1.108119078870269902e+01 4.791066907907061356e+00
-1.099208528994542355e+01 4.651376222990426967e+00
-1.035103941443438025e+01 5.230059792889536041e+00
-1.302975128665933191e+01 9.668595778968157362e+00
-1.000483633179427834e+01 5.709689533918787419e+00
-9.724020418526643894e+00 6.380374523852475832e+00
-9.605881012936691832e+00 6.923287345452773245e+00
-9.556377613464578147e+00 7.652184204623810437e+00
-9.563125074201337839e+00 8.251078460319924091e+00
-9.582326621928707766e+00 8.899035952288491202e+00
-9.719509849587314676e+00 9.200209785773061810e+00
-9.871522053748906345e+00 9.564210876652614601e+00
-1.009336505043308385e+01 9.840775130014334238e+00
-1.043101537719685545e+01 1.015966888248188127e+01
-1.306401050673124686e+01 9.280257332051515817e+00
-1.075168290997304332e+01 1.047889893432945208e+01
-1.122024366779862703e+01 1.078213921135768061e+01
-1.168755456363406964e+01 1.105979220398290863e+01
-1.219433063787236193e+01 1.128365224031705871e+01
-1.255511037153802079e+01 1.137798015662781559e+01
-1.290457696656847197e+01 1.140174355127179417e+01
-1.312118979538345087e+01 1.136967454207024097e+01
-1.344101965000403887e+01 1.124891207506598612e+01
-1.380468503529863078e+01 1.098536493898825483e+01
-1.418345286764647639e+01 1.050579174306701802e+01
-1.292236645701629705e+01 9.004434984881234172e+00
-1.438647785293551351e+01 9.940902948601141986e+00
-1.437500116320111587e+01 9.599184802628506930e+00
-1.429993576512215725e+01 9.151422987722316549e+00
-1.415748239912768192e+01 8.677026071765626014e+00
-1.398477468425548942e+01 8.277602593897684713e+00
-1.378800979190614129e+01 7.837197690451178644e+00
-1.360158146299346171e+01 7.394787995948969517e+00
-1.339965387722492629e+01 6.885640325701962716e+00
-1.322159301652136243e+01 6.352795552972130722e+00
-1.312305956855129629e+01 5.946195568405373777e+00
-1.269732993797360088e+01 8.705639232926218440e+00
-1.287376600248518699e+01 5.487483584164277950e+00
-1.265519170234792945e+01 5.146252512635685505e+00
-1.233084889462645606e+01 4.837499194602210117e+00
-1.193693372379508588e+01 4.587774909353290909e+00
-1.148414744680225930e+01 4.595504949319625609e+00
-1.105402146866455482e+01 4.894142984092034077e+00
-1.087576623423134770e+01 5.224737872505670566e+00
-1.052563341649419648e+01 5.927319432928258358e+00
-1.037399803190614556e+01 6.703530940238322522e+00
-1.025679269245081748e+01 7.370661651649418999e+00
-1.233134787700702617e+01 8.552673000872847098e+00
-1.035388129367780152e+01 7.910152743488206184e+00
-1.047098473116735029e+01 8.447263759985281339e+00
-1.054375705121100815e+01 8.721185829843630444e+00
-1.077964006711634504e+01 8.822264529407695122e+00
-1.097147602817468304e+01 8.866956589999524851e+00
-1.117210791230313482e+01 8.925870090467137530e+00
-1.127640976097532288e+01 8.987803610846190949e+00
-1.147382827965488161e+01 9.157303605337716590e+00
-1.173867263233057301e+01 9.280769559790707390e+00
-1.180403303682413529e+01 9.607591316407182447e+00
-1.199378394554289251e+01 8.394378219291935395e+00
-1.200968281997775478e+01 1.004115449698704232e+01
-1.236498665593290980e+01 1.011099169468924508e+01
-1.163142610922269071e+01 8.297078745052546722e+00
-1.157814989012515206e+01 8.309968254441040258e+00
1.666350259719592586e+01 -1.043536361120341383e+01
1.665875515378199623e+01 -9.627732680405193477e+00
1.157715868214697075e+01 -5.035159979113431383e+00
1.056166567098755316e+01 -4.802960437363525514e+00
9.486204966821699003e+00 -4.652701076894802057e+00
8.273547042048482680e+00 -4.660072311184907612e+00
7.213513600090787570e+00 -4.725845866455920863e+00
5.844781153419709163e+00 -4.955144096862642122e+00
4.261886659629061214e+00 -5.287690233610003787e+00
3.561382360290310967e+00 -5.751338337364623854e+00
3.893460286091403155e+00 -6.222520322775659807e+00
5.269882424563611778e+00 -6.913507109903715531e+00
1.641036130401392512e+01 -8.766517990575090735e+00
5.980600375378944733e+00 -7.038542606644601740e+00
7.675702495504200584e+00 -7.320683987873620069e+00
8.690995234228116928e+00 -7.487666002268835719e+00
9.500560442478263923e+00 -7.584763299955412208e+00
1.051425663302804736e+01 -7.842652548883193298e+00
1.131285606294114565e+01 -8.217739416416931064e+00
1.201337177428374936e+01 -8.656010375896391551e+00
1.252448064054376431e+01 -9.203233379540806780e+00
1.282742282897680219e+01 -9.809364966565773614e+00
1.320332809507642935e+01 -1.032267079824138278e+01
1.600206163551505156e+01 -8.226843420736727808e+00
1.354285683414703989e+01 -1.077506863063200981e+01
1.393318595322393705e+01 -1.112232434879585341e+01
1.445529588633960039e+01 -1.138154948515547105e+01
1.515913733105808348e+01 -1.149504190832421813e+01
1.583003747990633947e+01 -1.142011744266649309e+01
1.624460200694027989e+01 -1.135453170936359513e+01
1.639746503512105846e+01 -1.102514718630397184e+01
1.628163276404118776e+01 -9.995234607338231214e+00
1.607149821106610688e+01 -9.223652924280051124e+00
1.571998844590453714e+01 -8.776424872190125015e+00
1.554126087908366038e+01 -7.814074573519210531e+00
1.528343093904769923e+01 -8.357003179503264434e+00
1.476397268788362105e+01 -7.890388019163713906e+00
1.420231210298276459e+01 -7.407214661895809016e+00
1.364279503399399651e+01 -6.914235872304558050e+00
1.303077585339385713e+01 -6.404435664728478805e+00
1.225131548033273887e+01 -5.848291385739768700e+00
1.152575091639855209e+01 -5.415983319290987197e+00
1.057202333815872741e+01 -5.037949438561867943e+00
9.486560572758577337e+00 -4.811825313496944645e+00
8.677285106407579107e+00 -4.673176539972169863e+00
1.505547109100013614e+01 -7.377128650858010062e+00
7.515431227927897417e+00 -4.596692310766396616e+00
6.141769104613442387e+00 -4.596910987699928341e+00
4.724627069051926753e+00 -4.829720724284644717e+00
3.353678334357254709e+00 -6.020401512482473017e+00
3.534585721201821684e+00 -6.581878648140320642e+00
4.987069109713908155e+00 -7.364341441030592073e+00
6.530126933387064625e+00 -7.577230285304943358e+00
7.460745677282910826e+00 -7.564867823986063833e+00
8.405299187576916964e+00 -7.531211360574165070e+00
9.572742456106286824e+00 -7.538219755044005765e+00
1.456744206447701373e+01 -6.990798310738915333e+00
1.072121134580076607e+01 -7.617674985238520158e+00
1.158549892111004631e+01 -7.833781382017150463e+00
1.242326604950276803e+01 -8.167381603207992669e+00
1.309869852254444211e+01 -8.606658890448944277e+00
1.353519820994977962e+01 -9.112142506725140478e+00
1.376329927774216522e+01 -9.696758473787992827e+00
1.420002469531439182e+01 -9.872069145344598340e+00
1.436875239563871531e+01 -1.031425134110301123e+01
1.479992131865185456e+01 -1.034187493397947399e+01
1.519620279859237399e+01 -1.065808503722870704e+01
1.396948919345397222e+01 -6.472344923246232895e+00
1.588101153551210132e+01 -1.067681660615432016e+01
1.652697328137561428e+01 -1.071166207834485817e+01
1.331512569963619619e+01 -5.959147207306143557e+00
1.252704799696755522e+01 -5.434657843699654656e+00
