-1.264595156028994083e+01 -7.997041727627450314e+01 2.819747370752860149e+01
7.920799096288323682e+00 -4.712993208274317425e+01 -4.809517667765883431e+01
-1.984310918245035893e+01 -8.489667629061399623e+01 2.366402579710218745e+01
-1.265294320974811804e+01 -1.577302333034828230e+01 9.853105711322199056e+01
1.572566775942487283e+01 -4.221191663391540771e+01 -3.601811614262366135e+01
-6.526819109229539784e+00 -2.755682602892750666e+01 9.378298287468334138e+01
-6.308044657765044860e+00 -7.514914678893765654e+01 3.860747970106850602e+01
2.308193235280582556e+01 -5.169954470117999534e+01 5.093590699613181982e+01
1.315101818709659476e+00 -7.444039475803762684e+01 4.245725171978127577e+01
2.278385553821690479e+01 -3.612498889562902349e+01 -3.839392723813187303e+01
5.149490805759856471e+01 -5.848099899812381608e+01 -6.652579303897176999e+01
4.959922019252097414e+01 -6.546819606106673461e+01 -4.977265875601651857e+01
4.689275670814752317e+01 -5.546344911496426988e+01 -5.286230769615265501e+01
5.775286700256628336e+01 -5.888514844962544004e+01 -5.168428196279665343e+01
4.574313036764566931e+01 -6.228935421972496300e+01 -4.045163605794590467e+01
6.216499547300259110e+01 -6.368871889546443299e+01 -4.201790668906901516e+01
5.970193393945334748e+01 -4.721788910095497016e+01 -7.213675607856200145e+01
5.661284926350206348e+01 -4.770478997196149606e+01 -6.133077469571300355e+01
6.099698250970761393e+01 -7.178263460488628311e+01 -5.309099639741353371e+01
6.054918683577108141e+01 -5.450749063488954960e+01 -6.823232088022520259e+01
1.135542605879855316e+01 3.779292073904527172e+01 -4.127972592382734263e+01
6.392226311879728229e+00 3.847415756385754548e+01 -5.452264120767539879e+01
2.554702322999885311e+00 3.065705202492304338e+01 -5.520449834609411255e+01
1.814434807723947429e+01 5.204090695548985934e+01 5.162904093654231019e+01
1.378305528808583880e+01 4.949790995662428372e+01 5.796841544402693813e+01
6.247342414934417576e+01 4.227849887335177215e+01 5.698251944782708023e+00
1.551898522379763712e+01 8.201327299054135267e+00 5.546467286746511149e+01
1.669468621747660464e+01 1.608941656131682052e+01 6.343373227739594711e+01
6.592129969251731003e-01 -3.036789083105421838e+01 -7.202661041426164701e+00
2.383728432137684816e+00 -3.132241770010363169e+01 -1.739020942015031679e+01
-2.910254037953810524e+01 3.508395215130489575e+00 1.303923593979206785e+01
-1.028019456077526073e+01 -1.421487491685631532e+01 -2.693684725492558840e+01
-3.180049442667980486e+01 1.470821911161921136e+01 2.512500423537122884e+01
-6.032743684839955378e+00 -4.617668380856913046e+01 4.005510154713006088e+00
-1.132019926908722995e+00 -4.993650286827884344e+01 -1.351550093658072882e+01
-1.054815080713366626e+01 -1.135108031276344320e+01 7.091278825300757660e+01
-1.023984981245149939e+01 -4.271181379182255000e+01 1.446327238088634992e+01
-3.213750666158887981e+01 2.999271007443222281e+00 2.190485996537216806e+01
-9.906443024096494909e+00 -1.625257027455657877e+01 -3.619301888808863765e+01
9.968270964232010201e+00 -5.826078354452008767e+01 -3.043024000470515844e+01
8.073205839817541474e+00 8.844712564325142523e+00 1.050399191266370380e+01
2.368452869191944288e+01 3.422393309854974319e+01 -1.888167513809894871e+01
1.947261155311484160e+01 4.225338090050838957e+01 -2.463242112084030566e+01
2.139768051727269915e-01 1.293149841034246528e+01 1.511827568256109799e+01
1.181544925195467322e+01 -9.150614821160250045e+00 7.616707525353686492e+01
1.809088285101970683e+01 -3.474070256148115377e+00 7.367522223834365036e+01
-2.085401733390719770e+00 -1.815515381696555020e+00 1.959046457525596807e+01
2.837980297093416127e+01 1.752090253207208848e-01 6.741784342745974357e+01
1.740504382824520846e+01 -1.073710700513011851e+01 6.531630825548336361e+01
2.379340447369861522e+01 -3.273528279976054733e+01 6.138724928001581560e+01
3.760213143977799177e+01 -8.034862169821523992e+01 1.641559607547931066e+01
3.812474067534210320e+01 -7.402736961998564880e+01 2.111831807631541480e+01
3.894217519166422647e+01 -8.247778915952854106e+01 2.364178989754543281e+01
3.162407154818740906e+01 -9.015077111194329973e+01 6.288658147901541895e+01
2.398378591721400710e+01 -8.095741566786993815e+01 6.835531253019925657e+01
3.799967979148877362e+01 -8.059551100594278239e+01 6.052386169614223377e+01
3.145183405560472067e+01 -7.178475468322329789e+01 6.852522496029089893e+01
3.138064571668147096e+01 -8.511196015505397838e+01 5.045791282632352193e+01
2.325772416279352228e+01 -7.002529367552912731e+01 7.591306726964819518e+01
3.446372112260185361e+01 -8.501053349773219736e+01 7.180209802210990233e+01
6.778388371271258706e+00 -1.192411279594445119e+02 1.698884143921904055e+01
-1.968262614419379553e+00 -1.248420077791592888e+02 1.441143495322851820e+01
-1.402037821280729446e+01 -8.281046318523723926e+01 8.198090567009344909e+01
1.186548264604614289e+01 -1.052286873573785897e+02 3.546930126875037814e+01
9.429070512912941737e+00 -1.102459882953182984e+02 2.669292760055451907e+01
-1.427625838538799208e+01 -8.742670523393140058e+01 7.061478923183624090e+01
1.738707128086715414e+01 -1.080627258628821892e+02 4.756820233799227360e+00
8.285781424087016234e+00 -1.126555381089442278e+02 1.360339795780270578e+01
-8.871812434443706152e+00 -7.498111833826823158e+01 7.495677316219958186e+01
-3.794894747850348082e+00 -1.200137344529265988e+02 2.508137101914027767e+01
-3.068190004746438149e+01 -9.081834391318274413e+01 -3.513784715913624979e+01
-2.798854061314914432e+01 -7.950983154185620094e+01 -4.189637778446103056e+01
-1.533271775606420917e+01 -9.403264644921743809e+01 -2.107329479759432544e+01
-7.785558611704396448e+00 -4.172851419582437416e+01 -6.583569713340015994e+01
-7.503212372077154413e+00 -9.792512608316958733e+01 -1.085524792466932809e+01
-5.894048495254770259e+00 -9.381983604115170294e+01 -2.526236420183889386e+00
-7.169426367482185647e+00 -5.308448255241872715e+01 -6.608067161894891228e+01
-1.743641449589335579e+01 -1.052619556864137138e+02 -1.317506085593650056e+01
-3.911107621490563790e+00 -4.273319655254810812e+01 9.064770680813047932e+01
-4.227504129517583586e-01 -4.883081239552741692e+01 -5.748684167861389227e+01
1.659109122539380365e+01 4.180173790118751498e+01 5.869632159879667910e+00
1.254582149507774780e+01 4.528030425987076768e+01 -9.202548769649107285e+00
1.592519368289547543e+01 4.878079417044410349e+01 1.270285090414581042e+00
1.812825283524632169e+01 1.783337196803818969e+01 2.175502324605528415e+01
2.509884429323206945e+01 1.704290545261439860e+01 1.417507370700660729e+01
1.658342079452790685e+01 1.485051331940760377e+01 3.547398380686671970e+01
1.053024529747503735e+01 3.592789561348359140e+00 3.877871324095637107e+01
1.934675194670431253e+01 3.129203594436089642e+00 2.360000153882277374e+01
1.985294932617862074e+01 2.739225215530698776e+01 8.751454876102283009e+00
7.330935995263017091e+00 1.350410982020676265e+01 -7.263327965779026840e+00
-3.875908496617698518e+01 -1.799498222748230347e+01 -2.880508445633396519e+01
-3.004810732551614549e+01 -2.215426289069952048e+01 -3.559861577234151753e+01
-1.298383239545240642e+01 -2.261944672347715368e+01 -6.177540542313330718e+01
-1.686636601114627965e+01 -1.388650380695479924e+01 -6.490435248697502857e+01
-2.210915542222673835e+01 -3.899735164450164859e+01 -1.963313662059222509e+01
-1.836605153112748567e+01 -4.184191237759098669e+01 -2.942611944761871356e+01
-1.429797454564351433e+01 -3.904059668885414425e+01 -3.839608318745887772e+01
-2.872226207983498014e+01 -3.173038543687251334e+01 -2.119123757750503145e+01
-1.994360022710027103e+00 -4.828162893416339863e+00 8.812156200982295218e+01
-3.674562718116206383e+00 -8.650052779298114558e+01 5.027183472597289260e+00
-1.161410259096365527e+00 -9.422325763256753817e+01 -6.367529025729131575e+01
-1.067209811694392130e+01 -8.322749322271596384e+01 -6.019897995697046866e+01
-1.346333338850558192e+01 -9.433969633316152681e+01 -6.797300380306982959e+01
3.342258086348031565e+00 -8.745178875531512119e+01 -7.896689896424560118e+01
-8.932529278755753310e+00 -1.132543010377957842e+02 -5.836235708901269703e+01
-8.109555404755381502e+00 -9.763025838235252252e+01 -5.325057279977288971e+01
7.095339065806657075e+00 -1.056015362923161263e+02 -6.147918902819683495e+01
-2.094460797444048783e+00 -1.154468779563454319e+02 -6.506701450147399157e+01
1.203027934797073151e+01 -9.834177312240906588e+01 -8.006825167723742709e+01
6.821219064917774411e+00 -8.846612964713384031e+01 -5.938236912264441258e+01
4.017447942472841760e+01 -3.138407648985550225e+01 2.486015942236166154e+01
-3.689311619905819128e+01 3.024038547234052032e+01 -2.352569410014092099e+01
-3.833040520783333704e+01 2.534687143048555313e+01 -9.761935074063883278e+00
-2.292243126137264042e+01 1.844497978535124005e+01 -4.011832866467302949e+01
-3.814719572848730422e+01 2.185319786478167359e+01 -2.998010668730389128e+01
3.358094454616031754e+01 -3.702285371765476896e+01 3.646437865062787154e+01
-3.078619593833862567e+01 2.861750685778419978e+01 -3.052097730371146156e+01
5.006701470043833524e+01 -2.011291315967374516e+01 3.531389196573582634e+00
3.865050840334482274e+01 -2.573761866438263723e+01 4.081045358876811413e+00
4.243576410181279357e+01 -2.526149065528545634e+01 1.614200848452842507e+01
-2.137741381556598697e+01 2.604247183900549878e+00 -1.065429879585729722e+01
-1.289467551590911043e+01 5.891514366796438473e+00 -2.338157691396606097e+01
-1.600196594288847152e+01 -2.014186574915334305e+01 4.143485222227887022e+01
-1.583620869272844445e+01 -4.686169243799759521e+00 4.425831213775408202e+01
-1.668947926711621221e+01 -2.820776645156044538e+01 1.341604824575114563e+01
1.309586345416175801e+00 -4.989097652505401470e+01 -3.027658289096003941e+01
-1.665663851935503104e+01 4.871613006791257305e+00 6.667772344019934394e+01
-3.489091756250932264e+00 5.538101029739471493e+00 6.022860905843604939e+01
-1.209293053488258352e+01 -2.631215676763235578e+01 1.981022910544616211e+00
-1.729607267553454619e+01 -2.196192425836837359e+01 2.255894089767408062e+01
1.261437033218224180e+01 7.169243530190463787e+00 -7.957475512530076855e+01
3.911187339167935306e+01 8.862328460411690756e+00 -7.459566338201874203e+01
3.090067666887668807e+01 1.533997558976924580e+01 -7.923177596790428368e+01
1.411215706949126947e+01 7.118825903453861181e-02 -7.169148803530875114e+01
1.076754995252996672e+01 -6.600778676556362523e-01 -8.179700459578090488e+01
2.534999093641033241e+01 1.319072566666402757e+01 -8.644335350159812492e+01
5.723335269728456742e-01 5.997815936606728293e+00 -7.283200538357363030e+01
3.186892206738675526e+01 -2.578117308362955384e+00 -6.745238104276049285e+01
3.372651447160216520e+01 1.180898692584922038e+01 -8.762726284669976451e+01
2.723681217542895894e+01 5.764652734521999555e+00 -7.527762401638857170e+01
3.830889852797947270e+01 -3.997087271513751006e+01 -2.128512735043012682e+01
-4.727009231755514129e+00 -1.530874484873323027e+01 8.293233638188768353e+00
3.362309786495017505e+01 -4.761200969263742167e+01 -1.454663438591896707e+01
3.130816153547315395e+01 -5.510056994524342855e+01 -2.241725123724978630e+01
-1.308565909345484712e+01 -8.172509163514662944e+00 2.623103131669061838e+00
4.028706464972712809e+01 -5.103050720120015882e+01 -1.982689282076374582e+01
-8.390051055073554309e+00 -1.150628058813645715e+01 -1.085590030557273877e+01
2.345778029034796930e+01 -2.686291268736003346e+01 -1.214762317933082869e+01
-1.757780893278589884e+00 -9.842560965064729217e+00 -2.444441680147669604e+00
-5.990318064150675248e+00 2.041030233175614050e+00 -4.457921662361315818e+00
-6.813883795155014411e+01 -4.543332542464792567e+01 -7.291456795116572742e+00
-2.285623611465560856e+01 -6.380413595652248659e+01 2.769213786767871355e+01
-2.725074065506079535e+01 -7.231318448056839543e+01 2.684863131039593043e+01
-4.090520122498105593e+01 -8.749541062054017004e+01 3.130612130272628413e+00
-3.671636203610585625e+01 -1.000134516680052315e+02 6.058232142339263326e+00
-6.059962666460501879e+01 -5.546510540567951608e+01 -2.369016293441563281e+00
4.479385752256596076e-01 -6.560525510781818070e+01 -2.610422980668811732e+01
-2.236672199989550691e+01 -3.607028093804441227e+01 6.301819474866800874e+01
-1.661010201598214309e+01 -6.708911722872356620e+01 3.992984649229484262e+01
-2.395784127690146192e+01 -6.959473002322268087e+01 2.033550227022096024e+01
7.840894014034697079e+01 -3.729295195800363949e+00 4.764522052905904559e+01
7.483728206646536307e+01 1.835353686566594256e+00 4.569518831605030584e+01
5.602188590972544802e+01 1.703477341514039978e+01 -4.202721633431090709e+01
5.741838971979843365e+01 2.011433570633210977e+01 -5.018000366705344817e+01
7.287056002538726318e+01 -3.301581613237073221e+00 5.259391962661077713e+01
-3.133788662224293731e+01 -8.088295459486106509e+00 1.003722034726693693e+02
-2.172336809962153481e+01 -3.414114564420961173e+00 1.016557467630422167e+02
6.831004260290657726e+01 -1.376120205061201673e+01 4.937747226442447612e+01
-3.307306045994360488e+01 -8.210843344250957188e+00 8.763748821425552649e+01
-3.017448001035345584e+01 4.335268781075579447e+00 9.782194681460205743e+01
1.763201019782838230e+01 -6.040202844420636552e+01 6.344389299150559935e+00
1.825887218908818355e+01 -4.849079449145444443e+01 1.029215047761831592e+01
2.122095551124875357e+00 -3.781985068230815727e+01 3.753923786004115470e+01
1.693035511751813260e+01 -3.519491929993839108e+01 7.263674945016687978e+00
8.425210334064482609e+00 -3.932579064743183750e+01 2.218763080322995762e+01
1.165732381145717156e+01 -5.198281105640315047e+01 3.665647273145712859e+01
1.088980780781463586e+01 -6.976846983220497123e+01 1.473031973394715344e+01
2.382862954449257220e+00 -4.547691425224433459e+01 2.955192672430360901e+01
1.364487782483813305e+01 -5.963761405373210067e+01 2.191737303192902075e+01
5.062354279380125277e+00 -4.969571391188078024e+01 4.510826535514053148e+01
8.968079252543533642e+01 -2.538084313203576770e+01 -2.852838355509982193e+01
7.715138818831324841e+01 -2.908510263350141756e+01 -2.654271654417207671e+01
8.425816523675960923e+01 -4.174806996101131773e+01 -3.011867762605285392e+01
8.302194487851011218e+00 -1.092043270277832363e+02 -3.203443186617189298e+01
1.064461316513047606e+01 -1.027517357019325317e+02 -3.719110093764018643e+01
7.948050036213358283e+01 -3.228623135700554769e+01 -4.413373808563560630e+01
1.521584261195889809e+01 -1.123459376795461679e+02 -2.673637072817091820e+01
1.808270619499284848e+01 -1.113715329710730515e+02 -3.600870447676193464e+01
2.047397104810216106e+01 -1.050516714015109301e+02 -3.271145565167036295e+01
7.771055446630703045e+01 -4.319108162621397895e+01 -3.809601233705744505e+01
-2.203823084100905660e+01 5.948340558189892846e+01 -5.413322252997646444e+01
-2.714831779378183896e+01 6.016695666502943141e+01 -4.966729738556375651e+01
-2.304040448079769732e+01 6.818545279069317644e+01 -4.643858991910747847e+01
-3.869391026241842280e+00 3.338774632465140968e+01 3.093963708073253116e+01
4.357019090329004030e+01 -3.733274069348723856e+01 8.122046992831188561e+01
1.231034207920541634e+00 3.848321762180547978e+01 3.391862389317256543e+01
4.041015699990142451e+01 -2.221180401835867357e+01 8.239574273389395387e+01
3.938987443359924612e+01 -3.061495541136029175e+01 9.077324103214142781e+01
2.858402658993959022e+01 -3.341122402462595886e+01 8.824453756916327052e+01
-2.655577781332998555e+01 7.346823441084421802e+01 -5.031382767104635434e+01
-2.052123780385988994e+01 7.831373690807654953e+01 9.139758060029899767e+00
-2.881792400557382905e+01 7.909396784703085359e+01 2.378304746122381985e+01
-1.858526251209379154e+01 7.770078673536831104e+01 2.616746471737691593e+01
-1.993619157832303657e+01 3.640871909489629132e+01 1.964284850235244662e+01
-1.128301441259126570e+01 3.426021373514149815e+01 6.006334786204841514e+00
-1.211362493595665057e+01 2.431791215613041501e+01 6.660314681979456752e-02
-1.677294127781531685e+01 2.442587642699101735e+01 6.097042863027970583e+01
-2.407353777805737138e+01 3.365465402439676268e+01 6.280131240343561672e+01
-2.323058806432317880e+01 3.247980354152033300e+01 5.448541458827971695e+00
-1.915757960251124103e+01 3.201681603476145455e+01 5.377563488013582571e+01
-4.337964802042890256e+01 1.480002761385297276e+02 1.870219072248113790e+01
-4.258743772924004389e+01 1.353931215813337872e+02 1.421783178860409969e+01
-4.086231637790724847e+01 1.457202966043674337e+02 6.269581390582760427e+00
-3.329724093105099314e+01 1.427029536934736598e+02 2.707375984554040826e+01
-2.982085434236362786e+01 1.534390590655256972e+02 4.151545746065020914e+00
-4.760779390600001904e+01 1.362345899857426446e+02 2.999119092777448614e+01
-2.901073878601719258e+01 1.538353326263074052e+02 1.601278867866608024e+01
-2.029935875435282000e+01 1.446250828469991632e+02 5.004321991495729982e+00
-3.097690192042870549e+01 1.369595744948033200e+02 3.961363663923222145e+00
-2.715792865063816919e+01 1.414032388322423515e+02 1.449108408786084823e+01
2.400780694655022807e-01 -5.658669162462696534e+01 9.890811562843552451e+00
1.340358460943990693e+01 -5.267620717996706503e+01 -9.185643396875455835e+00
2.557161362766521506e+01 1.735976571923566425e+01 -1.762905838509895062e+01
1.031433913191124319e+01 -1.434850854577581991e+01 2.677002333471221363e+01
1.589215067313111795e+01 1.538950615874513517e+01 -2.537687746698489377e+01
3.193366139374318013e+00 -1.549896463914343947e+01 3.425353973495001725e+01
2.482644207243980716e+01 1.231409319788168055e+01 -5.951845669943625516e+00
1.206627293343477803e+01 -4.331096955208712274e+01 -8.132196764417576773e+00
-1.821749846104306902e-01 -2.277155462039108258e+01 5.589916628535672771e+01
6.059296619467524181e+00 -3.276900978468975012e+01 5.085586307611459489e+01
-5.835650604971896627e+01 -2.246481555309977196e+01 1.869767710762675961e+01
-5.862796752412710788e+01 -1.335958746699200717e+01 1.852358562263482256e+01
-5.199382844205451448e+01 2.206398329993405127e+01 7.522141495938937794e+01
-5.217447324502860795e+01 1.250719061879453342e+01 6.514587947298309700e+01
-4.992349687690454374e+01 -4.776927574082037609e+00 -3.700565050805564304e+00
-6.129701547000539819e+01 -1.554181048183617442e+01 3.513465233964394940e+01
-6.212280111119909520e+01 -2.097424646574726026e+01 2.778367545299776609e+01
-5.443844835370377666e+01 -2.476621772028967428e+01 3.490317556691674383e+01
-5.907968794080061059e+01 2.215470310774599128e+01 6.466714567890649334e+01
-6.127939220512709539e+01 1.562750364672048597e+01 7.237049130025181398e+01
1.444097990741584780e+01 -8.984873056951940384e+00 -3.103770625093043378e+01
8.346396363192274404e-01 6.828479630219522534e+00 -4.558675745475576946e+01
2.276374345986976167e+01 -1.368041760522513606e+01 -3.417929197981573708e+01
1.479525216008533128e+01 -8.792192487205857887e+00 -1.157567533128031734e+01
1.366047141292605716e+01 -4.621230240189469818e+00 4.304147669701171020e-01
7.391502616527510838e+00 1.270227396170949818e+00 -4.038870775152503967e+01
2.433011591649636429e+01 -7.509447127694618196e+00 -2.429095670776203164e+01
1.455518397378606332e+00 -5.977121749740403445e+00 4.698407657528156989e+01
1.945458355068860357e+01 4.398757071282554776e+00 -3.613425256668742236e+01
1.526550168346844671e+01 -8.861424497781518639e+00 -4.244970465980695451e+01
5.681487394058165563e+01 4.268187435553856091e+01 -2.091570143969803297e+01
5.078987023754461205e+01 4.277094682704392881e+01 -1.210837660313170439e+01
3.818320773618557240e+01 2.636729837777977892e+01 -3.356189715408417840e+01
3.762509292819196105e+01 4.188328783385291132e+01 -4.680064036924776616e+01
3.154520543567234370e+01 3.850726219070283918e+01 -5.048388172603316093e+01
6.286886235836384884e+01 4.343719887472835950e+01 -7.609580633358629775e+00
-5.879995023103424145e+00 -6.362499995495518590e+01 1.335447661358577953e+00
4.038948194698352268e+01 3.027294620014034265e+01 -4.664086059904721537e+01
4.846238629434632372e+01 3.314988360592523264e+01 -2.294538069320294582e+01
2.672986377573097272e+01 1.582983558068043273e+01 -4.711910771442635593e+01
1.787060537113016068e+01 -3.011337552835697906e+01 -8.783426116737116729e+01
3.430432762109951028e+01 -3.145557217502196679e+01 -9.529903099828379709e+01
2.708685266106841638e+01 -3.888335794551068858e+01 -9.173287274661137758e+01
2.745931643312022530e+01 -3.224127435436196976e+01 -8.268824400861485913e+01
2.202430258044496370e+01 -4.903026027959749911e+01 -9.407897816702805471e+01
4.170184017580778146e+01 -2.743869946008031846e+01 -8.248765729941267466e+01
3.609944214035783006e+01 -3.997527669323041977e+01 -8.642648632332092973e+01
1.711483069854947914e+01 -3.807276323399830886e+01 -9.108155958310020139e+01
4.269425049016118834e+01 -2.486929347714277938e+01 -9.487684281467122105e+01
2.044496917062370400e+01 -4.088387096565858059e+01 -8.268646908425931485e+01
-5.403207086879051957e+01 -3.256855440810507218e+01 -6.096749170827743569e+01
-2.022764296119400029e+01 -2.874195378969203674e+01 -9.454584113577095650e+01
-5.257594052378799887e+01 -4.608719937470441153e+01 -5.554524835857207421e+01
-3.558312097401143603e+01 -5.398866929395651937e+01 -7.608644787577891577e+01
-2.944405321681357179e+01 -4.232428114839976274e+01 -8.914765892218930787e+01
-4.259900281732325311e+01 -3.869350407524337498e+01 -6.236766484182127357e+01
-3.882148011552969535e+01 -3.266455542378268717e+01 -8.833788439232448297e+01
-4.343326892870287992e+01 -2.693797474471952569e+01 -6.463935722029457054e+01
-3.118247069244758762e+01 -1.513632809110304933e+01 -9.085131598950680143e+01
-5.564361092195755276e+01 -4.884401826958210080e+01 -4.567321148590787772e+01
-2.422179193059329094e+01 1.052704901099795478e+02 3.170890136540353410e+01
-1.825010822603824323e+01 1.129053919028992539e+02 3.055167518695796858e+01
-3.482485300660079730e+01 1.036258384515214601e+02 3.792800840637602988e+01
-2.380016611314370323e+01 7.188478829221928379e+01 5.548630963579842046e+01
-2.726825221008387601e+01 5.622029296839792067e+01 6.611099228263064731e+01
-2.138348757185528726e+01 6.236400102511628063e+01 6.659696839559896375e+01
-2.100604531844692957e+01 6.352501051588450309e+01 5.831955063049306176e+01
-3.076194318571165454e+01 4.419681756275933537e+01 6.830600891279186726e+01
-3.741438373285599539e+01 1.065094153471374625e+02 3.043468915392563190e+01
-2.144206395380312458e+01 1.083092389297894442e+02 4.142269140600109978e+01
-9.293094390888715139e+00 5.180841560954086589e+01 -1.901926883009976166e+01
-2.000451385130606141e+01 6.420481848874850073e+01 -1.713443020402805317e+01
-1.411612865077818668e+01 4.412356576302065037e+01 -2.650490876175716082e+01
-2.767577026956259090e+01 7.392382605424411679e+01 -1.136212970043997039e+01
-2.471977174270221056e+01 8.040836922583866908e+01 -5.779746015427844164e+00
-1.446866251744166298e+01 5.142383509661891594e+01 -3.577956246820706454e+00
-1.633991415846655926e+01 7.073996139178514397e+01 -5.429187956942686633e+00
-1.874981626837059778e+01 7.623719330245694437e+01 -1.437037945538618722e+01
-9.139919715121889610e+00 5.186313831323209911e+01 9.354609184981846681e+00
-6.114702401831296541e+00 5.823291035836853524e+01 -8.903213974151467980e+00
-3.881171194523431467e+01 5.633663247412491160e+01 2.266101762543390663e+01
-6.304818534614153691e+01 6.691320192153519031e+01 -5.063526430833550762e+01
-6.704808667332214611e+01 5.494672630251999124e+01 -5.165451254622323063e+01
-7.515856292058590782e+01 6.258072792985440458e+01 -4.699146997469596698e+01
-6.840224464429304874e+01 5.407204881477854741e+01 -3.972087696178871141e+01
-3.999251354343780918e+01 5.885788758376032348e+01 1.384447211131355004e+01
-3.046106302078761630e+01 6.454246257815329102e+01 4.188849950809803602e+00
-4.192069223837336978e+01 5.041815098923556349e+01 2.007451552822388408e+01
-3.050946832163540989e+01 5.680386257132959571e+01 1.271390972424636523e+01
-6.449188835577656675e+01 6.728524788647804655e+01 -3.811200905902438052e+01
4.504376762370761611e+01 -9.455909722916608473e+01 -4.036551156199121948e+01
4.658060205685163169e+01 -9.534367182669353724e+01 -6.679417793013242033e+01
4.898445831531420680e+01 -9.015130786337761037e+01 -7.134203736904750315e+01
3.808841330117747503e+01 -1.066033150736014221e+02 -5.163514617885107327e+01
4.317469423676760698e+01 -8.571152784265264302e+01 -7.657560181786340081e+01
4.852162831278199917e+01 -1.018248583196302235e+02 -3.853069486905886976e+01
4.531566700648041035e+01 -8.026524579792675240e+01 -2.699376378697709455e+01
3.159429305882700234e+01 -9.563303090106846582e+01 -6.152727883639922624e+01
3.281719613973460525e+01 -9.116630688075250077e+01 -5.281071342297409643e+01
4.109846891543255509e+01 -9.750573181087139574e+01 -5.523481415796163674e+01
-5.967240567477365687e+01 1.017150764697102119e+02 3.464087669048593909e+01
-7.167089703913792675e+01 1.011702642590936989e+02 2.560455519845522332e+01
-5.878460177874382708e+01 1.020971546666496010e+02 1.953703771812771706e+01
-6.976175997450670252e+01 1.032661518524527509e+02 1.301932373902612916e+01
-5.513088280811156494e+01 8.303990142787513662e+01 1.981364183893066055e+01
-6.068535328210592894e+01 8.237473770630028014e+01 4.727279443126229808e+01
-6.844676809441699561e+01 8.321005697030922477e+01 2.926138056309128999e+01
-6.923947269597201171e+01 8.721099744020844469e+01 1.375149894114589522e+01
-5.537730044506670168e+01 7.950234844467497908e+01 3.400655783538829979e+01
-6.696398150575674890e+01 1.105559767270027436e+02 2.268005081477705431e+01
-4.096519625119761798e+01 1.295108213383615237e+02 -2.748566535348092543e+01
-3.686736588151209304e+01 1.270629266797143231e+02 -1.679054756922986513e+01
-4.751013285717710488e+01 1.169023244825310002e+02 -2.383336527131891813e+01
-5.084235604270033804e+01 1.428728663682901185e+02 -1.202169914360099945e+01
-4.308077824297821223e+01 1.457121383002648827e+02 -2.036263614111616604e+01
-5.283705637967933200e+01 1.280575710204757058e+02 -2.392888329994437413e+01
-5.138819083122999132e+01 1.458087130616105469e+02 -2.283199459687264721e+01
-5.850690903086253769e+01 1.156640380969483459e+02 -1.852852600677659822e+01
-5.543981557950058914e+01 1.240374173513023237e+02 -1.141528892743066592e+01
-4.725968415610936546e+01 1.148802150163770364e+02 -1.095029926985747792e+01
3.915315621206773677e+00 9.378161934387625820e+01 -2.178748488887086765e+01
2.427879788026458208e+00 9.246151573324166861e+01 -3.411228968602095080e+01
-1.259402097888358618e+01 6.236398219714445190e+01 3.417598562503961546e+01
9.945150889795190352e+00 8.375583504821268832e+01 -2.922587612452829831e+01
4.813707701235974135e-01 8.740133636450748256e+00 8.756196238791795849e+01
2.091565438501454466e+01 6.719345538775857563e+01 -3.196693057459791376e+01
2.815610496247547445e+01 7.571399756306691131e+01 -4.069986046407849045e+01
2.899436189637236438e+01 7.548297811564191306e+01 -2.255563893964463418e+01
-6.808402390329812981e+00 1.165746820490338465e+01 8.315068398762127799e+01
8.307113425216490654e+00 9.304873367212062263e+00 8.039330861948107554e+01
-2.078883760433369687e+01 -1.097686062049149314e+02 4.816321919741543667e+01
-5.011044988620861318e+01 -3.253113569706850683e+01 6.064119038395881489e+01
-4.956384929666161554e+01 -5.115822693066645144e+01 6.502820252992728456e+01
-4.587178852403176421e+01 -6.493257779606368274e+01 5.970362557230816947e+01
-1.954984557361036579e+01 -1.184548167895368778e+02 4.173098265428410514e+01
-6.147289874606880744e+01 -3.671793485087123088e+01 5.300960322570619354e+01
-5.827484842885667859e+01 -2.205765524488280604e+01 5.752644099289950219e+01
-4.992487809944965704e+01 -5.430514127856729800e+01 5.315468990750333944e+01
-4.054389868596589963e+01 -5.067560049645265963e+01 4.413169926549571898e+01
-3.559994120245148252e+01 -5.439654935935260482e+01 5.942326213848924255e+01
5.084928387366328906e+01 7.224099745797194316e+01 2.401793739397793459e+01
4.094872524959525606e+01 1.173911318337562051e+02 -1.094271288654074148e+01
5.955099461852046261e+01 6.856391320708694082e+01 3.025849954236630879e+01
5.043985041289965920e+01 1.187071363095795391e+02 -7.324525934057955823e+00
4.399597510864478522e+01 1.241159766177957948e+02 -3.665502687344279753e+00
4.493791657422844565e+01 1.128747519677772715e+02 -1.160821415357116360e+00
5.667754730597921764e+01 8.160354524193284931e+01 1.620832375175030293e+01
3.430278866358578682e+01 1.182749340115520198e+02 -2.082882852772890980e-01
5.975998531456956897e+01 6.595225192216439325e+01 1.829188413962139137e+01
5.580935909928894034e+01 8.395859528298434782e+01 2.735425961070240675e+01
3.416633159466081793e+01 7.877864469232567224e-01 4.870456163182754494e+01
5.003093130154285717e+01 2.058640078899179215e+01 -6.271899974916024689e+00
5.531974409083145616e+01 1.313149243827738744e+01 -1.152283388337052550e+01
4.001927878632974966e+01 -9.266194991473028608e+00 -7.079876528104795952e+00
5.780915625630007071e+01 1.572584665466873410e+01 -2.083775930666744269e+00
4.740560678474476930e+01 1.027895520136005203e+01 2.896880241365004238e+01
4.708140321370023429e+01 8.524240878897449747e+00 -7.080422624085008110e+00
4.755292973316577587e+01 -2.102716569006341185e+00 -1.662387739927303798e+01
4.238534291940922571e+01 7.424416432025289225e+00 4.177482806469356547e+01
5.254770666267179280e+01 1.563506332185204784e+01 5.616182794828755931e+00
-2.496794890439266368e+01 1.209403054111603524e+02 1.934099954940738897e+01
-3.248036020536103763e+01 1.218098316757492654e+02 8.429516495432592293e+00
-4.006696085236089289e+01 1.212367133228113403e+02 4.005245306008976769e+01
-3.660579700077566656e+01 1.224618949009729647e+02 2.604719359200387530e+01
-1.412988413222701212e+01 1.296417003886616897e+02 1.853109626294818568e+01
-1.891862189306435127e+01 1.324322322656062738e+02 3.305746171335430716e+01
-1.650596667672840567e+01 1.222078572761957105e+02 4.621716216992328263e+00
-2.154754754881694012e+01 1.105028689366907884e+02 7.267580542114215447e+00
-1.293758923764640656e+01 1.197087249832738252e+02 1.896459148552051843e+01
-2.734603962146707445e+01 1.254197467808750730e+02 3.603632042821124770e+01
-2.383471160661544408e-01 2.440473800315179176e+01 -1.997824553168444695e+01
2.842657926176076799e+01 -1.820641954308072741e+01 5.030007877154340434e+01
3.216429318548567551e+01 -1.969188199656370486e+01 3.971319492308345644e+01
-9.090590396319202071e+00 7.193344181875259480e+00 3.515411740402886664e+01
3.311215159321987755e+01 -2.480211153704964033e+01 5.407214535983663239e+01
1.119113136708465683e+00 3.765135532602133850e+01 -1.349937429187173343e+01
-1.556646355231006806e+00 -2.065210936892987093e+01 7.842589120656427326e+01
1.755270188230724226e-01 3.417764255923106731e+01 -2.651922401197221646e+01
-1.139939043981950562e+01 -2.049056644771582825e+01 8.335907504185477990e+01
-2.244582249626672965e+00 1.584786680785724711e+00 3.315258733218242071e+01
