-6.924965121884965047e-01 4.465261109113574989e+00 1.913795429462075859e+01
4.003415630710997419e+01 2.041432327857444662e+00 -1.069484507110277605e+01
3.640525329397639176e-01 4.592847663032096683e+00 1.906220666082036175e+01
-1.277699121282699934e+01 1.247214417888293525e+01 8.023246083082060665e+00
1.137968821076088943e+01 1.247076692420941413e+01 9.886518601629802561e+00
-1.227063223633691003e+01 1.196410296968160480e+01 9.701500712123626968e+00
-2.653322508165885552e+00 4.109539540852410688e+00 1.928279064441769819e+01
-5.476746491885387869e+00 1.011531700539960532e+01 1.235822993417129112e+01
3.421777770816650843e+01 2.910921283044538121e+00 2.985762051246637228e+01
1.111641773564742763e+01 1.272793347475677628e+01 8.961920374383886667e+00
-8.854675970517942307e-01 -1.431259525294725421e+01 7.216715148136996660e+00
-1.604370284605944330e-01 -1.229993762644273936e+01 8.922263515149065682e+00
-2.673408504333007474e-01 -1.349231315155345001e+01 9.065788830956428512e+00
-2.206631982860102070e+01 1.637717209455395562e+01 -1.606357605831394864e+01
-1.383339299505384590e+00 -1.186375739908166516e+01 8.863948586918709793e+00
1.224778144320361584e+00 -1.165802959014982676e+01 7.771429545208816236e+00
1.706525007469312238e-01 -1.544283427596653802e+01 6.496728677313575062e+00
6.951228192688291285e-01 -1.430117478631943584e+01 7.044139595709689061e+00
1.309331414939656213e+00 -1.171892677243820735e+01 9.688036430272415345e+00
-1.229157562145979654e-01 -1.505961269288496673e+01 7.038924795227821996e+00
7.577868100627218162e+00 -4.329598134243084928e+00 -5.486709979312625052e+00
8.202750676682351028e+00 -5.986532174944860785e+00 -4.595292720750701498e+00
8.168831976351652813e+00 -6.340516324541343174e+00 -3.891204635209351892e+00
-6.442863472731975349e+00 2.233565780184471272e+00 -9.143362969574667432e+00
-6.668011918199414190e+00 2.131389575504959222e+00 -8.573071504373777074e+00
1.426191333574782227e+01 5.665776003379245473e+00 -7.040829996345120634e+00
-5.624301032294623859e+00 1.206436172956582986e+01 6.737841609604190651e+00
-6.402614995638875151e+00 1.305256661547285191e+01 6.458770783142709249e+00
4.253749502418213702e+00 3.830906087590140618e+00 7.014646382770188815e+00
4.622134525673783578e+00 2.699131892168061597e+00 7.070759704311060823e+00
-4.294949341489512129e+00 -4.505461264739384908e-01 -9.673110041699917172e-01
1.601732935908047439e+00 -8.843316530453499524e+00 2.965406952432159127e+00
-5.123427723617759888e+00 7.383122642751702713e-01 -2.353343935938506437e+00
3.225027837156158594e-01 2.574918204797417953e+00 9.084413126847257658e+00
4.607654837028340111e+00 -9.421168608194909755e-01 8.685657016878396419e+00
-9.936479741530776622e+00 1.008278031998807123e+01 8.434667993866895586e+00
-8.862920045540910730e-01 2.483893712669364984e+00 8.588144985199221537e+00
-4.957408813492910404e+00 2.326397864552606498e-01 -9.108163394297147386e-01
1.105617698216678768e+00 -9.655300561535996806e+00 3.162113750155541414e+00
4.378932567301353274e+00 -3.951038144990160816e+00 8.302798442408834134e+00
-1.467330018681736736e-01 1.654290248801815855e+00 5.840551235274082931e-01
6.014685691308014448e+00 -8.298107556967381226e-01 -4.843700236787030100e+00
6.311514474050461843e+00 -1.614665403080548067e+00 -5.712416539033271512e+00
-1.195777164610129395e+00 1.845696501627235309e+00 6.668907292322344693e-01
-7.989660438788225072e+00 1.066025593966359075e+01 4.112623888684344919e+00
-7.312969709440404031e+00 1.098995685529778221e+01 3.704525683988201035e+00
-2.340680301471365965e+00 2.195937103996771889e+00 2.397079878680607568e+00
-5.752154439452096923e+00 1.106844715494450959e+01 2.800731105547576760e+00
-6.502556087140268559e+00 1.017306542513178336e+01 4.240100137887671927e+00
-3.078990094135721556e+00 1.155181872614222272e+01 1.048654313905050728e+01
4.123289150157974370e-01 -1.637727873200344630e+00 1.551545276970817078e+01
1.268737215111876704e-01 -1.296216371908740062e+00 1.515248600942856250e+01
9.933186130522299317e-02 -1.660863190703389281e+00 1.588105528454146409e+01
-5.803268794722138857e+00 1.024122775092646975e+01 2.086124989597176693e+01
-6.533785556827702123e+00 9.990212792408010856e+00 1.942948161605548663e+01
-4.865785853748637813e+00 1.094178002469103284e+01 2.003684465199949827e+01
-5.795978559869840119e+00 1.082951480393190025e+01 1.855017578314915383e+01
-4.301552181639905825e+00 9.530148991720235330e+00 2.046024233480634180e+01
-7.088180829349428613e+00 1.104972987804557150e+01 1.832099476239072899e+01
-6.421554844660423811e+00 1.109612701393577083e+01 2.030268806450531116e+01
-6.951024988898274692e+00 -1.161392755943077448e+00 2.089244832288912335e+01
-1.472584614831729510e+01 2.365586687908461982e+01 -4.409225326006660950e+00
-9.619069942444033572e+00 5.109063822367818197e+00 1.521366691532345072e+01
-8.356132833770484325e+00 -1.623471033453999013e+00 1.862953151408418151e+01
-7.430995820536882235e+00 -1.228915437498529162e+00 1.934800880813621760e+01
-8.625227130267697717e+00 4.025849289034074019e+00 1.515892827833707734e+01
-4.438031602605780002e+00 -1.820031391354719252e+00 2.068261660024505488e+01
-6.409972289378858434e+00 -1.148224662230969750e+00 2.084708299910854379e+01
-8.430529459077483523e+00 5.817118287667248921e+00 1.509987519754036178e+01
-8.534731139874542905e+00 -3.654396219785445155e-01 2.104152355782090211e+01
8.258945643429761674e+00 -1.182453046334976055e+00 1.688434910200753336e+01
-6.153785960211006767e+00 2.827993892202819026e+01 -1.204063772469364935e+01
-7.168224971058952733e+00 2.729452252974055426e+01 -7.472082311583159608e+00
-4.837092758337740328e+00 3.047984084378605729e+01 -1.593596324532953190e+01
4.926724833682066595e+00 8.545828771355306053e-01 1.908777335732800395e+01
-1.949612905285029996e+01 3.433926993104731906e+01 -1.737949198161890418e+00
-5.380502470972888140e+00 2.982045702527105391e+01 -1.501708825173087902e+01
5.877220248032338112e+00 1.987598350583671181e+00 1.863073875214546860e+01
-1.140034805195947420e+01 1.144286334684372441e+01 1.173368056114101599e+01
-4.154151982023803313e+00 3.028950296473242076e+01 -1.468890963025767427e+01
4.943051439248707268e+00 -1.960248167748201320e+00 -1.151284055501519887e+01
4.931281362557697001e+00 -2.949304243578342088e+00 -9.493239538519816278e+00
5.006364922209110446e+00 -2.362820382010127673e+00 -1.091874955109857837e+01
6.971019102110849464e-02 5.853617433401802295e+00 1.290891731270409126e+00
1.280707100044793378e+00 5.724555771028002837e+00 1.395068150773822069e+00
-1.938092731542945923e+00 7.039247813897549833e+00 1.652812902553774110e+00
-3.290061945455762249e+00 6.643204063968048523e+00 2.696313800197593036e+00
-3.168404442188895720e-01 6.131770852821969875e+00 3.055414851851165459e+00
1.957861414873083072e+00 4.840425369652334275e+00 -1.959526128470124584e-01
3.353608495908167342e+00 4.581298292741473155e+00 2.573649065658093704e+00
9.960762663458252675e+00 2.923312509706803564e+00 8.187492223046854534e+00
1.055982864744925109e+01 4.269811254627783548e+00 8.473009848797541821e+00
1.149426386302340930e+01 -9.296889223908863187e+00 -7.656245822028658665e+00
1.085145299081019132e+01 -1.012248083316642067e+01 -7.336743351406646241e+00
9.331129291195333408e+00 7.433139154408223703e+00 9.058271042070879631e+00
1.055802743753550743e+01 8.255580175275857968e+00 9.431160032758523215e+00
1.160347319845722502e+01 8.056855819697915422e+00 1.014992723526571439e+01
9.157219283425471090e+00 6.218817605516207436e+00 9.086254903110258851e+00
-1.249535582851389748e+01 1.028880134649725520e+01 5.123306734784911498e+00
-1.926409113340787016e+01 3.357408902267680872e+01 -9.176294741884851724e-01
-1.875781136083459444e+01 2.853093285743004870e+01 -9.020503374755135084e+00
6.623837389557597710e+00 -7.025083977107530409e+00 1.258855918848709443e+01
7.781092624052424966e+00 -5.920590201306920264e+00 1.339141783476808278e+01
-2.022984537345205780e+01 2.632659764679413783e+01 -9.257955594404348787e+00
9.043862600779821292e+00 -9.336557091167936306e+00 1.550099033518134739e+01
8.686188992536893139e+00 -7.354252492594539170e+00 1.436005122985812932e+01
7.213252457344762725e+00 -9.317048427824319745e+00 1.424118900424022627e+01
8.681682231391814497e+00 -1.019961373518780157e+01 1.505256292376114402e+01
5.871917663923306385e+00 -1.100120161305377842e+01 1.247361190758741678e+01
8.618701602631688274e+00 -8.468857565964487577e+00 1.246979438571449705e+01
5.362290523413275167e+00 1.119741281240886899e+01 7.062296542410771316e+00
9.369502624698020199e+00 5.725493564905498323e-01 -1.414382747682008556e+01
8.687683162461768305e+00 1.300749763331286779e+00 -1.543856607442094031e+01
9.387095912487184890e+00 -1.741698431696678151e+00 -1.228106067232848808e+01
8.716992422724215928e+00 3.018420746479409944e-01 -1.313739767949041415e+01
-6.406208529573267363e+00 9.721492842519245059e+00 1.040039970644735234e+01
9.544502433497612515e+00 -1.932050526091265708e-01 -1.365823359242098611e+01
8.378368235827998944e+00 1.164134533162730634e+01 6.442698961903717603e+00
7.724367802204146649e+00 1.062272941064602882e+01 7.200640566090340755e+00
6.422665729456939587e+00 1.118724663734231939e+01 6.677734962770729865e+00
6.578736351529121951e-01 -3.376140851299412660e+00 2.922266821149180904e-01
2.111121297849530620e+00 -4.289120704901866254e+00 7.648182141989043337e-02
-6.549617217062526642e+00 4.510274784848435914e+00 5.641382041464462205e+00
-6.552654829526163738e+00 4.798258096040359355e+00 3.722808678636270407e+00
-8.973941524508521894e-01 1.272752228620806170e+00 6.439114270463479173e+00
4.160017387825660329e+00 -3.648600979893793284e+00 6.808262840818275485e+00
-9.273982427268741446e+00 1.154538890412568897e+01 7.934620130217166611e+00
-7.564297590523845649e+00 1.062845852396413981e+01 7.367964929008296693e+00
1.145239523370722212e+00 1.609237429763023641e+00 5.950210826487115412e+00
-2.231061514445055849e+00 1.471286151856303848e+00 6.243769763581118681e+00
1.533362350082587788e+01 -8.881105757033359582e-01 2.770190980818489024e+00
1.383393528605311751e+01 -3.715223333050741594e+00 5.096720128238707570e-01
1.501646831024994455e+01 -3.095765733233806216e+00 7.317393636825423320e-01
1.427344924782041602e+01 -8.511777540326970204e-01 3.017179132595019464e+00
1.517248042824879661e+01 -2.761156176719775646e-01 2.426519927755203643e+00
1.581878783876364203e+01 -3.127188722987000791e+00 1.209465820235080979e+00
1.418841026191552501e+01 1.099142525413697946e+00 2.807020801689143585e+00
1.290057090827506592e+01 -2.462869122070999950e+00 2.141512681578568777e+00
1.563829196002945565e+01 -3.836572016926196760e+00 8.775879959706608391e-01
1.428259261874239172e+01 -2.369644498349114503e+00 1.471863370189619324e+00
-2.650451215308045061e+00 -6.970086545131182199e+00 5.867634513643439576e+00
-1.441378630805957961e+00 -1.747253662699388199e+00 4.582631259821516423e+00
-2.328316271210303601e+00 -6.529628457951419662e+00 7.079638915626297546e+00
-1.233729574151179342e+00 -7.088831389464433919e+00 7.285972579009165173e+00
-1.938832886052444637e+00 -2.192516863437232288e+00 3.257309575727044493e+00
-2.335822267677382769e+00 -7.428655413123354201e+00 7.093908043482386461e+00
-4.180844965765765364e-01 -3.322025664412573853e+00 3.958707542992533579e+00
-2.391245108610795533e+00 -5.120743899858575254e+00 4.704592292634717232e+00
-1.380127579844933727e+00 -3.401401293486987054e+00 2.952061069213662847e+00
-3.134881025542478328e-02 -1.465974268479695919e+00 2.979578282872583195e+00
-7.595133651702395738e+00 -1.017383827727354451e+01 3.861689693663605816e+00
-1.590352632448968739e+00 4.304285309503913304e+00 1.705820584595873513e+01
-7.216747850065294845e-01 4.819960218636340166e+00 1.719513533707002750e+01
2.505752675549904218e+00 8.141846754991862056e+00 1.525515141640805616e+01
3.769920360558044692e+00 7.438140222108529542e+00 1.613013783024864622e+01
-7.741152495321147242e+00 -9.355842059063965266e+00 5.314485942736132174e+00
-3.084137920526178078e+01 2.279733264393473746e+01 -3.659117004683119401e+00
-1.139724037412659996e+01 7.770198872868864015e+00 9.945993968129949181e+00
-3.294087213103088718e+00 3.664467936601901066e+00 1.800145295079748564e+01
-6.415888116409860231e-01 4.309803488915253666e+00 1.702722172175306525e+01
1.782222463134811363e+00 1.360645045306625356e+01 -5.293795588957234122e-01
2.026776697296676311e+00 1.355040915178910232e+01 -6.392202897370951042e-01
1.062487212281067173e+01 -3.123599995644799066e-01 -3.043598175059032407e+00
1.032666776064128022e+01 -1.012788291085819692e+00 -2.729948122676666866e+00
1.364512228072427114e+00 1.364448928473158063e+01 -3.231462029411888426e-01
-1.208287232455441718e+01 1.430232184569608478e+01 6.067582423029032057e+00
-1.277992660326971119e+01 1.329404189730057695e+01 5.910356350150578919e+00
7.241602175951841192e-01 1.328128354113451515e+01 8.638510426432352007e-01
-1.108962885725899739e+01 1.473996278185994768e+01 4.824793504632125085e+00
-1.332907729259322060e+01 1.446664679777608953e+01 5.278946618183960382e+00
2.802418288169718164e+00 1.777818036074904962e+00 1.226609439817788960e+01
2.046263123405394957e+00 9.352095299586421495e-01 1.131001121720484370e+01
-3.054633437938797602e+00 5.505992407597893212e+00 9.858145545627996498e+00
1.744066359008098255e+00 -1.018869245533136209e-01 9.948495991156377727e+00
-1.574826368776697461e+00 3.537776501053659040e+00 1.118596210593637963e+01
-2.402237465982418385e+00 6.488112957326860553e+00 1.144764932700427273e+01
2.039341516165460000e+00 2.615416816997757188e+00 1.357406836113157489e+01
-2.075172925889757103e+00 4.782387073981174908e+00 1.053065970352797365e+01
1.339238470328250274e+00 3.315647747416260227e+00 1.238507564845003905e+01
-3.638300272862084572e+00 6.398935638536813464e+00 1.132168814883276120e+01
1.302873074614077176e+01 8.158388635602831229e+00 -1.262509190288592542e+00
1.393316454883051136e+01 6.700400547230836779e+00 -1.167852430825153220e+00
1.412461625475602744e+01 7.718164214056591810e+00 5.276721668366252116e-01
6.030076135673724025e+00 -6.429897523404194182e+00 1.740104832082390018e+01
6.579059282565910216e+00 -6.938197324138148048e+00 1.755911868137607357e+01
1.212132134698312314e+01 6.643835726725938251e+00 7.094735484462521002e-01
-1.555942404472486551e+01 2.784968464580014214e+01 -5.748696564896090599e+00
-1.620234343955940659e+01 2.838077905504780318e+01 -6.345783519788498417e+00
5.355839943120675350e+00 -7.723421302553307832e+00 1.776766976975982359e+01
1.471340304098479379e+01 -4.860031390695919384e+00 1.519076795515085720e+01
2.232745548385958401e+00 -1.316630965794377239e+01 -7.345891537375593749e+00
2.061052504218440440e+00 -1.319289892737448078e+01 -7.554149227308327497e+00
1.473662571266019627e+00 -1.355351643818125318e+01 -8.390598111435826567e+00
-5.152958415186064123e+00 -4.875007090863240578e+00 -1.672516657445366262e+00
-5.556324410351850318e+00 -4.145889567935789888e-02 9.312333515548710139e+00
-5.506437017815255075e+00 -5.185834894918327720e+00 -1.373681309651911153e+00
-6.159970564364582124e+00 7.145779806136823842e-01 1.106606209317323675e+01
-1.855508745296672046e+01 7.142105402295666039e+00 9.898454456876777385e+00
-6.754964472874755543e+00 2.288867763590829885e+00 9.703527257098013337e+00
1.313804362596241448e+00 -1.387311370643782382e+01 -8.758745223873431129e+00
-1.192376682969803481e+00 -6.540758836973259882e+00 -1.356995937661316098e+01
-3.110431763368156854e+00 -6.022097883042306421e+00 -1.421512288118000811e+01
-2.814183104708410710e+00 -6.090055344414357030e+00 -1.546443770184827393e+01
-2.321723905147450306e+00 -1.947042797215297494e+00 -5.936329615251601410e+00
-4.593257256037320824e-01 -2.799050887183917258e+00 -5.656179629931730624e+00
-1.234153520789303682e-01 -2.831680180967317106e+00 -4.288201135693979538e+00
-1.089581905696504727e+01 7.171131209237446846e-01 -5.575838247610536591e+00
-1.136070746811888021e+01 1.216340928081071915e-01 -6.600087922744552138e+00
-1.672832447939619049e+00 -3.525812602814305308e+00 -4.941531131176326141e+00
-1.016366337799117758e+01 2.722641331015706045e-01 -6.209781351393330873e+00
-3.098124804977440583e+00 -1.220256220383554080e+01 -2.367104037139464623e+01
-3.639827108591918048e+00 -1.351788475795116362e+01 -2.301506762621628610e+01
-1.828930140305924823e+00 -1.161452971740659379e+01 -2.292241335391308965e+01
-4.418451236335394938e+00 -1.237960659664559593e+01 -2.174749135670046840e+01
-1.388405861705262812e+00 -1.371890727597189752e+01 -2.333211047193233867e+01
-4.794784172692258650e+00 -1.102524267723666895e+01 -2.360520729544980156e+01
-5.411037332802703936e-01 -1.254793542335785972e+01 -2.282136638128399397e+01
-9.485597909341630940e-01 -1.324879604547507483e+01 -2.136092980181466672e+01
-2.460277695798468667e+00 -1.261594534783581700e+01 -2.138524522873439437e+01
-2.276380855563297612e+00 -1.398080849191591568e+01 -2.191122807890353386e+01
1.265767956681930650e+00 4.729841455607893153e+00 9.313747417317035371e+00
4.457934122888979722e+00 1.279369123579630063e+00 1.011486688512017373e+01
4.476721448264495251e+00 1.169190369645769501e+00 -6.556513605482930940e-01
-2.804401643502865582e+00 4.990653165686604886e+00 4.708514433113601072e+00
5.402066894951320641e+00 -1.904806436558978966e-01 -8.480477401542959592e-01
-3.760676051461220304e+00 5.575050031345393009e+00 5.004888011859228492e+00
3.523153421835704346e+00 2.128741733805544101e+00 2.155338283218640738e-01
3.984132976790732528e+00 1.527684349771001537e+00 9.287290232157644709e+00
-6.365594356505957840e+00 7.105017155086723157e+00 7.026150997390141484e+00
-5.251831523219144593e+00 7.490187879525417536e+00 8.675780315244081109e+00
-1.208622727828482013e+01 -5.985680915828300641e+00 3.497646053142568601e+00
-1.138651349681132707e+01 -6.004665346709535889e+00 2.867571424988970552e+00
6.881535470402521781e+00 3.462125381328848306e+01 2.309834397828934183e+00
-1.373301008862042139e+01 -1.611854709383898188e+00 -1.380242372223776215e+00
3.896701922648135863e+00 -1.805819848978574882e+01 -4.152756556754376049e+00
-1.284585745116544686e+01 -4.512017825471277277e+00 2.639572405315667947e+00
-1.248691594854854436e+01 -5.080899024767434824e+00 3.215543400278047415e+00
-1.194200647325101095e+01 -3.820039493059815605e+00 3.383059600119451726e+00
-1.490327889152129615e+01 -2.349345687468118005e+00 -1.752637252389958711e+00
-1.464241458992853318e+01 -1.562200080489833498e+00 -2.547230284265289413e+00
6.981399391677395982e+00 -7.641610002804026802e-01 2.230954154534146916e+00
6.500991366918436043e+00 -4.926247238928363359e+00 5.560586140590800808e-01
6.260955753541456836e+00 -1.152059872844983346e+00 3.069399299190831432e+00
3.596955065840310883e+00 -2.758075165335940326e+00 2.396205588039131751e+00
3.018421099993937595e+00 -1.592395262237632503e+00 1.985340120924934171e+00
6.497007113845030268e+00 -3.827209936936323498e+00 1.211060400600087350e+00
6.103550417889034740e+00 3.048604839733452532e-01 2.811789689934960812e+00
-5.664026973739298754e+00 6.962130716727162216e+00 3.822675402731579464e+00
5.878682392597346151e+00 -2.494358934990728471e+00 5.103407478405032061e-01
7.147644036163044667e+00 -2.151059935040036564e+00 2.214536111597036339e+00
1.345316063041585153e+01 2.622827733886034185e+00 -6.716053104934820439e+00
1.241389003881836572e+01 3.238469242146986282e+00 -6.716817462556298857e+00
1.316952073499985509e+01 -5.833196665905817646e-01 -5.073196155997634627e+00
1.192836865724525630e+01 -3.338179165772667822e+00 -5.971992294242125965e+00
1.180064334748878885e+01 -3.855465286707040917e+00 -5.815946256835575312e+00
1.408745318999361018e+01 4.168595453616513957e+00 -6.908473395549328266e+00
1.406244240129255196e+00 6.228030551004518856e+00 9.347937706714573025e+00
1.200154138427019213e+01 -2.469274772764444847e+00 -4.802173053753047149e+00
1.284139668181351546e+01 1.575063208197115650e+00 -5.832381414238687611e+00
8.580324927348494057e+00 -2.956698488129738678e+00 -1.074543464418724475e-01
1.297747612102426196e+01 -3.093105494307035741e+00 8.545899506075507190e+00
1.435064330579285929e+01 -4.919735488169439286e+00 7.243878166361871429e+00
1.342432395941876955e+01 -4.512274789545910103e+00 8.161692664828679611e+00
1.419253733399243167e+01 -4.088640172926863769e+00 9.021574864296816543e+00
1.226532906205905071e+01 -5.491944988156360452e+00 8.348564739687128977e+00
1.555238106142400767e+01 -5.655720574499532916e+00 8.498863843497540316e+00
1.447098060109085793e+01 -3.498386790811915947e+00 7.663162938175772432e+00
1.262667458971524326e+01 -3.847660364475200989e+00 8.668902934951800532e+00
1.513372987635844424e+01 -6.035066264199565822e+00 6.994804011556775336e+00
1.297044494737042442e+01 -4.149919528027683491e+00 9.423281549716314487e+00
8.747895013959411159e+00 -9.904967778459711880e+00 6.336702855786091604e+00
1.232214616008113772e+01 -1.181800975779325036e+01 1.835782668537966122e+00
8.748802700271944843e+00 -1.184397718089360652e+01 6.796425955009101294e+00
1.090689415047623001e+01 -1.245389559382225109e+01 5.650213307384466255e+00
1.160284096442260093e+01 -1.167445249769833993e+01 3.549381814890347542e+00
7.830906564947561321e+00 -1.089113383670597024e+01 5.394274959777446199e+00
1.070749982981756965e+01 -1.029730918199589240e+01 2.808197215508584588e+00
7.819909201294365175e+00 -9.487892488023595305e+00 5.125537908431803125e+00
1.070455202853126941e+01 -9.979091695714032539e+00 5.785641755911129502e-01
-9.402814319465072401e+00 6.618656576619747156e+00 -1.382314351629880811e+00
-5.659073907259348779e+00 -9.762808502725141224e+00 -1.949157640894091159e+01
-4.820491574683663849e+00 -1.019661299653705733e+01 -1.915774088377347795e+01
-6.779654627973056513e+00 -9.183906487509570837e+00 -2.036248010921710261e+01
-1.022786654834908582e+01 -2.154344610786378844e+00 -1.094609643853766912e+01
-1.173193799968120210e+01 -1.059529463254140769e+00 -9.542453303200812087e+00
-1.121027876049120664e+01 -1.177142024731292702e+00 -1.010446028764181037e+01
-1.057982471153053794e+01 -1.553213866253087438e+00 -1.030809870580909049e+01
-1.244628248495735257e+01 -4.700179265594596201e-01 -8.197851893913137289e+00
-6.669060624351315525e+00 -9.614555379382036193e+00 -2.092569231515891559e+01
-5.372195500075257257e+00 -8.746800373681395513e+00 -1.892950156421248309e+01
1.919060788156301989e+00 -5.619998200972733393e+00 -7.944679340227548181e+00
3.444988360258998128e-01 -7.660033334374706016e+00 -9.952076012374375225e+00
2.974781154746215073e+00 -6.410827674410566779e+00 -7.251070560304794022e+00
-1.402783816455487553e+00 -8.013535538212012810e+00 -1.062144178742929768e+01
-1.866204940075376850e+00 -7.602478368482617377e+00 -1.124043440183454656e+01
-7.687958036176476551e-01 -5.662689832821422797e+00 -8.016046291028514403e+00
-6.182481292693501329e-01 -6.692731831517043872e+00 -1.080693085878568027e+01
-5.532554320364704292e-01 -7.921728358317388086e+00 -1.112854281783321575e+01
-1.551354488915350105e+00 -4.405501885199297085e+00 -9.112915525209855261e+00
5.695372124654787260e-01 -5.670144338901420333e+00 -8.746381392875070659e+00
-1.083947004885762899e+00 -1.780583588966715647e+00 -1.293049036500615223e+01
-4.470495469016647405e+00 -1.391800464659835157e+01 -4.634760142798825200e+00
-4.455248199841749468e+00 -1.535293081521388281e+01 -3.656712578071365183e+00
-4.015017477416694902e+00 -1.536772233277645050e+01 -4.988277327831573515e+00
-2.920079541773242582e+00 -1.512111968657585948e+01 -3.935144747517923758e+00
-5.355525303076946741e-01 -2.484692887174354325e+00 -1.295944784856514609e+01
3.467256522596715018e-02 -4.383733414317545041e+00 -1.232111982708579490e+01
-1.200914732809684971e+00 -1.490424583116356949e+00 -1.290724668506219075e+01
-3.341828647061761970e-01 -2.998927157774225360e+00 -1.211602197531885317e+01
-3.838987272297306852e+00 -1.374632530187390600e+01 -3.198403276152235186e+00
-1.752576615057645526e+01 2.349972933721722868e+01 -1.299389351083482502e+01
1.842802453114425631e+01 -7.523017288858247831e+00 1.214595481640362173e+01
1.824595215016287497e+01 -7.434041289844361522e+00 1.183623092045989722e+01
1.668080866231353987e+00 -9.796749613089980713e+00 1.766635149438716823e+01
-1.472148114872937441e+01 2.534883751998551560e+01 -1.368822910594102282e+01
1.059353676694827939e+00 -9.438233553480905869e+00 1.517002720303816155e+01
-1.866624967791442558e+01 2.170594239139758486e+01 -1.450846316891809451e+01
-1.584507070549009811e+01 2.443064996635628461e+01 -9.809372340196123474e+00
3.570414419938999551e+00 -1.036867748158654656e+01 1.649085806004331545e+01
-1.630985064567616050e+01 2.447467798284130680e+01 -1.134112214460081702e+01
-7.932259734653480443e+00 -9.180852658781732956e+00 -1.623996185645243528e+01
-7.811409021183901125e+00 -1.121319022377431729e+01 -1.614577481819636162e+01
-6.593610874190241056e+00 -1.032027187351997988e+01 -1.539530309024094379e+01
-6.792008134664254015e+00 -1.184899434140122132e+01 -1.505693760050115770e+01
-6.263501289991891596e+00 -8.577209640557748926e+00 -1.309719804878647231e+01
-9.031642616793803313e+00 -6.649410466161040922e+00 -1.441886802462854966e+01
-8.330592957502290119e+00 -8.860760600211618154e+00 -1.329055727351756389e+01
-7.054458434615286322e+00 -1.057370663973554947e+01 -1.288706029206589321e+01
-7.573753733085348827e+00 -7.134645290492878544e+00 -1.313822425515015091e+01
-7.988867320517265114e+00 -1.091813198745458457e+01 -1.495076853376473736e+01
-3.186851992859841332e+00 -1.593894567053462374e+01 -1.891451180403743493e+01
-4.567504290028002067e+00 -1.574844235420590444e+01 -1.856940929329891432e+01
-1.877041325459079646e+00 -1.684812711977190958e+01 -1.783282486413176571e+01
-2.501837359660896709e+00 -1.715460256564663055e+01 -2.083124257114697642e+01
-3.777735143464600487e+00 -1.753857605340271419e+01 -2.061532205275920049e+01
-3.498198603843531984e+00 -1.680464544412696171e+01 -1.759625344642606137e+01
-3.291383076097846860e+00 -1.804295538231327001e+01 -2.031895775495751266e+01
-2.161520315211219678e+00 -1.616975552764937873e+01 -1.644695634593315958e+01
-1.369385910274881324e+00 -1.552091330788880086e+01 -1.749692625685684177e+01
-2.716716615620634823e+00 -1.485911517626875167e+01 -1.698844242170532937e+01
2.507424718688211485e+00 -9.655765127162606376e+00 -1.391676795179234283e+01
3.314031016562788867e+00 -1.049111179805983163e+01 -1.295629435862607082e+01
-4.167419188433933996e+00 -3.577436801548739442e+00 -1.576577903663988067e+01
3.527287471821670906e+00 -9.081054297866380409e+00 -1.281725083838222012e+01
-1.102245274880414350e+01 1.058390883916610647e+01 3.771659030501265164e+00
1.691118120327485208e+00 2.687632160142608750e+00 -5.878839180511038265e+00
1.823665192858922923e+00 3.636926331999472239e+00 -7.603783147523131447e+00
1.077431470550064496e+00 4.627251311437928116e+00 -5.860477771186852536e+00
-1.113118305090223359e+01 9.640016239379727736e+00 3.763656879900955321e+00
-9.784449797281448369e+00 1.086418905054462414e+01 3.263358196658954657e+00
-9.009219641715031202e+00 3.148034046964435451e+00 2.175409803692187793e+01
-1.232826405911288070e+01 4.402233472351692600e-01 4.173629635471323596e+00
-1.353755695880613175e+01 9.493885588620496474e-01 6.864473099704706982e+00
-1.226488776674805692e+01 2.221565189030721310e+00 7.436375683452066454e+00
-9.754290788744423679e+00 2.208964857488088018e+00 2.195226221009716383e+01
-1.091881583207037743e+01 -6.002211343359490359e-01 4.358210822544736907e+00
-1.308190501874908662e+01 -1.126968456155942544e+00 3.681612152649086589e+00
-1.220209130460650471e+01 4.300143707335515320e-01 7.016116028393721393e+00
-1.105470480365367436e+01 -4.632758455089786565e-01 7.975183404841104107e+00
-1.268842322249926191e+01 1.017065881819988249e+00 8.942571792653524199e+00
1.214630189134798499e+01 8.475216363528614849e+00 -1.039692907870644234e+01
6.434305976074498723e+00 -7.064731951008572430e+00 -2.202915229746441739e+01
1.085560896465909408e+01 8.239435808380759951e+00 -1.019525573242717797e+01
6.552194646327392569e+00 -7.719750200999752288e+00 -2.303751017214803909e+01
7.243067451861535666e+00 -7.343299879437477529e+00 -2.258633996350019046e+01
6.894324173109703580e+00 -8.264317412344926339e+00 -2.199344329415346877e+01
1.236207478817052952e+01 7.008453221308747594e+00 -1.128779444470458593e+01
5.418669356350814148e+00 -8.205209293902177237e+00 -2.231232038088768377e+01
1.187548180449386770e+01 7.567824126121082351e+00 -9.314469143317207767e+00
1.209178684300402651e+01 8.088348508567651862e+00 -1.197799941981058680e+01
-3.234588902025620882e+00 1.190163669646606870e+01 6.691452025611406285e+00
7.243147381766631199e+00 2.096467048520134213e+00 -5.864804708724905780e+00
7.988464701755066955e+00 2.321819478634231437e+00 -4.979516122860505156e+00
6.055305574688246040e+00 6.024891099844341902e+00 5.257599579492683084e+00
7.797585847685398974e+00 2.958341828783410676e+00 -5.867889867608376164e+00
-1.766665272681617882e+00 1.321478060613595851e+01 5.401806665027444332e+00
7.016164443397334693e+00 2.675273336585525463e+00 -4.470253443300421736e+00
7.395339283189373170e+00 3.696091357985377357e+00 -3.076796871550209200e+00
-2.944236131729830674e+00 1.313100790416606500e+01 5.961811354480907710e+00
7.517094466744764780e+00 3.806219859408588313e+00 -5.917574957776714939e+00
-2.916559033180111449e+00 -1.007236781069305920e+01 -2.023994762130942249e+01
-1.248448847410605245e+00 -1.048391153776931617e+01 -2.088783909012468243e+01
-5.206413980767008454e+00 -8.573416963951439485e+00 -2.226691366056959254e+01
-4.242091514656915585e+00 -9.889712824256225332e+00 -2.155460487099013989e+01
-2.809690252168204783e+00 -1.128973873758217117e+01 -1.920847698171727203e+01
-2.858399207298294442e+00 -8.527285526378317826e+00 -2.193319010137511071e+01
-8.301276360254593589e-01 -1.063876142998856444e+01 -1.898953454635714877e+01
-1.093495152425728811e+00 -9.003667295368407153e+00 -1.925130199879621173e+01
-2.823213726214901076e+00 -1.028337297210222445e+01 -1.873177080709095321e+01
-3.620149855525513605e+00 -8.141708966734787722e+00 -2.062261825776336011e+01
3.941211048935894912e+00 -4.033343585493772032e+00 -5.844742817003736768e+00
-1.920452726355482032e+00 1.094326159478882943e+01 8.878155796739283900e+00
-5.936334264003424455e-01 1.067763653868439988e+01 8.902434035109717314e+00
-4.796906286212500703e+00 4.571415355879945075e+00 2.161334082252793998e+00
-2.365680958434483117e+00 1.171142292054208589e+01 9.066520129482681156e+00
4.110398628886020589e+00 -1.707625261664008187e+00 -7.015588959541636527e+00
2.052838947198185338e+01 1.052346001454759872e+01 2.921030161065663933e+01
4.600386093709000868e+00 -3.801977540239510400e+00 -6.875176121052798628e+00
-1.223188912226222413e+01 1.039146154228641450e+01 8.011785756672065162e+00
-3.866497986971145995e+00 4.593669997219602230e+00 2.078082688051494653e+00
