4.661161278091074944e-01 -1.142489057689918575e+01
-1.428537355416005106e+01 4.042994409339280892e+00
8.159278693666137672e-01 -1.120779593235938165e+01
-9.724382896833029477e+00 -7.912724786064454285e+00
3.884742396414637700e+00 -5.328473328788837726e+00
-8.984899973487566527e+00 -8.706421693211916946e+00
-5.698229436697458405e-01 -1.215449828625320094e+01
-2.425181073605963800e+00 -9.698042388565326632e+00
-6.157608891522214911e-01 -1.239357373556259034e+01
-1.401141629045500814e+01 2.715464509753418465e+00
-7.942065654133164010e+00 2.562330209259316316e+00
-9.239645991440641026e+00 3.476392489085410986e+00
-8.897898770204077934e+00 3.159862527162363488e+00
-8.910306235924366547e+00 3.682874183779448529e+00
-9.644403742875452323e+00 3.080493457094630294e+00
-8.641155265881179659e+00 4.338418758350510274e+00
-7.396542643024928587e+00 2.829556630332400236e+00
-7.686791595171639457e+00 3.122203228712487455e+00
-9.509979988575112841e+00 4.340058209787197363e+00
-7.594631880885721387e+00 2.809191664522955545e+00
2.689989274311680223e+00 6.834188109760529706e+00
3.314550924383655062e+00 7.471244889400901812e+00
3.366227214485270736e+00 7.473913051022331722e+00
-8.266122385800933614e+00 -6.552972634535588758e-01
-8.297844703457741389e+00 -7.239487215442956813e-01
8.232600027536292941e+00 9.130191842544460812e+00
-6.713794849972438250e+00 -4.626579614471646451e+00
-7.183415805508320595e+00 -4.894817594730525911e+00
3.140247084270860967e+00 -3.869325241791222947e+00
3.132823013631644837e+00 -4.190027547136122799e+00
-5.060747773897886326e+00 -6.064903909065018084e-01
-1.780378024382545332e+00 5.975645472142450121e-01
-6.056197624914606337e+00 -6.201874349089960825e-01
7.134833081168062696e-01 -5.404909418557123146e+00
2.058392325577885540e+00 -5.234854517181261713e+00
-7.526960050411318548e+00 -7.716471186511782321e+00
-4.994350088471535831e-02 -5.204993357667925480e+00
-5.291621003773324006e+00 -7.217362459028321409e-01
-2.103906852384951787e+00 8.042203038505817414e-01
4.257949043874972972e+00 -6.887578431001180057e+00
-2.476064107015675919e+00 -1.421235357991213144e+00
2.396806437851915828e+00 5.172341742343427029e+00
2.227504672094605453e+00 5.529365659658539656e+00
-2.502999099831562990e+00 -1.506458186587064096e+00
-6.672183212143925068e+00 -6.598261472564275643e+00
-6.459816057649473642e+00 -6.374020241889523319e+00
-2.297208603390582304e+00 -2.598415823688310589e+00
-5.777096342988762956e+00 -5.798784675279467393e+00
-5.944609602029403028e+00 -6.450451203676651701e+00
-5.205584872470135238e+00 -8.605506111400181624e+00
2.753167804265010954e+00 -9.662235632350869352e+00
2.723265246269142015e+00 -9.656746828046893327e+00
2.740625531335891374e+00 -9.746927716359291338e+00
6.557919600561947782e-01 -1.528313361262274483e+01
-6.181877721352883187e-02 -1.553156158055901948e+01
4.482870470268875973e-01 -1.481857041805851516e+01
-4.375344817485882221e-01 -1.514900266848334986e+01
1.001306029076939552e+00 -1.440000018707057272e+01
-7.840150749763874494e-01 -1.547293845906751031e+01
4.448518557802279560e-01 -1.552887683260961360e+01
6.418689201334453642e+00 -1.429044750693626042e+01
6.940233941921406746e+00 -1.484782279169942143e+01
-3.357418261599666831e+00 -1.466983599121801873e+01
5.007268285851304235e+00 -1.462362499838443419e+01
5.451097858937798080e+00 -1.439761135715770557e+01
-3.307629755615449252e+00 -1.517992878458437822e+01
6.504768515365691783e+00 -1.293044598994939420e+01
6.338713345164839197e+00 -1.404395411812645911e+01
-3.091533852860127052e+00 -1.429316134301609509e+01
6.355012747192135159e+00 -1.521281667379735936e+01
6.015048975581888335e+00 -9.044797100006588764e+00
6.218270144665625665e+00 -8.580800493192953127e+00
1.292298548212230713e+01 -7.857763580393830161e+00
-1.422124694710929305e+01 5.615274174401849727e+00
5.318594340657774033e+00 -1.073042468018636164e+01
4.929327233929281071e+00 -1.085074869873646719e+01
-1.452983925904405815e+01 5.445457486272553993e+00
6.016016644396549928e+00 -1.067042420238137623e+01
-8.596518100505912585e+00 -9.651167275679034319e+00
-1.438678957123834046e+01 4.841785133147880060e+00
5.275773066014581847e-01 4.005757468388018161e+00
8.134495732216169284e-01 4.789270279364106209e+00
6.093477606428105986e-01 4.200355695661972533e+00
-6.042493264173004475e-01 1.897722186199497285e+00
-4.815029808137043510e-01 2.129137800452111318e+00
-4.716247488140418831e+00 -2.703208404916956464e+00
-4.399673357305596610e+00 -3.450278276366170793e+00
-3.838454883639084159e+00 -2.002587593611819816e+00
2.121150604648300297e-01 2.871242768644260757e+00
-7.009659527843074001e-01 3.191639134993319527e+00
6.243926706564094431e+00 -2.026031654164937468e+00
6.461783846883735194e+00 -2.442023317991540488e+00
5.892731353464160549e+00 3.041284569766872004e+00
-1.266403510482970773e+01 6.606207668646077558e+00
5.520783702593162978e+00 -3.604084224556273863e+00
5.233498455914079805e+00 -4.110228623052900154e+00
5.064029296062008356e+00 -4.578422163013571300e+00
5.828008998380534322e+00 -3.336738896874539062e+00
-8.805075549917296129e+00 -6.907849989551018588e+00
4.301302200097592454e+00 -1.092632004600021034e+01
9.600509011191327602e+00 -7.529366640503480035e+00
9.314961469086508572e+00 -6.090517308818067299e+00
9.738632765730242724e+00 -6.650712003508544967e+00
1.073181511452913917e+01 -7.949972801903892439e+00
7.900184901368176860e+00 -7.097673080618210228e+00
8.907654135214537305e+00 -6.848214902620215483e+00
8.601476550417469724e+00 -7.991953650007081578e+00
7.841802610068124402e+00 -7.255700756326443290e+00
1.110632407865907290e+01 -7.259464134273401648e+00
9.516643990018387456e+00 -7.811470385618561885e+00
-2.843108499421298507e+00 -8.273742729770404480e+00
9.709477676740579710e+00 5.891284030727740983e+00
1.026448785155871057e+01 6.487673312151600591e+00
9.006870350826575944e+00 4.432110288524403252e+00
9.545151335230904976e+00 5.554794248114405697e+00
-3.014239103537740494e+00 -8.480944579077506873e+00
9.579745480393347279e+00 5.618405187970472170e+00
4.010800050435418207e+00 -2.045044766145168502e+00
3.966461709604299557e+00 -2.739912265447727258e+00
4.276228688861469784e+00 -2.589422041660593088e+00
3.675484524382807150e-01 3.981156270005747899e-01
1.002795204298636111e+00 7.130588686251764230e-01
-3.413942030138789274e+00 -5.248567500688657184e+00
-4.062820131422244074e+00 -4.508196984449893030e+00
-6.503693819774324369e-01 -4.062055353208278596e+00
3.904145508649260687e+00 -6.710897447301777952e+00
-9.206179772239218906e+00 -4.625627934908891348e+00
-8.025018213571465608e+00 -4.338992460933408957e+00
5.124615136522774062e-02 -3.939357751791686013e+00
-1.150187597877424306e+00 -4.064531706433101910e+00
7.338293063434497832e+00 4.808997355160266052e-01
8.712619658207547246e+00 1.945361636502094704e+00
8.077550994374975701e+00 1.960535256812778737e+00
7.377571485098533444e+00 3.206166173801898722e-01
7.364198491196079388e+00 4.175636347530033432e-01
7.844530157099796064e+00 1.979985397812275005e+00
6.481844368258168565e+00 2.155784294654529698e-01
8.840439432100989592e+00 8.170014260301017295e-01
7.915876123676787834e+00 2.137007341334126842e+00
8.187586252323352909e+00 1.329819553244796948e+00
1.389514089723305146e+00 -1.939141092832116442e+00
-7.253835493672714518e-01 -2.034199802173809246e+00
9.773006359477669491e-01 -2.187113642785367240e+00
8.931861208394931140e-01 -2.412363661844507234e+00
-7.731131812280189752e-01 -1.411018498164318125e+00
1.065342453512142074e+00 -2.227144586088041667e+00
-3.505047873469358533e-01 -8.543251952061163834e-01
6.835309350878024937e-01 -1.096898804095098656e+00
-5.158272139227155773e-01 -1.046319741003346238e+00
-8.404403758277627645e-01 -2.164548474510793741e-01
1.518246589767925414e+01 -8.395515049980329936e-01
-3.271719361239009416e-01 -1.067384801585373033e+01
-1.309477165611204474e-01 -1.059345287437204242e+01
2.853704286737846374e+00 -1.256260984519989776e+01
3.410274236236573220e+00 -1.290092715286606762e+01
1.506512889578619863e+01 -1.561502532768070051e+00
3.867360464533494024e+00 -7.856319855148294451e+00
-7.043113916115730788e+00 -9.627245104965199474e+00
-1.258721972623927376e+00 -1.160677786925460886e+01
-1.274981379853469543e-01 -1.057365462934830980e+01
1.379865464641748929e+01 6.510069989355747211e+00
1.377523272377722563e+01 6.531597790618773658e+00
6.603836095248995619e+00 4.766357022574008617e+00
6.571185458986572137e+00 4.682601150756393160e+00
1.383320049473609714e+01 6.462743931447075596e+00
-1.103373777788260490e+01 -7.212657364820149297e+00
-1.074397393617275931e+01 -7.165964408098184357e+00
1.420154407996621693e+01 5.797540766674432078e+00
-1.174393668541582514e+01 -7.489786611494690050e+00
-1.112455632479825596e+01 -6.606894321478615772e+00
1.966064487690263096e+00 -7.595263657004563740e+00
1.480509946153891976e+00 -7.122412784215407910e+00
-1.482879868183648142e+00 -7.204990885622193808e+00
1.391861604724542678e+00 -6.415878858692735776e+00
-1.017901136166733805e-01 -7.344794001510301484e+00
-1.034644281624936601e+00 -8.182188541235980495e+00
1.444082815297504485e+00 -8.371232602963072367e+00
-7.401415167277495266e-01 -7.351700699868962019e+00
7.698972782963644512e-01 -8.146165719651015991e+00
-1.363147822109868068e+00 -8.203724716366698644e+00
1.420259419832239800e+01 -4.460896442383476490e+00
1.358901133750773127e+01 -4.058056278651953619e+00
1.323905596178128796e+01 -5.077498406186255586e+00
8.518708359353002635e+00 -1.020338313638650973e+01
8.553023741005878477e+00 -1.003329531281520204e+01
1.243828714240238043e+01 -4.455954140823640941e+00
8.490551623794214464e+00 -1.059648518898023006e+01
8.607997311617586078e+00 -1.051227664503783998e+01
8.644674035193174788e+00 -1.051022953345302469e+01
1.289063565428990010e+01 -5.023683980593662390e+00
-3.063889448727799003e-01 1.108903437218399368e+01
-3.547241477288903821e-01 1.114588962758305257e+01
-5.427321628931587316e-01 1.153282572922314841e+01
-4.523811500742445091e+00 4.348913801357397801e+00
-1.129560580852694329e+01 -1.152223036788637955e+01
-4.557365342104266581e+00 4.345669723309423915e+00
-1.037889007651921602e+01 -1.113380954385386445e+01
-1.111610954691481190e+01 -1.096643618263848552e+01
-1.103075616969103123e+01 -1.040156307866884333e+01
-5.915114177014479946e-01 1.172742050695203275e+01
-3.076097091209119672e+00 1.008273626868319894e+01
-3.878428980046808583e+00 1.081491619219302258e+01
-4.006853570857496827e+00 1.100503963795540763e+01
-2.890480914784128608e+00 5.298702988061312347e+00
-1.820996731745942121e+00 5.082291777267097466e+00
-1.649915156556889029e+00 4.458315751113574699e+00
-9.461345859668123026e+00 -3.523572055286765980e+00
-1.007123202705188802e+01 -3.064043167214684171e+00
-2.384877896222564519e+00 4.816914356731872182e+00
-9.627035258091707348e+00 -3.147971364099889424e+00
-4.986362438149577692e+00 1.760564770104866383e+01
-4.344563393561375442e+00 1.691567142710629312e+01
-4.277359509717451935e+00 1.753504628703005963e+01
-5.044442052739618099e+00 1.683252471334134270e+01
-3.765722215983885235e+00 1.831529229375439627e+01
-5.923161596789649153e+00 1.664130412950605731e+01
-4.222875224555425078e+00 1.820206837978751224e+01
-3.254179875392761545e+00 1.771638120521552651e+01
-3.519052238250611087e+00 1.693945790686104047e+01
-3.429295233368359064e+00 1.739716723389368624e+01
-1.316168006305018165e-02 -6.154610180361835603e+00
2.750736973373935079e+00 -6.144860769966880021e+00
1.459331528333388306e+00 2.677012787643214153e+00
-2.541654214858030780e+00 -4.404737647419218582e+00
1.973032064718801770e+00 2.747416246582681687e+00
-2.718885904735068415e+00 -4.472601796807549768e+00
1.138836145225146090e+00 1.995708714365699521e+00
2.637122624406935234e+00 -5.975205315651115789e+00
-3.844673330780167930e+00 -6.106362814997886801e+00
-2.908695845418219683e+00 -6.628459087257398963e+00
-6.770665911520989511e+00 -1.434159238529883496e+01
-6.617285573821273026e+00 -1.437030647693731034e+01
-1.299189120894155991e+01 -4.872421062148353244e+00
-1.244115035721163132e+01 -4.415460554889295786e+00
3.261747492976066809e+00 2.562431984910000349e+00
-7.400829085247070616e+00 -1.389331033134224924e+01
-7.128811833257623576e+00 -1.402190131377756543e+01
-7.464251989460127135e+00 -1.351750549354934527e+01
-1.301571371037383429e+01 -4.340256081081726336e+00
-1.298774031281888064e+01 -4.369737450925981648e+00
4.090819195473121894e+00 1.805125757503894535e-01
3.129712641532404138e+00 1.628841162102745432e+00
3.876703679149641868e+00 5.629846202846477965e-02
2.220560408335441327e+00 -1.101607804303000454e-01
1.965695246589340250e+00 -1.188561694910371253e-01
3.402943056716198011e+00 1.319006635807028927e+00
3.855128723491842546e+00 -3.815492070825382553e-01
-4.781515406216947817e+00 -4.584734797805381845e+00
4.027933781244762201e+00 1.558029522990832527e+00
4.065321872187777963e+00 6.575631571391281627e-01
7.258866103395328118e+00 7.739546377584606063e+00
7.566508940184069942e+00 7.725574831609036686e+00
6.527511381096915422e+00 6.224135637437740343e+00
5.432557832858209146e+00 7.332028164680680860e+00
5.322063075861674264e+00 7.292165510298893594e+00
7.895802828577938470e+00 8.506298926081088396e+00
-7.587950985135537563e-01 -5.952534432754339910e+00
5.772860025820103935e+00 6.772110867215793029e+00
7.303831675969074233e+00 6.914113658105742743e+00
4.936934824916831666e+00 2.054728593538375225e+00
9.081817253382151733e+00 -2.528705724426109747e+00
1.009787183847076442e+01 -1.621360643178995087e+00
9.695705568002585650e+00 -2.385419787706201777e+00
9.619693336498016834e+00 -2.261607059429441069e+00
9.964840702357403046e+00 -3.190085951766178152e+00
1.092605147612853322e+01 -1.806964819324474947e+00
9.513916621254717043e+00 -1.674895499493844975e+00
9.303213171032181705e+00 -2.673255701843362697e+00
1.073624542538260052e+01 -1.228383088670258028e+00
9.312643504728255195e+00 -2.725643119498655675e+00
-4.039529583674762669e+00 2.154857195003880843e+00
1.270211509489038626e+01 2.374376200893893341e+00
-4.720899936955957443e+00 1.468951842483811721e+00
-3.833051303791649822e+00 5.646008166144965701e-01
1.246512461902973179e+01 1.396953454835224040e+00
-3.611577589708376390e+00 1.941043129898593733e+00
1.166695069136172158e+01 1.394969739080730964e+00
-3.290265237494164552e+00 2.345679829846007536e+00
1.155763055883709711e+01 2.728364787296136740e+00
-5.226150618903567135e+00 1.206438919617064398e+00
-4.403516645644369731e+00 1.370481985512400946e+01
-4.009565474511433081e+00 1.388645228962648481e+01
-5.189358023899053762e+00 1.368130075881624030e+01
-1.130400283522484628e+01 -3.156529899512341975e-01
-1.130123357221454938e+01 -1.332778167579574236e+00
-1.126212767763350442e+01 -9.986454984342025831e-01
-1.121016059702431811e+01 -7.121298197211246572e-01
-1.116259037883995830e+01 -2.528406993967974081e+00
-5.257907844815207454e+00 1.379564561166165504e+01
-4.264541629221632490e+00 1.338044298602455484e+01
-3.083858302938769502e-01 7.308979881355761599e+00
-1.045951830707687824e+00 8.833088494765600984e+00
2.512563258744993644e-01 7.329342924873421872e+00
-1.827754167981931577e+00 9.422956474014164030e+00
-1.958462464138104764e+00 9.521881454900121611e+00
-1.451462105226692278e+00 7.156487377398509153e+00
-1.795460545411626585e+00 8.827958805566998635e+00
-1.677375741334720338e+00 9.252181971521517667e+00
-2.161228072674441059e+00 6.826530699754759901e+00
-9.889153992030629281e-01 7.505209027255794751e+00
-4.368674160151843289e+00 7.594385833356936288e+00
-7.567243914224274448e+00 7.986243409578619890e+00
-8.325274083407101955e+00 7.715032203196821925e+00
-8.231451697652943267e+00 8.020534301105247010e+00
-8.242546706085645880e+00 7.278805402984747097e+00
-4.097502463195511702e+00 7.777202013196120589e+00
-3.186128073971412178e+00 8.362759063616369559e+00
-4.420565576134301011e+00 7.550922438225799560e+00
-3.672714062684170777e+00 7.827634886083209231e+00
-7.394977513281158821e+00 7.385484507206912852e+00
1.083580592317537317e+01 -1.186054643528194319e+01
1.252821966580357049e+01 -1.007856097356170544e+01
1.275719430524108766e+01 -1.006322904727644918e+01
1.109902769344698648e+01 -1.086926633714191048e+01
1.303830204578082075e+01 -1.013307116174298450e+01
1.079615161884356311e+01 -1.192895732897814298e+01
6.074604979787769032e+00 -6.365184191458086893e+00
1.117717537837667408e+01 -9.894589289718235037e+00
1.099948899861567142e+01 -1.005395883114371003e+01
1.133962314187126275e+01 -1.051325295266883941e+01
-6.843709493998090032e+00 1.309091235185990953e+01
-7.807091564181181553e+00 1.352084493040327651e+01
-7.381113520491530799e+00 1.385757878032962864e+01
-8.122433380269702852e+00 1.401258919884720910e+01
-6.647136676077318285e+00 1.172749338358656601e+01
-8.043856380802299810e+00 1.082669742607119900e+01
-7.658869948883265444e+00 1.190443593351125706e+01
-8.431515539462335340e+00 1.248947728921697475e+01
-7.168853349556626675e+00 1.114668555656838400e+01
-7.842617158498119245e+00 1.357486770384635832e+01
-9.459257031963272944e-01 1.730751576951685067e+01
-1.374836196426520107e+00 1.702590766038467152e+01
-4.035716931701522486e-02 1.675270463897096462e+01
-1.313969227594308897e+00 1.857889694194867403e+01
-9.087223175093874783e-01 1.865933423331969720e+01
-5.152391444560718847e-01 1.705768374584875957e+01
-9.051944697907756687e-01 1.867266632526362002e+01
-2.939431126282763818e-01 1.611334928668119559e+01
-3.991809447176340730e-02 1.617318396205900655e+01
-7.140002621896704982e-01 1.590396183590349288e+01
2.049933825209207416e+00 1.167958181793776440e+01
1.880142076186408717e+00 1.125826099523686352e+01
-4.825365104469785393e+00 9.962098320649580785e+00
2.055446355156606675e+00 1.064881968886088615e+01
-8.699200828820016440e+00 -6.023349276283783915e+00
2.311425923631299284e+00 9.215507803519511043e+00
3.018557288101290315e+00 9.373721503173159775e+00
3.437393358312132108e+00 1.007141072488276912e+01
-8.828726088155576690e+00 -6.039606574868120248e+00
-8.011582119543220415e+00 -5.888065989347242457e+00
3.696801128462657182e+00 -1.662768763040860875e+01
-6.568166235223230842e+00 -1.186623659936734398e+01
-5.247679323022365061e+00 -1.159062214072153019e+01
-4.978445115109904506e+00 -1.083044999256447127e+01
4.055784657724536224e+00 -1.673632668554956382e+01
-6.867428210376125719e+00 -1.133024330180853134e+01
-7.483681803665978904e+00 -1.201938885136011592e+01
-4.845207692755521656e+00 -1.179582941561192655e+01
-3.859478278592718858e+00 -1.179880737250714517e+01
-4.279809606724251481e+00 -1.104995018009784680e+01
7.459637292678648279e+00 1.153815506695200632e+01
5.297048161410780054e+00 1.495799821508791538e+01
7.879590104882328916e+00 1.146557293212497797e+01
5.272638651278215072e+00 1.494730143724408045e+01
5.292453516986480366e+00 1.495377732804720949e+01
5.292460189542589788e+00 1.468291934787514919e+01
6.641599169444805106e+00 1.162339235348688327e+01
4.596623885728749137e+00 1.486342201444301558e+01
7.639657075477954251e+00 1.095049501662366076e+01
-1.149017377372000404e+01 1.062235179893710679e+01
-6.567998173939405326e+00 -3.739554139904853969e+00
3.872328861911307207e+00 5.020359548450354481e+00
4.081777971187434240e+00 4.757294351062933302e+00
1.914292638081834586e+00 -4.011047625792995674e+00
4.208180256695848165e+00 5.028188558089130566e+00
-6.459383515368065432e+00 -2.688328783783503262e+00
3.916041084594804378e+00 4.445603396387310724e+00
4.109088024294843322e+00 3.712553865505499484e+00
-6.643178921869531628e+00 -3.235673391800871990e+00
4.390117741790168004e+00 5.133612809611048711e+00
-3.660323175478321645e+00 1.514649934643920304e+01
-2.945153149325646869e+00 1.587239683151331171e+01
-5.700248682012778900e+00 1.515148186318341494e+01
-5.034922375632406855e+00 1.537552518691240522e+01
-3.305796367592947593e+00 1.501090516877031256e+01
-4.479562787057451700e+00 1.548071112886510825e+01
-2.431855840628953214e+00 1.487446881352972561e+01
-2.399570401065962866e+00 1.418482367915581932e+01
-3.346857409983895693e+00 1.477261154728099690e+01
-4.601445652600505198e+00 1.500479082298974731e+01
1.297490973032705830e-01 5.497943917037226846e+00
-4.811174308800445942e+00 -7.816722422089307010e+00
-4.254380255240629793e+00 -7.649896391282666741e+00
-3.403708319437346752e+00 -3.342684547859806177e+00
-4.899528857392361658e+00 -7.992681494545323062e+00
1.280690636905255531e+00 6.163047670886674823e+00
-8.005112503461047524e+00 -7.913039898091407842e+00
5.420380937105196972e-01 6.027720148398408639e+00
-8.400364225956710840e+00 -8.047381167703527183e+00
-3.407897976163376086e+00 -3.288261063377336590e+00
