1.525593551269999004e+01 8.690714818343826309e+00 9.482442885827284229e+00
2.195192140205192821e+00 1.592958507087205255e+01 1.868610433980782304e+01
1.505847577643930535e+01 9.781543468855179668e+00 8.739313487881229747e+00
1.505466631008098055e+01 -1.264413208493690277e+01 5.237839221687223379e+00
3.901613605339105728e+00 1.438859156928568872e+01 1.873492681080912448e+01
1.572805672341521799e+01 -1.099359970707527268e+01 6.317164438971411222e+00
1.554682993373117839e+01 6.758800097704781074e+00 1.084990655285183259e+01
1.614131667681407833e+01 1.314237151929082748e+00 3.454596276491463946e+00
1.642603836929063732e+01 6.191134569033532209e+00 1.108139221321184742e+01
7.892594463873756183e+00 4.726023473427824584e+00 -1.281276858656264217e+01
-9.191332981459741092e+00 8.577906756696776824e+00 1.122122067128335665e+01
-5.891716313140261896e+00 8.978916095199375391e+00 1.080271787568365127e+01
-6.949761563431965605e+00 8.349819808561246504e+00 9.946590505921738767e+00
-7.041552302952452713e+00 9.858313822150114092e+00 1.058990317209327792e+01
-5.720091380128399905e+00 7.869051758412947351e+00 1.179805946332622213e+01
-6.156708950717573181e+00 1.097525680706838713e+01 1.157362949305369959e+01
-1.059569717926035182e+01 9.082441196064049649e+00 9.786087716180785989e+00
-8.996617950072948844e+00 9.256797344955513651e+00 9.349770273682612043e+00
-5.371037264192789706e+00 1.054248322206749400e+01 9.539505714011221826e+00
-9.899618654115231564e+00 9.344551867059017525e+00 1.041170768114491452e+01
-7.787240963015010564e+00 1.465055585579462250e+00 -6.431194399308443721e+00
-9.373327195347963325e+00 2.547482590707062844e+00 -5.294426184018983683e+00
-9.315049565697202993e+00 3.090997233346067574e+00 -4.392667055648480812e+00
1.333750327807423419e+00 -1.393040866806660283e+01 -4.123634373566009259e+00
1.894661067131656162e+00 -1.354210428884426953e+01 -3.525012488425520729e+00
-4.913797575642036897e+00 2.038543682193726170e+00 -1.829273880926440654e+01
1.119779233447370359e+01 -7.145370264894578050e+00 -1.560446854865226163e+00
1.184348648834199658e+01 -8.627258589985871140e+00 -1.629785066562545737e+00
6.169717670646173602e+00 4.802793798280274196e+00 -1.357116367861944672e+00
5.154842229596893866e+00 5.479018185221673498e+00 -4.178387307771573855e-01
2.747810843889037513e-01 -5.574263224367768110e+00 3.193019392140401091e+00
-5.763410435111000041e+00 4.306164672022442019e+00 5.265397185237574718e+00
7.166481871557576211e-01 -7.840648254980561838e+00 2.530543613489416810e+00
7.585730301052166169e+00 4.468903325238671620e+00 2.902092506997542731e+00
2.863489096211356166e+00 8.378692547012871472e+00 3.541302584844714829e+00
1.240031032274653100e+01 -9.552889926808914467e+00 4.211039413776700435e+00
8.025117167027030263e+00 3.023053527363917414e+00 2.668505609325090511e+00
1.209221821220730186e+00 -6.320517775708631270e+00 3.403900534107456188e+00
-6.550031770088793337e+00 4.542790468109128454e+00 6.223964291675157412e+00
3.571129264178711238e-01 8.703279780866457926e+00 5.526757221907996787e+00
2.282784809349825306e+00 -1.222918635996113723e+00 -1.064810260685223220e+00
-4.593774327116481260e+00 7.377115544385950408e-01 -8.180034138181023096e+00
-5.855494245128668673e+00 -1.824672712959508059e-01 -8.113486709893772186e+00
1.945866880430423773e+00 -2.394545377612459447e+00 -4.435549416648645327e-01
1.500105893567884507e+01 -8.264909077494573708e+00 1.037805579475080675e+00
1.505381486410766456e+01 -7.867972676046859348e+00 -1.503611989673181264e-02
3.717869660799149933e+00 -2.524546942880634415e+00 1.136257659698980405e+00
1.576829333331805394e+01 -6.987047710899641828e+00 -1.507589594780632813e+00
1.461750799736235251e+01 -6.514684281962775714e+00 5.927354621427192161e-01
1.601456668704559760e+01 -2.466134941161973071e+00 1.284490661596762395e+00
6.438389276530795513e+00 8.875685079903412600e+00 1.105593355734743533e+01
6.630633751412815080e+00 8.054548633682665937e+00 1.089226787044069589e+01
7.043862198941797104e+00 8.805838088075054415e+00 1.153563187826173220e+01
2.278553193802149224e+01 4.617831580779315992e+00 8.472863609013133512e+00
2.102431688266314325e+01 3.708906781989591117e+00 7.122846113523582545e+00
2.125025153458858895e+01 4.533425390819111556e+00 9.062377115707398900e+00
2.165359901460780279e+01 2.635874638490901312e+00 8.333848393342483618e+00
2.110428891599686807e+01 6.237011599040039656e+00 8.308625565835837889e+00
2.199552284716186179e+01 2.076853657897514083e+00 6.855241856425212887e+00
2.232799876770675596e+01 4.611494718353917222e+00 7.088848637514676199e+00
1.552880210200545896e+01 1.659706008637330044e+01 2.927600250844904384e+00
1.607389369528256040e+01 1.806465342773745419e+01 2.316637482202489551e+00
1.332820869413962228e+01 -3.048064636348808421e-01 1.329962794218075217e+01
1.676051914726905423e+01 1.427818504764189989e+01 7.481680393215849323e-01
1.610854011623621673e+01 1.483165728371348280e+01 2.024968362669923305e+00
1.194964762648439560e+01 6.688151491959160033e-01 1.271724829860559858e+01
1.315348399492531506e+01 1.587273070875221848e+01 4.622271946479149740e+00
1.505360010771032719e+01 1.609055774522338922e+01 3.440995179925339986e+00
1.377734812860302149e+01 4.368383831875302659e-02 1.171931122916991797e+01
1.737020370654530055e+01 1.706594955754745868e+01 2.478308304081733304e+00
6.447987019583409918e+00 1.729879044281037892e+01 1.149346900752977518e+01
5.901620868112847695e+00 1.846218959146633765e+01 1.297313031488050861e+01
1.060965833008703640e+01 1.678487490359455947e+01 1.090266265696921089e+01
-1.968069282444489740e-02 1.859826706048721334e+01 1.851165177448847743e+01
1.105538640503398362e+01 1.471465771197219041e+01 1.112171897043826974e+01
1.202818407364115316e+01 1.405421350931882429e+01 1.164802369264287130e+01
6.094569370105132888e-01 1.852648130414302940e+01 1.711116578295590429e+01
1.035309468547605150e+01 1.517345599375083331e+01 9.502794614879217505e+00
1.765411284962585370e+01 -1.014966620514699613e+01 7.557281059114395738e+00
1.333174715036249180e+00 1.737364622525545954e+01 1.820107321340622164e+01
-3.744756006923923852e+00 -6.360829543240096307e+00 -8.823668741286700978e+00
-5.240063019665405442e+00 -4.569248616911607996e+00 -7.772559691976542062e+00
-4.669545134833342992e+00 -5.948766341142430747e+00 -8.859471769689154286e+00
4.473139594326813295e+00 -3.817118943838904155e+00 -4.002951452588942693e+00
3.742137847090421854e+00 -3.105158030752281029e+00 -4.997357983415983362e+00
6.518079527459353706e+00 -5.088639588919823709e+00 -3.226955271785472146e+00
7.426103232601398929e+00 -4.981500817600473141e+00 -1.401914711839017391e+00
6.048137385763605600e+00 -2.513196234921991401e+00 -3.204680208079984105e+00
1.760093493837939560e+00 -2.874450524337822888e+00 -5.858681735568875837e+00
-1.077591446732246716e+00 -2.374948429982883358e+00 -4.315368107154013089e+00
4.418787852366054203e+00 8.488919312522257954e+00 -3.963698654606164773e+00
4.984467452061824844e+00 8.417535693892169490e+00 -5.628785268762491079e+00
-1.473103790915563671e+01 6.075651604620703417e+00 -3.982272661592824115e+00
-1.465895665805873982e+01 5.593866646819765087e+00 -2.692670021696990545e+00
8.462381274074713744e+00 6.550355049264093843e+00 -6.795957791345688115e+00
8.235731492423299827e+00 6.837172270815667474e+00 -8.385122679012406266e+00
6.184961587415426010e+00 1.582305973472151450e+01 2.062492923380485621e+01
7.908729214710168876e+00 6.907569790571821855e+00 -5.439094878073571948e+00
1.567989969049964749e+01 -1.243587770975550733e+01 1.908913175038353671e+00
1.266713641511782562e+01 1.265431351536189553e+01 1.172675229237245453e+01
2.369496437181478843e+00 1.752849873472823106e+01 5.097314682219010074e+00
2.316151325209236500e+00 1.528631978145266324e+01 3.899692404156426040e+00
5.362895222773284010e-01 1.580823817899750416e+01 4.851734722730204119e+00
-4.650089630088240500e-01 1.995310181147797834e+01 5.586827185654867911e+00
1.236787606776938109e+00 1.575444745863260110e+01 8.592394057197530799e+00
2.488971645763518925e+00 1.579204535036175550e+01 6.195695588909070572e+00
1.373753951504999238e+00 1.800327256308771595e+01 7.336323987875854158e+00
5.910360367667972376e-02 1.625450276361345914e+01 8.441616220579341245e+00
-1.932234210675342956e+00 1.896645356219998391e+01 6.762744511305277761e+00
1.263568811507965739e+00 1.805280189059238083e+01 4.273212396753462983e+00
1.144506399559659293e+01 1.826156565462283776e+00 -6.635663879184380498e+00
5.896213583366431976e-01 -8.094533629591527557e+00 -1.295504980885034740e+01
1.721779421744848104e+00 -8.965729987814727409e+00 -1.134659630724240564e+01
-1.526837537320861360e+00 -5.591172619580763836e+00 -1.177181795600685277e+01
5.816393676407273228e-01 -6.774769517129882068e+00 -1.219460236919453600e+01
1.263598349637802798e+01 9.803806268906287702e-01 -5.248741823457745426e+00
-3.315451592151952287e-01 -7.351821238373211997e+00 -1.301786401409614413e+01
8.661128938717714831e+00 2.861743862234299662e+00 -1.014383894079866799e+01
9.203226443691052694e+00 3.263808026967986109e+00 -8.557611399562832233e+00
1.055672404881071458e+01 2.325736156059856174e+00 -7.802385956048714100e+00
-3.189572170177614296e+00 -3.110934914963764050e-02 1.178356891497526426e+00
-4.449962947795709667e+00 1.396252907962325374e+00 5.604511829990487248e-01
8.204277752254842682e+00 -4.709296321454559120e+00 4.451556573509281911e+00
7.513367819814410709e+00 -6.610554749133068064e+00 2.846185702788345040e+00
5.283832958324687468e+00 1.182500205970098417e+00 2.955952235330050915e+00
-5.697601364172630856e-01 7.545115722689354598e+00 4.297988995526761613e+00
1.022357565500687215e+01 -1.073791676185481947e+01 3.219668932780501258e+00
1.018272388945812601e+01 -9.086175916864819513e+00 1.568047983132385692e+00
4.352263138088615868e+00 2.434816936979730784e+00 1.636915347433799406e+00
5.642136929239433663e+00 -2.279493948261897551e-01 3.770271545961636939e+00
-7.423910683223286178e+00 1.174796728180809779e+01 -3.815575703671701291e+00
-7.525008468458572963e+00 1.027712684534729881e+01 -7.860188707456967627e+00
-8.441916739501245104e+00 1.126185696884123288e+01 -6.970648177890165442e+00
-6.064614536933948585e+00 1.159351135706051394e+01 -4.147187059720242708e+00
-7.000728035033855434e+00 1.264692122597307389e+01 -3.802534087708712374e+00
-9.064648294495185610e+00 1.132790759905514832e+01 -5.943553618841574959e+00
-6.384824627963476829e+00 1.107849161459987286e+01 -2.057464870651429134e+00
-5.341583593937251351e+00 1.149608727163595567e+01 -6.905857873112745793e+00
-9.357585907988578811e+00 1.052690252375783686e+01 -6.546101386841681524e+00
-7.055122825010375465e+00 1.122709138977914911e+01 -6.289146021213421811e+00
-2.642839172805336645e+00 1.983969933967149268e+00 9.385900520311865947e+00
1.207067240248970608e+00 4.652155870334757082e-01 4.480618598022879873e+00
-1.346672735552957967e+00 2.930210394648387062e+00 9.313030231272477977e+00
-1.900904633459596260e+00 4.296868464310346525e+00 8.870905419800390490e+00
3.185212225990377566e-02 -8.391472339770786881e-01 4.321015002221155754e+00
-2.220893171680097478e+00 3.392652268806788385e+00 9.947132446320429366e+00
-1.009903647842812946e+00 1.354229301116302686e+00 4.381292160641969247e+00
-1.648385586542639780e+00 6.688348751315970064e-01 7.362510856708208706e+00
-1.503010376613853172e+00 -2.609331308871378208e-01 4.430394673300369845e+00
-7.853835140527848369e-02 1.941313542269289261e-01 2.233966840222026740e+00
-7.658161009219318416e+00 -9.821735023729214475e-01 1.229766966988299259e+01
1.351421865773433062e+01 7.165255202286624048e+00 8.641457303615943886e+00
1.411922982045260966e+01 7.779290424417592220e+00 7.670805878235202435e+00
1.294873003515683330e+01 1.020788139073998124e+01 1.903723295962068462e+00
1.146571730309924675e+01 1.150296201902038185e+01 2.368090089863871928e+00
1.473520003226480490e+01 1.478928265612505655e+01 -5.276523433548004682e+00
3.681977532565031019e+00 1.196519242802960825e+01 1.523456803834959850e+01
1.334235719962138944e+01 -8.267367788131437578e+00 7.505069877475635032e+00
1.365535742249569040e+01 6.516479146001890044e+00 1.118160247634566495e+01
1.341521529316550243e+01 8.140454472324030633e+00 7.914052379021740080e+00
1.404675073441386246e+01 -4.647691583769972823e+00 -1.080641761170024928e+01
1.349233284071461547e+01 -4.556588845696233570e+00 -1.089467379597457963e+01
-3.807947907056403292e+00 6.143411270304362404e+00 -1.027236136546133594e+01
-4.062899815022462668e+00 6.214846447413352237e+00 -9.233143088582885127e+00
1.414165368040275972e+01 -4.965167980683520277e+00 -1.016158181536040495e+01
1.352962087043384543e+01 -1.530203964438297426e+01 4.563609631558580126e+00
1.295659758303792231e+01 -1.414358338399252091e+01 5.349984929700819514e+00
1.484344281196661086e+01 -4.051499353648189583e+00 -8.934706941028697003e+00
1.207811569671863516e+01 -1.568061057294515948e+01 3.237462683789638529e+00
1.213355116539295508e+01 -1.568339038288213594e+01 5.604161154335023376e+00
7.264393438282090720e+00 7.001778196883303274e+00 6.447906942297925603e+00
6.315400187460487480e+00 5.493210890416679426e+00 6.343115133067944278e+00
1.034706939986906349e+01 3.694114845325885965e-01 5.173495176081886804e+00
4.619450054248822823e+00 4.696294510402760913e+00 5.573305640670906946e+00
8.154662385592745366e+00 2.499240177838919497e+00 6.121669090057895168e+00
1.188457014162377590e+01 2.370340683321463526e+00 5.088264418623397844e+00
9.250527555213826858e+00 7.085190557502706099e+00 6.627350404532026396e+00
9.744607666055387085e+00 1.870129496534451929e+00 5.653934926899079727e+00
9.573093107412313785e+00 5.201135165443985464e+00 6.374345461741667940e+00
1.226223799271928883e+01 1.029858038129132902e+00 5.658907189163699059e+00
7.481280912254687721e+00 1.628205752323553313e+01 -6.824682878103417671e+00
6.313977441714788696e+00 1.788992650436468068e+01 -6.518509000809223686e+00
7.675610739239345115e+00 1.764860039476928222e+01 -4.629350758206934202e+00
7.428560169004474467e+00 1.789040625299733023e+01 4.296471561318616850e+00
6.478795298370822131e+00 1.757952669416284408e+01 4.553072488895400838e+00
5.693589135008937596e+00 1.622671304719192875e+01 -4.210006169053578162e+00
8.051855908854365751e+00 1.872552582011244482e+01 4.881802079391905913e+00
7.047901366137791612e+00 1.859248144274549119e+01 5.636462150709830254e+00
6.589358792174046187e+00 1.909054498930514399e+01 5.347611850769989239e+00
6.509914677274572625e+00 1.783377181455998794e+01 -3.841905411109053148e+00
-1.291583887727173696e+01 -3.294822732409806498e+00 2.401570670910924132e+00
-1.259223183302942495e+01 -3.726945002393164064e+00 2.475207474291764242e+00
-1.256271288724339819e+01 -4.792066545418752987e+00 3.153475588350787451e+00
-4.464071926437926940e+00 -5.955134240626187569e+00 4.823396054281737122e+00
1.847036568016790881e+01 -3.546166458995928750e+00 8.314328333982166086e+00
-4.476437576041609745e+00 -5.979763355962234073e+00 5.664759966683273085e+00
1.661211705919394532e+01 -3.856084117037012593e+00 7.040781850039811829e+00
1.839802623573275397e+01 -4.633378133696237633e+00 7.019900855689291674e+00
1.844385759672201530e+01 -4.083883420100710815e+00 5.504202732456406899e+00
-1.302203456162459538e+01 -5.240334063479995308e+00 3.540383414240159343e+00
-1.078173641455668452e+01 -1.159572961196803043e+01 -4.572327631676170512e+00
-1.038674249755702128e+01 -1.395407514239004598e+01 -4.262344867358025091e+00
-8.951836931047674639e+00 -1.377764448539148923e+01 -3.616517621440130892e+00
-2.637525280404575678e+00 -7.741330888047768255e+00 -1.462026370062919245e+00
-3.880133814759967770e+00 -5.675691303383056940e+00 -2.019264707350854504e+00
-3.315832118607560108e+00 -4.236530112281996274e+00 -1.374461679050212659e+00
6.491756501445951955e+00 -1.306214453436321676e+01 1.779530210776341104e+00
5.240270488740334187e+00 -1.447947850211751941e+01 1.932934445302318061e+00
-4.087057726738614782e+00 -6.068036368914937029e+00 -2.105696234195224281e-01
5.267345216713030354e+00 -1.319354265076597343e+01 1.155044023299552691e+00
-2.114601319321697659e+01 -1.967664717483228287e+01 -6.683935408364966690e+00
-1.932230201371908151e+01 -2.004497076733525773e+01 -7.511414723834013429e+00
-2.112039849607040409e+01 -1.740244578003347797e+01 -6.447412121583284694e+00
-1.986826092933976184e+01 -1.909085603889865723e+01 -5.113217313674001119e+00
-2.079828639912220467e+01 -1.892847408619680749e+01 -9.234738978950108645e+00
-1.916456041616157435e+01 -2.151639174338041371e+01 -5.455251055446591835e+00
-2.164808936466697631e+01 -1.773854498027782967e+01 -8.265961404197021523e+00
-1.996240978952998191e+01 -1.660500089446495764e+01 -8.582706464132099811e+00
-1.932659413184574504e+01 -1.780491488613237294e+01 -7.211336295463053325e+00
-1.899593464480008009e+01 -1.833263842341582617e+01 -8.955324477010865536e+00
9.409987674828816040e+00 5.781616456065696852e+00 2.142233669405367191e+00
5.420554905651733257e+00 7.870701275605121339e+00 4.013512997747970878e+00
-8.021668601047819980e-01 6.373019263499476450e-01 -5.026901803698487825e+00
7.432278532826821049e+00 -2.040176488958163947e+00 1.757163145107941415e-01
-2.432869711058168072e+00 1.599168873390900414e+00 -4.544382706266338445e+00
7.933376013366982171e+00 -2.954441006692930749e+00 1.211615093599453852e+00
1.173884056390432917e+00 3.981163299687356383e-01 -4.596097851639378007e+00
5.262700930370457719e+00 7.104026520262910260e+00 3.001896277642145616e+00
1.164376274531373667e+01 -4.562933377223687970e+00 3.495418624596448254e+00
1.161829576846443857e+01 -2.314692104358798463e+00 3.481098641531850113e+00
-1.060222756972147629e+00 -6.279679193953224825e+00 1.413078213658034699e+01
-1.453300440065233623e+00 -6.133939720888516689e+00 1.303408188751948948e+01
6.289139610533567293e+00 -1.701820666622442957e+01 6.871090864450944302e+00
5.394541936596939813e+00 -1.518621797683253227e+01 6.915478332665736971e+00
-3.862486161316267097e+00 -5.609869075476713540e+00 1.458843564783888347e+01
5.812914870696556102e-01 -7.844636005563081937e+00 1.335027270798324572e+01
4.092813781028173392e-02 -6.890680199093733194e+00 1.368563247805523808e+01
1.333420336414276930e+00 -6.607946848351501146e+00 1.263496142906137898e+01
5.032779322759023621e+00 -1.643402047945696154e+01 8.039422277262074701e+00
4.649038227213262431e+00 -1.676173068895562324e+01 6.718210549061839565e+00
-9.244674090195070804e-01 5.782994887218785962e+00 -3.613351873064889030e+00
-5.563782003888245953e+00 4.863723977288850975e+00 -1.541081014933010973e+00
-4.518997227349895729e-01 5.891939668596483770e+00 -2.238983546215566722e+00
-1.600234135350863784e+00 3.838846677227385928e+00 3.459293235175151526e-01
-5.963525145114229042e-01 2.604612518815575317e+00 -3.736550244363315842e-01
-4.120447344525309141e+00 5.278698506899376142e+00 -1.851063698071584218e+00
5.592215074360042948e-01 4.834492983980173797e+00 -3.290015949048338051e+00
9.117713002561965041e+00 -5.721864015509607881e+00 9.068233407258561307e-01
-3.244221368537631545e+00 4.343661167865803918e+00 -3.299614173106200532e+00
-2.210315642663239100e+00 6.347542301492765660e+00 -2.687035428668904657e+00
-5.505658960037098204e+00 3.556484308789448434e+00 -1.522186510993889819e+01
-3.969774594108522070e+00 3.247184336871642429e+00 -1.521197336968274350e+01
-6.830079684157111863e+00 5.510174300692909810e+00 -1.221635046963220894e+01
-8.783305660571082640e+00 4.145171288181825453e+00 -1.039320933104597700e+01
-9.201702108049746087e+00 4.560225382833740682e+00 -9.800636444296088712e+00
-5.367774337462790868e+00 2.966819062619642011e+00 -1.692466020670859805e+01
1.085243365428378937e+01 5.528345326006613547e+00 1.114359315233418579e+00
-7.244377887487283729e+00 4.840538113708393375e+00 -9.930741070149474936e+00
-5.269201826015700973e+00 3.993748107982515005e+00 -1.356275685752567384e+01
-5.183709178986921629e+00 5.854901045801337744e+00 -5.044661658930620796e+00
-1.052153392257431985e+00 1.460183376467309557e+01 -3.019442856093089933e+00
-2.375166374972777827e+00 1.671235823797113795e+01 -4.726572542588271197e+00
-1.632561923630499567e+00 1.635115378771800110e+01 -3.320860048113105645e+00
-2.506135349609565632e-01 1.629985396389017893e+01 -3.705099466120387763e+00
-2.431835656505864751e+00 1.687271351472810466e+01 -1.769162237380700109e+00
-8.558206590977127659e-01 1.831750940447304643e+01 -4.929073607227863363e+00
-1.195472295998646128e+00 1.544580702191555055e+01 -4.937153036140943030e+00
-1.464576693364551652e+00 1.535654232307541456e+01 -2.338388827542180692e+00
-2.769556978789711188e+00 1.812704656712221052e+01 -5.341899189562452577e+00
-4.475972049049706247e-01 1.591397767250426831e+01 -2.221681208546340880e+00
-8.753215474839985077e+00 1.542989924998374995e+01 1.752052898463522190e+00
-1.447961621692976042e+00 1.211518152216320665e+01 -1.251160134008114788e+01
-8.225632416551281523e+00 1.685265420798373270e+01 3.216437955741819010e+00
-5.999872250336492741e+00 1.870810886989535504e+01 3.798877465339857373e+00
-1.523232426733950540e+00 1.449511043123626486e+01 -1.257153193886500020e+01
-7.467707930361699553e+00 1.475950807736348658e+01 3.086297765049708985e+00
-3.464469943438652333e+00 1.487310403394110558e+01 -1.188937286655841952e+01
-8.701279567809361737e+00 1.370766401245781729e+01 2.511579447614201044e+00
-3.962738869562519639e+00 1.258563394871612040e+01 -1.348378906048681358e+01
9.659676812739398599e+00 -1.157484382656479838e+01 -6.372185214103764039e+00
-1.428564419614791881e+01 -1.973528478541340903e+01 -5.997448134498620576e+00
-1.462577375491516030e+01 -1.879668312578372991e+01 -6.825709686723194558e+00
-1.373454846628748349e+01 -2.069873677418901536e+01 -4.550436175839736030e+00
-1.127256976879686956e+00 -1.725931522782134664e+01 2.570579745251215242e-01
1.647159633891949637e+00 -1.711093719647742262e+01 1.371254446904955238e+00
8.298861601336195992e-01 -1.730081136139098064e+01 8.001809114511702070e-01
-1.386015000828885041e-02 -1.689799959345220515e+01 4.910110193496777242e-01
3.473432874660725922e+00 -1.655933548636470931e+01 2.188726090897151977e+00
-1.449452738931718088e+01 -2.059695490665453477e+01 -3.972937536795215330e+00
-1.325313139521895600e+01 -1.869583749339683010e+01 -5.665785405757166160e+00
-7.781595999388183138e+00 -4.802251213650466255e+00 -3.622282612348665776e+00
-1.065827073701629857e+01 -7.373919264614190894e+00 -2.469175887907633093e+00
-8.098944947168432051e+00 -3.134470176556200638e+00 -3.154667030058923682e+00
-1.080664921472767581e+01 -9.270547793832294659e+00 -1.527498769311020244e+00
-1.056846911549676626e+01 -1.029144994311936046e+01 -1.940900414666325569e+00
-7.538197713634061436e+00 -7.228788734759624468e+00 -1.750048381034292611e+00
-9.942164270729838549e+00 -8.995491525295426172e+00 -3.193873803445574033e+00
-1.138269718922801310e+01 -9.016703396588784614e+00 -2.627281557853557548e+00
-6.332710413081364287e+00 -8.708573272988845204e+00 -2.860872991584946234e+00
-8.287790609579062107e+00 -6.548375115034879457e+00 -3.306494147930459704e+00
-6.344618149920982830e+00 -1.197050087538847229e+01 -7.354827763341547531e+00
-2.009975323083057930e+01 -6.013254220795669625e+00 1.731509179454324476e+00
-2.084867890046384886e+01 -5.281553877905727390e+00 3.533801456179179290e+00
-1.989951195903698533e+01 -4.355563191666302458e+00 2.501086482578701364e+00
-1.903008832542516870e+01 -5.240944454119569329e+00 3.862998048678495167e+00
-7.194643266650161628e+00 -1.122301099711532935e+01 -7.487548475534531178e+00
-8.849963888909243792e+00 -9.869923024064153338e+00 -6.240560861625405131e+00
-5.753649751080872399e+00 -1.173751096507542080e+01 -7.478401791664404108e+00
-7.170880577526672184e+00 -1.027520804065625448e+01 -6.625494683602696888e+00
-1.980175522015682432e+01 -7.153824200534935507e+00 3.181482091113259969e+00
3.063363082163248929e+00 2.371126820257618206e+01 4.355512081935566826e+00
3.607741431378455488e+00 2.260417859366219417e+01 -1.502533683797208919e-01
2.908212259947100087e+00 2.272566205095355940e+01 -5.242242340716057880e-01
5.088832467336413146e+00 2.293210061289296675e+01 3.048925521964705343e+00
1.714501465343735598e+00 2.291547225594272064e+01 -3.629213414852947017e-01
3.415527028589358860e+00 2.340095154063744332e+01 5.193170802221288795e+00
-1.594174294697559224e+00 7.991384383304915850e+00 1.159910011037458943e+01
5.092141475634562653e+00 2.116976633328771840e+01 1.398053357981547284e+00
4.060551973276048443e+00 2.097298189885293951e+01 2.352503341596104747e+00
4.060627800023367762e+00 2.242489296148319156e+01 2.137108509322807937e+00
-1.253563551054287650e+01 -1.893705573748080795e+01 -4.511748402916213041e-01
-1.458449174797928372e+01 -1.860580293391073425e+01 7.651717467830361219e-01
-1.367188234736652674e+01 -1.700638752499348172e+01 -1.527648331830476318e-02
-1.500231196104843256e+01 -1.680610830650476473e+01 1.325367884609635727e+00
-1.098531669815313094e+01 -1.518249233097958673e+01 5.710222184711442051e-01
-8.890631259079938786e+00 -1.909857633975816071e+01 2.696678220363303291e-01
-1.071908199823247543e+01 -1.717792059699520735e+01 2.005389132275103847e+00
-1.269123237679488092e+01 -1.553723260528952466e+01 2.363578046702690560e+00
-9.444804339266468673e+00 -1.686489458177531020e+01 2.524566110835447241e-01
-1.358596199525010384e+01 -1.791853753771586355e+01 1.658005442399757223e+00
-2.184237785088226502e+01 -1.534758603355764350e+01 -2.560487510759490881e+00
-2.130456049969575716e+01 -1.594860677147032924e+01 -1.036520991790723212e+00
-2.056329427401049870e+01 -1.363163476481656566e+01 -1.797177837446113591e+00
-2.398065048110088426e+01 -1.609903133130865172e+01 -4.138371344748453140e+00
-2.414393100581252227e+01 -1.680651113312833900e+01 -2.665890464704701479e+00
-2.233712012283098858e+01 -1.404607337316002180e+01 -1.197547823195842520e+00
-2.468510116874778504e+01 -1.592607908439304332e+01 -2.734855177361900758e+00
-2.246035914358908059e+01 -1.293042069226072499e+01 -3.111532356139856237e+00
-2.128273872793207033e+01 -1.214801882251197540e+01 -2.227376031386315347e+00
-2.084677504973756612e+01 -1.319183378393533523e+01 -3.861973370233679592e+00
-1.462995470148520738e+01 -6.840310668821602214e+00 -6.539462284169003325e+00
-1.542485119723044384e+01 -5.627892817475084186e+00 -5.467181369583651751e+00
-5.932651974177419518e+00 -1.423409415821506663e+01 -2.799744822609825601e+00
-1.430723635256735982e+01 -4.807343949765930269e+00 -6.615570937321165523e+00
1.410350495183878472e+01 -1.189680900609186232e+01 5.469319357421984495e-01
-1.188198612188833359e+01 -2.038783501688582245e+00 -8.652053109796643326e+00
-1.381812516297845050e+01 -7.752611256600133727e-01 -8.260751149841910390e+00
-1.285694197861420207e+01 -2.223632434592879292e+00 -6.594517003437910141e+00
1.300333353160558225e+01 -1.223682182563728027e+01 6.671059705000913498e-01
1.412297388034049028e+01 -1.062377579133809924e+01 -3.786423920434277002e-01
2.086643790760858153e+01 1.309095910127329887e+01 4.622228490058033046e+00
5.704855381605373310e+00 -8.927618354083072916e+00 1.039252575457915206e+01
8.379818468684300470e+00 -7.615805051301850703e+00 1.099123640059562668e+01
8.984141559769710739e+00 -6.918750350469212940e+00 1.299131618234536845e+01
2.083927973585313609e+01 1.456534895558240628e+01 4.295973078820110480e+00
4.521321667644735420e+00 -7.238633680372127621e+00 1.006405345668862594e+01
4.145022433745155332e+00 -9.216610911654161242e+00 1.182798943874292874e+01
7.399031553511814074e+00 -6.349041444425735925e+00 1.191009345745611370e+01
7.200960044577817243e+00 -4.297768975911973044e+00 1.117926733166843611e+01
9.552674197667869294e+00 -5.441254683472519282e+00 1.130338689349422587e+01
-6.107640235985359212e+00 -3.865886005804914038e+00 -1.901369464171504831e+01
-1.469324122166712243e+01 -1.002427217090526135e+01 -1.709932766923565595e+01
-5.682326766385590311e+00 -2.827767005992571914e+00 -2.016005417042391912e+01
-1.616293848750356688e+01 -9.873284687817433181e+00 -1.732706299985500564e+01
-1.535483020475539995e+01 -9.184800552649511118e+00 -1.782657913411737383e+01
-1.548945181231647439e+01 -8.827678137645271761e+00 -1.645511291921617314e+01
-8.066734630588609178e+00 -3.383693219614370751e+00 -1.875307179898288723e+01
-1.584912034544405302e+01 -1.047152754195248292e+01 -1.575694435607663024e+01
-5.878512141758284848e+00 -2.168029799368389465e+00 -1.854129215379685647e+01
-7.738228885256584810e+00 -4.225050970621244240e+00 -2.006236463951650961e+01
1.294957307753413644e+01 -4.004903834853877242e+00 -1.624904225912870981e+00
-1.203253834201456263e+00 1.246870873722624395e+00 -1.122179528724764808e+01
-7.024544303084024888e-01 2.572897285584878624e+00 -1.111967622759268970e+01
3.211388738221952810e+00 3.543136725069532922e+00 -9.046607983987676960e+00
-2.893677127362945800e-01 1.675492373327925222e+00 -1.208061072678967207e+01
2.981979677707019327e+00 7.777400260349376371e-01 -1.249855497729829779e+01
1.751774999067722272e-01 2.063584714204787396e+00 -1.011684137964524233e+01
1.509476816793766218e+00 3.806899047705856187e+00 -1.015098076246231074e+01
1.362661099389035613e+01 -4.838587548557923057e+00 -3.023881964987959581e+00
5.887030306362546206e-01 8.940726107686171042e-01 -1.197476190283070352e+01
-1.674889048368022415e+01 -1.741249031828950322e+01 -5.817498626121836658e+00
-1.845491497814112591e+01 -1.614965585441279927e+01 -5.361036027093064149e+00
-1.677758428764332166e+01 -2.101953095669297511e+01 -3.826317227624370876e+00
-1.696973551891745657e+01 -1.955144957290134400e+01 -5.268045945929326734e+00
-1.639017363039041086e+01 -1.694005390039653136e+01 -7.701110220524649996e+00
-1.750280896595281277e+01 -1.847976811413983356e+01 -3.281316404095120820e+00
-1.641268322518177669e+01 -1.519155765205390907e+01 -4.935505623192439906e+00
-1.682364247329642026e+01 -1.434264755920940715e+01 -6.607997284871578003e+00
-1.550585297487356229e+01 -1.650816014330991521e+01 -6.727768794593430357e+00
-1.585110259796539722e+01 -1.802596682949726414e+01 -3.933801980381673502e+00
-4.060369437884888910e+00 -2.644529125772795641e+00 -4.904263665957792284e+00
1.428888047869100397e+01 -1.465907857500319267e+00 -2.177115228282862358e-01
1.395344269311444663e+01 1.765381020519084937e-02 -7.286268697627175106e-01
5.878401434621796540e+00 -6.040612568611015476e+00 7.421568480483066166e-01
1.534870435178057058e+01 -1.875028440581168576e+00 -3.567035554634829242e-01
-3.621651636926013662e+00 -2.150271195180882167e+00 -7.748490309886231664e+00
1.453149698727568406e+01 -9.027912612739996234e+00 4.253306403148889636e+00
-5.468714839268528749e+00 -2.552951696478644728e+00 -5.696274855514571911e+00
1.525022333853344314e+01 -1.033166710814837330e+01 4.141050926789177744e+00
5.610235837011890325e+00 -4.982007648472317030e+00 2.795837892422947113e-01
