-1.693089821820797525e+01 -1.234061934925487414e+01
3.006030061773120377e+00 2.003363938330474880e+01
-1.034941518025141072e+01 -1.898419579424936332e+00
-2.949863001514466010e+00 -1.612510870107756844e+01
3.771493738091664216e+00 2.086524312826249883e+01
-9.733938762188923732e+00 3.985521712149409268e+01
-1.717996272118702805e+01 -1.135554135873452353e+01
-7.240235538034661467e+00 3.651108136766536205e+01
-1.730487346476760990e+01 -1.124252036820588962e+01
3.987174802040448718e+00 2.097779702243035516e+01
-8.164681011391527576e+00 1.614253751408436699e+01
-8.402855832778927336e+00 1.430574217591012598e+01
-8.463435376336580163e+00 1.487796631841057149e+01
-7.947286728963151248e+00 1.463011828167987893e+01
-9.063313433929396368e+00 1.407222217544650711e+01
-7.215768031693843731e+00 1.425135287646632420e+01
-7.508505323093758399e+00 1.656974527674573139e+01
-7.479962793869389337e+00 1.590343226643070373e+01
-7.800728151199705529e+00 1.356426409314524051e+01
-7.674373663843547355e+00 1.634856903275584017e+01
9.509444688971511184e+00 5.085782465098466432e+00
1.019796494737971138e+01 8.478356700824054570e+00
1.020486371737028897e+01 8.576666015211880989e+00
1.135620480005974464e+01 -9.746520637553301114e+00
1.136263247676468247e+01 -9.714951052565528045e+00
8.242235594822142630e+00 -1.363132469216513343e+01
1.316962670899199495e+00 -1.082370899952185361e+01
1.530471452365102403e+00 -1.143701504173038508e+01
-2.936646658288143197e+00 -1.974390271495561899e+00
-3.013518557936938791e+00 -1.569034964126861720e+00
6.460232123787416292e+00 -7.202210928242503307e+00
-4.530395967176761296e+00 1.353226264567943460e+01
6.691227195528183458e+00 -8.204822505578773573e+00
-3.894246013940438456e+00 -3.595870449544315228e+00
-3.555241716075600245e+00 3.048326693747570593e-01
-3.422765904886099442e+00 -1.300867230973147137e+01
-3.406460684419188034e+00 -3.841249998521523157e+00
6.334917305489204509e+00 -7.444567510438258928e+00
-4.796200834246961087e+00 1.365364001270245531e+01
-5.581395587689968352e+00 1.118788513003825535e+01
2.152390994272991964e+00 -4.049352407724522429e+00
9.784995665982060942e+00 2.947586736705031463e+00
1.016728193425984372e+01 2.847240280803069901e+00
1.955887576808080341e+00 -4.120083404871354382e+00
-2.850717723132104586e-01 -1.371513288903449101e+01
7.242845083004499640e-02 -1.358997246862103481e+01
1.072858663782720656e+00 -4.667860559531513687e+00
1.156646177970695133e+00 -1.349625751754248881e+01
2.384180896648718795e-01 -1.318275535026969969e+01
-9.912056894860340250e+00 3.456240657232846303e+01
-8.142786343830067608e+00 -4.264674455241725504e+00
-8.126068452218222049e+00 -4.268713266704921239e+00
-1.472260467150779206e+01 -1.561797190191425777e+01
5.914479144788587206e+01 1.528041081150681491e+00
-1.168398912046067650e+01 3.313622375219375016e+01
-1.227117971994962886e+01 -1.705613223774577492e+01
-1.224358907665160245e+01 3.361807565562512679e+01
-1.312385150391599353e+01 -1.677557018999710792e+01
-1.048481176224808920e+01 -1.660642596696332163e+01
-1.195634273844485840e+01 3.255124378045979228e+01
-1.219958066574360878e+01 -1.198327244792040425e+01
-1.670985549701378403e+01 1.022179226114588069e+01
-9.004490757036540671e+00 -8.144637717358406803e+00
-1.064351362963011915e+01 -1.174624180257978168e+01
-1.127874487807592097e+01 -1.183210272495452209e+01
-9.345900499232387304e+00 -7.608604869191658793e+00
-1.318586300787378107e+01 -1.296106773415607094e+01
-1.230369617109269598e+01 -1.206138219549215762e+01
-9.356990977255998487e+00 -8.591634573773205830e+00
-8.244844368892014330e+00 -1.899398322315095200e+01
-2.297820660207645815e+01 -1.208633590582547690e+01
-2.321826278496365248e+01 -1.290211483484490351e+01
-2.067696381137345085e+01 -1.447454847642591425e+01
-5.388213296319774770e+01 2.461783185075063685e+01
-9.459357560254597175e+00 -7.546548776142350534e-02
6.264392164184696554e+01 -6.837874222762592602e+00
1.932285007784397823e+00 1.826763029305420005e+01
-2.048365858205385948e+01 -1.347916343387208116e+01
4.763581647023524823e+01 2.151005931990586717e+01
2.472114532334452441e+00 1.899069056088445606e+01
1.303036263652744964e+01 2.890231002796661119e+00
1.213111985568688134e+01 1.845940190883592402e+00
-2.714974609970646924e+01 1.283293183114713365e+01
4.193476198227042318e+00 -4.697942142257820031e+00
4.504582354265171951e+00 -4.315746355570518666e+00
3.439913232860518200e+00 -6.713323728554180470e+00
2.518943888520761121e+00 -7.061587313820171907e+00
3.767490147868240324e+00 -5.641638163100674674e+00
4.422471602970122539e+00 -3.332207636224761238e+00
5.679173717156821510e+00 -3.050162243874503520e+00
-7.077554997480917098e-01 2.996676785790775011e+00
4.024334744234214334e+00 1.333269139966919603e+01
5.439394179304112953e+00 1.581248735830898688e+01
5.669417279316615321e+00 1.562627970564909852e+01
-7.192084539337197491e+00 1.041151725605198530e+00
5.776416092591747820e+00 1.841363398091184678e+01
5.503645868940854946e+00 1.817020340538486423e+01
-7.265516837077109713e+00 1.088581815995405044e+00
-4.375562594672184247e+01 -2.514006904196634551e+01
6.233966138440198534e+01 -6.814277675422069969e+00
-2.611088678747863057e+01 -1.555492959250204166e+01
-7.208240121248333132e+00 5.209590751696309141e+00
-7.397273313652200422e+00 6.037546061868378722e+00
-6.865378798557936868e+00 7.553664478106139057e+00
-2.827182933949504573e+01 -1.380764905113005980e+01
-8.446096697793588959e+00 5.486763072854853540e+00
-2.700112301382829827e+01 -1.448105986800053557e+01
-8.819639816590440162e+00 8.243293552392195522e+00
-7.034609568215913988e+00 8.456966298439789753e+00
-8.428183857993410300e+00 6.734511661754523537e+00
4.082469618427396085e+00 -1.344412248674143484e+01
1.291058114346250818e+01 5.643629123982025320e+00
-2.685662773939003500e+01 5.423849108247617679e+00
3.706618762675468748e+00 5.232173898175404680e+00
1.266608717561669017e+01 5.390822070692779633e+00
-3.165198227780275708e+00 -9.502378760491426490e+00
1.278488711908957853e+01 5.619273088173513564e+00
6.918279032580358923e+00 -6.663912753425062230e-02
-6.035897545898050609e+00 1.115168225563145238e-01
4.371167654803429947e+00 -1.371998215272035537e+01
8.725799887969811763e-01 4.041362959745758432e-01
1.639066987935904107e+00 3.154262386712294863e-01
-5.649707666912067161e-01 -7.468613199309619866e+00
4.893746747434496447e-01 -7.662381245014372233e+00
-1.642097595694384626e+00 -3.402794414566587378e+00
-2.025763946928186510e+00 1.286227735994815990e+00
-7.566885384708168516e+00 4.082838873689796344e+01
1.439232989645619076e+00 -9.766580372732510895e+00
-1.833112281230994789e+00 -2.670330250985101461e+00
-1.348382718279317105e+00 -3.928770284834041782e+00
1.208355330153090268e+00 6.109036098506196666e+00
2.820787387731027440e+00 8.310509844240138833e+00
3.021407991554679207e+00 7.743820606645733129e+00
1.022923210701146779e+00 6.303456266772112571e+00
1.197062844769359424e+00 6.141826696732713309e+00
2.124435762277716222e+01 -2.595687318391580334e+01
8.256311093750723362e-01 5.197947236724518305e+00
1.590630084097822472e+00 7.707523705970934280e+00
3.369334416454550674e+00 7.857698910774467471e+00
2.329201701179638206e+00 7.399306179335313871e+00
-8.092224673988717143e+00 1.075779041028921768e+01
2.116427050696565448e-01 -2.545205342893448908e+00
-8.751871033851857717e+00 1.084236715343534208e+01
-9.093754355991332972e+00 1.122301628752492775e+01
6.612507601017175718e-01 -2.121342650040634048e+00
-1.778623337154787976e+01 -2.208423646040333210e+01
5.935993662387425429e-01 -1.241515679146776741e+00
2.071238727593025519e+00 -1.317149256978528582e+00
9.936100319448714080e-01 -1.670691500087193582e+00
-2.150442475825366240e-01 -1.545523522949845630e+00
-1.580918833036064619e+01 7.999055190974210250e-01
-1.178480608885283587e+01 -2.576467198733989328e+00
-1.144590999599753900e+01 -2.522162887551669286e+00
-1.123125148426087883e+01 1.749783387861294059e+00
-1.080240454284670903e+01 2.503608682020762366e+00
-1.498204778232026335e+01 5.195739508590297984e-01
-1.068278625235475482e-01 2.116122163689433222e+01
-4.921738530194490480e+00 -1.425963566251487258e+01
-1.331755803916970571e+01 -2.083312891486041263e+00
-1.145984544153047402e+01 -2.538776755487278436e+00
4.525543227513019851e+00 -1.716118140403028391e+01
4.575247654988824131e+00 -1.715750464509841677e+01
7.067304396609909389e+00 4.865075094398600974e+00
7.069307869289229274e+00 4.785989404232394051e+00
4.447643127655026341e+00 -1.717880814122421285e+01
-1.809626237218485034e+00 -1.745632361394371301e+01
-2.274552618919066571e+00 -1.729687232867238222e+01
3.574065290940877659e+00 -1.716369510894183392e+01
-9.201649324351193204e-01 -1.769176179881663558e+01
-2.229443126251867913e+00 -1.798759631436869810e+01
-1.761615725440468694e+01 -1.612650846966313622e+01
-5.353280733637018507e+00 -2.158884580798575481e+00
-2.885591607093178634e+00 -6.583762321432948816e+00
-1.788421219763891123e+00 -4.616805547037214907e-01
-3.002670658423268524e+00 -5.369252488123427369e+00
-3.989747178177897702e+00 -6.941557978241341686e+00
-6.681831017781778570e+00 -2.566540383444156248e+00
-3.284831510142983468e+00 -6.015360957719699364e+00
-6.027956957608960664e+00 -2.937470598013532719e+00
-3.578596718989091041e+00 -7.248409023463276313e+00
-1.636490328851671094e+01 5.180025267360567121e+00
-1.614906882626093676e+01 6.012653273520041530e+00
-1.510195216542718200e+01 5.942776556913209163e+00
-1.110970012128493956e+01 6.483089577970720718e+00
-1.100420586086316455e+01 6.370483606092335549e+00
-1.473347468862058385e+01 4.865660365423829070e+00
-1.130842998180854231e+01 6.824226681082816270e+00
-1.110014839319671687e+01 7.002938146120850860e+00
-1.106303637076940305e+01 7.092040257481302845e+00
-1.475299946307430865e+01 5.706522187667568247e+00
1.952558432819317247e+01 4.986461972474867999e+00
1.961244858917251221e+01 4.913602628250631099e+00
2.005414071812040078e+01 4.623265331793226629e+00
9.339927139521613242e+00 -5.813543283284957397e+00
-5.879466500028645015e+00 -9.846830459590691476e+00
9.352740020021956369e+00 -5.824593305088976436e+00
-6.050983091749825959e+00 -1.095845815320145711e+01
-2.645330758860112397e+01 -3.366028244670018932e+00
-4.921803975822180099e+00 -1.094830989725384995e+01
2.025541597839689345e+01 4.519422966053262769e+00
1.708069161304381112e+01 -2.282332058208881520e+00
1.793760527063752619e+01 -3.114535684239719604e+00
1.841053356482299463e+01 -2.826538190087030777e+00
1.218792688196595009e+01 -4.203022648240538395e+00
1.171634034918076139e+01 -2.960665884992839114e+00
1.122339965603930878e+01 -2.674469593840397952e+00
2.910525833511249161e+00 -9.780843747068326266e+00
1.605699551849750861e+01 -1.247736430317988265e+01
1.144532557742188317e+01 -3.666260692693529943e+00
1.561699425902346583e+01 -1.283760618022931688e+01
-4.115843521642736391e+01 1.282632862730977585e+01
2.570199958174110577e+01 -2.900515038770553833e+00
2.465229130444132721e+01 -1.285889559323110776e+00
2.463490117197829576e+01 -2.622934555632753018e+00
2.613053134285808099e+01 -1.719032989194514416e+00
2.516501858842412886e+01 -4.105697609658690794e+00
2.541284626827230042e+01 -1.702175123061128392e+00
2.556029238717827212e+01 -8.537612070032850609e-01
-4.076585153331274824e+01 1.414199196661212987e+01
-3.989969926312818416e+01 1.372918484616832835e+01
-4.874824117100369669e+00 -4.468117279834550537e+00
-4.412333817702903005e+00 -9.610554190344423597e-01
4.751660474457997552e+00 -1.146282326485074998e+00
-1.715933950152340737e-01 -5.923525933315622716e+00
4.653103243057340244e+00 -2.956534791969712139e-01
-3.362837947345984763e-02 -6.182407957398232234e+00
4.133824355551373841e+00 -1.742520645948056002e+00
-4.298064504085186144e+00 -1.090879696374881913e+00
-1.465934093729439835e+00 -8.356267577028150484e+00
-2.430158254347928093e+00 -8.259281682713423223e+00
-1.664092952854542418e+01 -2.306104496500158252e+00
-1.652982816384042053e+01 -2.153776136096236193e+00
1.880217560421327150e+01 -1.422642941707425557e+01
-1.989367034715085936e+01 -3.007299843219677360e+00
3.476645250713646362e+01 -1.049831780664444736e+01
-1.732124353382640081e+01 -2.944436933300197179e+00
-1.699755375279871217e+01 -2.749180457463077598e+00
-1.705592406996210642e+01 -3.442253100776994756e+00
1.874032178828984740e+01 -1.352291568021482604e+01
-2.053456369492205269e+01 -2.692747774490416024e+00
3.919015503027534209e+00 1.811675585379540987e+00
1.137451493594089946e+01 1.140068195234459303e+01
3.586609078030231768e+00 1.791313939307758840e+00
1.435513635293693468e+00 2.373410655944079295e+00
1.622622983172476330e+00 2.116071091351236166e+00
3.597552734321015411e+00 3.015479057682479702e+00
3.456421180533420845e+00 1.257306515834227145e+00
1.335363522614895437e+00 -7.961587947913861818e+00
2.834661340219285286e+00 2.945341516273054960e+00
4.217587665457452673e+00 2.311473458225885569e+00
7.271626736369890764e+00 7.270732008825709691e+00
7.862624616042993786e+00 -1.174950262631617193e+01
5.960418116036003688e+00 6.529207469289137755e+00
8.595475034915962098e+00 6.803673052980016678e+00
-3.396721905162851840e+01 3.477874868782868223e+00
8.143149086550270255e+00 -1.329327410141369725e+01
-5.313760053874030831e+00 -5.017645608713865890e+00
7.974949204217646859e+00 6.529899555867825001e+00
6.631877759814792661e+00 7.114243537293143405e+00
4.755012523352371012e+00 3.812825644930442071e+00
-7.060713937763899439e-01 9.878061419827597334e+00
3.288274517289914711e-01 1.112637573859721130e+01
-3.203161546398102799e-01 1.059863603543481325e+01
-8.405391950834924242e-02 1.011043075568551686e+01
-1.211222263067758709e+00 1.104003901055978076e+01
1.346462547351296779e+00 1.117096223121767018e+01
4.643724527382959710e-01 1.036191143920733282e+01
-7.453000946602346133e-01 1.013781524941506618e+01
9.063306140809057609e-01 1.181129329766037372e+01
-7.479208648909891899e-01 1.020430497084301358e+01
-3.115778924250890647e+00 4.806718431612288178e+00
6.191333872609874334e+00 1.006588302107238064e+01
-3.752070024875995724e+00 5.287232428414490037e+00
-4.580397009151599086e+00 6.834331910884120731e+00
-4.088874837687236585e+00 7.855482396744028151e+00
-2.806899999079793595e+00 5.587214867209844726e+00
-3.284554404099171876e+00 7.653695279554898256e+00
-1.639763420956370954e+00 1.518396153931214343e+01
7.411977621410680506e+00 1.061529560589128529e+01
-7.339118506504249240e+00 -1.400982234829450768e+01
-3.776185220177063684e+01 1.224630639105808427e+01
2.174878191784851467e+01 -3.587808112477751887e+00
2.244567981109750221e+01 -5.133492940644282854e+00
2.885046037253036033e+01 5.697239120286684333e+00
1.538713320350702141e+01 -1.073721239440456365e+01
1.502845599120313480e+01 -1.051886352451815476e+01
1.487060125470968508e+01 -1.039350222526011436e+01
1.626005169960151164e+01 -1.143667247899244011e+01
2.258939210670818554e+01 -5.129093029653908786e+00
2.145870360320088110e+01 -4.241618365169142812e+00
1.320557867081912207e+01 -8.403368165429626890e-02
1.496705272510515705e+01 -3.257942389228003499e-01
1.328845251374879943e+01 6.298562214954041005e-01
1.602113158635172852e+01 -9.647698283751229287e-01
1.608193827866529091e+01 -1.061519350353134161e+00
1.334522022770193139e+01 -1.501175468931849277e+00
1.528805733061425975e+01 -1.148877761893641436e+00
-3.253998268260149018e+01 1.601316903432478256e+01
1.389815720641595398e+01 -2.273618564897942562e+00
1.367380090789721159e+01 -8.306708505383708641e-01
1.528641375897665178e+01 -4.610983842373307162e+00
1.825557186340607529e+01 9.809479444729097608e+00
1.802751436921088768e+01 9.091035332830836424e+00
1.760195233091627287e+01 9.186039289194205537e+00
1.820375901387218676e+01 8.508915775166592255e+00
1.541062760223748107e+01 -4.225747090379042170e+00
1.567843044439469757e+01 -3.029833523974732934e+00
1.525527524720785522e+01 -4.697574091535923202e+00
1.533580173358351750e+01 -3.769483975044554569e+00
1.895749016518798769e+01 9.308836796785135093e+00
-1.204239291026685166e+01 1.132416833248280241e+01
-1.411106228788984041e+01 9.278614846110935233e+00
-2.504275029565051369e+01 -2.008876344425233285e+01
-1.257373392951272528e+01 9.799936518124077622e+00
-2.501206516971065597e+01 -2.008473742656163452e+01
-2.173583435426836630e+01 -1.853572154579587306e+01
-1.105508768032392375e+01 1.272923034719403823e+01
-1.326645055715363064e+01 8.970708207247895416e+00
-2.390288862660320746e+01 -1.816851044458805831e+01
-1.292256431034387454e+01 9.607523088899844410e+00
-3.439735470850490628e+01 1.185043546626750732e+01
2.084584840830338948e+01 -7.092224797358329447e+00
-3.464962742152388131e+01 1.314106763235578157e+01
2.749225611410964021e+01 1.260507401163379892e+00
1.853174233179780828e+01 -5.978056453837934825e+00
-3.253101126090214024e+01 1.086090119845592383e+01
1.843892786064310485e+01 -7.328721915308001655e+00
1.944853705021624535e+01 -6.827763131498126192e+00
1.758848954318496638e+01 -6.732594607699726730e+00
-3.521488194118192183e+01 1.274282477593335194e+01
-3.871921350055952615e+01 1.624405140778475243e+01
2.213412971431757370e+01 1.248178584012637371e+00
2.322059652203273572e+01 2.004462674371568998e+00
-4.022758538496033509e+01 1.682655336710929816e+01
2.506075936549225247e+01 2.794372470807326980e+00
-3.784557819962225267e+01 1.621858653598600597e+01
2.764726745687621801e+01 -5.337974095950481335e+00
2.387564183894117065e+01 1.585241457138475196e+00
-3.773572864866233800e+01 1.740405538302996291e+01
2.360460995864922040e+01 9.637833680131153713e-01
1.784255004808903422e+01 9.891425709759597007e-01
1.761230705604024394e+01 1.681693435743221388e+00
1.315203863398175343e+01 -6.942771149017822552e+00
1.703417636264834911e+01 1.401736468752959874e+00
-7.455402731571180830e+00 4.387492178379221741e+01
8.185520908495492520e+00 -1.894281112030284264e+00
9.034809058422398564e+00 -1.698286003621376494e+00
8.440889877907045147e+00 -2.840855260375708902e+00
-1.290969246477666088e+00 -1.514340695222120736e+01
-2.115180559021651308e-01 -1.480491602652073269e+01
-1.311850486174540542e+01 -9.237731187461458049e+00
-1.608173910324842737e+01 -5.829628889229158339e+00
-1.450470581726727204e+01 -6.815128514120592840e+00
-1.353241195499147587e+01 -7.091584602736647369e+00
-1.344944952623259482e+01 -9.452827542292311591e+00
-1.565115413925415488e+01 -5.016556736012926621e+00
-1.692821073795022357e+01 -5.266087922454899761e+00
-1.424423751082908929e+01 -6.237262074652878852e+00
-1.351618867256640577e+01 -5.143757224534673433e+00
-1.304846306717537807e+01 -6.231608141345274632e+00
1.108189718984685967e+01 -1.388306994774386816e+01
3.088391806464502309e+01 -1.647835018900747794e+00
1.103244674997417718e+01 -1.332392492822130592e+01
3.086173598158439901e+01 -1.965358630314291588e+00
-3.895483011786193828e+01 3.586656502445243255e+00
-2.600620086271213438e+01 1.849381203196440282e+01
-3.725267314568792898e+01 -9.386040201694582918e-02
3.005349331187261086e+01 -1.894172829528332658e+00
1.041782061432028605e+01 -1.368540468018999334e+01
1.182962717299114708e+01 -1.431630655564173438e+01
-2.674658288770293546e-01 -1.079260021048917828e+01
8.408858743451238738e+00 2.251324157637031309e+00
7.970287662741208479e+00 2.325302443777155670e+00
-4.451785165580051995e+00 1.398231576658142128e+00
-1.955841732372743991e+01 1.918338746492108271e+01
5.562798275543415549e+00 -1.092568939098377889e+01
7.704554888758954334e+00 2.026866653720784672e+00
6.784896564796525809e+00 1.847205088928389527e+00
-3.690387568170350879e-02 -1.123481039407882065e+01
8.234355297606775537e+00 1.325102226270060690e+00
2.306543471842324777e+01 -2.563230211432216521e+00
2.331374248483143674e+01 -1.476442330541728687e+00
2.384074436098282845e+01 -4.874568253427379538e+00
2.376152877979982136e+01 -3.869269530152000591e+00
2.236692146358692312e+01 -2.406106069508938017e+00
-3.923356173131661251e+01 1.100198039784771353e+01
2.223687879209024132e+01 -1.296740690955787034e+00
2.139639224797505790e+01 -1.491168824495477496e+00
2.226111805345769667e+01 -2.497139295715768093e+00
2.307569224447918899e+01 -3.637494221479011802e+00
1.121199822216523145e+01 1.245791413814986842e-01
-1.712008552756532076e+00 -1.134160933585485864e+01
-6.246771173654318332e+00 -7.078779623910900654e+00
1.496871154763958600e+00 -6.442767757799834349e+00
-1.576286888390772578e+00 -1.126784886165218147e+01
1.054445804391219177e+01 1.364476382978882185e+00
-2.950334478007641259e+00 -1.379697740167951103e+01
1.130611551441609919e+01 5.626529011360390520e-01
-2.980701024156746204e+00 -1.442811065272111115e+01
1.621396342395006407e+00 -6.348689514573613302e+00
