9.395389796140642957e+00 6.059972459491204111e-01 1.621456051266025611e+01
6.308291562445992540e+00 -1.647131466402406730e+01 -1.949969858533715694e+01
8.774515031060932557e+00 -1.898508640534877778e-01 1.594496215939043893e+01
-4.981056757705380278e+01 -1.107029393808549322e+01 -1.825593708886994904e+01
-1.088618944563487823e+01 -5.952458930959322103e+00 1.134694834316313816e+01
-2.443530094913124451e+00 -5.907159086331032150e+00 -6.375231393784603995e+01
1.070335331017828295e+01 1.959663484588844984e+00 1.703934753277186331e+01
2.555582793569082245e+00 1.177070823119602672e+01 1.627230330229693323e+01
1.060425776266016129e+01 2.419968469612410189e+00 1.770288708586419801e+01
-1.122739330311353356e+01 -5.316446190374257696e+00 1.074429164554926963e+01
1.437656488985019188e+01 -2.234251321517881639e+00 -8.350002381397034767e+00
1.566853995028980862e+01 -4.431270578562570783e+00 -9.658274283057830090e+00
1.473139285565682144e+01 -3.701806431740207071e+00 -9.948504176420067679e+00
1.478316415570418663e+01 -4.441041013635177670e+00 -9.016429709708996043e+00
1.662268210769311239e+01 -3.773071330881817786e+00 -9.812620121727643863e+00
1.545809196829499399e+01 -4.875528015225082612e+00 -7.840515081796027630e+00
1.273796391873927192e+01 -2.121137844624519708e+00 -8.431597400118182151e+00
1.319895274377207350e+01 -3.304835931166639096e+00 -8.504347384069372850e+00
1.509146269285261965e+01 -5.987550320554432481e+00 -9.291788592035942429e+00
1.337811113942779251e+01 -2.275154746421350183e+00 -8.500963649005866429e+00
-5.603925180339797585e+00 -2.640923355880555157e+00 -5.850557764769960478e+00
-4.278170170632174418e+00 -2.898670519328271578e+00 -7.173674941727982812e+00
-3.553867992696139400e+00 -2.851877317035043546e+00 -7.144508187505723917e+00
-8.866225286455703625e+00 1.283013317652094010e+01 2.834443377529434760e-01
-8.405777460871636464e+00 1.279377470063839617e+01 6.122985447193983743e-01
-1.351029663143338233e+01 7.581900820163176569e+00 4.010615589720089247e+00
-2.722895347613909500e+00 1.237870676937050796e+01 9.057596810046815605e+00
-3.109461164784449227e+00 1.348812051383414357e+01 8.722903608289771071e+00
-7.092132858409980756e-01 -6.408138579435513904e-01 6.652088719041966414e+00
-9.430384344904571906e-03 -1.467419714654152552e+00 6.384184977655967153e+00
1.724929062975811389e+00 6.563478924118750335e+00 -1.815680682373177701e+00
4.390210578161285682e+00 -8.584167852509102303e+00 3.011896753382832692e+00
1.245320163535730718e+00 8.290536520905604334e+00 -2.280238066832030341e+00
4.601734595645317505e+00 3.751979031981363399e-01 7.396865299383994063e+00
4.196164856404985599e+00 -2.804695815747126453e+00 6.575949374838503836e+00
-7.224385467927113558e-01 1.520207597834152224e+01 1.266835895997560790e+01
4.568137809279585682e+00 1.534408815980697893e+00 6.910715993418249603e+00
1.909440285363235734e+00 7.356157537678424063e+00 -1.468661094019294788e+00
5.014252090164630360e+00 -9.232367417445566105e+00 2.864187348768037378e+00
3.848494675021109312e+00 -5.859482985143578126e+00 5.748310713321187926e+00
-2.259054647150324779e+00 4.452404761913432374e+00 1.734190029640089170e+00
-7.480791454878683133e+00 -2.241860490021891472e+00 -2.227988597244579871e+00
-7.928228325561466505e+00 -2.130423767852076100e+00 -3.272421814785892558e+00
-2.170022118165953362e+00 5.406008810400718900e+00 1.435444710660991774e+00
1.104414152058159404e+00 1.416441201042386488e+01 9.154913004684521738e+00
8.344062641572700390e-01 1.376312256027157765e+01 8.507657384916733179e+00
-5.535485057872738812e-01 5.416615058100063607e+00 3.167508854630968429e+00
8.379637259084257161e-01 1.296150519269712298e+01 7.146991726102362996e+00
1.089638632295096610e+00 1.264419374368016236e+01 8.845215276987410391e+00
1.881867266439256392e+00 1.055507651581167572e+01 1.267281832986823531e+01
5.465339292332813237e+00 -4.630915069887160840e+00 1.237049527883647215e+01
5.480080711011835248e+00 -4.177751845871414460e+00 1.218462492817196541e+01
5.738658426517466715e+00 -4.697070706684764119e+00 1.265023471075140726e+01
7.400529160052397692e+00 6.872507784121996366e+00 2.045433899994767657e+01
7.901886063391370563e+00 7.669883101017718197e+00 1.909526135258962043e+01
8.779795906225562163e+00 6.546193595896203199e+00 2.013158348867341729e+01
1.719092289341414315e+01 -2.333103008913543874e+01 -4.340318472936827021e+01
7.866603867024749341e+00 5.392523644457757115e+00 1.979157354677104053e+01
7.313579959386950158e+00 9.078005829878561528e+00 1.905429507330569905e+01
8.081898848049325679e+00 7.819915850142807656e+00 2.041535636955002886e+01
1.607681291737161189e+01 5.431642146387436476e+00 7.701078680321396419e+00
1.710058783485564149e+01 6.332377832663738992e+00 7.312306401911576437e+00
8.264483859703245727e+00 8.348669726573900718e+00 1.233253002870147519e+01
1.378978721253158390e+01 6.817203912203710026e+00 6.917964498005301444e+00
1.447663044718846237e+01 5.987384721524213305e+00 7.454818073242207355e+00
8.516525935649312373e+00 6.986254017116138471e+00 1.202558970361874202e+01
1.599767231151138347e+01 2.911244471120671307e+00 7.608297043263837267e+00
1.584978818461095074e+01 4.906248020615539218e+00 7.854990494427717351e+00
7.768686832641140683e+00 7.794041657735816031e+00 1.338639289228539297e+01
1.629554149419838183e+01 7.027461416730834465e+00 8.038004264332347049e+00
2.018648112527157679e+01 -5.901532608733465857e+00 6.203816333372230929e+00
-2.342101314591123806e+00 -1.223195089353722409e+01 9.306538272734584893e+00
2.164003913288472347e+01 -1.748583891001529667e+00 4.804652939103221776e+00
4.303428259046412130e+00 -1.473131738473219876e+01 -1.782789590300371074e+01
6.959835409472538537e+00 -3.727081332318666451e+00 2.066774805281774974e+01
7.908717954876011369e+00 -3.089388214632138752e+00 2.092821545921076520e+01
-4.732408256083669329e+00 -1.396394533864213017e+01 8.029366983775449995e+00
2.043578148356788304e+01 -1.048018339773184371e+00 5.878992229930678270e+00
2.180287794378300781e+00 1.570976786152800209e+01 1.578096221485196082e+01
-5.711721205734090923e+00 -1.316440126166926738e+01 8.421800098530777490e+00
-1.168280931966119063e+01 -4.751147497754237836e-01 -6.822497399206405078e+00
-9.688320140301248884e+00 -4.050809277280823517e-01 -6.045888445887864115e+00
-1.109523602013927857e+01 -5.314439680426709112e-01 -6.537623738016728581e+00
-3.692114479390162796e+00 4.966407851770789250e+00 5.292724534229364508e+00
-3.857708864576232521e+00 3.798445399270882650e+00 5.422985412937779692e+00
-3.139537767048905526e+00 7.399090942529623405e+00 5.838236624143919862e+00
-1.585495709565986511e+00 8.023390583840244616e+00 5.882255793161291990e+00
-2.426703435337884684e+00 5.413069048962647400e+00 6.423765760240596201e+00
-5.001822016822623063e+00 3.347402833602031613e+00 3.877659677806006844e+00
-3.688472796649835406e+00 1.007054263220742429e+00 5.382553105174546104e+00
4.293181450777241892e+00 -2.045424588791924680e+00 1.437753131731691392e+00
-4.462176215511036936e+00 -5.677306521239042780e+00 8.146934009213234518e+00
2.607207356492230232e+00 -1.337688616140358988e+01 -1.613682763600506931e+01
-5.704406292410280521e+00 -1.256489233257105020e+01 3.013699871186523271e+00
-6.009292128161767721e+00 -4.156990787631370310e+00 1.010135604696844780e+01
-6.844908214038845529e+00 -5.464353060165552556e+00 1.017417068538502178e+01
-6.613312312553955685e+00 -6.676959153293950955e+00 1.032513685924079816e+01
-4.924297588581064034e+00 -3.990400015533493772e+00 9.925905332360583699e+00
-4.386483383738836173e-01 1.793305934117813649e+01 1.104768824898505564e+01
7.819024722691311879e+00 -1.928499330258645506e+00 2.086512875658491240e+01
1.360930523530786829e+01 -4.579284073097324992e+00 2.050465574618975051e+00
1.133681930900418244e+01 -4.479558655590790472e+00 2.585293543718069742e+00
1.258050717203506252e+01 -3.303234643451129493e+00 2.496136968493908981e+00
1.265654376449297835e+01 -7.281869272154124495e+00 8.366996202005538841e-01
1.397205672646387242e+01 -6.503187939137715645e+00 5.059220296006386342e+00
1.298678470941774599e+01 -4.725581971493333810e+00 3.684869354811046716e+00
1.411053928505211452e+01 -6.402316442608299241e+00 2.822038910721298421e+00
1.397996445143944655e+01 -7.239332457463199866e+00 4.449712888890979379e+00
1.284830551248309760e+01 -8.672935530611452393e+00 1.815401181791608254e+00
1.313923159211683434e+01 -5.024503201381716799e+00 1.062008524624000971e+00
-8.307524065997794693e+00 3.830726729515006035e-01 1.018657965927572384e+01
-1.508248123282640485e+01 -3.874536764387204624e+00 -6.693642206819351514e+00
-2.581871045367988948e+00 1.275152248050773096e+01 -1.913255406900307154e-01
-1.238287034576383050e+01 -4.021800363511678356e+00 -7.637914750169183975e+00
-1.404234910912683887e+01 -3.529239035172228256e+00 -6.264354389948782575e+00
-3.091834280505764809e+01 -2.666745512907198190e+00 1.233079698111686717e+01
-1.433267168275301984e+01 -4.080279128566316693e+00 -7.078271593558160824e+00
-9.864603420861476124e+00 -1.723285328870460820e+00 8.629854461659423492e+00
-8.653609470367628731e+00 -1.767735261240011013e+00 9.343619772375705068e+00
-8.765068946014876516e+00 -3.946348959660956890e-01 9.672047044507259272e+00
8.503885382584391861e-01 1.514137901000929043e+00 -1.391400732990844435e+00
4.856443621194381222e-01 -4.878949122531502786e-02 -1.343280045673913792e+00
3.234482722387810316e+00 9.081258109240783583e+00 5.824678907253998617e+00
1.493742241829562722e+00 9.724778233984567422e+00 4.564429854557499056e+00
2.566731957729005753e+00 2.363010843985606790e+00 5.708079917098459077e+00
2.706900590642015825e+00 -5.343989909510321823e+00 4.906030873861233488e+00
-2.430437638512636944e+00 1.534544764724042842e+01 1.185514486573879722e+01
-1.982005292900307136e+00 1.385411453949343574e+01 1.068392496478410791e+01
1.178934459716393546e+00 1.318417874335018114e+00 6.206696236561370483e+00
2.856440646327130573e+00 3.594887620796638483e+00 5.669682105048011955e+00
4.062151015364793061e+00 -2.111412125814378982e+00 -5.918780471808598342e+00
7.381040031682731817e-01 -3.670158699937681401e+00 -7.528271277742717871e+00
1.892584234543000621e+00 -4.042118448394651509e+00 -7.268940172451984871e+00
3.353006964993141992e+00 -1.888674715488848355e+00 -5.286280716294940341e+00
3.962175596423038293e+00 -1.462293539485056471e+00 -6.156685138491934772e+00
2.618411596550874076e+00 -4.406342798377592906e+00 -7.483749475469310575e+00
4.068102680981058761e+00 -1.816663259516007323e-01 -4.959196891710383248e+00
1.560538294062840503e+00 -1.509131037008881515e+00 -7.031798201596966003e+00
2.059329919466935888e+00 -4.736009984549100160e+00 -7.825883414483321587e+00
2.121703069533698027e+00 -2.921205571875050033e+00 -6.856419676513103134e+00
9.142525677491228464e+00 -9.361893931239263722e+00 6.352192545997691120e+00
2.258556785288643898e+00 2.546779537009938643e+00 3.090106761791689749e+00
9.757054805762814809e+00 -8.583669868479773868e+00 7.226521735789608769e+00
9.718451406008492555e+00 -7.563924596569250092e+00 6.551861297456215816e+00
1.628844998406945965e+00 3.034100890483871105e+00 1.959054890970334251e+00
1.011717709090056161e+01 -8.615243826935204297e+00 6.518424521686111639e+00
1.941822952079326425e+00 1.124288000898006068e+00 1.957631014362932742e+00
9.041106914602064393e+00 -1.073905755083979052e+01 7.890046772951402332e+00
2.073835890933809711e+00 2.155278464788408233e+00 1.159958458975919537e+00
2.691946326884036012e-01 1.782354498061998083e+00 2.511444285560110234e+00
1.511077746336585648e+01 -6.909424922805383673e+00 1.170300270366033502e+01
1.048150987600459061e+01 8.590711294887927174e-01 1.425630509274785318e+01
9.562117336619527563e+00 6.124914673061402359e-01 1.427274942936851510e+01
1.106613136642505069e+01 1.261597256585903937e+00 9.176037862799642397e+00
1.130946992285704056e+01 5.363184093398102315e-01 7.778158172411544058e+00
1.452629399615521955e+01 -5.533935598270663725e+00 1.111122425086026055e+01
1.794197749630852101e+01 -1.400151785683602412e+01 1.020413898862191893e+01
4.387466462655762456e+00 1.434994064258004443e+01 1.254730500546311056e+01
1.190756440572958219e+01 1.475101331960893214e+00 1.584140402822949945e+01
9.797580593411433725e+00 3.000434495313119565e-01 1.405151535089738424e+01
-9.646143467042783470e+00 7.824114361451248278e+00 1.004897899681525608e+01
-9.800521884430217767e+00 7.740081431997356987e+00 9.889410468033977608e+00
-5.402343083334080198e+00 -6.192534924224550430e+00 -3.441602714025242982e+00
-4.704084446752814230e+00 -6.196104573332529952e+00 -3.239998973283844119e+00
-9.345422408959640492e+00 7.936188262844292574e+00 1.033242629042949545e+01
3.060067886156483397e+00 1.883845416268874473e+01 8.398848803130050555e+00
2.268575403225078890e+00 1.900252985847996712e+01 9.199896671762807898e+00
-8.065203181286404899e+00 7.921033853149411996e+00 1.070729491300400582e+01
3.137945906564688414e+00 1.769671431187710908e+01 7.384247351706762608e+00
1.934564573610589644e+00 1.963767956046084961e+01 7.903460365845118574e+00
3.183647789879406442e+00 -8.939203074633784718e-01 1.187634462875762686e+01
2.461032614903210458e+00 -5.104810046621284236e-01 1.069386461420547185e+01
3.065175365592522461e+00 4.790438338168272914e+00 1.044590413057199463e+01
1.384237552772375812e+00 -4.392004845349368747e-01 9.601792828126260559e+00
2.503008365680085223e+00 2.338643788583393057e+00 1.006073819231441746e+01
3.579817867333038084e+00 3.840340907516336610e+00 1.216932914986737124e+01
4.592850755770878202e+00 -1.665230121256259799e-01 1.259920437353432376e+01
3.244368211613135600e+00 3.490439846465867024e+00 1.043039428468210161e+01
3.515052762155718380e+00 9.843059484265542780e-01 1.218302170918940242e+01
3.941503453689435332e+00 4.927112454730532498e+00 1.192993900112550598e+01
1.405120889526729755e+01 4.440005076433561904e+00 -2.865912299785103645e+00
1.535381765930620013e+01 3.728903232614892982e+00 -3.467160908836953936e+00
1.504342659752538225e+01 2.719410534306970995e+00 -1.897398926667651642e+00
1.688706492541652793e+01 -3.086652106702093334e+00 2.176157421361700095e+00
1.644974927791795238e+01 -3.224840701734589477e+00 1.613699653072460327e+00
1.388558974990339046e+01 1.748625985378952752e+00 -3.365407355153583246e+00
1.774060990518296421e+01 -3.400953104559789164e+00 2.211550286687044231e+00
1.733811314784726321e+01 -4.103545955354884534e+00 1.752907557838421226e+00
1.717181009098434075e+01 -4.397321434139819019e+00 1.799471716811700928e+00
1.506554911092598203e+01 1.815103218477405411e+00 -2.519574465337138136e+00
-5.868721703054624150e+00 -1.909930180858324889e+01 -1.321172533328132204e+01
-5.924745391739492106e+00 -1.925927362906967133e+01 -1.321195706670270198e+01
-5.795062099012374901e+00 2.598233212429911454e+00 -1.373871204751733188e+01
-3.954723957734441520e+00 2.478305299294403241e+00 1.666698833450727690e+01
-1.165887045768446040e+00 7.135753485870005797e+00 1.747118074529929288e+01
-4.176146977023429407e+00 2.256296977172110640e+00 1.704314022654541105e+01
-2.602851756739454459e+00 7.427483962047945809e+00 1.627514553188527202e+01
-2.145500344230014012e+00 8.243889857670847476e+00 1.739611919884405822e+01
-1.575556260233688333e+00 9.208864156020215574e+00 1.680834450881080144e+01
-6.326687138432463442e+00 -2.084537000899702619e+01 -1.343573847244462449e+01
-9.756335351076494078e+00 3.635785478190578068e+00 -9.946500512200399768e+00
-1.181743101048940581e+01 -2.468394275697699669e+01 -7.106682821760663238e+00
-1.146724367143333367e+01 -2.590761719674792829e+01 -7.149588617864059970e+00
-4.610477325395538450e+00 5.872773380362260376e+00 -2.850843628018552511e+00
-4.810719283077707686e+00 3.933234879060386824e+00 -3.284568957231136732e+00
-3.805395811349981727e+00 3.292812945926468782e+00 -2.760388684000210535e+00
-3.193463083844677364e+00 1.682114022127426622e+01 5.462995208423345517e+00
-3.897242144596217983e+00 1.776091891040265480e+01 4.686965929266899700e+00
-3.708358469482574193e+00 4.630137802479419307e+00 -4.031533910356243311e+00
-3.763157817517549297e+00 1.658124322705152665e+01 4.625507933101244085e+00
-1.156147595054772736e+01 7.760524659094394373e+00 -2.431712964450978376e+01
-1.218823542810066840e+01 9.007278653276022951e+00 -2.339488417334076331e+01
-1.209186242615440499e+01 7.034757874767136876e+00 -2.281933485640378478e+01
-1.366759666875311652e+01 -3.180016842970604074e+01 -1.058492718946910038e+01
-1.330298626708597176e+01 6.750536179139579041e+00 -2.492929633799628419e+01
-1.260650074971171364e+01 -3.275952604457193473e+01 -8.511440288908680429e+00
-1.347501075932805392e+01 6.306461638409517789e+00 -2.349731835295439453e+01
-1.190644280897571328e+01 -3.058569994967822581e+01 -1.271656383068185647e+01
-1.143907115550995535e+01 -3.153460421347649145e+01 -1.134341089757491439e+01
-1.373384293834690162e+01 8.310145480357258307e+00 -2.428989714782397868e+01
5.678241036430979882e+00 1.849410120561797655e+00 8.935324681264747326e+00
2.104540769216602936e+00 -3.308102956917653881e+00 7.859643247659155563e+00
-3.634770759191626066e+00 -5.471321301594611608e-01 -6.211322587965810438e-02
1.605238667835069188e+00 6.816971384243304399e+00 5.442844739306344160e+00
-3.289561271563496092e+00 -1.944924852890123068e+00 -9.202691991140149463e-01
7.894073168537084628e-01 7.140908287464718285e+00 6.139765848680745819e+00
-3.287994090163721683e+00 5.935621412478317982e-01 1.150776529818652749e+00
1.986217775828354126e+00 -2.472255992756243526e+00 7.513090816872257882e+00
3.077780269651499090e+00 9.799029147457533284e+00 8.582505287527650850e+00
2.930894042612571138e+00 8.087831125200448668e+00 9.419329684573281014e+00
1.708168255473172437e+01 -2.621752183908419020e+00 1.537658288967715414e+01
1.625450349212674084e+01 -2.451598571054591336e+00 1.541699481125010429e+01
-2.283190406211908385e+00 2.188240743531667221e+01 3.852634125940190390e+00
-1.273017150692897115e+00 2.060952719193747740e+01 3.775001952578421971e+00
4.873324025663119841e+00 -7.452060668499627560e+00 -2.152059669856596003e+01
1.794564723437025222e+01 -1.647141062301141989e+00 1.652335627742531798e+01
1.751746329165891325e+01 -2.030096782753572970e+00 1.594638089801678049e+01
1.775557065268153778e+01 -7.438686200509005975e-01 1.564079968490913330e+01
-9.461013243238988180e-01 2.188380263774620005e+01 3.441823653987920562e+00
-1.203436394984995550e+00 2.180062814157729889e+01 4.489070473883519874e+00
-1.832372381674486350e+00 -3.459626478461498067e+00 1.522045885752424388e+00
-9.516500965650741550e-01 -6.236559767679152877e+00 -4.930298743627004598e-01
-7.401393763838909345e-01 -3.287541586981996389e+00 1.559506073979616270e+00
1.773822144089842734e+00 -3.201272046340406963e+00 -3.047001563678420899e-01
2.672804526711580198e-01 6.848079281934119855e+00 1.996885329820351274e+00
-7.348956245205653381e-01 -5.107185416906193431e+00 -4.023574324599066276e-01
-1.513139106498309516e+00 -2.327369036796249180e+00 2.291911807196095996e+00
4.949717306933974770e-02 9.658954890416987737e+00 6.176765888596242426e+00
-5.843730061531556830e-01 -3.577458618402382218e+00 -1.090564767147018221e+00
-1.515555683742271453e+00 -4.453128801065912690e+00 8.634784430441043712e-01
-7.213281977431611480e+00 -7.992103343727627873e+00 -7.015604791923512273e+00
-1.315797892991245988e+01 4.665386458770094613e+00 2.654794729565279177e+00
-4.850804998874210128e+00 -8.042403350495254344e+00 -6.393684778883187647e+00
-5.452513185917383431e+00 -6.171964334969476162e+00 -7.888168995940581851e+00
-5.028111639225556928e+00 -6.027694806261291838e+00 -8.146002732211016450e+00
-1.406177382548022337e+01 6.633251210364728756e+00 3.943367370325042476e+00
6.837680633511141970e+00 2.661090132974457401e+00 8.235737370124221357e+00
-4.818143791007796217e+00 -6.199884186738672476e+00 -6.572223809413092255e+00
-6.851556951494299774e+00 -7.832410947078007446e+00 -5.683085139213935655e+00
-1.624739506294862412e+00 -4.852256050797637776e+00 -2.747478056625831222e+00
7.435523022563208073e+00 -5.461237395288600638e+00 -4.041294502622100993e+00
7.676521162641152252e+00 -7.604969038285172900e+00 -5.583104077971851709e+00
8.094737833707341679e+00 -6.677879548908994600e+00 -4.674401953441310376e+00
8.010868700209115900e+00 -5.743982303069079087e+00 -5.403012049214242829e+00
9.085305789368433693e+00 -7.109899094467204250e+00 -3.741202154342981867e+00
8.504603664526170448e+00 -6.847498660423674721e+00 -6.998545175733496215e+00
6.811696679591486614e+00 -6.636443548811835846e+00 -5.227951451629249568e+00
8.075693284851535481e+00 -5.882725271123891098e+00 -3.885064390574763937e+00
8.026459424360654182e+00 -8.270567222830988996e+00 -6.676002539687987181e+00
8.670008580465552228e+00 -5.517508182233411773e+00 -4.358631050940981133e+00
7.306321477903558126e+00 1.111300800150865298e+00 -5.734595477860569002e-01
1.076383823902400394e+00 -1.106528141098909934e+01 -5.742475775307359420e+00
8.113732962473937604e+00 2.961410444899410965e+00 -4.454679737471520240e-01
9.959703776380111506e+00 -5.895115357121433891e-02 6.910796665184534282e-01
2.148933645503429801e+00 -1.185781925715921581e+01 -4.268745447957372541e+00
7.626727936543467479e+00 1.830899772704313699e+00 -1.990076764028562595e+00
2.140982153426232326e+00 -1.052838096754151742e+01 -3.230992985438096543e+00
1.632054297878216653e+00 -1.073645677854730884e+01 5.290949758244858359e-01
-1.705543960439652451e-01 -1.074477947000251099e+01 -3.954131647523646986e+00
8.158973751349847703e+00 4.051114911764424065e+00 1.294167114088295434e-01
-1.416040667711480339e+01 -2.942995896088624619e+01 -7.543837662009747369e+00
-1.540078100921882864e+01 9.100809488783854206e+00 -1.945170892268708585e+01
-1.321205375899333667e+01 -2.874576438760403363e+01 -6.547894253066369963e+00
-1.265836703985894118e+01 1.258732811168713006e+01 -5.543405156773239639e+00
-6.541118694653976995e+00 1.860825998335424103e+01 2.883440491538724615e+00
-7.143487005269936851e+00 1.824628487069888649e+01 2.496738087311526133e+00
-7.354849546172798291e+00 1.767756672990495304e+01 2.257527046478611243e+00
-5.137887137167891360e+00 1.908891074554474798e+01 3.710207712687020543e+00
-1.398588092040320419e+01 1.218120923159800917e+01 -1.995339574627534063e+01
-1.505494301778903043e+01 1.025101494325188689e+01 -1.877217717765304528e+01
-7.134934798329783057e+00 1.968513226544306827e+00 -6.598469761280381540e+00
-7.537685197576581508e+00 3.065103284928483163e+00 -8.606073409671306962e+00
-6.598735254967294850e+00 1.155613811534042412e+00 -7.604209541337992206e+00
-1.081020376946343475e+01 -2.209220881276920778e+01 -9.349937073981600122e+00
-7.680008249011489596e+00 5.319862102183396502e+00 -9.373263646515844982e+00
-7.202496735588330701e+00 4.295894941429441616e+00 -5.532599837432432111e+00
-1.191605088741662399e+01 -2.139837795393273723e+01 -8.580508233368226101e+00
-1.106898074758981210e+01 -2.118860501306501121e+01 -9.460334374391344170e+00
-8.008875336605941087e+00 4.870362665491013487e+00 -4.096741625978490120e+00
-7.882548451131497380e+00 3.203132507706980991e+00 -6.148260258034292214e+00
-1.326298387399596024e+01 -1.924076796542325951e+01 -4.147875657780589087e+00
-1.050176378365896834e+00 4.613599125992505101e+00 -1.630890253938749979e+01
8.074077165493562247e-02 3.981771991602699234e+00 -1.724362319908385643e+01
-1.567439881093561693e+00 -1.924642187043401620e+01 -6.802696255653980728e+00
-1.005873998438814310e+00 2.976765566688042597e+00 -1.718775660252879334e+01
-1.228894979264265608e+01 5.848056297662737713e+00 -8.112149048716917221e+00
-1.072694045152912601e+01 4.584627087136655454e+00 -8.155343906819357613e+00
-1.285647599686028819e+01 6.740449038334655363e+00 -7.686439290608931607e+00
-1.232334252318558043e+01 -1.864268343067181988e+01 -5.109437138354413932e+00
-1.527399804716849552e+00 4.647826612695816095e+00 -1.782439743685939249e+01
1.718028661803056778e+01 -9.521864012899955654e+00 -2.610198534077519741e-02
1.653189361782641598e+01 -7.993080227800428261e+00 -3.415222861339114235e+00
1.622560442947810699e+01 -8.418130459152745715e+00 -3.629599575117078203e+00
1.770412174779578507e+01 -7.453065164319867542e+00 -9.160102609788460803e-01
1.560793593024493475e+01 -9.138227210439746173e+00 -3.650653280052533312e+00
1.704771149511893924e+01 -9.217659953979634224e+00 4.822110135701354605e-01
1.612079735276014603e+01 -1.265339886273639891e+01 2.015670357561065273e+00
1.688274094816885196e+01 -5.999676529485166832e+00 -2.207269386164290470e+00
1.622891963502275559e+01 -6.441034957030084662e+00 -1.522166888960794440e+00
1.685054934282559458e+01 -7.445359129465323633e+00 -1.686683776958732617e+00
-1.302592442573861398e+01 1.210258991891608282e+01 -1.611671026670522977e+01
-1.799260854728607839e+01 -2.587144591571318486e+01 -9.672380247223696159e+00
-1.641745943503528338e+01 -2.578086620210774882e+01 -9.512857830190528219e+00
-1.743101978737498925e+01 -2.668996071883827170e+01 -8.561417565337970714e+00
-1.607290216815426476e+01 -2.349647929826643633e+01 -7.878443729180242272e+00
-1.689512636395379275e+01 -2.394436231255870595e+01 -5.080798951513594730e+00
-1.787465824942127313e+01 -2.407439086359313407e+01 -7.339690441770679641e+00
-1.032234424047002719e+01 1.044717938161865156e+01 -1.388906252993665014e+01
-1.171737930844481745e+01 1.109537930711054265e+01 -1.179369857327903581e+01
-1.115965751197484934e+01 1.129115722183842685e+01 -1.614726608747159631e+01
-7.033906304137797605e+00 9.257913907201219317e+00 -2.237032554358062342e+01
-8.196479088301062532e+00 -2.799395486884022688e+01 -1.184434956274370165e+01
-7.110810542242713694e+00 8.169435316485134990e+00 -2.085059310071978800e+01
-7.789972618504656054e+00 -3.085869813389837546e+01 -1.034076182461122606e+01
4.588629332758969781e+01 2.894360513392805956e+01 -1.175359089526754097e+01
-8.075173959607893082e+00 9.454156607329052164e+00 -2.112823268033821122e+01
-7.984057031933042836e+00 9.430504180599612596e+00 -2.452118570031042211e+01
-8.419187428906647952e+00 7.669772016213062926e+00 -2.034490299172951566e+01
-8.490993430532382646e+00 7.819179602376918226e+00 -2.170133237180516161e+01
-7.759231312252628854e+00 6.626867856322116168e+00 -2.137527661504345744e+01
-6.049781253226641731e+00 8.538166791475079620e+00 -1.134680942340463439e+01
-1.149224251075086656e+01 -1.564051983684051450e+01 -1.024265244128079466e+01
-5.338970327499502844e+00 1.233822937679303067e+01 -4.857494477330885019e+00
-1.918921262157365248e+01 1.613989515592544111e+00 -1.349094369851570541e+01
-8.604830559285384650e-01 1.697500792017987692e+01 8.946003882181251754e+00
-8.696640282037314762e+00 -6.089046515315478025e+00 7.590603502809919467e-01
-9.273360040247375480e+00 -7.795593461480432751e+00 5.203661847755332026e-01
-1.072501731451244034e+01 -6.240737602518104055e+00 5.287799720757910826e-01
-1.586351830001895058e+00 1.732291838016621455e+01 9.031969711695037262e+00
-6.801630050078387724e-01 1.596658128175784874e+01 8.193486572452487238e+00
1.430888672628426050e+01 9.312454802911842577e+00 1.097481401633875464e+01
7.187808713548369255e+00 1.333560792947762863e+01 5.830574343132370885e+00
9.618519728830669635e+00 1.298020694985906331e+01 6.897106734623214663e+00
1.109591516888547069e+01 1.181339925020347437e+01 7.051748556539342516e+00
1.542024711372324752e+01 9.118016547937068950e+00 1.077017217557814277e+01
7.342129795105460488e+00 1.279134649055607298e+01 4.195245757346519611e+00
7.313552189267529258e+00 1.485651753872833503e+01 4.973269098577024039e+00
9.783538616081465022e+00 1.178463659183682388e+01 6.138381959449040082e+00
8.925558201677329606e+00 1.016345005466507523e+01 6.432854660717866047e+00
9.499290410553566488e+00 1.141782590398947761e+01 8.123079807741268255e+00
-1.526022830215569392e+01 9.562682204772153582e+00 6.171682001792867522e-01
-1.233631495669572153e+01 -1.552829129864442548e+00 -1.842983250197915623e+01
-1.406742142350986846e+01 9.868448304858407738e+00 3.185908220641129884e-01
-2.465655390555038018e+00 -3.105627708125129161e+01 -2.990115698851699477e+00
-1.279915525658693198e+01 -1.959292694247597222e+00 -1.922330737167036574e+01
-2.536678640773175619e+00 -2.993654360673108172e+01 -2.950971905860326316e+00
-1.558043727636586517e+01 8.610285424401984855e+00 -6.753760650748675820e-01
-1.295934029372669727e+01 -4.400512409876308206e-01 -1.934795569033510532e+01
-1.428079409537055788e+01 8.639774064537393272e+00 9.592545506033660629e-01
-1.576423808586144126e+01 9.825119961179140660e+00 -8.402006090827328633e-01
-1.583863426587289513e+00 1.098252036243009400e+01 1.111380907115448657e+01
-1.012309608257714544e+01 -1.157651334454449898e+00 2.136616879478502873e-01
-9.301499333377067913e+00 -5.322002799234986092e-01 1.675197889740994150e-01
-7.965251660231073672e+00 -1.449178899276368560e+00 3.619601921180349180e+00
-1.029613586198889230e+01 -3.578743216240771741e-01 6.683856791946044540e-01
-1.069766773619872779e+01 1.463002231350866378e+00 2.828096122856625705e+00
-8.816826302855226061e+00 -7.636507986155030014e-01 1.086140045835052526e+00
-8.671807353352432912e+00 -2.120623603764557608e+00 2.178939222855902802e+00
-2.771991167624831665e+00 1.063567642107116917e+01 1.050521561648230140e+01
-1.022320666061916228e+01 4.566179380852967706e-01 1.048992968328826825e+00
-1.278399329171515930e+01 -2.946436550002895416e+01 -9.569034938955907066e+00
-1.286523804458869513e+01 8.039713191270685400e+00 -2.055478293632999254e+01
-1.379359424569882897e+01 1.201081212615281579e+01 -2.212018576528183189e+01
-1.171792975020949790e+01 -3.026084927371833189e+01 -8.259120537411353880e+00
-1.543799325265649891e+01 7.973093208746860228e+00 -2.160765815182138994e+01
-1.560101033491467604e+01 1.038991193966095139e+01 -2.218174396185103348e+01
-1.438614374597588785e+01 6.588486533270565104e+00 -2.023616208182353660e+01
-1.325505851945540137e+01 6.726574085833946448e+00 -1.901337635604335574e+01
-1.248917149751749811e+01 -2.814162134815265048e+01 -1.024609525826880407e+01
-1.424031000224888288e+01 1.018137763048359723e+01 -2.144509824644184803e+01
-5.888572327236190063e+00 3.325713712078561812e-01 -4.504456243828264483e+00
-4.131766501429289667e-02 9.363183746515719719e+00 1.244513016091519297e+01
-3.408183858689455836e-01 8.144027579759439917e+00 1.267600296473540311e+01
-3.514748189591319072e-01 8.558136576730733580e+00 3.658431481329220691e+00
5.479395753011229164e-01 9.921632924772621820e+00 1.257418120425063890e+01
-8.223844064613739846e+00 6.188459367599182803e-01 -3.575648356193354527e+00
8.508961957915149865e-01 1.499158584691150331e+01 1.216993780978412865e+01
-6.966687860640709218e+00 1.509374426371287194e-02 -4.983444386483174782e+00
1.467589854220259227e+00 1.600826101201610996e+01 1.213093714302605619e+01
-8.420387035461596170e-01 7.887649400566672853e+00 3.931543327140253563e+00
