6.238577209919483835e+00 6.524681141172096410e+00
6.580788545724952421e+00 -1.038742477113435392e+01
6.193964096768333150e+00 6.233618658445859495e+00
-8.049520864389849706e-01 1.008770112347108494e+01
5.587418359022323422e+00 -1.009867926994308185e+01
-8.087410204093375965e-02 9.903488529357320047e+00
6.626779683130353149e+00 7.479341255939547572e+00
3.436052213322352777e+00 6.838591103856812126e+00
6.736313309462758525e+00 7.508931276764679197e+00
5.453648482018503607e+00 -1.019397865454710406e+01
-9.409230461034425730e+00 5.291545762531022490e+00
-8.434713579818200913e+00 4.223580905306205224e+00
-8.643432424705325801e+00 4.506188035811889314e+00
-8.831289134482791070e+00 4.104598812248652528e+00
-7.997127419950519567e+00 4.565226517435412745e+00
-9.011654690370034970e+00 3.457058736548828559e+00
-9.979041259686226795e+00 5.178709084476662561e+00
-9.674366796161477211e+00 4.845307321061901540e+00
-8.320670836444653773e+00 3.384883661154467926e+00
-9.810668809584299765e+00 5.159237673846595484e+00
-1.905228374949576031e-01 -5.747686357610869656e+00
5.846521560824781139e-01 -5.674267953365876416e+00
7.234003733334167796e-01 -5.577869329350203742e+00
-5.679522692929512395e+00 3.210952691396048220e+00
-5.680963235772696684e+00 3.285690850988446154e+00
-4.392243775261897909e+00 2.901955950907682880e+00
-1.772002631805729145e+00 4.966990584028069478e+00
-2.050254810794917670e+00 5.441662353274526964e+00
4.232471235363774120e+00 -3.106380287807513074e-01
4.447000673803210624e+00 -2.697637155999875191e-01
-3.163008723031125680e+00 1.308837077799110737e+00
-2.126001722821979634e+00 -1.556589079733432801e-01
-3.695395981057376211e+00 1.827127770637653192e+00
3.719888407092331484e+00 2.904558922857901404e+00
5.357583070857175223e+00 1.426584524375593022e+00
-1.473889416423142640e+00 8.779180676231835179e+00
3.122231509365957169e+00 3.129307429004283492e+00
-3.207498579892767765e+00 1.534960797204228067e+00
-2.477559202849043185e+00 -6.320089009700761984e-02
6.390492448709622408e+00 1.449308237472582694e-01
-1.573692891891075085e+00 1.249908534570242535e+00
-3.053836403813994682e+00 -4.838351935602241305e+00
-3.333671499275867589e+00 -4.848267973669291742e+00
-1.612828135778645811e+00 1.400881249040637266e+00
-5.456722059943784897e-01 6.301041032389361085e+00
-6.616705308691637200e-01 6.033179838126158323e+00
-1.099000647284055665e+00 2.266510613510646532e+00
-7.209720437983490049e-01 5.219414827321227968e+00
-4.660901006858824136e-01 5.719669606086377200e+00
-2.920040655507517791e+00 5.934772559912834922e+00
-5.015104006063364928e+00 1.088847066442086131e+01
-4.997459429202803172e+00 1.087601520529827326e+01
-5.014559313349436387e+00 1.093031622706490147e+01
-4.156804208884477880e+00 1.352564506584656989e+01
-3.470894851029915795e+00 1.353799740821778386e+01
-4.171991199348881629e+00 1.390458768450934635e+01
-3.138822900533520865e+00 1.371722171182185512e+01
-4.661157518243586040e+00 1.310054598784146052e+01
-2.841897881423841365e+00 1.336060590667093351e+01
-3.927140543756035829e+00 1.346757672762463898e+01
1.044411668316952913e+01 8.370773958411277249e+00
1.093959885946714827e+01 8.791431088296819851e+00
7.270264703276034801e+00 1.239992404013893434e+01
9.043390602188139837e+00 8.759817055562679755e+00
9.499600653388471372e+00 8.552115605493906259e+00
7.555528089080461029e+00 1.199016758327028676e+01
1.013248142904057758e+01 7.123783432581205943e+00
1.034595587971881336e+01 8.172852642204237128e+00
6.910409995692073259e+00 1.232911616568369695e+01
1.047582086878979091e+01 9.214523037101882252e+00
9.710544343951831081e+00 3.177679151526667578e+00
1.106502535450487201e+01 -1.716971774570765774e+00
9.844893571351306605e+00 4.957232950041936093e+00
7.998454973512694188e+00 -1.014046983022568149e+01
8.905586004363886587e+00 5.170593074979140447e+00
8.524586189841761197e+00 5.324357668398222998e+00
8.133392004512446150e+00 -1.038087287321175012e+01
9.371343631591631862e+00 4.802541502983319610e+00
7.517714240673304404e-01 1.019858548333192161e+01
7.489609541085836319e+00 -1.044441947502231471e+01
-1.445642798167563470e+00 -3.087187673796523590e+00
-2.015075235029134770e+00 -3.505626564628339104e+00
-1.567287195773680031e+00 -3.249258109109384396e+00
-7.066639346452842085e-01 -3.906510845759567641e-01
-7.404037584881542067e-01 -8.267001359897526713e-01
-4.820976453408938323e-01 1.718010751954926363e+00
-8.093900657260870435e-02 2.663960637447466695e+00
-5.446644940492830766e-01 7.282242668662729512e-01
-8.684101563085842024e-01 -1.806232619362615699e+00
-1.396114110695770627e+00 -1.596642655844999759e+00
4.694362305045135741e+00 -3.284237050874023733e+00
4.971399739514283489e+00 -3.283355094653150008e+00
7.221546154830965847e+00 -8.596800718484892911e+00
7.253779859105151218e+00 -8.648078145402035233e+00
4.949651494491129178e+00 -1.865347783992678421e+00
5.546837066031612196e+00 -2.039373533576856801e+00
5.909899515001453274e+00 -2.074520140928495238e+00
4.801828901508124581e+00 -2.036294641839758057e+00
-4.429531213617710628e-01 8.130086244438700760e+00
7.912380624134293328e+00 5.448173747345898654e+00
1.157504806603865255e+01 1.462997966523149396e+00
1.035721624011579500e+01 1.695002023286799719e+00
1.096807949054669962e+01 1.842140451911700616e+00
1.230638187847210396e+01 1.780093087734369028e-01
1.016008662346071745e+01 3.214655543268710725e-01
1.076759223421632861e+01 1.142536240544831605e+00
1.111761989629681757e+01 3.062556497193212879e-01
1.020081828744900676e+01 1.871902511814863002e-01
1.207125424046483886e+01 -4.371703426798582148e-01
1.171207922537113610e+01 1.141987651408512106e+00
2.981575442450526303e+00 -1.851300201522124433e-01
1.513914405304259470e+00 -1.010645766508183740e+01
8.009114549098680369e-01 -1.025708566138878375e+01
2.595823824290222515e+00 -9.077573854692841948e+00
1.749425075450241840e+00 -9.930361506462745069e+00
2.890086225933520492e+00 7.243961220456462957e-01
1.728044194949629464e+00 -9.950926730584315649e+00
3.250806458518448849e+00 -1.667722601704803465e+00
3.461503617160839319e+00 -1.273256219253923405e+00
3.134190700713442634e+00 -7.877572627172332309e-01
7.812917867942941186e-01 -6.678870465302931825e-01
7.152470009078094604e-01 -1.494508205353025421e+00
1.251602258571596016e+00 4.254937310801036432e+00
3.638202640328391246e-01 4.181210555443324317e+00
2.306063024962156316e+00 2.307298876181151481e+00
6.113383699932535720e+00 -1.790482480673414589e-01
-2.146324692053370065e+00 8.343262099576374879e+00
-1.926237106991095516e+00 6.596003466379058544e+00
2.525747660456748811e+00 1.586109240130744391e+00
2.036827250322748917e+00 2.695507808958151674e+00
4.898858534217513494e+00 -5.747049385074300965e+00
4.762393749164137269e+00 -7.479412636492459576e+00
4.369481483027802149e+00 -7.198730679018651379e+00
4.980284845316824693e+00 -5.647909399885611137e+00
4.950000303616350905e+00 -5.717807123229425414e+00
4.231597470608813971e+00 -7.110089403285800636e+00
4.456407974416658924e+00 -5.082157798244725022e+00
5.620200627826867468e+00 -6.761993750855318730e+00
4.178620995082652279e+00 -7.244164826238723265e+00
4.819994307837934144e+00 -6.806927381655320630e+00
7.534263287931331377e+00 2.137139475019893986e+00
1.292590467146213618e+00 1.416886888063942918e+00
7.565815674664076340e+00 2.531063596983507136e+00
7.544701486437243254e+00 2.699186588504486117e+00
9.702981631523955874e-01 1.069843537043964510e+00
7.658271365490533000e+00 2.534565726194457636e+00
1.150169488847462063e+00 4.585029835916730190e-01
6.495293277888919192e+00 1.980330990393203372e+00
1.060307347786522580e+00 6.859749304287496852e-01
2.959780351357459982e-01 2.395941359948420279e-01
-8.512288801292712037e+00 8.497121241901631095e+00
5.257018962055553857e+00 7.081402065034921200e+00
5.252547068672583919e+00 6.893038237709267158e+00
1.168591302760247963e+01 6.355279646460207488e+00
1.224557225009061767e+01 6.592386859896275375e+00
-7.936571546927849496e+00 8.795278055295810304e+00
6.965390307220006072e+00 2.373388677768342725e-01
1.865533961171394584e+00 9.523293184615679863e+00
6.033744074528200940e+00 7.964260183252848790e+00
5.239738195309632474e+00 6.903856812054672609e+00
2.647482089518065518e+00 -1.351965061318219341e+01
1.421040097830303495e+00 -1.323592070964321188e+01
-2.875989606140060828e-01 -7.097433581286607840e+00
-2.674207062873486529e-01 -7.054211960832841299e+00
5.957742120620534987e-01 -1.349459126717992952e+01
-1.466691998241265171e+00 1.106241375542342098e+01
-1.424675515248100766e+00 1.085940601942464845e+01
8.389340042836495037e-01 -1.300784364534836079e+01
-1.141852477959599321e+00 1.160553646333525712e+01
-1.893527846981639229e+00 1.084411767983118757e+01
5.564727174102940488e+00 3.695504602261841853e+00
5.073319504958826442e+00 3.397073664609545407e+00
2.826429975403632167e+00 4.780045039168006937e+00
4.915615721973424002e+00 2.770064826594220264e+00
3.795459529772636564e+00 4.153238928409137110e+00
3.643743338941275223e+00 5.225696225887442203e+00
5.657395324674440396e+00 4.482846573875741925e+00
3.412919720412123326e+00 4.496251264322521202e+00
5.009278210178566226e+00 4.528060480646933783e+00
3.255394207785957228e+00 5.473032934926340687e+00
1.379882301308381187e+01 -4.089167055809679319e+00
1.322462419598147321e+01 -3.790522215661547900e+00
1.328955558669226811e+01 -2.929153764285103989e+00
1.210097641667983481e+01 3.551040948552949938e+00
1.206088534759237874e+01 3.402733108603952061e+00
1.409820668898755969e+01 -2.836085094528437711e+00
1.223783184394542545e+01 3.790105417511062669e+00
1.226546741810502716e+01 3.638479114374823631e+00
1.228340559046312563e+01 3.600348133206692669e+00
1.353576448150023914e+01 -2.719465748534500626e+00
-6.157390962740835860e+00 -7.748454436544668589e+00
-6.227835860293276404e+00 -7.729282471868620163e+00
-6.583070840801075185e+00 -7.776232226896947708e+00
-4.953917111967530040e+00 8.703376353803736754e-01
-5.903204123765021016e+00 6.788844364065324655e+00
-4.980383145940025180e+00 8.918604666872326225e-01
-5.198470743556621976e+00 6.549302355567291123e+00
-5.507572932021557399e+00 7.085151480386136846e+00
-5.229535340023158341e+00 7.515711890648668181e+00
-6.715187808108586509e+00 -7.833777776367536028e+00
-8.391257763138282755e+00 -3.350425392909239797e+00
-9.441310549465582014e+00 -2.667916948794122778e+00
-9.756542798658049520e+00 -2.519209664386697689e+00
-4.301564108366772388e+00 -6.420653140852579099e-01
-3.773103077596063670e+00 -1.428413817023096000e+00
-3.212585652244023038e+00 -1.327968919421959493e+00
-2.761744909776237211e+00 7.479164219675253023e+00
-3.200575832240358132e+00 7.821606043658700713e+00
-3.941758530263337779e+00 -1.037308674302878098e+00
-3.165325929002405836e+00 7.489999527510592614e+00
-1.596384278920695898e+01 -4.360716080375607540e+00
-1.554872056469377384e+01 -4.536138068304279791e+00
-1.521751352030913829e+01 -4.993153866044444555e+00
-1.515455596917055203e+01 -4.115568593546584886e+00
-1.621534499853869349e+01 -5.528240928483214134e+00
-1.556267979935521062e+01 -3.207550695087943105e+00
-1.611539317213515687e+01 -5.208171208201749280e+00
-1.545899222988217048e+01 -5.876384420309798351e+00
-1.493863419843525087e+01 -5.489328664237773658e+00
-1.544602218848119080e+01 -5.662914915287885265e+00
3.979146797753443821e+00 2.247269318894571821e+00
4.991569792257116056e+00 8.644764486597079634e-01
-2.809651522507193230e-02 -2.968581902531231442e+00
9.379255397147824302e-01 2.994379965195460791e+00
3.529363910328366383e-01 -3.298594885608547855e+00
8.640943802598838319e-01 3.153936291593661512e+00
1.364441971401974263e-01 -2.328917505965039325e+00
4.780711829845854410e+00 8.821397654158746882e-01
1.064187130570112494e+00 5.405503167388626906e+00
1.781463218714417263e+00 5.220757846880001551e+00
3.654251021295931601e+00 1.258676074788577459e+01
3.757233490590808689e+00 1.259149364212182221e+01
2.931861298297431251e-01 1.328331234950689144e+01
8.231668654143311503e-01 1.285449331088718772e+01
8.229654416897156377e-01 -4.239077972573614517e+00
2.960983501616985425e+00 1.249574850452823505e+01
3.255702723721942693e+00 1.248375010701319709e+01
2.929819278200492594e+00 1.208499461870465375e+01
7.926008147397533010e-01 1.332777123520280682e+01
6.984853026532350517e-01 1.331730850923373310e+01
2.596193107645469400e+00 -3.259715731022534424e+00
2.053797055413589590e+00 -4.604109504460963009e+00
2.636677881363951759e+00 -3.107712036541974587e+00
1.763021926780287352e+00 -1.707923720882295715e+00
1.493760775928663742e+00 -1.244797984065718621e+00
2.120103791699349038e+00 -4.236759696288471488e+00
2.334629788116247440e+00 -2.738200507679578788e+00
-3.266437520092494995e-01 4.080877495474486416e+00
1.654123202539824700e+00 -3.777288163291973699e+00
2.687211535240482618e+00 -3.737795758921238498e+00
-7.381580180829402371e-01 -8.742763707787492677e+00
-1.166980452662863321e+00 -8.621233010894194138e+00
8.948756222211949884e-01 -7.773873484040307424e+00
1.473492475184030148e+00 -7.268457123376490969e+00
1.570142608073407775e+00 -7.221927704162908412e+00
-1.018859204689508857e+00 -9.155026555388465326e+00
4.023513025511440411e+00 1.994562772419108398e+00
1.427253032365256802e+00 -6.906341205235873915e+00
-1.139394091538233622e-01 -8.407392668179067385e+00
2.283316024682248813e+00 -5.707626508601505222e+00
1.063560779630804376e+01 -5.629704468213907020e+00
9.791599659690190194e+00 -6.540437935499775257e+00
1.019479647388715549e+01 -5.820635223470954855e+00
1.009882645648837496e+01 -5.852004739550872081e+00
1.005716682568753306e+01 -4.992099332675559609e+00
9.095305263886833913e+00 -6.389562985148336871e+00
1.032207147840003181e+01 -6.459251762194468505e+00
1.052035616337674284e+01 -5.553675946365291161e+00
9.213069000724908975e+00 -6.921150445611139013e+00
1.049619268447748865e+01 -5.516423861855401789e+00
8.882284643323258067e+00 -2.502154129089309453e+00
6.993667003674181259e+00 -4.538089513741413228e+00
8.550154103909898495e+00 -1.724406145621835140e+00
7.813327272330776729e+00 -2.781449909306602297e+00
7.522390847336939856e+00 -3.844134947994233720e+00
9.211551237616934174e+00 -2.439091585554727271e+00
7.969586931969996790e+00 -4.133433902427087858e+00
9.336465925195202686e+00 -2.840322414040244325e+00
7.305103326129172459e+00 -5.315709798780420492e+00
8.258097809525468236e+00 -1.306449590366497882e+00
-1.246505159961551890e+01 -3.252174643531702714e+00
-1.262886869851958949e+01 -3.614528383165223069e+00
-1.235606397633547893e+01 -2.460577895154147932e+00
1.303599184003641831e+00 7.315866518735671065e+00
1.047201103553552448e+00 7.844731959590632187e+00
1.200299581794731951e+00 7.705949339992883118e+00
1.217069941918688780e+00 7.505675127596484586e+00
-2.856605092457139339e+00 8.830397097850484656e+00
-1.241747535538991265e+01 -2.418288550336666010e+00
-1.222827323416080780e+01 -3.293977900940344927e+00
-4.608045217090725565e+00 -3.315664886234968911e+00
-6.368671832831196866e+00 -3.193803944994705102e+00
-4.164337201306148373e+00 -3.492795799799826906e+00
-7.267718830557625687e+00 -2.877145309395699346e+00
-7.388135126123781760e+00 -2.873295013291366384e+00
-5.317228297370200529e+00 -2.461149343879283968e+00
-6.875124185249084086e+00 -3.063407811099740918e+00
-7.106455197546698521e+00 -2.952391656833444955e+00
-5.336932318163649214e+00 -1.903274458349754505e+00
-5.226557418493166018e+00 -3.013909749007305905e+00
-6.144762745502393209e+00 -5.321687419822620058e+00
-9.828511268577313942e+00 -9.407429824843132948e+00
-9.581801825007211448e+00 -1.005306498256505421e+01
-9.693967374834468131e+00 -1.010173959748171590e+01
-9.237073932505960983e+00 -9.704878298888656829e+00
-6.237742762998488288e+00 -5.138758771636172007e+00
-6.673768147418086549e+00 -4.405266553286211639e+00
-6.117365916408128435e+00 -5.358605440813829723e+00
-6.178066042610038444e+00 -4.798444846875332459e+00
-1.033164141604755670e+01 -9.619961559252534045e+00
1.452730794117796442e+01 2.745474786950953927e+00
1.477429675280195198e+01 3.084349881567863272e-01
1.487575964231419512e+01 1.373490670007780912e-01
1.434219422421031709e+01 1.856257185301819712e+00
1.500453004511645361e+01 -3.360075775334627618e-02
1.454424690358664485e+01 2.822763145730563750e+00
8.413082507797044585e+00 8.510909738233932709e-01
1.381986817536729184e+01 1.193548756199677152e+00
1.378154997197888854e+01 1.410239764506856730e+00
1.425784917786099193e+01 1.468269856666065021e+00
-1.085470033070903106e+01 -4.593562052280937280e+00
-1.101879711998072686e+01 -5.684168451760699625e+00
-1.092516733765424775e+01 -5.340688952355423069e+00
-1.094930542506977567e+01 -6.120960690454148256e+00
-9.631310432092035967e+00 -4.536683256059833802e+00
-8.620072445311693698e+00 -5.641733484344769067e+00
-9.550416083363378661e+00 -5.331004634999795044e+00
-9.826637698014666356e+00 -6.141241999556132036e+00
-9.045720223877083299e+00 -4.905793306176209789e+00
-1.090598771391502275e+01 -5.725946719687803110e+00
-1.430211179196567883e+01 -8.270302265726922286e+00
-1.419565903393410800e+01 -8.604130793684431566e+00
-1.360311142562965792e+01 -7.645910820315353185e+00
-1.555669539887555608e+01 -7.848082545259502218e+00
-1.559555666737084323e+01 -8.218019846252506255e+00
-1.405191501496791417e+01 -7.756036619374168772e+00
-1.560316023797464347e+01 -8.223210821402693327e+00
-1.312436377003775689e+01 -7.845983657958004898e+00
-1.313775369872728227e+01 -7.683563392873267617e+00
-1.302407933000549356e+01 -8.270964277490881145e+00
-8.648613169072723039e+00 -4.189390080759445301e-01
-8.413812787503776036e+00 -7.250712544454493980e-01
-9.875942326890147172e+00 -1.277461558470530223e+00
-7.891096510430822164e+00 -7.118238593789314450e-01
-1.076466046467648985e+00 7.576320720004408926e+00
-6.374661340353927841e+00 -2.304948094961561111e-01
-6.839342415295188715e+00 -4.489836651784864102e-02
-7.039000475892576603e+00 6.611920971408521419e-01
-1.021177506618700770e+00 7.636767968009261054e+00
-1.090454068165414236e+00 6.995492559703051505e+00
9.574178248915567124e+00 1.097344451369801277e+01
3.437743158639215757e+00 1.044771471064090562e+01
4.959982875069190555e+00 1.061588481175082954e+01
5.747993330155713565e+00 1.037730438224721929e+01
9.833576280879608333e+00 1.093587919679720244e+01
3.283222327649820027e+00 9.902532636156783141e+00
2.796826186942629189e+00 1.079376628948527284e+01
4.928192695636316678e+00 1.021669754368026695e+01
4.623342440411652987e+00 9.244733941080081507e+00
5.394895598294934480e+00 9.717865728859660379e+00
-3.416915463296798183e+00 -1.063732883585205791e+01
-6.372782007085428191e+00 -1.295299619992738371e+01
-3.432172477114959541e+00 -1.027536376674614083e+01
-6.372295920213188580e+00 -1.294066004776146173e+01
-6.372423209416013812e+00 -1.295833981251974087e+01
-6.254718233207671396e+00 -1.285841186335499309e+01
-3.677853462082841585e+00 -1.126925349864651871e+01
-6.563405050064707424e+00 -1.237106435144209371e+01
-2.967571357317118519e+00 -1.042290257971129996e+01
-3.710189714408214989e+00 -1.129170680837686191e+01
-2.599988055073536142e+00 4.231410112629429676e+00
-2.437989989431482485e+00 -6.144461396338201098e+00
-2.146045960206867775e+00 -6.172508253659749755e+00
-9.205639674846972653e-01 -4.651300433015573610e+00
-2.434301609847237202e+00 -6.398134227361820692e+00
-2.893410974976438066e+00 3.223684982711207514e+00
-1.938714669878351282e+00 -5.815939176801351529e+00
-1.365193675641522830e+00 -5.312821719991532632e+00
-2.805768233350608654e+00 3.820361730867034566e+00
-2.543746495351788983e+00 -6.544652496668431851e+00
-1.355749758612466671e+01 -4.161335574279218186e+00
-1.388091231483715404e+01 -5.303680867353772754e+00
-1.376518596792028148e+01 -2.194436690412050694e+00
-1.395433411124351153e+01 -3.326658861169728976e+00
-1.374773898648653159e+01 -4.383803864088850588e+00
-1.433499511191983622e+01 -2.922732574116428950e+00
-1.320872323487258804e+01 -5.194510669140676384e+00
-1.284893541813553419e+01 -5.152120800629803377e+00
-1.348097059884437066e+01 -4.323149586643945774e+00
-1.381031317932146685e+01 -3.012873481108015117e+00
-2.564611808023744555e+00 -2.656503225212958341e+00
-3.278099771088367476e+00 5.106984759670884166e+00
-3.716399236944307738e+00 4.755621841631986868e+00
-5.174321725456871857e-01 3.120233941640638609e+00
-3.189796598210799861e+00 5.129443377335982213e+00
-3.066337491280648919e+00 -3.858023487009177188e+00
-5.562265858616607384e-01 8.821291861307718918e+00
-2.975709332222425729e+00 -3.157663548701169720e+00
-6.713751752484232727e-01 9.253054417886945160e+00
-5.398919568392530621e-01 3.061732169652653379e+00
